%!PS-Adobe-3.0 EPSF-3.0
%%Creator: (MATLAB, The Mathworks, Inc. Version 9.7.0.1216025 \(R2019b\) Update 1. Operating System: Mac OS X)
%%Title: ../../results/TF_IDF/summarization/baseline/Figures/hist_text_rel.eps
%%CreationDate: 2020-03-06T13:27:03
%%Pages: (atend)
%%BoundingBox:   151     6  1159   244
%%LanguageLevel: 3
%%EndComments
%%BeginProlog
%%BeginResource: procset (Apache XML Graphics Std ProcSet) 1.2 0
%%Version: 1.2 0
%%Copyright: (Copyright 2001-2003,2010 The Apache Software Foundation. License terms: http://www.apache.org/licenses/LICENSE-2.0)
/bd{bind def}bind def
/ld{load def}bd
/GR/grestore ld
/GS/gsave ld
/RM/rmoveto ld
/C/curveto ld
/t/show ld
/L/lineto ld
/ML/setmiterlimit ld
/CT/concat ld
/f/fill ld
/N/newpath ld
/S/stroke ld
/CC/setcmykcolor ld
/A/ashow ld
/cp/closepath ld
/RC/setrgbcolor ld
/LJ/setlinejoin ld
/GC/setgray ld
/LW/setlinewidth ld
/M/moveto ld
/re {4 2 roll M
1 index 0 rlineto
0 exch rlineto
neg 0 rlineto
cp } bd
/_ctm matrix def
/_tm matrix def
/BT { _ctm currentmatrix pop matrix _tm copy pop 0 0 moveto } bd
/ET { _ctm setmatrix } bd
/iTm { _ctm setmatrix _tm concat } bd
/Tm { _tm astore pop iTm 0 0 moveto } bd
/ux 0.0 def
/uy 0.0 def
/F {
  /Tp exch def
  /Tf exch def
  Tf findfont Tp scalefont setfont
  /cf Tf def  /cs Tp def
} bd
/ULS {currentpoint /uy exch def /ux exch def} bd
/ULE {
  /Tcx currentpoint pop def
  gsave
  newpath
  cf findfont cs scalefont dup
  /FontMatrix get 0 get /Ts exch def /FontInfo get dup
  /UnderlinePosition get Ts mul /To exch def
  /UnderlineThickness get Ts mul /Tt exch def
  ux uy To add moveto  Tcx uy To add lineto
  Tt setlinewidth stroke
  grestore
} bd
/OLE {
  /Tcx currentpoint pop def
  gsave
  newpath
  cf findfont cs scalefont dup
  /FontMatrix get 0 get /Ts exch def /FontInfo get dup
  /UnderlinePosition get Ts mul /To exch def
  /UnderlineThickness get Ts mul /Tt exch def
  ux uy To add cs add moveto Tcx uy To add cs add lineto
  Tt setlinewidth stroke
  grestore
} bd
/SOE {
  /Tcx currentpoint pop def
  gsave
  newpath
  cf findfont cs scalefont dup
  /FontMatrix get 0 get /Ts exch def /FontInfo get dup
  /UnderlinePosition get Ts mul /To exch def
  /UnderlineThickness get Ts mul /Tt exch def
  ux uy To add cs 10 mul 26 idiv add moveto Tcx uy To add cs 10 mul 26 idiv add lineto
  Tt setlinewidth stroke
  grestore
} bd
/QT {
/Y22 exch store
/X22 exch store
/Y21 exch store
/X21 exch store
currentpoint
/Y21 load 2 mul add 3 div exch
/X21 load 2 mul add 3 div exch
/X21 load 2 mul /X22 load add 3 div
/Y21 load 2 mul /Y22 load add 3 div
/X22 load /Y22 load curveto
} bd
/SSPD {
dup length /d exch dict def
{
/v exch def
/k exch def
currentpagedevice k known {
/cpdv currentpagedevice k get def
v cpdv ne {
/upd false def
/nullv v type /nulltype eq def
/nullcpdv cpdv type /nulltype eq def
nullv nullcpdv or
{
/upd true def
} {
/sametype v type cpdv type eq def
sametype {
v type /arraytype eq {
/vlen v length def
/cpdvlen cpdv length def
vlen cpdvlen eq {
0 1 vlen 1 sub {
/i exch def
/obj v i get def
/cpdobj cpdv i get def
obj cpdobj ne {
/upd true def
exit
} if
} for
} {
/upd true def
} ifelse
} {
v type /dicttype eq {
v {
/dv exch def
/dk exch def
/cpddv cpdv dk get def
dv cpddv ne {
/upd true def
exit
} if
} forall
} {
/upd true def
} ifelse
} ifelse
} if
} ifelse
upd true eq {
d k v put
} if
} if
} if
} forall
d length 0 gt {
d setpagedevice
} if
} bd
/RE { % /NewFontName [NewEncodingArray] /FontName RE -
  findfont dup length dict begin
  {
    1 index /FID ne
    {def} {pop pop} ifelse
  } forall
  /Encoding exch def
  /FontName 1 index def
  currentdict definefont pop
  end
} bind def
%%EndResource
%%BeginResource: procset (Apache XML Graphics EPS ProcSet) 1.0 0
%%Version: 1.0 0
%%Copyright: (Copyright 2002-2003 The Apache Software Foundation. License terms: http://www.apache.org/licenses/LICENSE-2.0)
/BeginEPSF { %def
/b4_Inc_state save def         % Save state for cleanup
/dict_count countdictstack def % Count objects on dict stack
/op_count count 1 sub def      % Count objects on operand stack
userdict begin                 % Push userdict on dict stack
/showpage { } def              % Redefine showpage, { } = null proc
0 setgray 0 setlinecap         % Prepare graphics state
1 setlinewidth 0 setlinejoin
10 setmiterlimit [ ] 0 setdash newpath
/languagelevel where           % If level not equal to 1 then
{pop languagelevel             % set strokeadjust and
1 ne                           % overprint to their defaults.
{false setstrokeadjust false setoverprint
} if
} if
} bd
/EndEPSF { %def
count op_count sub {pop} repeat            % Clean up stacks
countdictstack dict_count sub {end} repeat
b4_Inc_state restore
} bd
%%EndResource
%FOPBeginFontDict
%%IncludeResource: font Courier-Oblique
%%IncludeResource: font Courier-BoldOblique
%%IncludeResource: font Courier-Bold
%%IncludeResource: font ZapfDingbats
%%IncludeResource: font Symbol
%%IncludeResource: font Helvetica
%%IncludeResource: font Helvetica-Oblique
%%IncludeResource: font Helvetica-Bold
%%IncludeResource: font Helvetica-BoldOblique
%%IncludeResource: font Times-Roman
%%IncludeResource: font Times-Italic
%%IncludeResource: font Times-Bold
%%IncludeResource: font Times-BoldItalic
%%IncludeResource: font Courier
%FOPEndFontDict
%%BeginResource: encoding WinAnsiEncoding
/WinAnsiEncoding [
/.notdef /.notdef /.notdef /.notdef /.notdef
/.notdef /.notdef /.notdef /.notdef /.notdef
/.notdef /.notdef /.notdef /.notdef /.notdef
/.notdef /.notdef /.notdef /.notdef /.notdef
/.notdef /.notdef /.notdef /.notdef /.notdef
/.notdef /.notdef /.notdef /.notdef /.notdef
/.notdef /.notdef /space /exclam /quotedbl
/numbersign /dollar /percent /ampersand /quotesingle
/parenleft /parenright /asterisk /plus /comma
/hyphen /period /slash /zero /one
/two /three /four /five /six
/seven /eight /nine /colon /semicolon
/less /equal /greater /question /at
/A /B /C /D /E
/F /G /H /I /J
/K /L /M /N /O
/P /Q /R /S /T
/U /V /W /X /Y
/Z /bracketleft /backslash /bracketright /asciicircum
/underscore /quoteleft /a /b /c
/d /e /f /g /h
/i /j /k /l /m
/n /o /p /q /r
/s /t /u /v /w
/x /y /z /braceleft /bar
/braceright /asciitilde /bullet /Euro /bullet
/quotesinglbase /florin /quotedblbase /ellipsis /dagger
/daggerdbl /circumflex /perthousand /Scaron /guilsinglleft
/OE /bullet /Zcaron /bullet /bullet
/quoteleft /quoteright /quotedblleft /quotedblright /bullet
/endash /emdash /asciitilde /trademark /scaron
/guilsinglright /oe /bullet /zcaron /Ydieresis
/space /exclamdown /cent /sterling /currency
/yen /brokenbar /section /dieresis /copyright
/ordfeminine /guillemotleft /logicalnot /sfthyphen /registered
/macron /degree /plusminus /twosuperior /threesuperior
/acute /mu /paragraph /middot /cedilla
/onesuperior /ordmasculine /guillemotright /onequarter /onehalf
/threequarters /questiondown /Agrave /Aacute /Acircumflex
/Atilde /Adieresis /Aring /AE /Ccedilla
/Egrave /Eacute /Ecircumflex /Edieresis /Igrave
/Iacute /Icircumflex /Idieresis /Eth /Ntilde
/Ograve /Oacute /Ocircumflex /Otilde /Odieresis
/multiply /Oslash /Ugrave /Uacute /Ucircumflex
/Udieresis /Yacute /Thorn /germandbls /agrave
/aacute /acircumflex /atilde /adieresis /aring
/ae /ccedilla /egrave /eacute /ecircumflex
/edieresis /igrave /iacute /icircumflex /idieresis
/eth /ntilde /ograve /oacute /ocircumflex
/otilde /odieresis /divide /oslash /ugrave
/uacute /ucircumflex /udieresis /yacute /thorn
/ydieresis
] def
%%EndResource
%FOPBeginFontReencode
/Courier-Oblique findfont
dup length dict begin
  {1 index /FID ne {def} {pop pop} ifelse} forall
  /Encoding WinAnsiEncoding def
  currentdict
end
/Courier-Oblique exch definefont pop
/Courier-BoldOblique findfont
dup length dict begin
  {1 index /FID ne {def} {pop pop} ifelse} forall
  /Encoding WinAnsiEncoding def
  currentdict
end
/Courier-BoldOblique exch definefont pop
/Courier-Bold findfont
dup length dict begin
  {1 index /FID ne {def} {pop pop} ifelse} forall
  /Encoding WinAnsiEncoding def
  currentdict
end
/Courier-Bold exch definefont pop
/Helvetica findfont
dup length dict begin
  {1 index /FID ne {def} {pop pop} ifelse} forall
  /Encoding WinAnsiEncoding def
  currentdict
end
/Helvetica exch definefont pop
/Helvetica-Oblique findfont
dup length dict begin
  {1 index /FID ne {def} {pop pop} ifelse} forall
  /Encoding WinAnsiEncoding def
  currentdict
end
/Helvetica-Oblique exch definefont pop
/Helvetica-Bold findfont
dup length dict begin
  {1 index /FID ne {def} {pop pop} ifelse} forall
  /Encoding WinAnsiEncoding def
  currentdict
end
/Helvetica-Bold exch definefont pop
/Helvetica-BoldOblique findfont
dup length dict begin
  {1 index /FID ne {def} {pop pop} ifelse} forall
  /Encoding WinAnsiEncoding def
  currentdict
end
/Helvetica-BoldOblique exch definefont pop
/Times-Roman findfont
dup length dict begin
  {1 index /FID ne {def} {pop pop} ifelse} forall
  /Encoding WinAnsiEncoding def
  currentdict
end
/Times-Roman exch definefont pop
/Times-Italic findfont
dup length dict begin
  {1 index /FID ne {def} {pop pop} ifelse} forall
  /Encoding WinAnsiEncoding def
  currentdict
end
/Times-Italic exch definefont pop
/Times-Bold findfont
dup length dict begin
  {1 index /FID ne {def} {pop pop} ifelse} forall
  /Encoding WinAnsiEncoding def
  currentdict
end
/Times-Bold exch definefont pop
/Times-BoldItalic findfont
dup length dict begin
  {1 index /FID ne {def} {pop pop} ifelse} forall
  /Encoding WinAnsiEncoding def
  currentdict
end
/Times-BoldItalic exch definefont pop
/Courier findfont
dup length dict begin
  {1 index /FID ne {def} {pop pop} ifelse} forall
  /Encoding WinAnsiEncoding def
  currentdict
end
/Courier exch definefont pop
%FOPEndFontReencode
%%EndProlog
%%Page: 1 1
%%PageBoundingBox: 0 0 1280 250
%%BeginPageSetup
[1 0 0 -1 0 250] CT
%%EndPageSetup
GS
1 GC
N
0 0 1280 250 re
f
GR
GS
1 GC
N
0 0 1280 250 re
f
GR
GS
1 GC
N
166.5 220 M
595 220 L
595 35 L
166.5 35 L
cp
f
GR
GS
[1 0 0 1 380.75037 32] CT
N
-82.632 -8.64 M
-82.632 -9.484 L
-80.148 -9.484 -80.148 -10.906 QT
-80.148 -24.046 L
-80.945 -24.187 -82.632 -24.187 QT
-82.632 -25.031 L
-78.039 -25.031 L
-77.914 -25.031 -77.867 -24.937 QT
-69.367 -12.437 L
-69.367 -22.781 L
-69.367 -24.187 -71.851 -24.187 QT
-71.851 -25.031 L
-66.132 -25.031 L
-66.132 -24.187 L
-68.601 -24.187 -68.601 -22.781 QT
-68.601 -8.859 L
-68.601 -8.781 -68.695 -8.71 QT
-68.789 -8.64 -68.851 -8.64 QT
-69.132 -8.64 L
-69.257 -8.64 -69.304 -8.734 QT
-79.382 -23.578 L
-79.382 -10.906 L
-79.382 -9.484 -76.914 -9.484 QT
-76.914 -8.64 L
-82.632 -8.64 L
cp
f
GR
GS
[1 0 0 1 380.75037 32] CT
N
-59.382 -8.374 M
-60.851 -8.374 -62.078 -9.14 QT
-63.304 -9.906 -64 -11.187 QT
-64.695 -12.468 -64.695 -13.906 QT
-64.695 -15.312 -64.054 -16.578 QT
-63.414 -17.843 -62.273 -18.624 QT
-61.132 -19.406 -59.726 -19.406 QT
-58.632 -19.406 -57.812 -19.031 QT
-56.992 -18.656 -56.468 -17.999 QT
-55.945 -17.343 -55.672 -16.453 QT
-55.398 -15.562 -55.398 -14.499 QT
-55.398 -14.187 -55.648 -14.187 QT
-62.601 -14.187 L
-62.601 -13.921 L
-62.601 -11.937 -61.797 -10.507 QT
-60.992 -9.078 -59.179 -9.078 QT
-58.445 -9.078 -57.812 -9.406 QT
-57.179 -9.734 -56.718 -10.32 QT
-56.257 -10.906 -56.101 -11.578 QT
-56.07 -11.656 -56.007 -11.718 QT
-55.945 -11.781 -55.867 -11.781 QT
-55.648 -11.781 L
-55.398 -11.781 -55.398 -11.484 QT
-55.742 -10.124 -56.867 -9.249 QT
-57.992 -8.374 -59.382 -8.374 QT
cp
-62.57 -14.781 M
-57.101 -14.781 L
-57.101 -15.687 -57.351 -16.609 QT
-57.601 -17.531 -58.187 -18.148 QT
-58.773 -18.765 -59.726 -18.765 QT
-61.086 -18.765 -61.828 -17.492 QT
-62.57 -16.218 -62.57 -14.781 QT
cp
f
GR
GS
[1 0 0 1 380.75037 32] CT
N
-54.028 -6.765 M
-54.028 -7.624 -53.411 -8.265 QT
-52.794 -8.906 -51.935 -9.171 QT
-52.419 -9.531 -52.669 -10.085 QT
-52.919 -10.64 -52.919 -11.249 QT
-52.919 -12.374 -52.2 -13.249 QT
-53.31 -14.328 -53.31 -15.718 QT
-53.31 -16.468 -52.981 -17.124 QT
-52.653 -17.781 -52.083 -18.265 QT
-51.513 -18.749 -50.81 -18.999 QT
-50.106 -19.249 -49.372 -19.249 QT
-47.935 -19.249 -46.794 -18.421 QT
-46.31 -18.937 -45.638 -19.226 QT
-44.966 -19.515 -44.231 -19.515 QT
-43.716 -19.515 -43.388 -19.148 QT
-43.06 -18.781 -43.06 -18.265 QT
-43.06 -17.968 -43.286 -17.749 QT
-43.513 -17.531 -43.794 -17.531 QT
-44.106 -17.531 -44.325 -17.749 QT
-44.544 -17.968 -44.544 -18.265 QT
-44.544 -18.703 -44.263 -18.89 QT
-45.497 -18.89 -46.388 -18.031 QT
-45.95 -17.593 -45.692 -16.968 QT
-45.435 -16.343 -45.435 -15.718 QT
-45.435 -14.703 -45.997 -13.89 QT
-46.56 -13.078 -47.474 -12.624 QT
-48.388 -12.171 -49.372 -12.171 QT
-50.685 -12.171 -51.763 -12.89 QT
-52.106 -12.421 -52.106 -11.828 QT
-52.106 -11.203 -51.692 -10.726 QT
-51.278 -10.249 -50.638 -10.249 QT
-48.669 -10.249 L
-47.247 -10.249 -46.099 -9.992 QT
-44.95 -9.734 -44.169 -8.96 QT
-43.388 -8.187 -43.388 -6.765 QT
-43.388 -5.703 -44.278 -5.007 QT
-45.169 -4.312 -46.403 -3.999 QT
-47.638 -3.687 -48.7 -3.687 QT
-49.763 -3.687 -51.005 -3.999 QT
-52.247 -4.312 -53.138 -5.007 QT
-54.028 -5.703 -54.028 -6.765 QT
cp
-52.685 -6.765 M
-52.685 -5.953 -52.028 -5.406 QT
-51.372 -4.859 -50.442 -4.601 QT
-49.513 -4.343 -48.7 -4.343 QT
-47.888 -4.343 -46.966 -4.601 QT
-46.044 -4.859 -45.388 -5.406 QT
-44.731 -5.953 -44.731 -6.765 QT
-44.731 -8.015 -45.88 -8.39 QT
-47.028 -8.765 -48.669 -8.765 QT
-50.638 -8.765 L
-51.2 -8.765 -51.661 -8.499 QT
-52.122 -8.234 -52.403 -7.757 QT
-52.685 -7.281 -52.685 -6.765 QT
cp
-49.372 -12.812 M
-47.325 -12.812 -47.325 -15.718 QT
-47.325 -16.968 -47.763 -17.789 QT
-48.2 -18.609 -49.372 -18.609 QT
-50.544 -18.609 -50.974 -17.789 QT
-51.403 -16.968 -51.403 -15.718 QT
-51.403 -14.921 -51.239 -14.281 QT
-51.075 -13.64 -50.63 -13.226 QT
-50.185 -12.812 -49.372 -12.812 QT
cp
f
GR
GS
[1 0 0 1 380.75037 32] CT
N
-41.731 -10.999 M
-41.731 -12.421 -40.606 -13.32 QT
-39.481 -14.218 -37.911 -14.585 QT
-36.341 -14.953 -34.919 -14.953 QT
-34.919 -15.937 L
-34.919 -16.64 -35.224 -17.289 QT
-35.528 -17.937 -36.099 -18.351 QT
-36.669 -18.765 -37.372 -18.765 QT
-38.966 -18.765 -39.794 -18.046 QT
-39.341 -18.046 -39.036 -17.703 QT
-38.731 -17.359 -38.731 -16.906 QT
-38.731 -16.421 -39.075 -16.085 QT
-39.419 -15.749 -39.888 -15.749 QT
-40.372 -15.749 -40.708 -16.085 QT
-41.044 -16.421 -41.044 -16.906 QT
-41.044 -18.171 -39.895 -18.789 QT
-38.747 -19.406 -37.372 -19.406 QT
-36.388 -19.406 -35.403 -18.984 QT
-34.419 -18.562 -33.794 -17.789 QT
-33.169 -17.015 -33.169 -15.984 QT
-33.169 -10.593 L
-33.169 -10.124 -32.974 -9.726 QT
-32.778 -9.328 -32.356 -9.328 QT
-31.95 -9.328 -31.755 -9.726 QT
-31.559 -10.124 -31.559 -10.593 QT
-31.559 -12.124 L
-30.856 -12.124 L
-30.856 -10.593 L
-30.856 -10.046 -31.138 -9.562 QT
-31.419 -9.078 -31.895 -8.789 QT
-32.372 -8.499 -32.919 -8.499 QT
-33.622 -8.499 -34.138 -9.046 QT
-34.653 -9.593 -34.7 -10.343 QT
-35.153 -9.437 -36.02 -8.906 QT
-36.888 -8.374 -37.872 -8.374 QT
-38.778 -8.374 -39.669 -8.64 QT
-40.559 -8.906 -41.145 -9.492 QT
-41.731 -10.078 -41.731 -10.999 QT
cp
-39.794 -10.999 M
-39.794 -10.156 -39.169 -9.578 QT
-38.544 -8.999 -37.7 -8.999 QT
-36.934 -8.999 -36.302 -9.39 QT
-35.669 -9.781 -35.294 -10.445 QT
-34.919 -11.109 -34.919 -11.859 QT
-34.919 -14.343 L
-36.013 -14.343 -37.153 -13.992 QT
-38.294 -13.64 -39.044 -12.874 QT
-39.794 -12.109 -39.794 -10.999 QT
cp
f
GR
GS
[1 0 0 1 380.75037 32] CT
N
-28.247 -11.531 M
-28.247 -18.14 L
-30.247 -18.14 L
-30.247 -18.765 L
-28.669 -18.765 -27.934 -20.234 QT
-27.2 -21.703 -27.2 -23.406 QT
-26.497 -23.406 L
-26.497 -18.984 L
-23.122 -18.984 L
-23.122 -18.14 L
-26.497 -18.14 L
-26.497 -11.578 L
-26.497 -10.578 -26.169 -9.828 QT
-25.841 -9.078 -24.966 -9.078 QT
-24.153 -9.078 -23.786 -9.867 QT
-23.419 -10.656 -23.419 -11.578 QT
-23.419 -12.984 L
-22.731 -12.984 L
-22.731 -11.531 L
-22.731 -10.781 -23.005 -10.046 QT
-23.278 -9.312 -23.817 -8.843 QT
-24.356 -8.374 -25.138 -8.374 QT
-26.575 -8.374 -27.411 -9.234 QT
-28.247 -10.093 -28.247 -11.531 QT
cp
f
GR
GS
[1 0 0 1 380.75037 32] CT
N
-20.632 -8.64 M
-20.632 -9.484 L
-19.804 -9.484 -19.281 -9.617 QT
-18.757 -9.749 -18.757 -10.249 QT
-18.757 -16.796 L
-18.757 -17.718 -19.109 -17.929 QT
-19.46 -18.14 -20.523 -18.14 QT
-20.523 -18.984 L
-17.07 -19.249 L
-17.07 -10.249 L
-17.07 -9.749 -16.609 -9.617 QT
-16.148 -9.484 -15.382 -9.484 QT
-15.382 -8.64 L
-20.632 -8.64 L
cp
-19.601 -23.374 M
-19.601 -23.906 -19.203 -24.304 QT
-18.804 -24.703 -18.289 -24.703 QT
-17.96 -24.703 -17.64 -24.523 QT
-17.32 -24.343 -17.148 -24.031 QT
-16.976 -23.718 -16.976 -23.374 QT
-16.976 -22.859 -17.375 -22.46 QT
-17.773 -22.062 -18.289 -22.062 QT
-18.804 -22.062 -19.203 -22.46 QT
-19.601 -22.859 -19.601 -23.374 QT
cp
f
GR
GS
[1 0 0 1 380.75037 32] CT
N
-8.841 -8.64 M
-12.341 -17.453 L
-12.559 -17.906 -13.028 -18.023 QT
-13.497 -18.14 -14.247 -18.14 QT
-14.247 -18.984 L
-9.2 -18.984 L
-9.2 -18.14 L
-10.544 -18.14 -10.544 -17.578 QT
-10.544 -17.484 -10.528 -17.437 QT
-7.825 -10.656 L
-5.403 -16.781 L
-5.341 -16.968 -5.341 -17.156 QT
-5.341 -17.624 -5.684 -17.882 QT
-6.028 -18.14 -6.497 -18.14 QT
-6.497 -18.984 L
-2.513 -18.984 L
-2.513 -18.14 L
-3.247 -18.14 -3.802 -17.804 QT
-4.356 -17.468 -4.669 -16.796 QT
-7.903 -8.64 L
-7.997 -8.374 -8.294 -8.374 QT
-8.466 -8.374 L
-8.763 -8.374 -8.841 -8.64 QT
cp
f
GR
GS
[1 0 0 1 380.75037 32] CT
N
-1.299 -8.64 M
-1.299 -9.484 L
-0.471 -9.484 0.053 -9.617 QT
0.576 -9.749 0.576 -10.249 QT
0.576 -16.796 L
0.576 -17.718 0.224 -17.929 QT
-0.127 -18.14 -1.19 -18.14 QT
-1.19 -18.984 L
2.264 -19.249 L
2.264 -10.249 L
2.264 -9.749 2.724 -9.617 QT
3.185 -9.484 3.951 -9.484 QT
3.951 -8.64 L
-1.299 -8.64 L
cp
-0.268 -23.374 M
-0.268 -23.906 0.131 -24.304 QT
0.529 -24.703 1.045 -24.703 QT
1.373 -24.703 1.693 -24.523 QT
2.014 -24.343 2.185 -24.031 QT
2.357 -23.718 2.357 -23.374 QT
2.357 -22.859 1.959 -22.46 QT
1.56 -22.062 1.045 -22.062 QT
0.529 -22.062 0.131 -22.46 QT
-0.268 -22.859 -0.268 -23.374 QT
cp
f
GR
GS
[1 0 0 1 380.75037 32] CT
N
7.086 -11.531 M
7.086 -18.14 L
5.086 -18.14 L
5.086 -18.765 L
6.665 -18.765 7.399 -20.234 QT
8.133 -21.703 8.133 -23.406 QT
8.836 -23.406 L
8.836 -18.984 L
12.211 -18.984 L
12.211 -18.14 L
8.836 -18.14 L
8.836 -11.578 L
8.836 -10.578 9.165 -9.828 QT
9.493 -9.078 10.368 -9.078 QT
11.18 -9.078 11.547 -9.867 QT
11.915 -10.656 11.915 -11.578 QT
11.915 -12.984 L
12.602 -12.984 L
12.602 -11.531 L
12.602 -10.781 12.329 -10.046 QT
12.055 -9.312 11.516 -8.843 QT
10.977 -8.374 10.196 -8.374 QT
8.758 -8.374 7.922 -9.234 QT
7.086 -10.093 7.086 -11.531 QT
cp
f
GR
GS
[1 0 0 1 380.75037 32] CT
N
14.956 -4.703 M
15.409 -4.343 15.956 -4.343 QT
17.472 -4.343 18.441 -6.624 QT
19.253 -8.64 L
15.659 -17.453 L
15.441 -17.906 14.98 -18.023 QT
14.519 -18.14 13.753 -18.14 QT
13.753 -18.984 L
18.8 -18.984 L
18.8 -18.14 L
17.472 -18.14 17.472 -17.578 QT
17.472 -17.484 17.503 -17.437 QT
20.175 -10.874 L
22.566 -16.781 L
22.644 -16.968 22.644 -17.187 QT
22.644 -17.484 22.488 -17.695 QT
22.331 -17.906 22.073 -18.023 QT
21.816 -18.14 21.503 -18.14 QT
21.503 -18.984 L
25.488 -18.984 L
25.488 -18.14 L
24.753 -18.14 24.198 -17.804 QT
23.644 -17.468 23.331 -16.796 QT
19.191 -6.624 L
18.863 -5.843 18.417 -5.195 QT
17.972 -4.546 17.339 -4.132 QT
16.706 -3.718 15.956 -3.718 QT
15.081 -3.718 14.417 -4.296 QT
13.753 -4.874 13.753 -5.734 QT
13.753 -6.171 14.058 -6.476 QT
14.363 -6.781 14.816 -6.781 QT
15.113 -6.781 15.355 -6.648 QT
15.597 -6.515 15.73 -6.281 QT
15.863 -6.046 15.863 -5.734 QT
15.863 -5.343 15.605 -5.039 QT
15.347 -4.734 14.956 -4.703 QT
cp
f
GR
GS
[1 0 0 1 380.75037 32] CT
N
35.311 -8.296 M
35.311 -13.906 L
35.311 -14.093 35.529 -14.093 QT
35.826 -14.093 L
35.889 -14.093 35.951 -14.031 QT
36.014 -13.968 36.014 -13.906 QT
36.014 -11.546 37.467 -10.249 QT
38.92 -8.953 41.295 -8.953 QT
42.123 -8.953 42.826 -9.437 QT
43.529 -9.921 43.92 -10.703 QT
44.311 -11.484 44.311 -12.312 QT
44.311 -13.031 44.021 -13.718 QT
43.732 -14.406 43.178 -14.914 QT
42.623 -15.421 41.936 -15.578 QT
38.826 -16.343 L
37.279 -16.749 36.295 -18.023 QT
35.311 -19.296 35.311 -20.874 QT
35.311 -22.124 35.943 -23.21 QT
36.576 -24.296 37.654 -24.929 QT
38.732 -25.562 39.967 -25.562 QT
42.373 -25.562 43.795 -23.937 QT
44.779 -25.499 L
44.842 -25.562 44.936 -25.562 QT
45.107 -25.562 L
45.17 -25.562 45.232 -25.507 QT
45.295 -25.453 45.295 -25.359 QT
45.295 -19.796 L
45.295 -19.593 45.107 -19.593 QT
44.826 -19.593 L
44.592 -19.593 44.592 -19.796 QT
44.592 -20.406 44.389 -21.132 QT
44.186 -21.859 43.826 -22.531 QT
43.467 -23.203 43.045 -23.624 QT
41.873 -24.796 39.967 -24.796 QT
39.154 -24.796 38.459 -24.374 QT
37.764 -23.953 37.357 -23.242 QT
36.951 -22.531 36.951 -21.749 QT
36.951 -20.718 37.584 -19.874 QT
38.217 -19.031 39.248 -18.765 QT
42.373 -17.999 L
43.139 -17.812 43.826 -17.328 QT
44.514 -16.843 44.975 -16.203 QT
45.436 -15.562 45.693 -14.765 QT
45.951 -13.968 45.951 -13.124 QT
45.951 -11.828 45.35 -10.671 QT
44.748 -9.515 43.662 -8.812 QT
42.576 -8.109 41.295 -8.109 QT
40.498 -8.109 39.662 -8.289 QT
38.826 -8.468 38.123 -8.828 QT
37.42 -9.187 36.857 -9.765 QT
35.842 -8.187 L
35.779 -8.109 35.67 -8.109 QT
35.529 -8.109 L
35.311 -8.109 35.311 -8.296 QT
cp
f
GR
GS
[1 0 0 1 380.75037 32] CT
N
49.894 -11.499 M
49.894 -16.796 L
49.894 -17.437 49.699 -17.726 QT
49.503 -18.015 49.144 -18.078 QT
48.785 -18.14 48.019 -18.14 QT
48.019 -18.984 L
51.644 -19.249 L
51.644 -11.499 L
51.644 -10.562 51.785 -10.039 QT
51.925 -9.515 52.363 -9.257 QT
52.8 -8.999 53.753 -8.999 QT
55.05 -8.999 55.808 -10.078 QT
56.566 -11.156 56.566 -12.531 QT
56.566 -16.796 L
56.566 -17.437 56.37 -17.726 QT
56.175 -18.015 55.816 -18.078 QT
55.456 -18.14 54.691 -18.14 QT
54.691 -18.984 L
58.316 -19.249 L
58.316 -10.828 L
58.316 -10.187 58.511 -9.898 QT
58.706 -9.609 59.066 -9.546 QT
59.425 -9.484 60.191 -9.484 QT
60.191 -8.64 L
56.644 -8.374 L
56.644 -10.406 L
56.191 -9.499 55.394 -8.937 QT
54.597 -8.374 53.644 -8.374 QT
51.925 -8.374 50.91 -9.109 QT
49.894 -9.843 49.894 -11.499 QT
cp
f
GR
GS
[1 0 0 1 380.75037 32] CT
N
61.259 -8.64 M
61.259 -9.484 L
62.071 -9.484 62.602 -9.617 QT
63.134 -9.749 63.134 -10.249 QT
63.134 -16.796 L
63.134 -17.437 62.938 -17.726 QT
62.743 -18.015 62.384 -18.078 QT
62.024 -18.14 61.259 -18.14 QT
61.259 -18.984 L
64.696 -19.249 L
64.696 -16.906 L
65.071 -17.953 65.79 -18.601 QT
66.509 -19.249 67.524 -19.249 QT
68.243 -19.249 68.805 -18.828 QT
69.368 -18.406 69.368 -17.718 QT
69.368 -17.281 69.055 -16.96 QT
68.743 -16.64 68.29 -16.64 QT
67.837 -16.64 67.524 -16.953 QT
67.212 -17.265 67.212 -17.718 QT
67.212 -18.359 67.665 -18.624 QT
67.524 -18.624 L
66.555 -18.624 65.938 -17.921 QT
65.321 -17.218 65.063 -16.179 QT
64.805 -15.14 64.805 -14.187 QT
64.805 -10.249 L
64.805 -9.484 67.134 -9.484 QT
67.134 -8.64 L
61.259 -8.64 L
cp
f
GR
GS
[1 0 0 1 380.75037 32] CT
N
70.659 -3.984 M
70.659 -4.812 L
71.471 -4.812 72.002 -4.953 QT
72.534 -5.093 72.534 -5.593 QT
72.534 -17.156 L
72.534 -17.812 72.065 -17.976 QT
71.596 -18.14 70.659 -18.14 QT
70.659 -18.984 L
74.205 -19.249 L
74.205 -17.765 L
74.862 -18.484 75.737 -18.867 QT
76.612 -19.249 77.596 -19.249 QT
79.018 -19.249 80.151 -18.484 QT
81.284 -17.718 81.924 -16.468 QT
82.565 -15.218 82.565 -13.828 QT
82.565 -12.374 81.854 -11.117 QT
81.143 -9.859 79.916 -9.117 QT
78.69 -8.374 77.237 -8.374 QT
75.487 -8.374 74.284 -9.796 QT
74.284 -5.593 L
74.284 -5.093 74.815 -4.953 QT
75.346 -4.812 76.159 -4.812 QT
76.159 -3.984 L
70.659 -3.984 L
cp
74.284 -10.968 M
74.705 -10.124 75.455 -9.562 QT
76.205 -8.999 77.096 -8.999 QT
77.924 -8.999 78.565 -9.445 QT
79.205 -9.89 79.635 -10.64 QT
80.065 -11.39 80.268 -12.218 QT
80.471 -13.046 80.471 -13.828 QT
80.471 -14.781 80.127 -15.898 QT
79.784 -17.015 79.073 -17.789 QT
78.362 -18.562 77.362 -18.562 QT
76.393 -18.562 75.573 -18.062 QT
74.752 -17.562 74.284 -16.703 QT
74.284 -10.968 L
cp
f
GR
GS
0.149 GC
1 LJ
0.5 LW
N
166.5 220 M
595 220 L
S
GR
GS
0 0.447 0.741 RC
N
185.041 220 M
185.041 218.736 L
174.74 218.736 L
174.74 220 L
cp
195.341 220 M
195.341 218.341 L
185.041 218.341 L
185.041 220 L
cp
205.642 220 M
205.642 218.459 L
195.341 218.459 L
195.341 220 L
cp
215.942 220 M
215.942 218.696 L
205.642 218.696 L
205.642 220 L
cp
226.243 220 M
226.243 216.484 L
215.942 216.484 L
215.942 220 L
cp
236.543 220 M
236.543 215.062 L
226.243 215.062 L
226.243 220 L
cp
246.844 220 M
246.844 215.339 L
236.543 215.339 L
236.543 220 L
cp
257.144 220 M
257.144 207.873 L
246.844 207.873 L
246.844 220 L
cp
267.445 220 M
267.445 211.27 L
257.144 211.27 L
257.144 220 L
cp
277.745 220 M
277.745 206.648 L
267.445 206.648 L
267.445 220 L
cp
288.046 220 M
288.046 203.488 L
277.745 203.488 L
277.745 220 L
cp
298.346 220 M
298.346 208.189 L
288.046 208.189 L
288.046 220 L
cp
308.647 220 M
308.647 202.066 L
298.346 202.066 L
298.346 220 L
cp
318.947 220 M
318.947 184.962 L
308.647 184.962 L
308.647 220 L
cp
329.248 220 M
329.248 185.238 L
318.947 185.238 L
318.947 220 L
cp
339.548 220 M
339.548 165.171 L
329.248 165.171 L
329.248 220 L
cp
349.849 220 M
349.849 167.976 L
339.548 167.976 L
339.548 220 L
cp
360.149 220 M
360.149 156.875 L
349.849 156.875 L
349.849 220 L
cp
370.45 220 M
370.45 161.418 L
360.149 161.418 L
360.149 220 L
cp
380.75 220 M
380.75 113.778 L
370.45 113.778 L
370.45 220 L
cp
391.05 220 M
391.05 47.296 L
380.75 47.296 L
380.75 220 L
cp
401.351 220 M
401.351 124.958 L
391.05 124.958 L
391.05 220 L
cp
411.651 220 M
411.651 114.608 L
401.351 114.608 L
401.351 220 L
cp
421.952 220 M
421.952 137.085 L
411.651 137.085 L
411.651 220 L
cp
432.252 220 M
432.252 147.079 L
421.952 147.079 L
421.952 220 L
cp
442.553 220 M
442.553 159.483 L
432.252 159.483 L
432.252 220 L
cp
452.853 220 M
452.853 157.112 L
442.553 157.112 L
442.553 220 L
cp
463.154 220 M
463.154 182.828 L
452.853 182.828 L
452.853 220 L
cp
473.454 220 M
473.454 190.689 L
463.154 190.689 L
463.154 220 L
cp
483.755 220 M
483.755 202.856 L
473.454 202.856 L
473.454 220 L
cp
494.055 220 M
494.055 204.673 L
483.755 204.673 L
483.755 220 L
cp
504.356 220 M
504.356 201.355 L
494.055 201.355 L
494.055 220 L
cp
514.656 220 M
514.656 205.266 L
504.356 205.266 L
504.356 220 L
cp
524.957 220 M
524.957 210.006 L
514.656 210.006 L
514.656 220 L
cp
535.257 220 M
535.257 208.505 L
524.957 208.505 L
524.957 220 L
cp
545.558 220 M
545.558 214.47 L
535.257 214.47 L
535.257 220 L
cp
555.858 220 M
555.858 212.297 L
545.558 212.297 L
545.558 220 L
cp
566.159 220 M
566.159 217.037 L
555.858 217.037 L
555.858 220 L
cp
576.459 220 M
576.459 218.459 L
566.159 218.459 L
566.159 220 L
cp
586.76 220 M
586.76 213.285 L
576.459 213.285 L
576.459 220 L
cp
f
GR
GS
10.0 ML
0.5 LW
N
174.74 220 M
174.74 218.736 L
185.041 218.736 L
185.041 220 L
cp
S
GR
GS
10.0 ML
0.5 LW
N
185.041 220 M
185.041 218.341 L
195.341 218.341 L
195.341 220 L
cp
S
GR
GS
10.0 ML
0.5 LW
N
195.341 220 M
195.341 218.459 L
205.642 218.459 L
205.642 220 L
cp
S
GR
GS
10.0 ML
0.5 LW
N
205.642 220 M
205.642 218.696 L
215.942 218.696 L
215.942 220 L
cp
S
GR
GS
10.0 ML
0.5 LW
N
215.942 220 M
215.942 216.484 L
226.243 216.484 L
226.243 220 L
cp
S
GR
GS
10.0 ML
0.5 LW
N
226.243 220 M
226.243 215.062 L
236.543 215.062 L
236.543 220 L
cp
S
GR
GS
10.0 ML
0.5 LW
N
236.543 220 M
236.543 215.339 L
246.844 215.339 L
246.844 220 L
cp
S
GR
GS
10.0 ML
0.5 LW
N
246.844 220 M
246.844 207.873 L
257.144 207.873 L
257.144 220 L
cp
S
GR
GS
10.0 ML
0.5 LW
N
257.144 220 M
257.144 211.27 L
267.445 211.27 L
267.445 220 L
cp
S
GR
GS
10.0 ML
0.5 LW
N
267.445 220 M
267.445 206.648 L
277.745 206.648 L
277.745 220 L
cp
S
GR
GS
10.0 ML
0.5 LW
N
277.745 220 M
277.745 203.488 L
288.046 203.488 L
288.046 220 L
cp
S
GR
GS
10.0 ML
0.5 LW
N
288.046 220 M
288.046 208.189 L
298.346 208.189 L
298.346 220 L
cp
S
GR
GS
10.0 ML
0.5 LW
N
298.346 220 M
298.346 202.066 L
308.647 202.066 L
308.647 220 L
cp
S
GR
GS
10.0 ML
0.5 LW
N
308.647 220 M
308.647 184.962 L
318.947 184.962 L
318.947 220 L
cp
S
GR
GS
10.0 ML
0.5 LW
N
318.947 220 M
318.947 185.238 L
329.248 185.238 L
329.248 220 L
cp
S
GR
GS
10.0 ML
0.5 LW
N
329.248 220 M
329.248 165.171 L
339.548 165.171 L
339.548 220 L
cp
S
GR
GS
10.0 ML
0.5 LW
N
339.548 220 M
339.548 167.976 L
349.849 167.976 L
349.849 220 L
cp
S
GR
GS
10.0 ML
0.5 LW
N
349.849 220 M
349.849 156.875 L
360.149 156.875 L
360.149 220 L
cp
S
GR
GS
10.0 ML
0.5 LW
N
360.149 220 M
360.149 161.418 L
370.45 161.418 L
370.45 220 L
cp
S
GR
GS
10.0 ML
0.5 LW
N
370.45 220 M
370.45 113.778 L
380.75 113.778 L
380.75 220 L
cp
S
GR
GS
10.0 ML
0.5 LW
N
380.75 220 M
380.75 47.296 L
391.05 47.296 L
391.05 220 L
cp
S
GR
GS
10.0 ML
0.5 LW
N
391.05 220 M
391.05 124.958 L
401.351 124.958 L
401.351 220 L
cp
S
GR
GS
10.0 ML
0.5 LW
N
401.351 220 M
401.351 114.608 L
411.651 114.608 L
411.651 220 L
cp
S
GR
GS
10.0 ML
0.5 LW
N
411.651 220 M
411.651 137.085 L
421.952 137.085 L
421.952 220 L
cp
S
GR
GS
10.0 ML
0.5 LW
N
421.952 220 M
421.952 147.079 L
432.252 147.079 L
432.252 220 L
cp
S
GR
GS
10.0 ML
0.5 LW
N
432.252 220 M
432.252 159.483 L
442.553 159.483 L
442.553 220 L
cp
S
GR
GS
10.0 ML
0.5 LW
N
442.553 220 M
442.553 157.112 L
452.853 157.112 L
452.853 220 L
cp
S
GR
GS
10.0 ML
0.5 LW
N
452.853 220 M
452.853 182.828 L
463.154 182.828 L
463.154 220 L
cp
S
GR
GS
10.0 ML
0.5 LW
N
463.154 220 M
463.154 190.689 L
473.454 190.689 L
473.454 220 L
cp
S
GR
GS
10.0 ML
0.5 LW
N
473.454 220 M
473.454 202.856 L
483.755 202.856 L
483.755 220 L
cp
S
GR
GS
10.0 ML
0.5 LW
N
483.755 220 M
483.755 204.673 L
494.055 204.673 L
494.055 220 L
cp
S
GR
GS
10.0 ML
0.5 LW
N
494.055 220 M
494.055 201.355 L
504.356 201.355 L
504.356 220 L
cp
S
GR
GS
10.0 ML
0.5 LW
N
504.356 220 M
504.356 205.266 L
514.656 205.266 L
514.656 220 L
cp
S
GR
GS
10.0 ML
0.5 LW
N
514.656 220 M
514.656 210.006 L
524.957 210.006 L
524.957 220 L
cp
S
GR
GS
10.0 ML
0.5 LW
N
524.957 220 M
524.957 208.505 L
535.257 208.505 L
535.257 220 L
cp
S
GR
GS
10.0 ML
0.5 LW
N
535.257 220 M
535.257 214.47 L
545.558 214.47 L
545.558 220 L
cp
S
GR
GS
10.0 ML
0.5 LW
N
545.558 220 M
545.558 212.297 L
555.858 212.297 L
555.858 220 L
cp
S
GR
GS
10.0 ML
0.5 LW
N
555.858 220 M
555.858 217.037 L
566.159 217.037 L
566.159 220 L
cp
S
GR
GS
10.0 ML
0.5 LW
N
566.159 220 M
566.159 218.459 L
576.459 218.459 L
576.459 220 L
cp
S
GR
GS
10.0 ML
0.5 LW
N
576.459 220 M
576.459 213.285 L
586.76 213.285 L
586.76 220 L
cp
S
GR
GS
0.149 GC
2 setlinecap
1 LJ
0.5 LW
N
166.5 220 M
595 220 L
S
GR
GS
0.149 GC
2 setlinecap
1 LJ
0.5 LW
N
166.5 35 M
595 35 L
S
GR
GS
0.149 GC
2 setlinecap
1 LJ
0.5 LW
N
193.499 220 M
193.499 215.715 L
S
GR
GS
0.149 GC
2 setlinecap
1 LJ
0.5 LW
N
388.556 220 M
388.556 215.715 L
S
GR
GS
0.149 GC
2 setlinecap
1 LJ
0.5 LW
N
583.612 220 M
583.612 215.715 L
S
GR
GS
0.149 GC
2 setlinecap
1 LJ
0.5 LW
N
193.499 35 M
193.499 39.285 L
S
GR
GS
0.149 GC
2 setlinecap
1 LJ
0.5 LW
N
388.556 35 M
388.556 39.285 L
S
GR
GS
0.149 GC
2 setlinecap
1 LJ
0.5 LW
N
583.612 35 M
583.612 39.285 L
S
GR
GS
[1 0 0 1 193.49901 226] CT
0.149 GC
N
-15.892 13.097 M
-15.892 11.862 L
-10.596 11.862 L
-10.596 13.097 L
-15.892 13.097 L
cp
f
GR
GS
[1 0 0 1 193.49901 226] CT
0.149 GC
N
-4.444 17.237 M
-6.898 17.237 -7.78 15.222 QT
-8.663 13.206 -8.663 10.425 QT
-8.663 8.691 -8.343 7.151 QT
-8.023 5.612 -7.085 4.542 QT
-6.148 3.472 -4.444 3.472 QT
-3.132 3.472 -2.288 4.12 QT
-1.444 4.769 -1.007 5.792 QT
-0.569 6.816 -0.405 7.98 QT
-0.241 9.144 -0.241 10.425 QT
-0.241 12.144 -0.562 13.644 QT
-0.882 15.144 -1.812 16.191 QT
-2.741 17.237 -4.444 17.237 QT
cp
-4.444 16.722 M
-3.335 16.722 -2.788 15.581 QT
-2.241 14.441 -2.109 13.05 QT
-1.976 11.659 -1.976 10.097 QT
-1.976 8.597 -2.109 7.323 QT
-2.241 6.05 -2.78 5.026 QT
-3.319 4.003 -4.444 4.003 QT
-5.569 4.003 -6.116 5.034 QT
-6.663 6.066 -6.796 7.331 QT
-6.929 8.597 -6.929 10.097 QT
-6.929 11.206 -6.874 12.198 QT
-6.819 13.191 -6.585 14.237 QT
-6.351 15.284 -5.827 16.003 QT
-5.304 16.722 -4.444 16.722 QT
cp
f
GR
GS
[1 0 0 1 193.49901 226] CT
0.149 GC
N
2.243 15.691 M
2.243 15.253 2.571 14.925 QT
2.899 14.597 3.337 14.597 QT
3.618 14.597 3.876 14.745 QT
4.134 14.894 4.282 15.159 QT
4.431 15.425 4.431 15.691 QT
4.431 16.128 4.11 16.464 QT
3.79 16.8 3.337 16.8 QT
2.899 16.8 2.571 16.464 QT
2.243 16.128 2.243 15.691 QT
cp
f
GR
GS
[1 0 0 1 193.49901 226] CT
0.149 GC
N
7.845 14.519 M
8.049 15.112 8.478 15.589 QT
8.908 16.066 9.486 16.331 QT
10.064 16.597 10.689 16.597 QT
12.142 16.597 12.689 15.48 QT
13.236 14.362 13.236 12.753 QT
13.236 12.066 13.213 11.589 QT
13.189 11.112 13.08 10.675 QT
12.892 9.972 12.424 9.448 QT
11.955 8.925 11.283 8.925 QT
10.611 8.925 10.127 9.128 QT
9.642 9.331 9.345 9.605 QT
9.049 9.878 8.814 10.183 QT
8.58 10.487 8.517 10.503 QT
8.283 10.503 L
8.236 10.503 8.166 10.441 QT
8.095 10.378 8.095 10.316 QT
8.095 3.628 L
8.095 3.581 8.158 3.526 QT
8.22 3.472 8.283 3.472 QT
8.345 3.472 L
9.689 4.128 11.205 4.128 QT
12.689 4.128 14.064 3.472 QT
14.127 3.472 L
14.205 3.472 14.26 3.526 QT
14.314 3.581 14.314 3.628 QT
14.314 3.816 L
14.314 3.925 14.283 3.925 QT
13.595 4.831 12.564 5.339 QT
11.533 5.847 10.424 5.847 QT
9.627 5.847 8.783 5.612 QT
8.783 9.394 L
9.455 8.862 9.978 8.628 QT
10.502 8.394 11.314 8.394 QT
12.408 8.394 13.283 9.034 QT
14.158 9.675 14.627 10.691 QT
15.095 11.706 15.095 12.769 QT
15.095 13.972 14.502 15.003 QT
13.908 16.034 12.892 16.636 QT
11.877 17.237 10.689 17.237 QT
9.705 17.237 8.877 16.73 QT
8.049 16.222 7.58 15.362 QT
7.111 14.503 7.111 13.534 QT
7.111 13.081 7.4 12.8 QT
7.689 12.519 8.127 12.519 QT
8.58 12.519 8.877 12.808 QT
9.174 13.097 9.174 13.534 QT
9.174 13.972 8.877 14.269 QT
8.58 14.566 8.127 14.566 QT
8.064 14.566 7.978 14.55 QT
7.892 14.534 7.845 14.519 QT
cp
f
GR
GS
[1 0 0 1 388.55563 226] CT
0.149 GC
N
0 17.237 M
-2.453 17.237 -3.336 15.222 QT
-4.219 13.206 -4.219 10.425 QT
-4.219 8.691 -3.898 7.151 QT
-3.578 5.612 -2.641 4.542 QT
-1.703 3.472 0 3.472 QT
1.313 3.472 2.156 4.12 QT
3 4.769 3.438 5.792 QT
3.875 6.816 4.039 7.98 QT
4.203 9.144 4.203 10.425 QT
4.203 12.144 3.883 13.644 QT
3.563 15.144 2.633 16.191 QT
1.703 17.237 0 17.237 QT
cp
0 16.722 M
1.109 16.722 1.656 15.581 QT
2.203 14.441 2.336 13.05 QT
2.469 11.659 2.469 10.097 QT
2.469 8.597 2.336 7.323 QT
2.203 6.05 1.664 5.026 QT
1.125 4.003 0 4.003 QT
-1.125 4.003 -1.672 5.034 QT
-2.219 6.066 -2.352 7.331 QT
-2.484 8.597 -2.484 10.097 QT
-2.484 11.206 -2.43 12.198 QT
-2.375 13.191 -2.141 14.237 QT
-1.906 15.284 -1.383 16.003 QT
-0.859 16.722 0 16.722 QT
cp
f
GR
GS
[1 0 0 1 583.6123 226] CT
0.149 GC
N
-7.778 17.237 M
-10.231 17.237 -11.114 15.222 QT
-11.997 13.206 -11.997 10.425 QT
-11.997 8.691 -11.676 7.151 QT
-11.356 5.612 -10.418 4.542 QT
-9.481 3.472 -7.778 3.472 QT
-6.465 3.472 -5.622 4.12 QT
-4.778 4.769 -4.34 5.792 QT
-3.903 6.816 -3.739 7.98 QT
-3.575 9.144 -3.575 10.425 QT
-3.575 12.144 -3.895 13.644 QT
-4.215 15.144 -5.145 16.191 QT
-6.075 17.237 -7.778 17.237 QT
cp
-7.778 16.722 M
-6.668 16.722 -6.122 15.581 QT
-5.575 14.441 -5.442 13.05 QT
-5.309 11.659 -5.309 10.097 QT
-5.309 8.597 -5.442 7.323 QT
-5.575 6.05 -6.114 5.026 QT
-6.653 4.003 -7.778 4.003 QT
-8.903 4.003 -9.45 5.034 QT
-9.997 6.066 -10.129 7.331 QT
-10.262 8.597 -10.262 10.097 QT
-10.262 11.206 -10.207 12.198 QT
-10.153 13.191 -9.918 14.237 QT
-9.684 15.284 -9.161 16.003 QT
-8.637 16.722 -7.778 16.722 QT
cp
f
GR
GS
[1 0 0 1 583.6123 226] CT
0.149 GC
N
-1.09 15.691 M
-1.09 15.253 -0.762 14.925 QT
-0.434 14.597 0.003 14.597 QT
0.285 14.597 0.543 14.745 QT
0.8 14.894 0.949 15.159 QT
1.097 15.425 1.097 15.691 QT
1.097 16.128 0.777 16.464 QT
0.457 16.8 0.003 16.8 QT
-0.434 16.8 -0.762 16.464 QT
-1.09 16.128 -1.09 15.691 QT
cp
f
GR
GS
[1 0 0 1 583.6123 226] CT
0.149 GC
N
4.512 14.519 M
4.715 15.112 5.145 15.589 QT
5.575 16.066 6.153 16.331 QT
6.731 16.597 7.356 16.597 QT
8.809 16.597 9.356 15.48 QT
9.903 14.362 9.903 12.753 QT
9.903 12.066 9.879 11.589 QT
9.856 11.112 9.747 10.675 QT
9.559 9.972 9.09 9.448 QT
8.622 8.925 7.95 8.925 QT
7.278 8.925 6.793 9.128 QT
6.309 9.331 6.012 9.605 QT
5.715 9.878 5.481 10.183 QT
5.247 10.487 5.184 10.503 QT
4.95 10.503 L
4.903 10.503 4.832 10.441 QT
4.762 10.378 4.762 10.316 QT
4.762 3.628 L
4.762 3.581 4.825 3.526 QT
4.887 3.472 4.95 3.472 QT
5.012 3.472 L
6.356 4.128 7.872 4.128 QT
9.356 4.128 10.731 3.472 QT
10.793 3.472 L
10.872 3.472 10.926 3.526 QT
10.981 3.581 10.981 3.628 QT
10.981 3.816 L
10.981 3.925 10.95 3.925 QT
10.262 4.831 9.231 5.339 QT
8.2 5.847 7.09 5.847 QT
6.293 5.847 5.45 5.612 QT
5.45 9.394 L
6.122 8.862 6.645 8.628 QT
7.168 8.394 7.981 8.394 QT
9.075 8.394 9.95 9.034 QT
10.825 9.675 11.293 10.691 QT
11.762 11.706 11.762 12.769 QT
11.762 13.972 11.168 15.003 QT
10.575 16.034 9.559 16.636 QT
8.543 17.237 7.356 17.237 QT
6.372 17.237 5.543 16.73 QT
4.715 16.222 4.247 15.362 QT
3.778 14.503 3.778 13.534 QT
3.778 13.081 4.067 12.8 QT
4.356 12.519 4.793 12.519 QT
5.247 12.519 5.543 12.808 QT
5.84 13.097 5.84 13.534 QT
5.84 13.972 5.543 14.269 QT
5.247 14.566 4.793 14.566 QT
4.731 14.566 4.645 14.55 QT
4.559 14.534 4.512 14.519 QT
cp
f
GR
GS
0.149 GC
2 setlinecap
1 LJ
0.5 LW
N
166.5 220 M
166.5 35 L
S
GR
GS
0.149 GC
2 setlinecap
1 LJ
0.5 LW
N
595 220 M
595 35 L
S
GR
GS
0.149 GC
2 setlinecap
1 LJ
0.5 LW
N
166.5 220 M
170.785 220 L
S
GR
GS
0.149 GC
2 setlinecap
1 LJ
0.5 LW
N
166.5 149.524 M
170.785 149.524 L
S
GR
GS
0.149 GC
2 setlinecap
1 LJ
0.5 LW
N
166.5 79.048 M
170.785 79.048 L
S
GR
GS
0.149 GC
2 setlinecap
1 LJ
0.5 LW
N
595 220 M
590.715 220 L
S
GR
GS
0.149 GC
2 setlinecap
1 LJ
0.5 LW
N
595 149.524 M
590.715 149.524 L
S
GR
GS
0.149 GC
2 setlinecap
1 LJ
0.5 LW
N
595 79.048 M
590.715 79.048 L
S
GR
GS
[1 0 0 1 160.50002 220] CT
0.149 GC
N
-5 5.237 M
-7.453 5.237 -8.336 3.222 QT
-9.219 1.206 -9.219 -1.575 QT
-9.219 -3.309 -8.898 -4.849 QT
-8.578 -6.388 -7.641 -7.458 QT
-6.703 -8.528 -5 -8.528 QT
-3.688 -8.528 -2.844 -7.88 QT
-2 -7.231 -1.563 -6.208 QT
-1.125 -5.184 -0.961 -4.02 QT
-0.797 -2.856 -0.797 -1.575 QT
-0.797 0.144 -1.117 1.644 QT
-1.438 3.144 -2.367 4.191 QT
-3.297 5.237 -5 5.237 QT
cp
-5 4.722 M
-3.891 4.722 -3.344 3.581 QT
-2.797 2.441 -2.664 1.05 QT
-2.531 -0.341 -2.531 -1.903 QT
-2.531 -3.403 -2.664 -4.677 QT
-2.797 -5.95 -3.336 -6.974 QT
-3.875 -7.997 -5 -7.997 QT
-6.125 -7.997 -6.672 -6.966 QT
-7.219 -5.934 -7.352 -4.669 QT
-7.484 -3.403 -7.484 -1.903 QT
-7.484 -0.794 -7.43 0.198 QT
-7.375 1.191 -7.141 2.237 QT
-6.906 3.284 -6.383 4.003 QT
-5.859 4.722 -5 4.722 QT
cp
f
GR
GS
[1 0 0 1 160.50002 149.5238] CT
0.149 GC
N
-9 4.8 M
-9 4.269 L
-9 4.206 -8.969 4.159 QT
-5.859 0.722 L
-5.156 -0.044 -4.719 -0.559 QT
-4.281 -1.075 -3.852 -1.755 QT
-3.422 -2.434 -3.172 -3.13 QT
-2.922 -3.825 -2.922 -4.606 QT
-2.922 -5.419 -3.227 -6.169 QT
-3.531 -6.919 -4.125 -7.372 QT
-4.719 -7.825 -5.578 -7.825 QT
-6.438 -7.825 -7.133 -7.302 QT
-7.828 -6.778 -8.109 -5.95 QT
-8.031 -5.966 -7.906 -5.966 QT
-7.453 -5.966 -7.133 -5.661 QT
-6.813 -5.356 -6.813 -4.872 QT
-6.813 -4.419 -7.133 -4.099 QT
-7.453 -3.778 -7.906 -3.778 QT
-8.375 -3.778 -8.688 -4.106 QT
-9 -4.434 -9 -4.872 QT
-9 -5.638 -8.719 -6.294 QT
-8.438 -6.95 -7.906 -7.466 QT
-7.375 -7.981 -6.703 -8.255 QT
-6.031 -8.528 -5.281 -8.528 QT
-4.141 -8.528 -3.156 -8.044 QT
-2.172 -7.559 -1.594 -6.677 QT
-1.016 -5.794 -1.016 -4.606 QT
-1.016 -3.731 -1.398 -2.95 QT
-1.781 -2.169 -2.375 -1.528 QT
-2.969 -0.888 -3.898 -0.083 QT
-4.828 0.722 -5.109 1.003 QT
-7.375 3.175 L
-5.453 3.175 L
-4.047 3.175 -3.094 3.151 QT
-2.141 3.128 -2.078 3.081 QT
-1.844 2.831 -1.594 1.237 QT
-1.016 1.237 L
-1.578 4.8 L
-9 4.8 L
cp
f
GR
GS
[1 0 0 1 160.50002 79.04762] CT
0.149 GC
N
-9.438 1.503 M
-9.438 0.8 L
-3.266 -8.419 L
-3.188 -8.528 -3.063 -8.528 QT
-2.766 -8.528 L
-2.531 -8.528 -2.531 -8.294 QT
-2.531 0.8 L
-0.578 0.8 L
-0.578 1.503 L
-2.531 1.503 L
-2.531 3.456 L
-2.531 3.878 -1.945 3.987 QT
-1.359 4.097 -0.594 4.097 QT
-0.594 4.8 L
-6.109 4.8 L
-6.109 4.097 L
-5.328 4.097 -4.742 3.987 QT
-4.156 3.878 -4.156 3.456 QT
-4.156 1.503 L
-9.438 1.503 L
cp
-8.781 0.8 M
-4.047 0.8 L
-4.047 -6.278 L
-8.781 0.8 L
cp
f
GR
GS
1 GC
N
730 220 M
1158.5 220 L
1158.5 35 L
730 35 L
cp
f
GR
GS
[1 0 0 1 944.25092 32] CT
N
-83.898 -11.203 M
-83.07 -10.171 -81.843 -9.562 QT
-80.617 -8.953 -79.289 -8.953 QT
-78.179 -8.953 -77.226 -9.398 QT
-76.273 -9.843 -75.562 -10.624 QT
-74.851 -11.406 -74.476 -12.406 QT
-74.101 -13.406 -74.101 -14.499 QT
-74.101 -14.687 -73.882 -14.687 QT
-73.586 -14.687 L
-73.398 -14.687 -73.398 -14.453 QT
-73.398 -13.203 -73.882 -12.039 QT
-74.367 -10.874 -75.242 -9.984 QT
-76.117 -9.093 -77.265 -8.601 QT
-78.414 -8.109 -79.648 -8.109 QT
-81.367 -8.109 -82.914 -8.812 QT
-84.461 -9.515 -85.601 -10.726 QT
-86.742 -11.937 -87.382 -13.531 QT
-88.023 -15.124 -88.023 -16.843 QT
-88.023 -18.562 -87.382 -20.156 QT
-86.742 -21.749 -85.601 -22.968 QT
-84.461 -24.187 -82.914 -24.874 QT
-81.367 -25.562 -79.648 -25.562 QT
-78.414 -25.562 -77.289 -25.031 QT
-76.164 -24.499 -75.32 -23.531 QT
-73.929 -25.499 L
-73.789 -25.562 -73.773 -25.562 QT
-73.586 -25.562 L
-73.523 -25.562 -73.461 -25.507 QT
-73.398 -25.453 -73.398 -25.359 QT
-73.398 -18.89 L
-73.398 -18.671 -73.586 -18.671 QT
-74.023 -18.671 L
-74.242 -18.671 -74.242 -18.89 QT
-74.242 -19.578 -74.523 -20.429 QT
-74.804 -21.281 -75.226 -22.054 QT
-75.648 -22.828 -76.211 -23.406 QT
-77.57 -24.718 -79.304 -24.718 QT
-80.632 -24.718 -81.843 -24.124 QT
-83.054 -23.531 -83.898 -22.468 QT
-84.773 -21.343 -85.109 -19.906 QT
-85.445 -18.468 -85.445 -16.843 QT
-85.445 -15.218 -85.109 -13.773 QT
-84.773 -12.328 -83.898 -11.203 QT
cp
f
GR
GS
[1 0 0 1 944.25092 32] CT
N
-66.033 -8.374 M
-67.471 -8.374 -68.705 -9.109 QT
-69.94 -9.843 -70.651 -11.07 QT
-71.362 -12.296 -71.362 -13.749 QT
-71.362 -14.859 -70.971 -15.874 QT
-70.58 -16.89 -69.846 -17.695 QT
-69.112 -18.499 -68.143 -18.953 QT
-67.174 -19.406 -66.033 -19.406 QT
-64.549 -19.406 -63.338 -18.624 QT
-62.127 -17.843 -61.424 -16.539 QT
-60.721 -15.234 -60.721 -13.749 QT
-60.721 -12.312 -61.44 -11.078 QT
-62.158 -9.843 -63.377 -9.109 QT
-64.596 -8.374 -66.033 -8.374 QT
cp
-66.033 -9.078 M
-64.112 -9.078 -63.463 -10.468 QT
-62.815 -11.859 -62.815 -14.015 QT
-62.815 -15.234 -62.948 -16.023 QT
-63.08 -16.812 -63.518 -17.453 QT
-63.783 -17.859 -64.198 -18.156 QT
-64.612 -18.453 -65.073 -18.609 QT
-65.533 -18.765 -66.033 -18.765 QT
-66.783 -18.765 -67.455 -18.429 QT
-68.127 -18.093 -68.58 -17.453 QT
-69.018 -16.781 -69.143 -15.96 QT
-69.268 -15.14 -69.268 -14.015 QT
-69.268 -12.671 -69.033 -11.601 QT
-68.799 -10.531 -68.088 -9.804 QT
-67.377 -9.078 -66.033 -9.078 QT
cp
f
GR
GS
[1 0 0 1 944.25092 32] CT
N
-59.315 -8.64 M
-59.315 -9.484 L
-58.502 -9.484 -57.971 -9.617 QT
-57.44 -9.749 -57.44 -10.249 QT
-57.44 -16.796 L
-57.44 -17.437 -57.635 -17.726 QT
-57.83 -18.015 -58.19 -18.078 QT
-58.549 -18.14 -59.315 -18.14 QT
-59.315 -18.984 L
-55.83 -19.249 L
-55.83 -16.906 L
-55.362 -17.937 -54.416 -18.593 QT
-53.471 -19.249 -52.362 -19.249 QT
-50.69 -19.249 -49.854 -18.453 QT
-49.018 -17.656 -49.018 -16.015 QT
-49.018 -10.249 L
-49.018 -9.749 -48.487 -9.617 QT
-47.955 -9.484 -47.143 -9.484 QT
-47.143 -8.64 L
-52.643 -8.64 L
-52.643 -9.484 L
-51.815 -9.484 -51.291 -9.617 QT
-50.768 -9.749 -50.768 -10.249 QT
-50.768 -15.937 L
-50.768 -17.109 -51.104 -17.867 QT
-51.44 -18.624 -52.502 -18.624 QT
-53.893 -18.624 -54.791 -17.515 QT
-55.69 -16.406 -55.69 -14.984 QT
-55.69 -10.249 L
-55.69 -9.749 -55.158 -9.617 QT
-54.627 -9.484 -53.815 -9.484 QT
-53.815 -8.64 L
-59.315 -8.64 L
cp
f
GR
GS
[1 0 0 1 944.25092 32] CT
N
-46.075 -8.64 M
-46.075 -9.484 L
-45.263 -9.484 -44.731 -9.617 QT
-44.2 -9.749 -44.2 -10.249 QT
-44.2 -18.14 L
-46.059 -18.14 L
-46.059 -18.984 L
-44.2 -18.984 L
-44.2 -21.859 L
-44.2 -22.781 -43.692 -23.484 QT
-43.184 -24.187 -42.372 -24.648 QT
-41.559 -25.109 -40.622 -25.335 QT
-39.684 -25.562 -38.841 -25.562 QT
-38.153 -25.562 -37.458 -25.257 QT
-36.763 -24.953 -36.325 -24.39 QT
-35.888 -23.828 -35.888 -23.093 QT
-35.888 -22.609 -36.223 -22.273 QT
-36.559 -21.937 -37.059 -21.937 QT
-37.544 -21.937 -37.872 -22.265 QT
-38.2 -22.593 -38.2 -23.093 QT
-38.2 -23.546 -37.888 -23.89 QT
-37.575 -24.234 -37.122 -24.234 QT
-37.856 -24.937 -39.044 -24.937 QT
-39.903 -24.937 -40.731 -24.539 QT
-41.559 -24.14 -42.075 -23.421 QT
-42.591 -22.703 -42.591 -21.812 QT
-42.591 -18.984 L
-39.419 -18.984 L
-35.872 -19.296 L
-35.872 -10.249 L
-35.872 -9.749 -35.341 -9.617 QT
-34.809 -9.484 -34.013 -9.484 QT
-34.013 -8.64 L
-39.419 -8.64 L
-39.419 -9.484 L
-38.606 -9.484 -38.083 -9.617 QT
-37.559 -9.749 -37.559 -10.249 QT
-37.559 -16.843 L
-37.559 -17.343 -37.614 -17.578 QT
-37.669 -17.812 -37.856 -17.953 QT
-38.044 -18.093 -38.497 -18.14 QT
-42.528 -18.14 L
-42.528 -10.249 L
-42.528 -9.749 -41.997 -9.617 QT
-41.466 -9.484 -40.653 -9.484 QT
-40.653 -8.64 L
-46.075 -8.64 L
cp
f
GR
GS
[1 0 0 1 944.25092 32] CT
N
-27.507 -8.374 M
-28.929 -8.374 -30.101 -9.14 QT
-31.273 -9.906 -31.921 -11.164 QT
-32.57 -12.421 -32.57 -13.828 QT
-32.57 -15.281 -31.859 -16.523 QT
-31.148 -17.765 -29.929 -18.507 QT
-28.71 -19.249 -27.242 -19.249 QT
-26.367 -19.249 -25.585 -18.882 QT
-24.804 -18.515 -24.226 -17.859 QT
-24.226 -22.843 L
-24.226 -23.484 -24.421 -23.773 QT
-24.617 -24.062 -24.968 -24.124 QT
-25.32 -24.187 -26.085 -24.187 QT
-26.085 -25.031 L
-22.539 -25.296 L
-22.539 -10.828 L
-22.539 -10.187 -22.343 -9.898 QT
-22.148 -9.609 -21.789 -9.546 QT
-21.429 -9.484 -20.679 -9.484 QT
-20.679 -8.64 L
-24.289 -8.374 L
-24.289 -9.89 L
-24.914 -9.171 -25.773 -8.773 QT
-26.632 -8.374 -27.507 -8.374 QT
cp
-29.96 -10.734 M
-29.539 -9.937 -28.859 -9.468 QT
-28.179 -8.999 -27.367 -8.999 QT
-26.367 -8.999 -25.539 -9.578 QT
-24.71 -10.156 -24.289 -11.062 QT
-24.289 -16.828 L
-24.57 -17.343 -25 -17.765 QT
-25.429 -18.187 -25.96 -18.406 QT
-26.492 -18.624 -27.101 -18.624 QT
-28.351 -18.624 -29.109 -17.914 QT
-29.867 -17.203 -30.171 -16.101 QT
-30.476 -14.999 -30.476 -13.796 QT
-30.476 -12.843 -30.382 -12.124 QT
-30.289 -11.406 -29.96 -10.734 QT
cp
f
GR
GS
[1 0 0 1 944.25092 32] CT
N
-14.049 -8.374 M
-15.518 -8.374 -16.744 -9.14 QT
-17.971 -9.906 -18.666 -11.187 QT
-19.361 -12.468 -19.361 -13.906 QT
-19.361 -15.312 -18.721 -16.578 QT
-18.08 -17.843 -16.94 -18.624 QT
-15.799 -19.406 -14.393 -19.406 QT
-13.299 -19.406 -12.479 -19.031 QT
-11.658 -18.656 -11.135 -17.999 QT
-10.611 -17.343 -10.338 -16.453 QT
-10.065 -15.562 -10.065 -14.499 QT
-10.065 -14.187 -10.315 -14.187 QT
-17.268 -14.187 L
-17.268 -13.921 L
-17.268 -11.937 -16.463 -10.507 QT
-15.658 -9.078 -13.846 -9.078 QT
-13.111 -9.078 -12.479 -9.406 QT
-11.846 -9.734 -11.385 -10.32 QT
-10.924 -10.906 -10.768 -11.578 QT
-10.736 -11.656 -10.674 -11.718 QT
-10.611 -11.781 -10.533 -11.781 QT
-10.315 -11.781 L
-10.065 -11.781 -10.065 -11.484 QT
-10.408 -10.124 -11.533 -9.249 QT
-12.658 -8.374 -14.049 -8.374 QT
cp
-17.236 -14.781 M
-11.768 -14.781 L
-11.768 -15.687 -12.018 -16.609 QT
-12.268 -17.531 -12.854 -18.148 QT
-13.44 -18.765 -14.393 -18.765 QT
-15.752 -18.765 -16.494 -17.492 QT
-17.236 -16.218 -17.236 -14.781 QT
cp
f
GR
GS
[1 0 0 1 944.25092 32] CT
N
-8.648 -8.64 M
-8.648 -9.484 L
-7.835 -9.484 -7.304 -9.617 QT
-6.773 -9.749 -6.773 -10.249 QT
-6.773 -16.796 L
-6.773 -17.437 -6.968 -17.726 QT
-7.164 -18.015 -7.523 -18.078 QT
-7.882 -18.14 -8.648 -18.14 QT
-8.648 -18.984 L
-5.164 -19.249 L
-5.164 -16.906 L
-4.695 -17.937 -3.749 -18.593 QT
-2.804 -19.249 -1.695 -19.249 QT
-0.023 -19.249 0.813 -18.453 QT
1.649 -17.656 1.649 -16.015 QT
1.649 -10.249 L
1.649 -9.749 2.18 -9.617 QT
2.711 -9.484 3.524 -9.484 QT
3.524 -8.64 L
-1.976 -8.64 L
-1.976 -9.484 L
-1.148 -9.484 -0.624 -9.617 QT
-0.101 -9.749 -0.101 -10.249 QT
-0.101 -15.937 L
-0.101 -17.109 -0.437 -17.867 QT
-0.773 -18.624 -1.835 -18.624 QT
-3.226 -18.624 -4.124 -17.515 QT
-5.023 -16.406 -5.023 -14.984 QT
-5.023 -10.249 L
-5.023 -9.749 -4.492 -9.617 QT
-3.96 -9.484 -3.148 -9.484 QT
-3.148 -8.64 L
-8.648 -8.64 L
cp
f
GR
GS
[1 0 0 1 944.25092 32] CT
N
9.951 -8.374 M
8.498 -8.374 7.31 -9.132 QT
6.123 -9.89 5.443 -11.148 QT
4.764 -12.406 4.764 -13.828 QT
4.764 -15.234 5.435 -16.539 QT
6.107 -17.843 7.303 -18.624 QT
8.498 -19.406 9.951 -19.406 QT
11.357 -19.406 12.506 -18.851 QT
13.654 -18.296 13.654 -17.046 QT
13.654 -16.578 13.326 -16.234 QT
12.998 -15.89 12.514 -15.89 QT
12.029 -15.89 11.693 -16.234 QT
11.357 -16.578 11.357 -17.046 QT
11.357 -17.468 11.631 -17.781 QT
11.904 -18.093 12.295 -18.171 QT
11.467 -18.703 9.967 -18.703 QT
8.826 -18.703 8.123 -17.937 QT
7.42 -17.171 7.139 -16.046 QT
6.857 -14.921 6.857 -13.828 QT
6.857 -12.656 7.201 -11.578 QT
7.545 -10.499 8.31 -9.789 QT
9.076 -9.078 10.232 -9.078 QT
11.373 -9.078 12.17 -9.773 QT
12.967 -10.468 13.264 -11.593 QT
13.264 -11.734 13.451 -11.734 QT
13.748 -11.734 L
13.81 -11.734 13.873 -11.671 QT
13.935 -11.609 13.935 -11.531 QT
13.935 -11.453 L
13.56 -10.031 12.482 -9.203 QT
11.404 -8.374 9.951 -8.374 QT
cp
f
GR
GS
[1 0 0 1 944.25092 32] CT
N
20.618 -8.374 M
19.149 -8.374 17.922 -9.14 QT
16.696 -9.906 16.001 -11.187 QT
15.305 -12.468 15.305 -13.906 QT
15.305 -15.312 15.946 -16.578 QT
16.587 -17.843 17.727 -18.624 QT
18.868 -19.406 20.274 -19.406 QT
21.368 -19.406 22.188 -19.031 QT
23.008 -18.656 23.532 -17.999 QT
24.055 -17.343 24.329 -16.453 QT
24.602 -15.562 24.602 -14.499 QT
24.602 -14.187 24.352 -14.187 QT
17.399 -14.187 L
17.399 -13.921 L
17.399 -11.937 18.204 -10.507 QT
19.008 -9.078 20.821 -9.078 QT
21.555 -9.078 22.188 -9.406 QT
22.821 -9.734 23.282 -10.32 QT
23.743 -10.906 23.899 -11.578 QT
23.93 -11.656 23.993 -11.718 QT
24.055 -11.781 24.133 -11.781 QT
24.352 -11.781 L
24.602 -11.781 24.602 -11.484 QT
24.258 -10.124 23.133 -9.249 QT
22.008 -8.374 20.618 -8.374 QT
cp
17.43 -14.781 M
22.899 -14.781 L
22.899 -15.687 22.649 -16.609 QT
22.399 -17.531 21.813 -18.148 QT
21.227 -18.765 20.274 -18.765 QT
18.915 -18.765 18.172 -17.492 QT
17.43 -16.218 17.43 -14.781 QT
cp
f
GR
GS
[1 0 0 1 944.25092 32] CT
N
34.644 -8.296 M
34.644 -13.906 L
34.644 -14.093 34.863 -14.093 QT
35.159 -14.093 L
35.222 -14.093 35.284 -14.031 QT
35.347 -13.968 35.347 -13.906 QT
35.347 -11.546 36.8 -10.249 QT
38.253 -8.953 40.628 -8.953 QT
41.456 -8.953 42.159 -9.437 QT
42.863 -9.921 43.253 -10.703 QT
43.644 -11.484 43.644 -12.312 QT
43.644 -13.031 43.355 -13.718 QT
43.066 -14.406 42.511 -14.914 QT
41.956 -15.421 41.269 -15.578 QT
38.159 -16.343 L
36.613 -16.749 35.628 -18.023 QT
34.644 -19.296 34.644 -20.874 QT
34.644 -22.124 35.277 -23.21 QT
35.909 -24.296 36.988 -24.929 QT
38.066 -25.562 39.3 -25.562 QT
41.706 -25.562 43.128 -23.937 QT
44.113 -25.499 L
44.175 -25.562 44.269 -25.562 QT
44.441 -25.562 L
44.503 -25.562 44.566 -25.507 QT
44.628 -25.453 44.628 -25.359 QT
44.628 -19.796 L
44.628 -19.593 44.441 -19.593 QT
44.159 -19.593 L
43.925 -19.593 43.925 -19.796 QT
43.925 -20.406 43.722 -21.132 QT
43.519 -21.859 43.159 -22.531 QT
42.8 -23.203 42.378 -23.624 QT
41.206 -24.796 39.3 -24.796 QT
38.488 -24.796 37.792 -24.374 QT
37.097 -23.953 36.691 -23.242 QT
36.284 -22.531 36.284 -21.749 QT
36.284 -20.718 36.917 -19.874 QT
37.55 -19.031 38.581 -18.765 QT
41.706 -17.999 L
42.472 -17.812 43.159 -17.328 QT
43.847 -16.843 44.308 -16.203 QT
44.769 -15.562 45.027 -14.765 QT
45.284 -13.968 45.284 -13.124 QT
45.284 -11.828 44.683 -10.671 QT
44.081 -9.515 42.995 -8.812 QT
41.909 -8.109 40.628 -8.109 QT
39.831 -8.109 38.995 -8.289 QT
38.159 -8.468 37.456 -8.828 QT
36.753 -9.187 36.191 -9.765 QT
35.175 -8.187 L
35.113 -8.109 35.003 -8.109 QT
34.863 -8.109 L
34.644 -8.109 34.644 -8.296 QT
cp
f
GR
GS
[1 0 0 1 944.25092 32] CT
N
49.227 -11.499 M
49.227 -16.796 L
49.227 -17.437 49.032 -17.726 QT
48.837 -18.015 48.477 -18.078 QT
48.118 -18.14 47.352 -18.14 QT
47.352 -18.984 L
50.977 -19.249 L
50.977 -11.499 L
50.977 -10.562 51.118 -10.039 QT
51.258 -9.515 51.696 -9.257 QT
52.133 -8.999 53.087 -8.999 QT
54.383 -8.999 55.141 -10.078 QT
55.899 -11.156 55.899 -12.531 QT
55.899 -16.796 L
55.899 -17.437 55.704 -17.726 QT
55.508 -18.015 55.149 -18.078 QT
54.79 -18.14 54.024 -18.14 QT
54.024 -18.984 L
57.649 -19.249 L
57.649 -10.828 L
57.649 -10.187 57.844 -9.898 QT
58.04 -9.609 58.399 -9.546 QT
58.758 -9.484 59.524 -9.484 QT
59.524 -8.64 L
55.977 -8.374 L
55.977 -10.406 L
55.524 -9.499 54.727 -8.937 QT
53.93 -8.374 52.977 -8.374 QT
51.258 -8.374 50.243 -9.109 QT
49.227 -9.843 49.227 -11.499 QT
cp
f
GR
GS
[1 0 0 1 944.25092 32] CT
N
60.592 -8.64 M
60.592 -9.484 L
61.404 -9.484 61.936 -9.617 QT
62.467 -9.749 62.467 -10.249 QT
62.467 -16.796 L
62.467 -17.437 62.271 -17.726 QT
62.076 -18.015 61.717 -18.078 QT
61.357 -18.14 60.592 -18.14 QT
60.592 -18.984 L
64.029 -19.249 L
64.029 -16.906 L
64.404 -17.953 65.123 -18.601 QT
65.842 -19.249 66.857 -19.249 QT
67.576 -19.249 68.139 -18.828 QT
68.701 -18.406 68.701 -17.718 QT
68.701 -17.281 68.389 -16.96 QT
68.076 -16.64 67.623 -16.64 QT
67.17 -16.64 66.857 -16.953 QT
66.545 -17.265 66.545 -17.718 QT
66.545 -18.359 66.998 -18.624 QT
66.857 -18.624 L
65.889 -18.624 65.271 -17.921 QT
64.654 -17.218 64.396 -16.179 QT
64.139 -15.14 64.139 -14.187 QT
64.139 -10.249 L
64.139 -9.484 66.467 -9.484 QT
66.467 -8.64 L
60.592 -8.64 L
cp
f
GR
GS
[1 0 0 1 944.25092 32] CT
N
69.992 -3.984 M
69.992 -4.812 L
70.804 -4.812 71.336 -4.953 QT
71.867 -5.093 71.867 -5.593 QT
71.867 -17.156 L
71.867 -17.812 71.398 -17.976 QT
70.929 -18.14 69.992 -18.14 QT
69.992 -18.984 L
73.539 -19.249 L
73.539 -17.765 L
74.195 -18.484 75.07 -18.867 QT
75.945 -19.249 76.929 -19.249 QT
78.351 -19.249 79.484 -18.484 QT
80.617 -17.718 81.257 -16.468 QT
81.898 -15.218 81.898 -13.828 QT
81.898 -12.374 81.187 -11.117 QT
80.476 -9.859 79.25 -9.117 QT
78.023 -8.374 76.57 -8.374 QT
74.82 -8.374 73.617 -9.796 QT
73.617 -5.593 L
73.617 -5.093 74.148 -4.953 QT
74.679 -4.812 75.492 -4.812 QT
75.492 -3.984 L
69.992 -3.984 L
cp
73.617 -10.968 M
74.039 -10.124 74.789 -9.562 QT
75.539 -8.999 76.429 -8.999 QT
77.257 -8.999 77.898 -9.445 QT
78.539 -9.89 78.968 -10.64 QT
79.398 -11.39 79.601 -12.218 QT
79.804 -13.046 79.804 -13.828 QT
79.804 -14.781 79.461 -15.898 QT
79.117 -17.015 78.406 -17.789 QT
77.695 -18.562 76.695 -18.562 QT
75.726 -18.562 74.906 -18.062 QT
74.086 -17.562 73.617 -16.703 QT
73.617 -10.968 L
cp
f
GR
GS
[1 0 0 1 944.25092 32] CT
N
84.716 -9.968 M
84.716 -10.499 85.114 -10.89 QT
85.513 -11.281 86.044 -11.281 QT
86.372 -11.281 86.685 -11.101 QT
86.997 -10.921 87.177 -10.609 QT
87.356 -10.296 87.356 -9.968 QT
87.356 -9.437 86.966 -9.039 QT
86.575 -8.64 86.044 -8.64 QT
85.513 -8.64 85.114 -9.039 QT
84.716 -9.437 84.716 -9.968 QT
cp
f
GR
GS
0.149 GC
1 LJ
0.5 LW
N
730 220 M
1158.5 220 L
S
GR
GS
0 0.447 0.741 RC
N
748.541 220 M
748.541 217.575 L
738.24 217.575 L
738.24 220 L
cp
758.841 220 M
758.841 219.003 L
748.541 219.003 L
748.541 220 L
cp
769.142 220 M
769.142 216.363 L
758.841 216.363 L
758.841 220 L
cp
779.442 220 M
779.442 218.303 L
769.142 218.303 L
769.142 220 L
cp
789.743 220 M
789.743 218.006 L
779.442 218.006 L
779.442 220 L
cp
800.043 220 M
800.043 218.087 L
789.743 218.087 L
789.743 220 L
cp
810.344 220 M
810.344 210.409 L
800.043 210.409 L
800.043 220 L
cp
820.644 220 M
820.644 212.16 L
810.344 212.16 L
810.344 220 L
cp
830.945 220 M
830.945 211.056 L
820.644 211.056 L
820.644 220 L
cp
841.245 220 M
841.245 203.862 L
830.945 203.862 L
830.945 220 L
cp
851.546 220 M
851.546 198.69 L
841.245 198.69 L
841.245 220 L
cp
861.846 220 M
861.846 196.049 L
851.546 196.049 L
851.546 220 L
cp
872.147 220 M
872.147 196.642 L
861.846 196.642 L
861.846 220 L
cp
882.447 220 M
882.447 195.834 L
872.147 195.834 L
872.147 220 L
cp
892.748 220 M
892.748 189.449 L
882.447 189.449 L
882.447 220 L
cp
903.048 220 M
903.048 172.395 L
892.748 172.395 L
892.748 220 L
cp
913.349 220 M
913.349 181.528 L
903.048 181.528 L
903.048 220 L
cp
923.649 220 M
923.649 178.565 L
913.349 178.565 L
913.349 220 L
cp
933.95 220 M
933.95 167.977 L
923.649 167.977 L
923.649 220 L
cp
944.25 220 M
944.25 171.614 L
933.95 171.614 L
933.95 220 L
cp
954.55 220 M
954.55 59.781 L
944.25 59.781 L
944.25 220 L
cp
964.851 220 M
964.851 165.606 L
954.55 165.606 L
954.55 220 L
cp
975.151 220 M
975.151 176.086 L
964.851 176.086 L
964.851 220 L
cp
985.452 220 M
985.452 181.447 L
975.151 181.447 L
975.151 220 L
cp
995.752 220 M
995.752 182.282 L
985.452 182.282 L
985.452 220 L
cp
1006.053 220 M
1006.053 183.495 L
995.752 183.495 L
995.752 220 L
cp
1016.353 220 M
1016.353 196.453 L
1006.053 196.453 L
1006.053 220 L
cp
1026.654 220 M
1026.654 197.989 L
1016.353 197.989 L
1016.353 220 L
cp
1036.954 220 M
1036.954 199.067 L
1026.654 199.067 L
1026.654 220 L
cp
1047.255 220 M
1047.255 208.388 L
1036.954 208.388 L
1036.954 220 L
cp
1057.555 220 M
1057.555 209.816 L
1047.255 209.816 L
1047.255 220 L
cp
1067.856 220 M
1067.856 210.517 L
1057.555 210.517 L
1057.555 220 L
cp
1078.156 220 M
1078.156 211.81 L
1067.856 211.81 L
1067.856 220 L
cp
1088.457 220 M
1088.457 211.136 L
1078.156 211.136 L
1078.156 220 L
cp
1098.757 220 M
1098.757 214.72 L
1088.457 214.72 L
1088.457 220 L
cp
1109.058 220 M
1109.058 215.42 L
1098.757 215.42 L
1098.757 220 L
cp
1119.358 220 M
1119.358 217.387 L
1109.058 217.387 L
1109.058 220 L
cp
1129.659 220 M
1129.659 217.117 L
1119.358 217.117 L
1119.358 220 L
cp
1139.959 220 M
1139.959 218.976 L
1129.659 218.976 L
1129.659 220 L
cp
1150.26 220 M
1150.26 219.273 L
1139.959 219.273 L
1139.959 220 L
cp
f
GR
GS
10.0 ML
0.5 LW
N
738.24 220 M
738.24 217.575 L
748.541 217.575 L
748.541 220 L
cp
S
GR
GS
10.0 ML
0.5 LW
N
748.541 220 M
748.541 219.003 L
758.841 219.003 L
758.841 220 L
cp
S
GR
GS
10.0 ML
0.5 LW
N
758.841 220 M
758.841 216.363 L
769.142 216.363 L
769.142 220 L
cp
S
GR
GS
10.0 ML
0.5 LW
N
769.142 220 M
769.142 218.303 L
779.442 218.303 L
779.442 220 L
cp
S
GR
GS
10.0 ML
0.5 LW
N
779.442 220 M
779.442 218.006 L
789.743 218.006 L
789.743 220 L
cp
S
GR
GS
10.0 ML
0.5 LW
N
789.743 220 M
789.743 218.087 L
800.043 218.087 L
800.043 220 L
cp
S
GR
GS
10.0 ML
0.5 LW
N
800.043 220 M
800.043 210.409 L
810.344 210.409 L
810.344 220 L
cp
S
GR
GS
10.0 ML
0.5 LW
N
810.344 220 M
810.344 212.16 L
820.644 212.16 L
820.644 220 L
cp
S
GR
GS
10.0 ML
0.5 LW
N
820.644 220 M
820.644 211.056 L
830.945 211.056 L
830.945 220 L
cp
S
GR
GS
10.0 ML
0.5 LW
N
830.945 220 M
830.945 203.862 L
841.245 203.862 L
841.245 220 L
cp
S
GR
GS
10.0 ML
0.5 LW
N
841.245 220 M
841.245 198.69 L
851.546 198.69 L
851.546 220 L
cp
S
GR
GS
10.0 ML
0.5 LW
N
851.546 220 M
851.546 196.049 L
861.846 196.049 L
861.846 220 L
cp
S
GR
GS
10.0 ML
0.5 LW
N
861.846 220 M
861.846 196.642 L
872.147 196.642 L
872.147 220 L
cp
S
GR
GS
10.0 ML
0.5 LW
N
872.147 220 M
872.147 195.834 L
882.447 195.834 L
882.447 220 L
cp
S
GR
GS
10.0 ML
0.5 LW
N
882.447 220 M
882.447 189.449 L
892.748 189.449 L
892.748 220 L
cp
S
GR
GS
10.0 ML
0.5 LW
N
892.748 220 M
892.748 172.395 L
903.048 172.395 L
903.048 220 L
cp
S
GR
GS
10.0 ML
0.5 LW
N
903.048 220 M
903.048 181.528 L
913.349 181.528 L
913.349 220 L
cp
S
GR
GS
10.0 ML
0.5 LW
N
913.349 220 M
913.349 178.565 L
923.649 178.565 L
923.649 220 L
cp
S
GR
GS
10.0 ML
0.5 LW
N
923.649 220 M
923.649 167.977 L
933.95 167.977 L
933.95 220 L
cp
S
GR
GS
10.0 ML
0.5 LW
N
933.95 220 M
933.95 171.614 L
944.25 171.614 L
944.25 220 L
cp
S
GR
GS
10.0 ML
0.5 LW
N
944.25 220 M
944.25 59.781 L
954.55 59.781 L
954.55 220 L
cp
S
GR
GS
10.0 ML
0.5 LW
N
954.55 220 M
954.55 165.606 L
964.851 165.606 L
964.851 220 L
cp
S
GR
GS
10.0 ML
0.5 LW
N
964.851 220 M
964.851 176.086 L
975.151 176.086 L
975.151 220 L
cp
S
GR
GS
10.0 ML
0.5 LW
N
975.151 220 M
975.151 181.447 L
985.452 181.447 L
985.452 220 L
cp
S
GR
GS
10.0 ML
0.5 LW
N
985.452 220 M
985.452 182.282 L
995.752 182.282 L
995.752 220 L
cp
S
GR
GS
10.0 ML
0.5 LW
N
995.752 220 M
995.752 183.495 L
1006.053 183.495 L
1006.053 220 L
cp
S
GR
GS
10.0 ML
0.5 LW
N
1006.053 220 M
1006.053 196.453 L
1016.353 196.453 L
1016.353 220 L
cp
S
GR
GS
10.0 ML
0.5 LW
N
1016.353 220 M
1016.353 197.989 L
1026.654 197.989 L
1026.654 220 L
cp
S
GR
GS
10.0 ML
0.5 LW
N
1026.654 220 M
1026.654 199.067 L
1036.954 199.067 L
1036.954 220 L
cp
S
GR
GS
10.0 ML
0.5 LW
N
1036.954 220 M
1036.954 208.388 L
1047.255 208.388 L
1047.255 220 L
cp
S
GR
GS
10.0 ML
0.5 LW
N
1047.255 220 M
1047.255 209.816 L
1057.555 209.816 L
1057.555 220 L
cp
S
GR
GS
10.0 ML
0.5 LW
N
1057.555 220 M
1057.555 210.517 L
1067.856 210.517 L
1067.856 220 L
cp
S
GR
GS
10.0 ML
0.5 LW
N
1067.856 220 M
1067.856 211.81 L
1078.156 211.81 L
1078.156 220 L
cp
S
GR
GS
10.0 ML
0.5 LW
N
1078.156 220 M
1078.156 211.136 L
1088.457 211.136 L
1088.457 220 L
cp
S
GR
GS
10.0 ML
0.5 LW
N
1088.457 220 M
1088.457 214.72 L
1098.757 214.72 L
1098.757 220 L
cp
S
GR
GS
10.0 ML
0.5 LW
N
1098.757 220 M
1098.757 215.42 L
1109.058 215.42 L
1109.058 220 L
cp
S
GR
GS
10.0 ML
0.5 LW
N
1109.058 220 M
1109.058 217.387 L
1119.358 217.387 L
1119.358 220 L
cp
S
GR
GS
10.0 ML
0.5 LW
N
1119.358 220 M
1119.358 217.117 L
1129.659 217.117 L
1129.659 220 L
cp
S
GR
GS
10.0 ML
0.5 LW
N
1129.659 220 M
1129.659 218.976 L
1139.959 218.976 L
1139.959 220 L
cp
S
GR
GS
10.0 ML
0.5 LW
N
1139.959 220 M
1139.959 219.273 L
1150.26 219.273 L
1150.26 220 L
cp
S
GR
GS
0.149 GC
2 setlinecap
1 LJ
0.5 LW
N
730 220 M
1158.5 220 L
S
GR
GS
0.149 GC
2 setlinecap
1 LJ
0.5 LW
N
730 35 M
1158.5 35 L
S
GR
GS
0.149 GC
2 setlinecap
1 LJ
0.5 LW
N
813.605 220 M
813.605 215.715 L
S
GR
GS
0.149 GC
2 setlinecap
1 LJ
0.5 LW
N
946.558 220 M
946.558 215.715 L
S
GR
GS
0.149 GC
2 setlinecap
1 LJ
0.5 LW
N
1079.511 220 M
1079.511 215.715 L
S
GR
GS
0.149 GC
2 setlinecap
1 LJ
0.5 LW
N
813.605 35 M
813.605 39.285 L
S
GR
GS
0.149 GC
2 setlinecap
1 LJ
0.5 LW
N
946.558 35 M
946.558 39.285 L
S
GR
GS
0.149 GC
2 setlinecap
1 LJ
0.5 LW
N
1079.511 35 M
1079.511 39.285 L
S
GR
GS
[1 0 0 1 813.60529 226] CT
0.149 GC
N
/f-1598791236{-15.892 13.097 M
-15.892 11.862 L
-10.596 11.862 L
-10.596 13.097 L
-15.892 13.097 L
cp}def
f-1598791236
f
GR
GS
[1 0 0 1 813.60529 226] CT
0.149 GC
N
/f288243684{-4.444 17.237 M
-6.898 17.237 -7.78 15.222 QT
-8.663 13.206 -8.663 10.425 QT
-8.663 8.691 -8.343 7.151 QT
-8.023 5.612 -7.085 4.542 QT
-6.148 3.472 -4.444 3.472 QT
-3.132 3.472 -2.288 4.12 QT
-1.444 4.769 -1.007 5.792 QT
-0.569 6.816 -0.405 7.98 QT
-0.241 9.144 -0.241 10.425 QT
-0.241 12.144 -0.562 13.644 QT
-0.882 15.144 -1.812 16.191 QT
-2.741 17.237 -4.444 17.237 QT
cp
-4.444 16.722 M
-3.335 16.722 -2.788 15.581 QT
-2.241 14.441 -2.109 13.05 QT
-1.976 11.659 -1.976 10.097 QT
-1.976 8.597 -2.109 7.323 QT
-2.241 6.05 -2.78 5.026 QT
-3.319 4.003 -4.444 4.003 QT
-5.569 4.003 -6.116 5.034 QT
-6.663 6.066 -6.796 7.331 QT
-6.929 8.597 -6.929 10.097 QT
-6.929 11.206 -6.874 12.198 QT
-6.819 13.191 -6.585 14.237 QT
-6.351 15.284 -5.827 16.003 QT
-5.304 16.722 -4.444 16.722 QT
cp}def
f288243684
f
GR
GS
[1 0 0 1 813.60529 226] CT
0.149 GC
N
/f-333093229{2.243 15.691 M
2.243 15.253 2.571 14.925 QT
2.899 14.597 3.337 14.597 QT
3.618 14.597 3.876 14.745 QT
4.134 14.894 4.282 15.159 QT
4.431 15.425 4.431 15.691 QT
4.431 16.128 4.11 16.464 QT
3.79 16.8 3.337 16.8 QT
2.899 16.8 2.571 16.464 QT
2.243 16.128 2.243 15.691 QT
cp}def
f-333093229
f
GR
GS
[1 0 0 1 813.60529 226] CT
0.149 GC
N
/f1732398427{7.845 14.519 M
8.049 15.112 8.478 15.589 QT
8.908 16.066 9.486 16.331 QT
10.064 16.597 10.689 16.597 QT
12.142 16.597 12.689 15.48 QT
13.236 14.362 13.236 12.753 QT
13.236 12.066 13.213 11.589 QT
13.189 11.112 13.08 10.675 QT
12.892 9.972 12.424 9.448 QT
11.955 8.925 11.283 8.925 QT
10.611 8.925 10.127 9.128 QT
9.642 9.331 9.345 9.605 QT
9.049 9.878 8.814 10.183 QT
8.58 10.487 8.517 10.503 QT
8.283 10.503 L
8.236 10.503 8.166 10.441 QT
8.095 10.378 8.095 10.316 QT
8.095 3.628 L
8.095 3.581 8.158 3.526 QT
8.22 3.472 8.283 3.472 QT
8.345 3.472 L
9.689 4.128 11.205 4.128 QT
12.689 4.128 14.064 3.472 QT
14.127 3.472 L
14.205 3.472 14.26 3.526 QT
14.314 3.581 14.314 3.628 QT
14.314 3.816 L
14.314 3.925 14.283 3.925 QT
13.595 4.831 12.564 5.339 QT
11.533 5.847 10.424 5.847 QT
9.627 5.847 8.783 5.612 QT
8.783 9.394 L
9.455 8.862 9.978 8.628 QT
10.502 8.394 11.314 8.394 QT
12.408 8.394 13.283 9.034 QT
14.158 9.675 14.627 10.691 QT
15.095 11.706 15.095 12.769 QT
15.095 13.972 14.502 15.003 QT
13.908 16.034 12.892 16.636 QT
11.877 17.237 10.689 17.237 QT
9.705 17.237 8.877 16.73 QT
8.049 16.222 7.58 15.362 QT
7.111 14.503 7.111 13.534 QT
7.111 13.081 7.4 12.8 QT
7.689 12.519 8.127 12.519 QT
8.58 12.519 8.877 12.808 QT
9.174 13.097 9.174 13.534 QT
9.174 13.972 8.877 14.269 QT
8.58 14.566 8.127 14.566 QT
8.064 14.566 7.978 14.55 QT
7.892 14.534 7.845 14.519 QT
cp}def
f1732398427
f
GR
GS
[1 0 0 1 946.55823 226] CT
0.149 GC
N
/f1536617579{0 17.237 M
-2.453 17.237 -3.336 15.222 QT
-4.219 13.206 -4.219 10.425 QT
-4.219 8.691 -3.898 7.151 QT
-3.578 5.612 -2.641 4.542 QT
-1.703 3.472 0 3.472 QT
1.313 3.472 2.156 4.12 QT
3 4.769 3.438 5.792 QT
3.875 6.816 4.039 7.98 QT
4.203 9.144 4.203 10.425 QT
4.203 12.144 3.883 13.644 QT
3.563 15.144 2.633 16.191 QT
1.703 17.237 0 17.237 QT
cp
0 16.722 M
1.109 16.722 1.656 15.581 QT
2.203 14.441 2.336 13.05 QT
2.469 11.659 2.469 10.097 QT
2.469 8.597 2.336 7.323 QT
2.203 6.05 1.664 5.026 QT
1.125 4.003 0 4.003 QT
-1.125 4.003 -1.672 5.034 QT
-2.219 6.066 -2.352 7.331 QT
-2.484 8.597 -2.484 10.097 QT
-2.484 11.206 -2.43 12.198 QT
-2.375 13.191 -2.141 14.237 QT
-1.906 15.284 -1.383 16.003 QT
-0.859 16.722 0 16.722 QT
cp}def
f1536617579
f
GR
GS
[1 0 0 1 1079.51111 226] CT
0.149 GC
N
/f-836935254{-7.778 17.237 M
-10.231 17.237 -11.114 15.222 QT
-11.997 13.206 -11.997 10.425 QT
-11.997 8.691 -11.676 7.151 QT
-11.356 5.612 -10.418 4.542 QT
-9.481 3.472 -7.778 3.472 QT
-6.465 3.472 -5.622 4.12 QT
-4.778 4.769 -4.34 5.792 QT
-3.903 6.816 -3.739 7.98 QT
-3.575 9.144 -3.575 10.425 QT
-3.575 12.144 -3.895 13.644 QT
-4.215 15.144 -5.145 16.191 QT
-6.075 17.237 -7.778 17.237 QT
cp
-7.778 16.722 M
-6.668 16.722 -6.122 15.581 QT
-5.575 14.441 -5.442 13.05 QT
-5.309 11.659 -5.309 10.097 QT
-5.309 8.597 -5.442 7.323 QT
-5.575 6.05 -6.114 5.026 QT
-6.653 4.003 -7.778 4.003 QT
-8.903 4.003 -9.45 5.034 QT
-9.997 6.066 -10.129 7.331 QT
-10.262 8.597 -10.262 10.097 QT
-10.262 11.206 -10.207 12.198 QT
-10.153 13.191 -9.918 14.237 QT
-9.684 15.284 -9.161 16.003 QT
-8.637 16.722 -7.778 16.722 QT
cp}def
f-836935254
f
GR
GS
[1 0 0 1 1079.51111 226] CT
0.149 GC
N
/f-2095269629{-1.09 15.691 M
-1.09 15.253 -0.762 14.925 QT
-0.434 14.597 0.003 14.597 QT
0.285 14.597 0.543 14.745 QT
0.8 14.894 0.949 15.159 QT
1.097 15.425 1.097 15.691 QT
1.097 16.128 0.777 16.464 QT
0.457 16.8 0.003 16.8 QT
-0.434 16.8 -0.762 16.464 QT
-1.09 16.128 -1.09 15.691 QT
cp}def
f-2095269629
f
GR
GS
[1 0 0 1 1079.51111 226] CT
0.149 GC
N
/f1681937700{4.512 14.519 M
4.715 15.112 5.145 15.589 QT
5.575 16.066 6.153 16.331 QT
6.731 16.597 7.356 16.597 QT
8.809 16.597 9.356 15.48 QT
9.903 14.362 9.903 12.753 QT
9.903 12.066 9.879 11.589 QT
9.856 11.112 9.747 10.675 QT
9.559 9.972 9.09 9.448 QT
8.622 8.925 7.95 8.925 QT
7.278 8.925 6.793 9.128 QT
6.309 9.331 6.012 9.605 QT
5.715 9.878 5.481 10.183 QT
5.247 10.487 5.184 10.503 QT
4.95 10.503 L
4.903 10.503 4.832 10.441 QT
4.762 10.378 4.762 10.316 QT
4.762 3.628 L
4.762 3.581 4.825 3.526 QT
4.887 3.472 4.95 3.472 QT
5.012 3.472 L
6.356 4.128 7.872 4.128 QT
9.356 4.128 10.731 3.472 QT
10.793 3.472 L
10.872 3.472 10.926 3.526 QT
10.981 3.581 10.981 3.628 QT
10.981 3.816 L
10.981 3.925 10.95 3.925 QT
10.262 4.831 9.231 5.339 QT
8.2 5.847 7.09 5.847 QT
6.293 5.847 5.45 5.612 QT
5.45 9.394 L
6.122 8.862 6.645 8.628 QT
7.168 8.394 7.981 8.394 QT
9.075 8.394 9.95 9.034 QT
10.825 9.675 11.293 10.691 QT
11.762 11.706 11.762 12.769 QT
11.762 13.972 11.168 15.003 QT
10.575 16.034 9.559 16.636 QT
8.543 17.237 7.356 17.237 QT
6.372 17.237 5.543 16.73 QT
4.715 16.222 4.247 15.362 QT
3.778 14.503 3.778 13.534 QT
3.778 13.081 4.067 12.8 QT
4.356 12.519 4.793 12.519 QT
5.247 12.519 5.543 12.808 QT
5.84 13.097 5.84 13.534 QT
5.84 13.972 5.543 14.269 QT
5.247 14.566 4.793 14.566 QT
4.731 14.566 4.645 14.55 QT
4.559 14.534 4.512 14.519 QT
cp}def
f1681937700
f
GR
GS
0.149 GC
2 setlinecap
1 LJ
0.5 LW
N
730 220 M
730 35 L
S
GR
GS
0.149 GC
2 setlinecap
1 LJ
0.5 LW
N
1158.5 220 M
1158.5 35 L
S
GR
GS
0.149 GC
2 setlinecap
1 LJ
0.5 LW
N
730 220 M
734.285 220 L
S
GR
GS
0.149 GC
2 setlinecap
1 LJ
0.5 LW
N
730 149.524 M
734.285 149.524 L
S
GR
GS
0.149 GC
2 setlinecap
1 LJ
0.5 LW
N
730 79.048 M
734.285 79.048 L
S
GR
GS
0.149 GC
2 setlinecap
1 LJ
0.5 LW
N
1158.5 220 M
1154.215 220 L
S
GR
GS
0.149 GC
2 setlinecap
1 LJ
0.5 LW
N
1158.5 149.524 M
1154.215 149.524 L
S
GR
GS
0.149 GC
2 setlinecap
1 LJ
0.5 LW
N
1158.5 79.048 M
1154.215 79.048 L
S
GR
GS
[1 0 0 1 724 220] CT
0.149 GC
N
/f-259944110{-5 5.237 M
-7.453 5.237 -8.336 3.222 QT
-9.219 1.206 -9.219 -1.575 QT
-9.219 -3.309 -8.898 -4.849 QT
-8.578 -6.388 -7.641 -7.458 QT
-6.703 -8.528 -5 -8.528 QT
-3.688 -8.528 -2.844 -7.88 QT
-2 -7.231 -1.563 -6.208 QT
-1.125 -5.184 -0.961 -4.02 QT
-0.797 -2.856 -0.797 -1.575 QT
-0.797 0.144 -1.117 1.644 QT
-1.438 3.144 -2.367 4.191 QT
-3.297 5.237 -5 5.237 QT
cp
-5 4.722 M
-3.891 4.722 -3.344 3.581 QT
-2.797 2.441 -2.664 1.05 QT
-2.531 -0.341 -2.531 -1.903 QT
-2.531 -3.403 -2.664 -4.677 QT
-2.797 -5.95 -3.336 -6.974 QT
-3.875 -7.997 -5 -7.997 QT
-6.125 -7.997 -6.672 -6.966 QT
-7.219 -5.934 -7.352 -4.669 QT
-7.484 -3.403 -7.484 -1.903 QT
-7.484 -0.794 -7.43 0.198 QT
-7.375 1.191 -7.141 2.237 QT
-6.906 3.284 -6.383 4.003 QT
-5.859 4.722 -5 4.722 QT
cp}def
f-259944110
f
GR
GS
[1 0 0 1 724 149.5238] CT
0.149 GC
N
/f-959722706{-9 4.8 M
-9 4.269 L
-9 4.206 -8.969 4.159 QT
-5.859 0.722 L
-5.156 -0.044 -4.719 -0.559 QT
-4.281 -1.075 -3.852 -1.755 QT
-3.422 -2.434 -3.172 -3.13 QT
-2.922 -3.825 -2.922 -4.606 QT
-2.922 -5.419 -3.227 -6.169 QT
-3.531 -6.919 -4.125 -7.372 QT
-4.719 -7.825 -5.578 -7.825 QT
-6.438 -7.825 -7.133 -7.302 QT
-7.828 -6.778 -8.109 -5.95 QT
-8.031 -5.966 -7.906 -5.966 QT
-7.453 -5.966 -7.133 -5.661 QT
-6.813 -5.356 -6.813 -4.872 QT
-6.813 -4.419 -7.133 -4.099 QT
-7.453 -3.778 -7.906 -3.778 QT
-8.375 -3.778 -8.688 -4.106 QT
-9 -4.434 -9 -4.872 QT
-9 -5.638 -8.719 -6.294 QT
-8.438 -6.95 -7.906 -7.466 QT
-7.375 -7.981 -6.703 -8.255 QT
-6.031 -8.528 -5.281 -8.528 QT
-4.141 -8.528 -3.156 -8.044 QT
-2.172 -7.559 -1.594 -6.677 QT
-1.016 -5.794 -1.016 -4.606 QT
-1.016 -3.731 -1.398 -2.95 QT
-1.781 -2.169 -2.375 -1.528 QT
-2.969 -0.888 -3.898 -0.083 QT
-4.828 0.722 -5.109 1.003 QT
-7.375 3.175 L
-5.453 3.175 L
-4.047 3.175 -3.094 3.151 QT
-2.141 3.128 -2.078 3.081 QT
-1.844 2.831 -1.594 1.237 QT
-1.016 1.237 L
-1.578 4.8 L
-9 4.8 L
cp}def
f-959722706
f
GR
GS
[1 0 0 1 724 79.04762] CT
0.149 GC
N
/f-426388810{-9.438 1.503 M
-9.438 0.8 L
-3.266 -8.419 L
-3.188 -8.528 -3.063 -8.528 QT
-2.766 -8.528 L
-2.531 -8.528 -2.531 -8.294 QT
-2.531 0.8 L
-0.578 0.8 L
-0.578 1.503 L
-2.531 1.503 L
-2.531 3.456 L
-2.531 3.878 -1.945 3.987 QT
-1.359 4.097 -0.594 4.097 QT
-0.594 4.8 L
-6.109 4.8 L
-6.109 4.097 L
-5.328 4.097 -4.742 3.987 QT
-4.156 3.878 -4.156 3.456 QT
-4.156 1.503 L
-9.438 1.503 L
cp
-8.781 0.8 M
-4.047 0.8 L
-4.047 -6.278 L
-8.781 0.8 L
cp}def
f-426388810
f
GR
%%Trailer
%%Pages: 1
%%EOF
