%!PS-Adobe-3.0 EPSF-3.0
%%Creator: (MATLAB, The Mathworks, Inc. Version 9.7.0.1216025 \(R2019b\) Update 1. Operating System: Mac OS X)
%%Title: ../../results/TF_IDF/summarization/baseline/Figures/hist_text_abs.eps
%%CreationDate: 2020-03-06T13:27:02
%%Pages: (atend)
%%BoundingBox:   192     6  1449   244
%%LanguageLevel: 3
%%EndComments
%%BeginProlog
%%BeginResource: procset (Apache XML Graphics Std ProcSet) 1.2 0
%%Version: 1.2 0
%%Copyright: (Copyright 2001-2003,2010 The Apache Software Foundation. License terms: http://www.apache.org/licenses/LICENSE-2.0)
/bd{bind def}bind def
/ld{load def}bd
/GR/grestore ld
/GS/gsave ld
/RM/rmoveto ld
/C/curveto ld
/t/show ld
/L/lineto ld
/ML/setmiterlimit ld
/CT/concat ld
/f/fill ld
/N/newpath ld
/S/stroke ld
/CC/setcmykcolor ld
/A/ashow ld
/cp/closepath ld
/RC/setrgbcolor ld
/LJ/setlinejoin ld
/GC/setgray ld
/LW/setlinewidth ld
/M/moveto ld
/re {4 2 roll M
1 index 0 rlineto
0 exch rlineto
neg 0 rlineto
cp } bd
/_ctm matrix def
/_tm matrix def
/BT { _ctm currentmatrix pop matrix _tm copy pop 0 0 moveto } bd
/ET { _ctm setmatrix } bd
/iTm { _ctm setmatrix _tm concat } bd
/Tm { _tm astore pop iTm 0 0 moveto } bd
/ux 0.0 def
/uy 0.0 def
/F {
  /Tp exch def
  /Tf exch def
  Tf findfont Tp scalefont setfont
  /cf Tf def  /cs Tp def
} bd
/ULS {currentpoint /uy exch def /ux exch def} bd
/ULE {
  /Tcx currentpoint pop def
  gsave
  newpath
  cf findfont cs scalefont dup
  /FontMatrix get 0 get /Ts exch def /FontInfo get dup
  /UnderlinePosition get Ts mul /To exch def
  /UnderlineThickness get Ts mul /Tt exch def
  ux uy To add moveto  Tcx uy To add lineto
  Tt setlinewidth stroke
  grestore
} bd
/OLE {
  /Tcx currentpoint pop def
  gsave
  newpath
  cf findfont cs scalefont dup
  /FontMatrix get 0 get /Ts exch def /FontInfo get dup
  /UnderlinePosition get Ts mul /To exch def
  /UnderlineThickness get Ts mul /Tt exch def
  ux uy To add cs add moveto Tcx uy To add cs add lineto
  Tt setlinewidth stroke
  grestore
} bd
/SOE {
  /Tcx currentpoint pop def
  gsave
  newpath
  cf findfont cs scalefont dup
  /FontMatrix get 0 get /Ts exch def /FontInfo get dup
  /UnderlinePosition get Ts mul /To exch def
  /UnderlineThickness get Ts mul /Tt exch def
  ux uy To add cs 10 mul 26 idiv add moveto Tcx uy To add cs 10 mul 26 idiv add lineto
  Tt setlinewidth stroke
  grestore
} bd
/QT {
/Y22 exch store
/X22 exch store
/Y21 exch store
/X21 exch store
currentpoint
/Y21 load 2 mul add 3 div exch
/X21 load 2 mul add 3 div exch
/X21 load 2 mul /X22 load add 3 div
/Y21 load 2 mul /Y22 load add 3 div
/X22 load /Y22 load curveto
} bd
/SSPD {
dup length /d exch dict def
{
/v exch def
/k exch def
currentpagedevice k known {
/cpdv currentpagedevice k get def
v cpdv ne {
/upd false def
/nullv v type /nulltype eq def
/nullcpdv cpdv type /nulltype eq def
nullv nullcpdv or
{
/upd true def
} {
/sametype v type cpdv type eq def
sametype {
v type /arraytype eq {
/vlen v length def
/cpdvlen cpdv length def
vlen cpdvlen eq {
0 1 vlen 1 sub {
/i exch def
/obj v i get def
/cpdobj cpdv i get def
obj cpdobj ne {
/upd true def
exit
} if
} for
} {
/upd true def
} ifelse
} {
v type /dicttype eq {
v {
/dv exch def
/dk exch def
/cpddv cpdv dk get def
dv cpddv ne {
/upd true def
exit
} if
} forall
} {
/upd true def
} ifelse
} ifelse
} if
} ifelse
upd true eq {
d k v put
} if
} if
} if
} forall
d length 0 gt {
d setpagedevice
} if
} bd
/RE { % /NewFontName [NewEncodingArray] /FontName RE -
  findfont dup length dict begin
  {
    1 index /FID ne
    {def} {pop pop} ifelse
  } forall
  /Encoding exch def
  /FontName 1 index def
  currentdict definefont pop
  end
} bind def
%%EndResource
%%BeginResource: procset (Apache XML Graphics EPS ProcSet) 1.0 0
%%Version: 1.0 0
%%Copyright: (Copyright 2002-2003 The Apache Software Foundation. License terms: http://www.apache.org/licenses/LICENSE-2.0)
/BeginEPSF { %def
/b4_Inc_state save def         % Save state for cleanup
/dict_count countdictstack def % Count objects on dict stack
/op_count count 1 sub def      % Count objects on operand stack
userdict begin                 % Push userdict on dict stack
/showpage { } def              % Redefine showpage, { } = null proc
0 setgray 0 setlinecap         % Prepare graphics state
1 setlinewidth 0 setlinejoin
10 setmiterlimit [ ] 0 setdash newpath
/languagelevel where           % If level not equal to 1 then
{pop languagelevel             % set strokeadjust and
1 ne                           % overprint to their defaults.
{false setstrokeadjust false setoverprint
} if
} if
} bd
/EndEPSF { %def
count op_count sub {pop} repeat            % Clean up stacks
countdictstack dict_count sub {end} repeat
b4_Inc_state restore
} bd
%%EndResource
%FOPBeginFontDict
%%IncludeResource: font Courier-Oblique
%%IncludeResource: font Courier-BoldOblique
%%IncludeResource: font Courier-Bold
%%IncludeResource: font ZapfDingbats
%%IncludeResource: font Symbol
%%IncludeResource: font Helvetica
%%IncludeResource: font Helvetica-Oblique
%%IncludeResource: font Helvetica-Bold
%%IncludeResource: font Helvetica-BoldOblique
%%IncludeResource: font Times-Roman
%%IncludeResource: font Times-Italic
%%IncludeResource: font Times-Bold
%%IncludeResource: font Times-BoldItalic
%%IncludeResource: font Courier
%FOPEndFontDict
%%BeginResource: encoding WinAnsiEncoding
/WinAnsiEncoding [
/.notdef /.notdef /.notdef /.notdef /.notdef
/.notdef /.notdef /.notdef /.notdef /.notdef
/.notdef /.notdef /.notdef /.notdef /.notdef
/.notdef /.notdef /.notdef /.notdef /.notdef
/.notdef /.notdef /.notdef /.notdef /.notdef
/.notdef /.notdef /.notdef /.notdef /.notdef
/.notdef /.notdef /space /exclam /quotedbl
/numbersign /dollar /percent /ampersand /quotesingle
/parenleft /parenright /asterisk /plus /comma
/hyphen /period /slash /zero /one
/two /three /four /five /six
/seven /eight /nine /colon /semicolon
/less /equal /greater /question /at
/A /B /C /D /E
/F /G /H /I /J
/K /L /M /N /O
/P /Q /R /S /T
/U /V /W /X /Y
/Z /bracketleft /backslash /bracketright /asciicircum
/underscore /quoteleft /a /b /c
/d /e /f /g /h
/i /j /k /l /m
/n /o /p /q /r
/s /t /u /v /w
/x /y /z /braceleft /bar
/braceright /asciitilde /bullet /Euro /bullet
/quotesinglbase /florin /quotedblbase /ellipsis /dagger
/daggerdbl /circumflex /perthousand /Scaron /guilsinglleft
/OE /bullet /Zcaron /bullet /bullet
/quoteleft /quoteright /quotedblleft /quotedblright /bullet
/endash /emdash /asciitilde /trademark /scaron
/guilsinglright /oe /bullet /zcaron /Ydieresis
/space /exclamdown /cent /sterling /currency
/yen /brokenbar /section /dieresis /copyright
/ordfeminine /guillemotleft /logicalnot /sfthyphen /registered
/macron /degree /plusminus /twosuperior /threesuperior
/acute /mu /paragraph /middot /cedilla
/onesuperior /ordmasculine /guillemotright /onequarter /onehalf
/threequarters /questiondown /Agrave /Aacute /Acircumflex
/Atilde /Adieresis /Aring /AE /Ccedilla
/Egrave /Eacute /Ecircumflex /Edieresis /Igrave
/Iacute /Icircumflex /Idieresis /Eth /Ntilde
/Ograve /Oacute /Ocircumflex /Otilde /Odieresis
/multiply /Oslash /Ugrave /Uacute /Ucircumflex
/Udieresis /Yacute /Thorn /germandbls /agrave
/aacute /acircumflex /atilde /adieresis /aring
/ae /ccedilla /egrave /eacute /ecircumflex
/edieresis /igrave /iacute /icircumflex /idieresis
/eth /ntilde /ograve /oacute /ocircumflex
/otilde /odieresis /divide /oslash /ugrave
/uacute /ucircumflex /udieresis /yacute /thorn
/ydieresis
] def
%%EndResource
%FOPBeginFontReencode
/Courier-Oblique findfont
dup length dict begin
  {1 index /FID ne {def} {pop pop} ifelse} forall
  /Encoding WinAnsiEncoding def
  currentdict
end
/Courier-Oblique exch definefont pop
/Courier-BoldOblique findfont
dup length dict begin
  {1 index /FID ne {def} {pop pop} ifelse} forall
  /Encoding WinAnsiEncoding def
  currentdict
end
/Courier-BoldOblique exch definefont pop
/Courier-Bold findfont
dup length dict begin
  {1 index /FID ne {def} {pop pop} ifelse} forall
  /Encoding WinAnsiEncoding def
  currentdict
end
/Courier-Bold exch definefont pop
/Helvetica findfont
dup length dict begin
  {1 index /FID ne {def} {pop pop} ifelse} forall
  /Encoding WinAnsiEncoding def
  currentdict
end
/Helvetica exch definefont pop
/Helvetica-Oblique findfont
dup length dict begin
  {1 index /FID ne {def} {pop pop} ifelse} forall
  /Encoding WinAnsiEncoding def
  currentdict
end
/Helvetica-Oblique exch definefont pop
/Helvetica-Bold findfont
dup length dict begin
  {1 index /FID ne {def} {pop pop} ifelse} forall
  /Encoding WinAnsiEncoding def
  currentdict
end
/Helvetica-Bold exch definefont pop
/Helvetica-BoldOblique findfont
dup length dict begin
  {1 index /FID ne {def} {pop pop} ifelse} forall
  /Encoding WinAnsiEncoding def
  currentdict
end
/Helvetica-BoldOblique exch definefont pop
/Times-Roman findfont
dup length dict begin
  {1 index /FID ne {def} {pop pop} ifelse} forall
  /Encoding WinAnsiEncoding def
  currentdict
end
/Times-Roman exch definefont pop
/Times-Italic findfont
dup length dict begin
  {1 index /FID ne {def} {pop pop} ifelse} forall
  /Encoding WinAnsiEncoding def
  currentdict
end
/Times-Italic exch definefont pop
/Times-Bold findfont
dup length dict begin
  {1 index /FID ne {def} {pop pop} ifelse} forall
  /Encoding WinAnsiEncoding def
  currentdict
end
/Times-Bold exch definefont pop
/Times-BoldItalic findfont
dup length dict begin
  {1 index /FID ne {def} {pop pop} ifelse} forall
  /Encoding WinAnsiEncoding def
  currentdict
end
/Times-BoldItalic exch definefont pop
/Courier findfont
dup length dict begin
  {1 index /FID ne {def} {pop pop} ifelse} forall
  /Encoding WinAnsiEncoding def
  currentdict
end
/Courier exch definefont pop
%FOPEndFontReencode
%%EndProlog
%%Page: 1 1
%%PageBoundingBox: 0 0 1600 250
%%BeginPageSetup
[1 0 0 -1 0 250] CT
%%EndPageSetup
GS
[1.11111 0 0 1.11111 0 0] CT
N
0 0 M
1440 0 L
1440 225 L
0 225 L
0 0 L
cp
clip
1 GC
N
0 0 1440 225 re
f
GR
GS
[1.11111 0 0 1.11111 0 0] CT
1 GC
N
0 0 1440 225 re
f
GR
GS
[1.11111 0 0 1.11111 0 0] CT
1 GC
N
187 198 M
494.5 198 L
494.5 31.5 L
187 31.5 L
cp
f
GR
GS
[1.11111 0 0 1.11111 378.61148 32.00001] CT
N
-48.528 -7.776 M
-48.528 -8.557 L
-46.263 -8.557 -46.263 -9.854 QT
-46.263 -21.901 L
-46.981 -22.026 -48.528 -22.026 QT
-48.528 -22.807 L
-44.309 -22.807 L
-44.2 -22.807 -44.169 -22.714 QT
-36.372 -11.26 L
-36.372 -20.729 L
-36.372 -22.026 -38.638 -22.026 QT
-38.638 -22.807 L
-33.403 -22.807 L
-33.403 -22.026 L
-35.669 -22.026 -35.669 -20.729 QT
-35.669 -7.964 L
-35.669 -7.901 -35.755 -7.839 QT
-35.841 -7.776 -35.888 -7.776 QT
-36.153 -7.776 L
-36.263 -7.776 -36.309 -7.87 QT
-45.544 -21.464 L
-45.544 -9.854 L
-45.544 -8.557 -43.278 -8.557 QT
-43.278 -7.776 L
-48.528 -7.776 L
cp
f
GR
GS
[1.11111 0 0 1.11111 378.61148 32.00001] CT
N
-27.516 -7.526 M
-28.859 -7.526 -29.984 -8.229 QT
-31.109 -8.932 -31.75 -10.112 QT
-32.391 -11.292 -32.391 -12.604 QT
-32.391 -13.885 -31.805 -15.05 QT
-31.219 -16.214 -30.172 -16.925 QT
-29.125 -17.635 -27.828 -17.635 QT
-26.828 -17.635 -26.078 -17.3 QT
-25.328 -16.964 -24.844 -16.362 QT
-24.359 -15.76 -24.117 -14.94 QT
-23.875 -14.12 -23.875 -13.151 QT
-23.875 -12.854 -24.094 -12.854 QT
-30.469 -12.854 L
-30.469 -12.62 L
-30.469 -10.792 -29.734 -9.479 QT
-29 -8.167 -27.328 -8.167 QT
-26.656 -8.167 -26.078 -8.471 QT
-25.5 -8.776 -25.078 -9.315 QT
-24.656 -9.854 -24.5 -10.464 QT
-24.484 -10.542 -24.422 -10.596 QT
-24.359 -10.651 -24.281 -10.651 QT
-24.094 -10.651 L
-23.875 -10.651 -23.875 -10.37 QT
-24.188 -9.135 -25.219 -8.331 QT
-26.25 -7.526 -27.516 -7.526 QT
cp
-30.438 -13.401 M
-25.422 -13.401 L
-25.422 -14.229 -25.656 -15.081 QT
-25.891 -15.932 -26.43 -16.495 QT
-26.969 -17.057 -27.828 -17.057 QT
-29.078 -17.057 -29.758 -15.893 QT
-30.438 -14.729 -30.438 -13.401 QT
cp
f
GR
GS
[1.11111 0 0 1.11111 378.61148 32.00001] CT
N
-22.791 -6.057 M
-22.791 -6.839 -22.22 -7.425 QT
-21.65 -8.01 -20.869 -8.26 QT
-21.306 -8.589 -21.533 -9.096 QT
-21.759 -9.604 -21.759 -10.167 QT
-21.759 -11.198 -21.119 -11.995 QT
-22.119 -12.979 -22.119 -14.26 QT
-22.119 -14.948 -21.822 -15.55 QT
-21.525 -16.151 -21.002 -16.596 QT
-20.478 -17.042 -19.83 -17.268 QT
-19.181 -17.495 -18.509 -17.495 QT
-17.197 -17.495 -16.166 -16.729 QT
-15.713 -17.214 -15.095 -17.479 QT
-14.478 -17.745 -13.806 -17.745 QT
-13.338 -17.745 -13.033 -17.409 QT
-12.728 -17.073 -12.728 -16.589 QT
-12.728 -16.323 -12.931 -16.12 QT
-13.134 -15.917 -13.416 -15.917 QT
-13.681 -15.917 -13.892 -16.12 QT
-14.103 -16.323 -14.103 -16.589 QT
-14.103 -17.01 -13.822 -17.167 QT
-14.963 -17.167 -15.791 -16.385 QT
-15.384 -15.979 -15.142 -15.409 QT
-14.9 -14.839 -14.9 -14.26 QT
-14.9 -13.323 -15.416 -12.581 QT
-15.931 -11.839 -16.775 -11.425 QT
-17.619 -11.01 -18.509 -11.01 QT
-19.713 -11.01 -20.713 -11.667 QT
-21.025 -11.229 -21.025 -10.698 QT
-21.025 -10.12 -20.642 -9.682 QT
-20.259 -9.245 -19.681 -9.245 QT
-17.884 -9.245 L
-16.572 -9.245 -15.517 -9.01 QT
-14.463 -8.776 -13.752 -8.065 QT
-13.041 -7.354 -13.041 -6.057 QT
-13.041 -5.089 -13.853 -4.448 QT
-14.666 -3.807 -15.799 -3.526 QT
-16.931 -3.245 -17.9 -3.245 QT
-18.884 -3.245 -20.017 -3.526 QT
-21.15 -3.807 -21.97 -4.448 QT
-22.791 -5.089 -22.791 -6.057 QT
cp
-21.556 -6.057 M
-21.556 -5.323 -20.955 -4.823 QT
-20.353 -4.323 -19.502 -4.081 QT
-18.65 -3.839 -17.9 -3.839 QT
-17.166 -3.839 -16.314 -4.081 QT
-15.463 -4.323 -14.869 -4.823 QT
-14.275 -5.323 -14.275 -6.057 QT
-14.275 -7.214 -15.322 -7.55 QT
-16.369 -7.885 -17.884 -7.885 QT
-19.681 -7.885 L
-20.181 -7.885 -20.611 -7.643 QT
-21.041 -7.401 -21.299 -6.964 QT
-21.556 -6.526 -21.556 -6.057 QT
cp
-18.509 -11.604 M
-16.65 -11.604 -16.65 -14.26 QT
-16.65 -15.417 -17.041 -16.159 QT
-17.431 -16.901 -18.509 -16.901 QT
-19.588 -16.901 -19.986 -16.159 QT
-20.384 -15.417 -20.384 -14.26 QT
-20.384 -13.542 -20.236 -12.948 QT
-20.088 -12.354 -19.674 -11.979 QT
-19.259 -11.604 -18.509 -11.604 QT
cp
f
GR
GS
[1.11111 0 0 1.11111 378.61148 32.00001] CT
N
-11.725 -9.932 M
-11.725 -11.245 -10.694 -12.065 QT
-9.663 -12.885 -8.217 -13.229 QT
-6.772 -13.573 -5.459 -13.573 QT
-5.459 -14.464 L
-5.459 -15.104 -5.741 -15.698 QT
-6.022 -16.292 -6.553 -16.675 QT
-7.084 -17.057 -7.709 -17.057 QT
-9.178 -17.057 -9.928 -16.401 QT
-9.522 -16.401 -9.248 -16.089 QT
-8.975 -15.776 -8.975 -15.354 QT
-8.975 -14.917 -9.28 -14.604 QT
-9.584 -14.292 -10.022 -14.292 QT
-10.459 -14.292 -10.772 -14.604 QT
-11.084 -14.917 -11.084 -15.354 QT
-11.084 -16.51 -10.03 -17.073 QT
-8.975 -17.635 -7.709 -17.635 QT
-6.819 -17.635 -5.92 -17.253 QT
-5.022 -16.87 -4.444 -16.167 QT
-3.866 -15.464 -3.866 -14.51 QT
-3.866 -9.557 L
-3.866 -9.135 -3.686 -8.776 QT
-3.506 -8.417 -3.116 -8.417 QT
-2.756 -8.417 -2.577 -8.776 QT
-2.397 -9.135 -2.397 -9.557 QT
-2.397 -10.964 L
-1.756 -10.964 L
-1.756 -9.557 L
-1.756 -9.073 -2.014 -8.62 QT
-2.272 -8.167 -2.702 -7.909 QT
-3.131 -7.651 -3.647 -7.651 QT
-4.288 -7.651 -4.756 -8.151 QT
-5.225 -8.651 -5.272 -9.339 QT
-5.678 -8.51 -6.475 -8.018 QT
-7.272 -7.526 -8.178 -7.526 QT
-9.006 -7.526 -9.819 -7.776 QT
-10.631 -8.026 -11.178 -8.557 QT
-11.725 -9.089 -11.725 -9.932 QT
cp
-9.928 -9.932 M
-9.928 -9.167 -9.366 -8.635 QT
-8.803 -8.104 -8.022 -8.104 QT
-7.319 -8.104 -6.733 -8.464 QT
-6.147 -8.823 -5.803 -9.432 QT
-5.459 -10.042 -5.459 -10.714 QT
-5.459 -13.01 L
-6.459 -13.01 -7.506 -12.682 QT
-8.553 -12.354 -9.241 -11.659 QT
-9.928 -10.964 -9.928 -9.932 QT
cp
f
GR
GS
[1.11111 0 0 1.11111 378.61148 32.00001] CT
N
0.45 -10.417 M
0.45 -16.495 L
-1.378 -16.495 L
-1.378 -17.057 L
0.059 -17.057 0.739 -18.401 QT
1.419 -19.745 1.419 -21.307 QT
2.044 -21.307 L
2.044 -17.26 L
5.153 -17.26 L
5.153 -16.495 L
2.044 -16.495 L
2.044 -10.464 L
2.044 -9.542 2.348 -8.854 QT
2.653 -8.167 3.45 -8.167 QT
4.2 -8.167 4.536 -8.893 QT
4.872 -9.62 4.872 -10.464 QT
4.872 -11.76 L
5.512 -11.76 L
5.512 -10.417 L
5.512 -9.729 5.255 -9.057 QT
4.997 -8.385 4.505 -7.956 QT
4.012 -7.526 3.309 -7.526 QT
1.981 -7.526 1.216 -8.315 QT
0.45 -9.104 0.45 -10.417 QT
cp
f
GR
GS
[1.11111 0 0 1.11111 378.61148 32.00001] CT
N
7.272 -7.776 M
7.272 -8.557 L
8.022 -8.557 8.506 -8.675 QT
8.991 -8.792 8.991 -9.245 QT
8.991 -15.26 L
8.991 -16.104 8.663 -16.3 QT
8.334 -16.495 7.381 -16.495 QT
7.381 -17.26 L
10.538 -17.495 L
10.538 -9.245 L
10.538 -8.792 10.959 -8.675 QT
11.381 -8.557 12.084 -8.557 QT
12.084 -7.776 L
7.272 -7.776 L
cp
8.209 -21.276 M
8.209 -21.76 8.577 -22.128 QT
8.944 -22.495 9.413 -22.495 QT
9.725 -22.495 10.014 -22.331 QT
10.303 -22.167 10.467 -21.878 QT
10.631 -21.589 10.631 -21.276 QT
10.631 -20.807 10.264 -20.44 QT
9.897 -20.073 9.413 -20.073 QT
8.944 -20.073 8.577 -20.44 QT
8.209 -20.807 8.209 -21.276 QT
cp
f
GR
GS
[1.11111 0 0 1.11111 378.61148 32.00001] CT
N
17.975 -7.776 M
14.756 -15.854 L
14.553 -16.26 14.131 -16.378 QT
13.709 -16.495 13.022 -16.495 QT
13.022 -17.26 L
17.631 -17.26 L
17.631 -16.495 L
16.397 -16.495 16.397 -15.964 QT
16.397 -15.87 16.428 -15.839 QT
18.897 -9.62 L
21.116 -15.229 L
21.178 -15.401 21.178 -15.589 QT
21.178 -16.01 20.866 -16.253 QT
20.553 -16.495 20.116 -16.495 QT
20.116 -17.26 L
23.772 -17.26 L
23.772 -16.495 L
23.1 -16.495 22.584 -16.182 QT
22.069 -15.87 21.803 -15.26 QT
18.834 -7.776 L
18.741 -7.526 18.475 -7.526 QT
18.319 -7.526 L
18.053 -7.526 17.975 -7.776 QT
cp
f
GR
GS
[1.11111 0 0 1.11111 378.61148 32.00001] CT
N
24.672 -7.776 M
24.672 -8.557 L
25.422 -8.557 25.906 -8.675 QT
26.391 -8.792 26.391 -9.245 QT
26.391 -15.26 L
26.391 -16.104 26.063 -16.3 QT
25.734 -16.495 24.781 -16.495 QT
24.781 -17.26 L
27.938 -17.495 L
27.938 -9.245 L
27.938 -8.792 28.359 -8.675 QT
28.781 -8.557 29.484 -8.557 QT
29.484 -7.776 L
24.672 -7.776 L
cp
25.609 -21.276 M
25.609 -21.76 25.977 -22.128 QT
26.344 -22.495 26.813 -22.495 QT
27.125 -22.495 27.414 -22.331 QT
27.703 -22.167 27.867 -21.878 QT
28.031 -21.589 28.031 -21.276 QT
28.031 -20.807 27.664 -20.44 QT
27.297 -20.073 26.813 -20.073 QT
26.344 -20.073 25.977 -20.44 QT
25.609 -20.807 25.609 -21.276 QT
cp
f
GR
GS
[1.11111 0 0 1.11111 378.61148 32.00001] CT
N
32.25 -10.417 M
32.25 -16.495 L
30.422 -16.495 L
30.422 -17.057 L
31.859 -17.057 32.539 -18.401 QT
33.219 -19.745 33.219 -21.307 QT
33.844 -21.307 L
33.844 -17.26 L
36.953 -17.26 L
36.953 -16.495 L
33.844 -16.495 L
33.844 -10.464 L
33.844 -9.542 34.149 -8.854 QT
34.453 -8.167 35.25 -8.167 QT
36 -8.167 36.336 -8.893 QT
36.672 -9.62 36.672 -10.464 QT
36.672 -11.76 L
37.313 -11.76 L
37.313 -10.417 L
37.313 -9.729 37.055 -9.057 QT
36.797 -8.385 36.305 -7.956 QT
35.813 -7.526 35.109 -7.526 QT
33.781 -7.526 33.016 -8.315 QT
32.25 -9.104 32.25 -10.417 QT
cp
f
GR
GS
[1.11111 0 0 1.11111 378.61148 32.00001] CT
N
39.316 -4.167 M
39.738 -3.839 40.238 -3.839 QT
41.628 -3.839 42.503 -5.932 QT
43.253 -7.776 L
39.956 -15.854 L
39.753 -16.26 39.339 -16.378 QT
38.925 -16.495 38.222 -16.495 QT
38.222 -17.26 L
42.831 -17.26 L
42.831 -16.495 L
41.628 -16.495 41.628 -15.964 QT
41.628 -15.87 41.644 -15.839 QT
44.097 -9.823 L
46.3 -15.229 L
46.363 -15.401 46.363 -15.604 QT
46.363 -15.87 46.214 -16.073 QT
46.066 -16.276 45.839 -16.385 QT
45.613 -16.495 45.316 -16.495 QT
45.316 -17.26 L
48.972 -17.26 L
48.972 -16.495 L
48.3 -16.495 47.784 -16.182 QT
47.269 -15.87 47.003 -15.26 QT
43.191 -5.932 L
42.894 -5.214 42.488 -4.62 QT
42.081 -4.026 41.503 -3.643 QT
40.925 -3.26 40.238 -3.26 QT
39.441 -3.26 38.831 -3.792 QT
38.222 -4.323 38.222 -5.104 QT
38.222 -5.526 38.503 -5.8 QT
38.784 -6.073 39.191 -6.073 QT
39.472 -6.073 39.691 -5.956 QT
39.909 -5.839 40.034 -5.62 QT
40.159 -5.401 40.159 -5.104 QT
40.159 -4.76 39.917 -4.479 QT
39.675 -4.198 39.316 -4.167 QT
cp
f
GR
GS
[1.11111 0 0 1.11111 0 0] CT
0.149 GC
1 LJ
0.5 LW
N
187 198 M
494.5 198 L
S
GR
GS
[1.11111 0 0 1.11111 0 0] CT
0 0.447 0.741 RC
N
200.305 198 M
200.305 166.528 L
192.913 166.528 L
192.913 198 L
cp
207.697 198 M
207.697 114.378 L
200.305 114.378 L
200.305 198 L
cp
215.089 198 M
215.089 70.452 L
207.697 70.452 L
207.697 198 L
cp
222.481 198 M
222.481 54.162 L
215.089 54.162 L
215.089 198 L
cp
229.873 198 M
229.873 86.385 L
222.481 86.385 L
222.481 198 L
cp
237.264 198 M
237.264 95.519 L
229.873 95.519 L
229.873 198 L
cp
244.656 198 M
244.656 97.891 L
237.264 97.891 L
237.264 198 L
cp
252.048 198 M
252.048 136.993 L
244.656 136.993 L
244.656 198 L
cp
259.44 198 M
259.44 129.679 L
252.048 129.679 L
252.048 198 L
cp
266.832 198 M
266.832 137.073 L
259.44 137.073 L
259.44 198 L
cp
274.224 198 M
274.224 145.296 L
266.832 145.296 L
266.832 198 L
cp
281.615 198 M
281.615 155.576 L
274.224 155.576 L
274.224 198 L
cp
289.007 198 M
289.007 167.635 L
281.615 167.635 L
281.615 198 L
cp
296.399 198 M
296.399 170.64 L
289.007 170.64 L
289.007 198 L
cp
303.791 198 M
303.791 182.818 L
296.399 182.818 L
296.399 198 L
cp
311.183 198 M
311.183 180.366 L
303.791 180.366 L
303.791 198 L
cp
318.575 198 M
318.575 181.552 L
311.183 181.552 L
311.183 198 L
cp
325.966 198 M
325.966 186.376 L
318.575 186.376 L
318.575 198 L
cp
333.358 198 M
333.358 187.483 L
325.966 187.483 L
325.966 198 L
cp
340.75 198 M
340.75 190.765 L
333.358 190.765 L
333.358 198 L
cp
348.142 198 M
348.142 189.183 L
340.75 189.183 L
340.75 198 L
cp
355.534 198 M
355.534 191.397 L
348.142 191.397 L
348.142 198 L
cp
362.925 198 M
362.925 189.144 L
355.534 189.144 L
355.534 198 L
cp
370.317 198 M
370.317 194.086 L
362.925 194.086 L
362.925 198 L
cp
377.709 198 M
377.709 192.939 L
370.317 192.939 L
370.317 198 L
cp
385.101 198 M
385.101 193.611 L
377.709 193.611 L
377.709 198 L
cp
392.493 198 M
392.493 196.339 L
385.101 196.339 L
385.101 198 L
cp
399.885 198 M
399.885 191.239 L
392.493 191.239 L
392.493 198 L
cp
407.276 198 M
407.276 193.255 L
399.885 193.255 L
399.885 198 L
cp
414.668 198 M
414.668 186.653 L
407.276 186.653 L
407.276 198 L
cp
422.06 198 M
422.06 187.878 L
414.668 187.878 L
414.668 198 L
cp
429.452 198 M
429.452 189.697 L
422.06 189.697 L
422.06 198 L
cp
436.844 198 M
436.844 187.72 L
429.452 187.72 L
429.452 198 L
cp
444.236 198 M
444.236 193.572 L
436.844 193.572 L
436.844 198 L
cp
451.627 198 M
451.627 191.555 L
444.236 191.555 L
444.236 198 L
cp
459.019 198 M
459.019 188.037 L
451.627 188.037 L
451.627 198 L
cp
466.411 198 M
466.411 191.516 L
459.019 191.516 L
459.019 198 L
cp
473.803 198 M
473.803 189.737 L
466.411 189.737 L
466.411 198 L
cp
481.195 198 M
481.195 191.239 L
473.803 191.239 L
473.803 198 L
cp
488.587 198 M
488.587 184.518 L
481.195 184.518 L
481.195 198 L
cp
f
GR
GS
[1.11111 0 0 1.11111 0 0] CT
10.0 ML
0.45 LW
N
192.913 198 M
192.913 166.528 L
200.305 166.528 L
200.305 198 L
cp
S
GR
GS
[1.11111 0 0 1.11111 0 0] CT
10.0 ML
0.45 LW
N
200.305 198 M
200.305 114.378 L
207.697 114.378 L
207.697 198 L
cp
S
GR
GS
[1.11111 0 0 1.11111 0 0] CT
10.0 ML
0.45 LW
N
207.697 198 M
207.697 70.452 L
215.089 70.452 L
215.089 198 L
cp
S
GR
GS
[1.11111 0 0 1.11111 0 0] CT
10.0 ML
0.45 LW
N
215.089 198 M
215.089 54.162 L
222.481 54.162 L
222.481 198 L
cp
S
GR
GS
[1.11111 0 0 1.11111 0 0] CT
10.0 ML
0.45 LW
N
222.481 198 M
222.481 86.385 L
229.873 86.385 L
229.873 198 L
cp
S
GR
GS
[1.11111 0 0 1.11111 0 0] CT
10.0 ML
0.45 LW
N
229.873 198 M
229.873 95.519 L
237.264 95.519 L
237.264 198 L
cp
S
GR
GS
[1.11111 0 0 1.11111 0 0] CT
10.0 ML
0.45 LW
N
237.264 198 M
237.264 97.891 L
244.656 97.891 L
244.656 198 L
cp
S
GR
GS
[1.11111 0 0 1.11111 0 0] CT
10.0 ML
0.45 LW
N
244.656 198 M
244.656 136.993 L
252.048 136.993 L
252.048 198 L
cp
S
GR
GS
[1.11111 0 0 1.11111 0 0] CT
10.0 ML
0.45 LW
N
252.048 198 M
252.048 129.679 L
259.44 129.679 L
259.44 198 L
cp
S
GR
GS
[1.11111 0 0 1.11111 0 0] CT
10.0 ML
0.45 LW
N
259.44 198 M
259.44 137.073 L
266.832 137.073 L
266.832 198 L
cp
S
GR
GS
[1.11111 0 0 1.11111 0 0] CT
10.0 ML
0.45 LW
N
266.832 198 M
266.832 145.296 L
274.224 145.296 L
274.224 198 L
cp
S
GR
GS
[1.11111 0 0 1.11111 0 0] CT
10.0 ML
0.45 LW
N
274.224 198 M
274.224 155.576 L
281.615 155.576 L
281.615 198 L
cp
S
GR
GS
[1.11111 0 0 1.11111 0 0] CT
10.0 ML
0.45 LW
N
281.615 198 M
281.615 167.635 L
289.007 167.635 L
289.007 198 L
cp
S
GR
GS
[1.11111 0 0 1.11111 0 0] CT
10.0 ML
0.45 LW
N
289.007 198 M
289.007 170.64 L
296.399 170.64 L
296.399 198 L
cp
S
GR
GS
[1.11111 0 0 1.11111 0 0] CT
10.0 ML
0.45 LW
N
296.399 198 M
296.399 182.818 L
303.791 182.818 L
303.791 198 L
cp
S
GR
GS
[1.11111 0 0 1.11111 0 0] CT
10.0 ML
0.45 LW
N
303.791 198 M
303.791 180.366 L
311.183 180.366 L
311.183 198 L
cp
S
GR
GS
[1.11111 0 0 1.11111 0 0] CT
10.0 ML
0.45 LW
N
311.183 198 M
311.183 181.552 L
318.575 181.552 L
318.575 198 L
cp
S
GR
GS
[1.11111 0 0 1.11111 0 0] CT
10.0 ML
0.45 LW
N
318.575 198 M
318.575 186.376 L
325.966 186.376 L
325.966 198 L
cp
S
GR
GS
[1.11111 0 0 1.11111 0 0] CT
10.0 ML
0.45 LW
N
325.966 198 M
325.966 187.483 L
333.358 187.483 L
333.358 198 L
cp
S
GR
GS
[1.11111 0 0 1.11111 0 0] CT
10.0 ML
0.45 LW
N
333.358 198 M
333.358 190.765 L
340.75 190.765 L
340.75 198 L
cp
S
GR
GS
[1.11111 0 0 1.11111 0 0] CT
10.0 ML
0.45 LW
N
340.75 198 M
340.75 189.183 L
348.142 189.183 L
348.142 198 L
cp
S
GR
GS
[1.11111 0 0 1.11111 0 0] CT
10.0 ML
0.45 LW
N
348.142 198 M
348.142 191.397 L
355.534 191.397 L
355.534 198 L
cp
S
GR
GS
[1.11111 0 0 1.11111 0 0] CT
10.0 ML
0.45 LW
N
355.534 198 M
355.534 189.144 L
362.925 189.144 L
362.925 198 L
cp
S
GR
GS
[1.11111 0 0 1.11111 0 0] CT
10.0 ML
0.45 LW
N
362.925 198 M
362.925 194.086 L
370.317 194.086 L
370.317 198 L
cp
S
GR
GS
[1.11111 0 0 1.11111 0 0] CT
10.0 ML
0.45 LW
N
370.317 198 M
370.317 192.939 L
377.709 192.939 L
377.709 198 L
cp
S
GR
GS
[1.11111 0 0 1.11111 0 0] CT
10.0 ML
0.45 LW
N
377.709 198 M
377.709 193.611 L
385.101 193.611 L
385.101 198 L
cp
S
GR
GS
[1.11111 0 0 1.11111 0 0] CT
10.0 ML
0.45 LW
N
385.101 198 M
385.101 196.339 L
392.493 196.339 L
392.493 198 L
cp
S
GR
GS
[1.11111 0 0 1.11111 0 0] CT
10.0 ML
0.45 LW
N
392.493 198 M
392.493 191.239 L
399.885 191.239 L
399.885 198 L
cp
S
GR
GS
[1.11111 0 0 1.11111 0 0] CT
10.0 ML
0.45 LW
N
399.885 198 M
399.885 193.255 L
407.276 193.255 L
407.276 198 L
cp
S
GR
GS
[1.11111 0 0 1.11111 0 0] CT
10.0 ML
0.45 LW
N
407.276 198 M
407.276 186.653 L
414.668 186.653 L
414.668 198 L
cp
S
GR
GS
[1.11111 0 0 1.11111 0 0] CT
10.0 ML
0.45 LW
N
414.668 198 M
414.668 187.878 L
422.06 187.878 L
422.06 198 L
cp
S
GR
GS
[1.11111 0 0 1.11111 0 0] CT
10.0 ML
0.45 LW
N
422.06 198 M
422.06 189.697 L
429.452 189.697 L
429.452 198 L
cp
S
GR
GS
[1.11111 0 0 1.11111 0 0] CT
10.0 ML
0.45 LW
N
429.452 198 M
429.452 187.72 L
436.844 187.72 L
436.844 198 L
cp
S
GR
GS
[1.11111 0 0 1.11111 0 0] CT
10.0 ML
0.45 LW
N
436.844 198 M
436.844 193.572 L
444.236 193.572 L
444.236 198 L
cp
S
GR
GS
[1.11111 0 0 1.11111 0 0] CT
10.0 ML
0.45 LW
N
444.236 198 M
444.236 191.555 L
451.627 191.555 L
451.627 198 L
cp
S
GR
GS
[1.11111 0 0 1.11111 0 0] CT
10.0 ML
0.45 LW
N
451.627 198 M
451.627 188.037 L
459.019 188.037 L
459.019 198 L
cp
S
GR
GS
[1.11111 0 0 1.11111 0 0] CT
10.0 ML
0.45 LW
N
459.019 198 M
459.019 191.516 L
466.411 191.516 L
466.411 198 L
cp
S
GR
GS
[1.11111 0 0 1.11111 0 0] CT
10.0 ML
0.45 LW
N
466.411 198 M
466.411 189.737 L
473.803 189.737 L
473.803 198 L
cp
S
GR
GS
[1.11111 0 0 1.11111 0 0] CT
10.0 ML
0.45 LW
N
473.803 198 M
473.803 191.239 L
481.195 191.239 L
481.195 198 L
cp
S
GR
GS
[1.11111 0 0 1.11111 0 0] CT
10.0 ML
0.45 LW
N
481.195 198 M
481.195 184.518 L
488.587 184.518 L
488.587 198 L
cp
S
GR
GS
[1.11111 0 0 1.11111 0 0] CT
0.149 GC
2 setlinecap
1 LJ
0.45 LW
N
187 198 M
494.5 198 L
S
GR
GS
[1.11111 0 0 1.11111 0 0] CT
0.149 GC
2 setlinecap
1 LJ
0.45 LW
N
187 31.5 M
494.5 31.5 L
S
GR
GS
[1.11111 0 0 1.11111 0 0] CT
0.149 GC
2 setlinecap
1 LJ
0.45 LW
N
192.81 198 M
192.81 194.925 L
S
GR
GS
[1.11111 0 0 1.11111 0 0] CT
0.149 GC
2 setlinecap
1 LJ
0.45 LW
N
251.97 198 M
251.97 194.925 L
S
GR
GS
[1.11111 0 0 1.11111 0 0] CT
0.149 GC
2 setlinecap
1 LJ
0.45 LW
N
311.13 198 M
311.13 194.925 L
S
GR
GS
[1.11111 0 0 1.11111 0 0] CT
0.149 GC
2 setlinecap
1 LJ
0.45 LW
N
370.29 198 M
370.29 194.925 L
S
GR
GS
[1.11111 0 0 1.11111 0 0] CT
0.149 GC
2 setlinecap
1 LJ
0.45 LW
N
429.45 198 M
429.45 194.925 L
S
GR
GS
[1.11111 0 0 1.11111 0 0] CT
0.149 GC
2 setlinecap
1 LJ
0.45 LW
N
488.61 198 M
488.61 194.925 L
S
GR
GS
[1.11111 0 0 1.11111 0 0] CT
0.149 GC
2 setlinecap
1 LJ
0.45 LW
N
192.81 31.5 M
192.81 34.575 L
S
GR
GS
[1.11111 0 0 1.11111 0 0] CT
0.149 GC
2 setlinecap
1 LJ
0.45 LW
N
251.97 31.5 M
251.97 34.575 L
S
GR
GS
[1.11111 0 0 1.11111 0 0] CT
0.149 GC
2 setlinecap
1 LJ
0.45 LW
N
311.13 31.5 M
311.13 34.575 L
S
GR
GS
[1.11111 0 0 1.11111 0 0] CT
0.149 GC
2 setlinecap
1 LJ
0.45 LW
N
370.29 31.5 M
370.29 34.575 L
S
GR
GS
[1.11111 0 0 1.11111 0 0] CT
0.149 GC
2 setlinecap
1 LJ
0.45 LW
N
429.45 31.5 M
429.45 34.575 L
S
GR
GS
[1.11111 0 0 1.11111 0 0] CT
0.149 GC
2 setlinecap
1 LJ
0.45 LW
N
488.61 31.5 M
488.61 34.575 L
S
GR
GS
[1.11111 0 0 1.11111 214.23319 226.22223] CT
0.149 GC
N
0 15.511 M
-2.203 15.511 -3 13.698 QT
-3.797 11.886 -3.797 9.386 QT
-3.797 7.823 -3.508 6.44 QT
-3.219 5.057 -2.375 4.096 QT
-1.531 3.136 0 3.136 QT
1.188 3.136 1.945 3.714 QT
2.703 4.292 3.094 5.214 QT
3.484 6.136 3.633 7.182 QT
3.781 8.229 3.781 9.386 QT
3.781 10.932 3.492 12.276 QT
3.203 13.62 2.367 14.565 QT
1.531 15.511 0 15.511 QT
cp
0 15.042 M
1 15.042 1.492 14.018 QT
1.984 12.995 2.102 11.745 QT
2.219 10.495 2.219 9.089 QT
2.219 7.729 2.102 6.589 QT
1.984 5.448 1.5 4.526 QT
1.016 3.604 0 3.604 QT
-1.016 3.604 -1.508 4.534 QT
-2 5.464 -2.117 6.596 QT
-2.234 7.729 -2.234 9.089 QT
-2.234 10.089 -2.188 10.979 QT
-2.141 11.87 -1.93 12.815 QT
-1.719 13.761 -1.242 14.401 QT
-0.766 15.042 0 15.042 QT
cp
f
GR
GS
[1.11111 0 0 1.11111 279.9666 226.22223] CT
0.149 GC
N
-7 15.511 M
-9.203 15.511 -10 13.698 QT
-10.797 11.886 -10.797 9.386 QT
-10.797 7.823 -10.508 6.44 QT
-10.219 5.057 -9.375 4.096 QT
-8.531 3.136 -7 3.136 QT
-5.813 3.136 -5.055 3.714 QT
-4.297 4.292 -3.906 5.214 QT
-3.516 6.136 -3.367 7.182 QT
-3.219 8.229 -3.219 9.386 QT
-3.219 10.932 -3.508 12.276 QT
-3.797 13.62 -4.633 14.565 QT
-5.469 15.511 -7 15.511 QT
cp
-7 15.042 M
-6 15.042 -5.508 14.018 QT
-5.016 12.995 -4.898 11.745 QT
-4.781 10.495 -4.781 9.089 QT
-4.781 7.729 -4.898 6.589 QT
-5.016 5.448 -5.5 4.526 QT
-5.984 3.604 -7 3.604 QT
-8.016 3.604 -8.508 4.534 QT
-9 5.464 -9.117 6.596 QT
-9.234 7.729 -9.234 9.089 QT
-9.234 10.089 -9.188 10.979 QT
-9.141 11.87 -8.93 12.815 QT
-8.719 13.761 -8.242 14.401 QT
-7.766 15.042 -7 15.042 QT
cp
f
GR
GS
[1.11111 0 0 1.11111 279.9666 226.22223] CT
0.149 GC
N
-0.984 14.12 M
-0.984 13.729 -0.687 13.432 QT
-0.391 13.136 0 13.136 QT
0.25 13.136 0.484 13.268 QT
0.719 13.401 0.852 13.643 QT
0.984 13.886 0.984 14.12 QT
0.984 14.526 0.695 14.823 QT
0.406 15.12 0 15.12 QT
-0.391 15.12 -0.687 14.823 QT
-0.984 14.526 -0.984 14.12 QT
cp
f
GR
GS
[1.11111 0 0 1.11111 279.9666 226.22223] CT
0.149 GC
N
3.391 15.12 M
3.391 14.636 L
3.391 14.589 3.438 14.542 QT
6.234 11.448 L
6.859 10.761 7.258 10.292 QT
7.656 9.823 8.039 9.221 QT
8.422 8.62 8.648 7.987 QT
8.875 7.354 8.875 6.651 QT
8.875 5.917 8.602 5.245 QT
8.328 4.573 7.789 4.167 QT
7.25 3.761 6.484 3.761 QT
5.703 3.761 5.078 4.229 QT
4.453 4.698 4.203 5.448 QT
4.266 5.432 4.391 5.432 QT
4.797 5.432 5.078 5.706 QT
5.359 5.979 5.359 6.417 QT
5.359 6.823 5.078 7.112 QT
4.797 7.401 4.391 7.401 QT
3.969 7.401 3.68 7.104 QT
3.391 6.807 3.391 6.417 QT
3.391 5.729 3.648 5.136 QT
3.906 4.542 4.383 4.081 QT
4.859 3.62 5.461 3.378 QT
6.063 3.136 6.75 3.136 QT
7.781 3.136 8.664 3.565 QT
9.547 3.995 10.07 4.792 QT
10.594 5.589 10.594 6.651 QT
10.594 7.432 10.25 8.136 QT
9.906 8.839 9.367 9.417 QT
8.828 9.995 7.992 10.721 QT
7.156 11.448 6.891 11.698 QT
4.859 13.667 L
6.594 13.667 L
7.859 13.667 8.719 13.643 QT
9.578 13.62 9.625 13.573 QT
9.844 13.339 10.063 11.917 QT
10.594 11.917 L
10.078 15.12 L
3.391 15.12 L
cp
f
GR
GS
[1.11111 0 0 1.11111 345.70001 226.22223] CT
0.149 GC
N
/f-1842289792{-7 15.511 M
-9.203 15.511 -10 13.698 QT
-10.797 11.886 -10.797 9.386 QT
-10.797 7.823 -10.508 6.44 QT
-10.219 5.057 -9.375 4.096 QT
-8.531 3.136 -7 3.136 QT
-5.813 3.136 -5.055 3.714 QT
-4.297 4.292 -3.906 5.214 QT
-3.516 6.136 -3.367 7.182 QT
-3.219 8.229 -3.219 9.386 QT
-3.219 10.932 -3.508 12.276 QT
-3.797 13.62 -4.633 14.565 QT
-5.469 15.511 -7 15.511 QT
cp
-7 15.042 M
-6 15.042 -5.508 14.018 QT
-5.016 12.995 -4.898 11.745 QT
-4.781 10.495 -4.781 9.089 QT
-4.781 7.729 -4.898 6.589 QT
-5.016 5.448 -5.5 4.526 QT
-5.984 3.604 -7 3.604 QT
-8.016 3.604 -8.508 4.534 QT
-9 5.464 -9.117 6.596 QT
-9.234 7.729 -9.234 9.089 QT
-9.234 10.089 -9.188 10.979 QT
-9.141 11.87 -8.93 12.815 QT
-8.719 13.761 -8.242 14.401 QT
-7.766 15.042 -7 15.042 QT
cp}def
f-1842289792
f
GR
GS
[1.11111 0 0 1.11111 345.70001 226.22223] CT
0.149 GC
N
/f-1200476617{-0.984 14.12 M
-0.984 13.729 -0.687 13.432 QT
-0.391 13.136 0 13.136 QT
0.25 13.136 0.484 13.268 QT
0.719 13.401 0.852 13.643 QT
0.984 13.886 0.984 14.12 QT
0.984 14.526 0.695 14.823 QT
0.406 15.12 0 15.12 QT
-0.391 15.12 -0.687 14.823 QT
-0.984 14.526 -0.984 14.12 QT
cp}def
f-1200476617
f
GR
GS
[1.11111 0 0 1.11111 345.70001 226.22223] CT
0.149 GC
N
/f621694166{3 12.151 M
3 11.511 L
8.563 3.214 L
8.625 3.136 8.75 3.136 QT
9.016 3.136 L
9.219 3.136 9.219 3.339 QT
9.219 11.511 L
10.984 11.511 L
10.984 12.151 L
9.219 12.151 L
9.219 13.917 L
9.219 14.292 9.742 14.386 QT
10.266 14.479 10.969 14.479 QT
10.969 15.12 L
6 15.12 L
6 14.479 L
6.703 14.479 7.227 14.386 QT
7.75 14.292 7.75 13.917 QT
7.75 12.151 L
3 12.151 L
cp
3.594 11.511 M
7.859 11.511 L
7.859 5.151 L
3.594 11.511 L
cp}def
f621694166
f
GR
GS
[1.11111 0 0 1.11111 411.43341 226.22223] CT
0.149 GC
N
f-1842289792
f
GR
GS
[1.11111 0 0 1.11111 411.43341 226.22223] CT
0.149 GC
N
f-1200476617
f
GR
GS
[1.11111 0 0 1.11111 411.43341 226.22223] CT
0.149 GC
N
/f1792482335{7 15.511 M
5.891 15.511 5.141 14.917 QT
4.391 14.323 3.984 13.378 QT
3.578 12.432 3.414 11.401 QT
3.25 10.37 3.25 9.307 QT
3.25 7.87 3.805 6.44 QT
4.359 5.011 5.438 4.073 QT
6.516 3.136 8 3.136 QT
8.609 3.136 9.141 3.37 QT
9.672 3.604 9.977 4.05 QT
10.281 4.495 10.281 5.151 QT
10.281 5.511 10.031 5.761 QT
9.781 6.011 9.406 6.011 QT
9.063 6.011 8.805 5.761 QT
8.547 5.511 8.547 5.151 QT
8.547 4.792 8.805 4.534 QT
9.063 4.276 9.406 4.276 QT
9.5 4.276 L
9.281 3.964 8.859 3.807 QT
8.438 3.651 8 3.651 QT
7.453 3.651 6.992 3.886 QT
6.531 4.12 6.156 4.526 QT
5.781 4.932 5.539 5.417 QT
5.297 5.901 5.156 6.526 QT
5.016 7.151 4.984 7.698 QT
4.953 8.245 4.953 9.073 QT
5.266 8.339 5.844 7.87 QT
6.422 7.401 7.156 7.401 QT
7.953 7.401 8.617 7.721 QT
9.281 8.042 9.75 8.62 QT
10.219 9.198 10.477 9.932 QT
10.734 10.667 10.734 11.432 QT
10.734 12.479 10.258 13.432 QT
9.781 14.386 8.93 14.948 QT
8.078 15.511 7 15.511 QT
cp
7 14.948 M
7.688 14.948 8.109 14.628 QT
8.531 14.307 8.734 13.784 QT
8.938 13.261 8.984 12.729 QT
9.031 12.198 9.031 11.432 QT
9.031 10.401 8.938 9.682 QT
8.844 8.964 8.406 8.417 QT
7.969 7.87 7.094 7.87 QT
6.359 7.87 5.891 8.362 QT
5.422 8.854 5.203 9.604 QT
4.984 10.354 4.984 11.057 QT
4.984 11.292 5 11.417 QT
5 11.432 5 11.456 QT
5 11.479 4.984 11.495 QT
4.984 12.276 5.141 13.065 QT
5.297 13.854 5.75 14.401 QT
6.203 14.948 7 14.948 QT
cp}def
f1792482335
f
GR
GS
[1.11111 0 0 1.11111 477.16682 226.22223] CT
0.149 GC
N
f-1842289792
f
GR
GS
[1.11111 0 0 1.11111 477.16682 226.22223] CT
0.149 GC
N
f-1200476617
f
GR
GS
[1.11111 0 0 1.11111 477.16682 226.22223] CT
0.149 GC
N
/f787102410{3.25 12.386 M
3.25 11.307 3.969 10.479 QT
4.688 9.651 5.797 9.089 QT
5.125 8.667 L
4.516 8.261 4.125 7.589 QT
3.734 6.917 3.734 6.167 QT
3.734 5.307 4.188 4.612 QT
4.641 3.917 5.391 3.526 QT
6.141 3.136 7 3.136 QT
7.797 3.136 8.539 3.456 QT
9.281 3.776 9.766 4.386 QT
10.25 4.995 10.25 5.823 QT
10.25 6.432 9.961 6.956 QT
9.672 7.479 9.172 7.886 QT
8.672 8.292 8.109 8.589 QT
9.141 9.245 L
9.859 9.714 10.297 10.471 QT
10.734 11.229 10.734 12.057 QT
10.734 13.042 10.211 13.839 QT
9.688 14.636 8.82 15.073 QT
7.953 15.511 7 15.511 QT
6.063 15.511 5.203 15.136 QT
4.344 14.761 3.797 14.042 QT
3.25 13.323 3.25 12.386 QT
cp
4.234 12.386 M
4.234 13.104 4.625 13.69 QT
5.016 14.276 5.656 14.612 QT
6.297 14.948 7 14.948 QT
8.047 14.948 8.898 14.339 QT
9.75 13.729 9.75 12.714 QT
9.75 12.37 9.617 12.034 QT
9.484 11.698 9.242 11.417 QT
9 11.136 8.703 10.964 QT
6.281 9.401 L
5.719 9.698 5.25 10.151 QT
4.781 10.604 4.508 11.182 QT
4.234 11.761 4.234 12.386 QT
cp
5.469 6.886 M
7.656 8.292 L
8.406 7.854 8.891 7.229 QT
9.375 6.604 9.375 5.823 QT
9.375 5.229 9.039 4.721 QT
8.703 4.214 8.156 3.932 QT
7.609 3.651 6.984 3.651 QT
6.438 3.651 5.883 3.862 QT
5.328 4.073 4.969 4.487 QT
4.609 4.901 4.609 5.464 QT
4.609 6.307 5.469 6.886 QT
cp}def
f787102410
f
GR
GS
[1.11111 0 0 1.11111 542.90022 226.22223] CT
0.149 GC
N
/f-405244539{-2.828 15.12 M
-2.828 14.479 L
-0.578 14.479 -0.578 13.917 QT
-0.578 4.464 L
-1.516 4.917 -2.938 4.917 QT
-2.938 4.276 L
-0.734 4.276 0.391 3.136 QT
0.656 3.136 L
0.719 3.136 0.773 3.182 QT
0.828 3.229 0.828 3.292 QT
0.828 13.917 L
0.828 14.479 3.078 14.479 QT
3.078 15.12 L
-2.828 15.12 L
cp}def
f-405244539
f
GR
GS
[1.11111 0 0 1.11111 0 0] CT
0.149 GC
2 setlinecap
1 LJ
0.45 LW
N
187 198 M
187 31.5 L
S
GR
GS
[1.11111 0 0 1.11111 0 0] CT
0.149 GC
2 setlinecap
1 LJ
0.45 LW
N
494.5 198 M
494.5 31.5 L
S
GR
GS
[1.11111 0 0 1.11111 0 0] CT
0.149 GC
2 setlinecap
1 LJ
0.45 LW
N
187 198 M
190.075 198 L
S
GR
GS
[1.11111 0 0 1.11111 0 0] CT
0.149 GC
2 setlinecap
1 LJ
0.45 LW
N
187 134.571 M
190.075 134.571 L
S
GR
GS
[1.11111 0 0 1.11111 0 0] CT
0.149 GC
2 setlinecap
1 LJ
0.45 LW
N
187 71.143 M
190.075 71.143 L
S
GR
GS
[1.11111 0 0 1.11111 0 0] CT
0.149 GC
2 setlinecap
1 LJ
0.45 LW
N
494.5 198 M
491.425 198 L
S
GR
GS
[1.11111 0 0 1.11111 0 0] CT
0.149 GC
2 setlinecap
1 LJ
0.45 LW
N
494.5 134.571 M
491.425 134.571 L
S
GR
GS
[1.11111 0 0 1.11111 0 0] CT
0.149 GC
2 setlinecap
1 LJ
0.45 LW
N
494.5 71.143 M
491.425 71.143 L
S
GR
GS
[1.11111 0 0 1.11111 201.55555 220] CT
0.149 GC
N
/f263113603{-4.5 4.711 M
-6.703 4.711 -7.5 2.898 QT
-8.297 1.086 -8.297 -1.414 QT
-8.297 -2.977 -8.008 -4.36 QT
-7.719 -5.743 -6.875 -6.704 QT
-6.031 -7.664 -4.5 -7.664 QT
-3.313 -7.664 -2.555 -7.086 QT
-1.797 -6.508 -1.406 -5.586 QT
-1.016 -4.664 -0.867 -3.618 QT
-0.719 -2.571 -0.719 -1.414 QT
-0.719 0.132 -1.008 1.476 QT
-1.297 2.82 -2.133 3.765 QT
-2.969 4.711 -4.5 4.711 QT
cp
-4.5 4.242 M
-3.5 4.242 -3.008 3.218 QT
-2.516 2.195 -2.398 0.945 QT
-2.281 -0.305 -2.281 -1.711 QT
-2.281 -3.071 -2.398 -4.211 QT
-2.516 -5.352 -3 -6.274 QT
-3.484 -7.196 -4.5 -7.196 QT
-5.516 -7.196 -6.008 -6.266 QT
-6.5 -5.336 -6.617 -4.204 QT
-6.734 -3.071 -6.734 -1.711 QT
-6.734 -0.711 -6.688 0.179 QT
-6.641 1.07 -6.43 2.015 QT
-6.219 2.961 -5.742 3.601 QT
-5.266 4.242 -4.5 4.242 QT
cp}def
f263113603
f
GR
GS
[1.11111 0 0 1.11111 201.55555 149.52381] CT
0.149 GC
N
/f-1628302965{-8.109 4.32 M
-8.109 3.836 L
-8.109 3.789 -8.063 3.742 QT
-5.266 0.648 L
-4.641 -0.039 -4.242 -0.508 QT
-3.844 -0.977 -3.461 -1.579 QT
-3.078 -2.18 -2.852 -2.813 QT
-2.625 -3.446 -2.625 -4.149 QT
-2.625 -4.883 -2.898 -5.555 QT
-3.172 -6.227 -3.711 -6.633 QT
-4.25 -7.039 -5.016 -7.039 QT
-5.797 -7.039 -6.422 -6.571 QT
-7.047 -6.102 -7.297 -5.352 QT
-7.234 -5.368 -7.109 -5.368 QT
-6.703 -5.368 -6.422 -5.094 QT
-6.141 -4.821 -6.141 -4.383 QT
-6.141 -3.977 -6.422 -3.688 QT
-6.703 -3.399 -7.109 -3.399 QT
-7.531 -3.399 -7.82 -3.696 QT
-8.109 -3.993 -8.109 -4.383 QT
-8.109 -5.071 -7.852 -5.664 QT
-7.594 -6.258 -7.117 -6.719 QT
-6.641 -7.18 -6.039 -7.422 QT
-5.438 -7.664 -4.75 -7.664 QT
-3.719 -7.664 -2.836 -7.235 QT
-1.953 -6.805 -1.43 -6.008 QT
-0.906 -5.211 -0.906 -4.149 QT
-0.906 -3.368 -1.25 -2.664 QT
-1.594 -1.961 -2.133 -1.383 QT
-2.672 -0.805 -3.508 -0.079 QT
-4.344 0.648 -4.609 0.898 QT
-6.641 2.867 L
-4.906 2.867 L
-3.641 2.867 -2.781 2.843 QT
-1.922 2.82 -1.875 2.773 QT
-1.656 2.539 -1.438 1.117 QT
-0.906 1.117 L
-1.422 4.32 L
-8.109 4.32 L
cp}def
f-1628302965
f
GR
GS
[1.11111 0 0 1.11111 201.55555 79.04762] CT
0.149 GC
N
/f-2071185025{-8.5 1.351 M
-8.5 0.711 L
-2.938 -7.586 L
-2.875 -7.664 -2.75 -7.664 QT
-2.484 -7.664 L
-2.281 -7.664 -2.281 -7.461 QT
-2.281 0.711 L
-0.516 0.711 L
-0.516 1.351 L
-2.281 1.351 L
-2.281 3.117 L
-2.281 3.492 -1.758 3.586 QT
-1.234 3.679 -0.531 3.679 QT
-0.531 4.32 L
-5.5 4.32 L
-5.5 3.679 L
-4.797 3.679 -4.273 3.586 QT
-3.75 3.492 -3.75 3.117 QT
-3.75 1.351 L
-8.5 1.351 L
cp
-7.906 0.711 M
-3.641 0.711 L
-3.641 -5.649 L
-7.906 0.711 L
cp}def
f-2071185025
f
GR
GS
[1.11111 0 0 1.11111 0 0] CT
1 GC
N
591.5 198 M
899 198 L
899 31.5 L
591.5 31.5 L
cp
f
GR
GS
[1.11111 0 0 1.11111 828.05637 32] CT
N
/f49647941{-46.584 -10.135 M
-45.834 -9.167 -44.702 -8.62 QT
-43.569 -8.073 -42.366 -8.073 QT
-41.334 -8.073 -40.467 -8.471 QT
-39.6 -8.87 -38.952 -9.589 QT
-38.303 -10.307 -37.952 -11.221 QT
-37.6 -12.135 -37.6 -13.151 QT
-37.6 -13.323 -37.413 -13.323 QT
-37.147 -13.323 L
-36.975 -13.323 -36.975 -13.104 QT
-36.975 -11.948 -37.413 -10.885 QT
-37.85 -9.823 -38.655 -9.01 QT
-39.459 -8.198 -40.506 -7.745 QT
-41.553 -7.292 -42.694 -7.292 QT
-44.272 -7.292 -45.686 -7.932 QT
-47.1 -8.573 -48.147 -9.682 QT
-49.194 -10.792 -49.78 -12.253 QT
-50.366 -13.714 -50.366 -15.292 QT
-50.366 -16.87 -49.78 -18.331 QT
-49.194 -19.792 -48.147 -20.909 QT
-47.1 -22.026 -45.686 -22.659 QT
-44.272 -23.292 -42.694 -23.292 QT
-41.569 -23.292 -40.538 -22.8 QT
-39.506 -22.307 -38.725 -21.417 QT
-37.459 -23.229 L
-37.319 -23.292 -37.303 -23.292 QT
-37.147 -23.292 L
-37.069 -23.292 -37.022 -23.237 QT
-36.975 -23.182 -36.975 -23.104 QT
-36.975 -17.167 L
-36.975 -16.979 -37.147 -16.979 QT
-37.538 -16.979 L
-37.741 -16.979 -37.741 -17.167 QT
-37.741 -17.792 -37.991 -18.581 QT
-38.241 -19.37 -38.639 -20.073 QT
-39.038 -20.776 -39.553 -21.307 QT
-40.788 -22.51 -42.381 -22.51 QT
-43.6 -22.51 -44.709 -21.964 QT
-45.819 -21.417 -46.584 -20.448 QT
-47.381 -19.417 -47.694 -18.104 QT
-48.006 -16.792 -48.006 -15.292 QT
-48.006 -13.807 -47.694 -12.487 QT
-47.381 -11.167 -46.584 -10.135 QT
cp}def
f49647941
f
GR
GS
[1.11111 0 0 1.11111 828.05637 32] CT
N
/f-352385893{-30.5 -7.526 M
-31.828 -7.526 -32.953 -8.198 QT
-34.078 -8.87 -34.734 -10.003 QT
-35.391 -11.135 -35.391 -12.464 QT
-35.391 -13.464 -35.031 -14.401 QT
-34.672 -15.339 -34 -16.073 QT
-33.328 -16.807 -32.438 -17.221 QT
-31.547 -17.635 -30.5 -17.635 QT
-29.141 -17.635 -28.031 -16.925 QT
-26.922 -16.214 -26.281 -15.01 QT
-25.641 -13.807 -25.641 -12.464 QT
-25.641 -11.135 -26.289 -10.003 QT
-26.938 -8.87 -28.063 -8.198 QT
-29.188 -7.526 -30.5 -7.526 QT
cp
-30.5 -8.167 M
-28.734 -8.167 -28.149 -9.448 QT
-27.563 -10.729 -27.563 -12.714 QT
-27.563 -13.807 -27.68 -14.534 QT
-27.797 -15.26 -28.188 -15.854 QT
-28.438 -16.214 -28.82 -16.487 QT
-29.203 -16.76 -29.625 -16.909 QT
-30.047 -17.057 -30.5 -17.057 QT
-31.188 -17.057 -31.805 -16.745 QT
-32.422 -16.432 -32.828 -15.854 QT
-33.234 -15.229 -33.352 -14.487 QT
-33.469 -13.745 -33.469 -12.714 QT
-33.469 -11.479 -33.25 -10.495 QT
-33.031 -9.51 -32.383 -8.839 QT
-31.734 -8.167 -30.5 -8.167 QT
cp}def
f-352385893
f
GR
GS
[1.11111 0 0 1.11111 828.05637 32] CT
N
/f902883069{-24.544 -7.776 M
-24.544 -8.557 L
-23.794 -8.557 -23.309 -8.675 QT
-22.825 -8.792 -22.825 -9.245 QT
-22.825 -15.26 L
-22.825 -15.839 -23.005 -16.104 QT
-23.184 -16.37 -23.513 -16.432 QT
-23.841 -16.495 -24.544 -16.495 QT
-24.544 -17.26 L
-21.356 -17.495 L
-21.356 -15.354 L
-20.919 -16.292 -20.052 -16.893 QT
-19.184 -17.495 -18.169 -17.495 QT
-16.638 -17.495 -15.872 -16.768 QT
-15.106 -16.042 -15.106 -14.526 QT
-15.106 -9.245 L
-15.106 -8.792 -14.622 -8.675 QT
-14.138 -8.557 -13.388 -8.557 QT
-13.388 -7.776 L
-18.419 -7.776 L
-18.419 -8.557 L
-17.669 -8.557 -17.184 -8.675 QT
-16.7 -8.792 -16.7 -9.245 QT
-16.7 -14.464 L
-16.7 -15.542 -17.013 -16.237 QT
-17.325 -16.932 -18.294 -16.932 QT
-19.575 -16.932 -20.395 -15.909 QT
-21.216 -14.885 -21.216 -13.589 QT
-21.216 -9.245 L
-21.216 -8.792 -20.731 -8.675 QT
-20.247 -8.557 -19.513 -8.557 QT
-19.513 -7.776 L
-24.544 -7.776 L
cp}def
f902883069
f
GR
GS
[1.11111 0 0 1.11111 828.05637 32] CT
N
/f-993583958{-12.638 -7.776 M
-12.638 -8.557 L
-11.872 -8.557 -11.395 -8.675 QT
-10.919 -8.792 -10.919 -9.245 QT
-10.919 -16.495 L
-12.606 -16.495 L
-12.606 -17.26 L
-10.919 -17.26 L
-10.919 -19.901 L
-10.919 -20.745 -10.45 -21.385 QT
-9.981 -22.026 -9.231 -22.448 QT
-8.481 -22.87 -7.63 -23.081 QT
-6.778 -23.292 -5.997 -23.292 QT
-5.372 -23.292 -4.731 -23.01 QT
-4.091 -22.729 -3.692 -22.214 QT
-3.294 -21.698 -3.294 -21.026 QT
-3.294 -20.589 -3.598 -20.276 QT
-3.903 -19.964 -4.356 -19.964 QT
-4.809 -19.964 -5.114 -20.268 QT
-5.419 -20.573 -5.419 -21.026 QT
-5.419 -21.448 -5.122 -21.76 QT
-4.825 -22.073 -4.419 -22.073 QT
-5.106 -22.714 -6.184 -22.714 QT
-6.966 -22.714 -7.731 -22.354 QT
-8.497 -21.995 -8.966 -21.331 QT
-9.434 -20.667 -9.434 -19.854 QT
-9.434 -17.26 L
-6.528 -17.26 L
-3.278 -17.542 L
-3.278 -9.245 L
-3.278 -8.792 -2.794 -8.675 QT
-2.309 -8.557 -1.559 -8.557 QT
-1.559 -7.776 L
-6.528 -7.776 L
-6.528 -8.557 L
-5.794 -8.557 -5.309 -8.675 QT
-4.825 -8.792 -4.825 -9.245 QT
-4.825 -15.292 L
-4.825 -15.745 -4.88 -15.964 QT
-4.934 -16.182 -5.098 -16.307 QT
-5.263 -16.432 -5.684 -16.495 QT
-9.372 -16.495 L
-9.372 -9.245 L
-9.372 -8.792 -8.888 -8.675 QT
-8.403 -8.557 -7.653 -8.557 QT
-7.653 -7.776 L
-12.638 -7.776 L
cp}def
f-993583958
f
GR
GS
[1.11111 0 0 1.11111 828.05637 32] CT
N
/f1994360882{4.175 -7.526 M
2.878 -7.526 1.8 -8.229 QT
0.722 -8.932 0.128 -10.081 QT
-0.466 -11.229 -0.466 -12.526 QT
-0.466 -13.854 0.183 -15.003 QT
0.831 -16.151 1.948 -16.823 QT
3.066 -17.495 4.409 -17.495 QT
5.206 -17.495 5.933 -17.159 QT
6.659 -16.823 7.175 -16.214 QT
7.175 -20.792 L
7.175 -21.385 7.003 -21.651 QT
6.831 -21.917 6.503 -21.971 QT
6.175 -22.026 5.472 -22.026 QT
5.472 -22.807 L
8.722 -23.042 L
8.722 -9.776 L
8.722 -9.198 8.902 -8.932 QT
9.081 -8.667 9.409 -8.612 QT
9.738 -8.557 10.441 -8.557 QT
10.441 -7.776 L
7.113 -7.526 L
7.113 -8.917 L
6.55 -8.26 5.761 -7.893 QT
4.972 -7.526 4.175 -7.526 QT
cp
1.925 -9.682 M
2.3 -8.964 2.933 -8.534 QT
3.566 -8.104 4.3 -8.104 QT
5.206 -8.104 5.972 -8.635 QT
6.738 -9.167 7.113 -9.995 QT
7.113 -15.276 L
6.863 -15.76 6.464 -16.143 QT
6.066 -16.526 5.581 -16.729 QT
5.097 -16.932 4.55 -16.932 QT
3.394 -16.932 2.698 -16.284 QT
2.003 -15.635 1.722 -14.62 QT
1.441 -13.604 1.441 -12.51 QT
1.441 -11.62 1.534 -10.964 QT
1.628 -10.307 1.925 -9.682 QT
cp}def
f1994360882
f
GR
GS
[1.11111 0 0 1.11111 828.05637 32] CT
N
/f949929195{16.284 -7.526 M
14.941 -7.526 13.816 -8.229 QT
12.691 -8.932 12.05 -10.112 QT
11.409 -11.292 11.409 -12.604 QT
11.409 -13.885 11.995 -15.05 QT
12.581 -16.214 13.628 -16.925 QT
14.675 -17.635 15.972 -17.635 QT
16.972 -17.635 17.722 -17.3 QT
18.472 -16.964 18.956 -16.362 QT
19.441 -15.76 19.683 -14.94 QT
19.925 -14.12 19.925 -13.151 QT
19.925 -12.854 19.706 -12.854 QT
13.331 -12.854 L
13.331 -12.62 L
13.331 -10.792 14.066 -9.479 QT
14.8 -8.167 16.472 -8.167 QT
17.144 -8.167 17.722 -8.471 QT
18.3 -8.776 18.722 -9.315 QT
19.144 -9.854 19.3 -10.464 QT
19.316 -10.542 19.378 -10.596 QT
19.441 -10.651 19.519 -10.651 QT
19.706 -10.651 L
19.925 -10.651 19.925 -10.37 QT
19.613 -9.135 18.581 -8.331 QT
17.55 -7.526 16.284 -7.526 QT
cp
13.363 -13.401 M
18.378 -13.401 L
18.378 -14.229 18.144 -15.081 QT
17.909 -15.932 17.37 -16.495 QT
16.831 -17.057 15.972 -17.057 QT
14.722 -17.057 14.042 -15.893 QT
13.363 -14.729 13.363 -13.401 QT
cp}def
f949929195
f
GR
GS
[1.11111 0 0 1.11111 828.05637 32] CT
N
/f-1830137822{21.056 -7.776 M
21.056 -8.557 L
21.806 -8.557 22.291 -8.675 QT
22.775 -8.792 22.775 -9.245 QT
22.775 -15.26 L
22.775 -15.839 22.595 -16.104 QT
22.416 -16.37 22.088 -16.432 QT
21.759 -16.495 21.056 -16.495 QT
21.056 -17.26 L
24.244 -17.495 L
24.244 -15.354 L
24.681 -16.292 25.549 -16.893 QT
26.416 -17.495 27.431 -17.495 QT
28.963 -17.495 29.728 -16.768 QT
30.494 -16.042 30.494 -14.526 QT
30.494 -9.245 L
30.494 -8.792 30.978 -8.675 QT
31.463 -8.557 32.213 -8.557 QT
32.213 -7.776 L
27.181 -7.776 L
27.181 -8.557 L
27.931 -8.557 28.416 -8.675 QT
28.9 -8.792 28.9 -9.245 QT
28.9 -14.464 L
28.9 -15.542 28.588 -16.237 QT
28.275 -16.932 27.306 -16.932 QT
26.025 -16.932 25.205 -15.909 QT
24.384 -14.885 24.384 -13.589 QT
24.384 -9.245 L
24.384 -8.792 24.869 -8.675 QT
25.353 -8.557 26.088 -8.557 QT
26.088 -7.776 L
21.056 -7.776 L
cp}def
f-1830137822
f
GR
GS
[1.11111 0 0 1.11111 828.05637 32] CT
N
/f299971597{37.884 -7.526 M
36.541 -7.526 35.463 -8.221 QT
34.384 -8.917 33.759 -10.073 QT
33.134 -11.229 33.134 -12.526 QT
33.134 -13.823 33.752 -15.018 QT
34.369 -16.214 35.455 -16.925 QT
36.541 -17.635 37.884 -17.635 QT
39.166 -17.635 40.228 -17.135 QT
41.291 -16.635 41.291 -15.479 QT
41.291 -15.042 40.978 -14.729 QT
40.666 -14.417 40.228 -14.417 QT
39.791 -14.417 39.486 -14.729 QT
39.181 -15.042 39.181 -15.479 QT
39.181 -15.87 39.424 -16.151 QT
39.666 -16.432 40.041 -16.51 QT
39.275 -16.995 37.9 -16.995 QT
36.853 -16.995 36.205 -16.3 QT
35.556 -15.604 35.299 -14.573 QT
35.041 -13.542 35.041 -12.526 QT
35.041 -11.464 35.361 -10.471 QT
35.681 -9.479 36.384 -8.823 QT
37.088 -8.167 38.15 -8.167 QT
39.197 -8.167 39.924 -8.807 QT
40.65 -9.448 40.916 -10.479 QT
40.916 -10.62 41.088 -10.62 QT
41.353 -10.62 L
41.431 -10.62 41.478 -10.557 QT
41.525 -10.495 41.525 -10.417 QT
41.525 -10.354 L
41.197 -9.057 40.213 -8.292 QT
39.228 -7.526 37.884 -7.526 QT
cp}def
f299971597
f
GR
GS
[1.11111 0 0 1.11111 828.05637 32] CT
N
/f702359247{47.484 -7.526 M
46.141 -7.526 45.016 -8.229 QT
43.891 -8.932 43.25 -10.112 QT
42.609 -11.292 42.609 -12.604 QT
42.609 -13.885 43.195 -15.05 QT
43.781 -16.214 44.828 -16.925 QT
45.875 -17.635 47.172 -17.635 QT
48.172 -17.635 48.922 -17.3 QT
49.672 -16.964 50.156 -16.362 QT
50.641 -15.76 50.883 -14.94 QT
51.125 -14.12 51.125 -13.151 QT
51.125 -12.854 50.906 -12.854 QT
44.531 -12.854 L
44.531 -12.62 L
44.531 -10.792 45.266 -9.479 QT
46 -8.167 47.672 -8.167 QT
48.344 -8.167 48.922 -8.471 QT
49.5 -8.776 49.922 -9.315 QT
50.344 -9.854 50.5 -10.464 QT
50.516 -10.542 50.578 -10.596 QT
50.641 -10.651 50.719 -10.651 QT
50.906 -10.651 L
51.125 -10.651 51.125 -10.37 QT
50.813 -9.135 49.781 -8.331 QT
48.75 -7.526 47.484 -7.526 QT
cp
44.563 -13.401 M
49.578 -13.401 L
49.578 -14.229 49.344 -15.081 QT
49.109 -15.932 48.57 -16.495 QT
48.031 -17.057 47.172 -17.057 QT
45.922 -17.057 45.242 -15.893 QT
44.563 -14.729 44.563 -13.401 QT
cp}def
f702359247
f
GR
GS
[1.11111 0 0 1.11111 0 0] CT
0.149 GC
1 LJ
0.5 LW
N
591.5 198 M
899 198 L
S
GR
GS
[1.11111 0 0 1.11111 0 0] CT
0 0.447 0.741 RC
N
604.805 198 M
604.805 76.941 L
597.413 76.941 L
597.413 198 L
cp
612.197 198 M
612.197 41.759 L
604.805 41.759 L
604.805 198 L
cp
619.589 198 M
619.589 115.095 L
612.197 115.095 L
612.197 198 L
cp
626.981 198 M
626.981 152.444 L
619.589 152.444 L
619.589 198 L
cp
634.373 198 M
634.373 158.762 L
626.981 158.762 L
626.981 198 L
cp
641.764 198 M
641.764 152.97 L
634.373 152.97 L
634.373 198 L
cp
649.156 198 M
649.156 142.782 L
641.764 142.782 L
641.764 198 L
cp
656.548 198 M
656.548 117.727 L
649.156 117.727 L
649.156 198 L
cp
663.94 198 M
663.94 101.159 L
656.548 101.159 L
656.548 198 L
cp
671.332 198 M
671.332 118.502 L
663.94 118.502 L
663.94 198 L
cp
678.724 198 M
678.724 128.659 L
671.332 128.659 L
671.332 198 L
cp
686.115 198 M
686.115 143.865 L
678.724 143.865 L
678.724 198 L
cp
693.507 198 M
693.507 148.759 L
686.115 148.759 L
686.115 198 L
cp
700.899 198 M
700.899 150.4 L
693.507 150.4 L
693.507 198 L
cp
708.291 198 M
708.291 153.125 L
700.899 153.125 L
700.899 198 L
cp
715.683 198 M
715.683 167.062 L
708.291 167.062 L
708.291 198 L
cp
723.075 198 M
723.075 170.747 L
715.683 170.747 L
715.683 198 L
cp
730.466 198 M
730.466 178.056 L
723.075 178.056 L
723.075 198 L
cp
737.858 198 M
737.858 185.643 L
730.466 185.643 L
730.466 198 L
cp
745.25 198 M
745.25 187.966 L
737.858 187.966 L
737.858 198 L
cp
752.642 198 M
752.642 188.926 L
745.25 188.926 L
745.25 198 L
cp
760.034 198 M
760.034 188.523 L
752.642 188.523 L
752.642 198 L
cp
767.425 198 M
767.425 190.474 L
760.034 190.474 L
760.034 198 L
cp
774.817 198 M
774.817 189.917 L
767.425 189.917 L
767.425 198 L
cp
782.209 198 M
782.209 191.434 L
774.817 191.434 L
774.817 198 L
cp
789.601 198 M
789.601 192.085 L
782.209 192.085 L
782.209 198 L
cp
796.993 198 M
796.993 193.571 L
789.601 193.571 L
789.601 198 L
cp
804.385 198 M
804.385 193.447 L
796.993 193.447 L
796.993 198 L
cp
811.776 198 M
811.776 194.562 L
804.385 194.562 L
804.385 198 L
cp
819.168 198 M
819.168 195.182 L
811.776 195.182 L
811.776 198 L
cp
826.56 198 M
826.56 194.562 L
819.168 194.562 L
819.168 198 L
cp
833.952 198 M
833.952 195.151 L
826.56 195.151 L
826.56 198 L
cp
841.344 198 M
841.344 195.43 L
833.952 195.43 L
833.952 198 L
cp
848.736 198 M
848.736 195.956 L
841.344 195.956 L
841.344 198 L
cp
856.127 198 M
856.127 195.925 L
848.736 195.925 L
848.736 198 L
cp
863.519 198 M
863.519 195.368 L
856.127 195.368 L
856.127 198 L
cp
870.911 198 M
870.911 195.12 L
863.519 195.12 L
863.519 198 L
cp
878.303 198 M
878.303 195.244 L
870.911 195.244 L
870.911 198 L
cp
885.695 198 M
885.695 195.646 L
878.303 195.646 L
878.303 198 L
cp
893.087 198 M
893.087 195.058 L
885.695 195.058 L
885.695 198 L
cp
f
GR
GS
[1.11111 0 0 1.11111 0 0] CT
10.0 ML
0.45 LW
N
597.413 198 M
597.413 76.941 L
604.805 76.941 L
604.805 198 L
cp
S
GR
GS
[1.11111 0 0 1.11111 0 0] CT
10.0 ML
0.45 LW
N
604.805 198 M
604.805 41.759 L
612.197 41.759 L
612.197 198 L
cp
S
GR
GS
[1.11111 0 0 1.11111 0 0] CT
10.0 ML
0.45 LW
N
612.197 198 M
612.197 115.095 L
619.589 115.095 L
619.589 198 L
cp
S
GR
GS
[1.11111 0 0 1.11111 0 0] CT
10.0 ML
0.45 LW
N
619.589 198 M
619.589 152.444 L
626.981 152.444 L
626.981 198 L
cp
S
GR
GS
[1.11111 0 0 1.11111 0 0] CT
10.0 ML
0.45 LW
N
626.981 198 M
626.981 158.762 L
634.373 158.762 L
634.373 198 L
cp
S
GR
GS
[1.11111 0 0 1.11111 0 0] CT
10.0 ML
0.45 LW
N
634.373 198 M
634.373 152.97 L
641.764 152.97 L
641.764 198 L
cp
S
GR
GS
[1.11111 0 0 1.11111 0 0] CT
10.0 ML
0.45 LW
N
641.764 198 M
641.764 142.782 L
649.156 142.782 L
649.156 198 L
cp
S
GR
GS
[1.11111 0 0 1.11111 0 0] CT
10.0 ML
0.45 LW
N
649.156 198 M
649.156 117.727 L
656.548 117.727 L
656.548 198 L
cp
S
GR
GS
[1.11111 0 0 1.11111 0 0] CT
10.0 ML
0.45 LW
N
656.548 198 M
656.548 101.159 L
663.94 101.159 L
663.94 198 L
cp
S
GR
GS
[1.11111 0 0 1.11111 0 0] CT
10.0 ML
0.45 LW
N
663.94 198 M
663.94 118.502 L
671.332 118.502 L
671.332 198 L
cp
S
GR
GS
[1.11111 0 0 1.11111 0 0] CT
10.0 ML
0.45 LW
N
671.332 198 M
671.332 128.659 L
678.724 128.659 L
678.724 198 L
cp
S
GR
GS
[1.11111 0 0 1.11111 0 0] CT
10.0 ML
0.45 LW
N
678.724 198 M
678.724 143.865 L
686.115 143.865 L
686.115 198 L
cp
S
GR
GS
[1.11111 0 0 1.11111 0 0] CT
10.0 ML
0.45 LW
N
686.115 198 M
686.115 148.759 L
693.507 148.759 L
693.507 198 L
cp
S
GR
GS
[1.11111 0 0 1.11111 0 0] CT
10.0 ML
0.45 LW
N
693.507 198 M
693.507 150.4 L
700.899 150.4 L
700.899 198 L
cp
S
GR
GS
[1.11111 0 0 1.11111 0 0] CT
10.0 ML
0.45 LW
N
700.899 198 M
700.899 153.125 L
708.291 153.125 L
708.291 198 L
cp
S
GR
GS
[1.11111 0 0 1.11111 0 0] CT
10.0 ML
0.45 LW
N
708.291 198 M
708.291 167.062 L
715.683 167.062 L
715.683 198 L
cp
S
GR
GS
[1.11111 0 0 1.11111 0 0] CT
10.0 ML
0.45 LW
N
715.683 198 M
715.683 170.747 L
723.075 170.747 L
723.075 198 L
cp
S
GR
GS
[1.11111 0 0 1.11111 0 0] CT
10.0 ML
0.45 LW
N
723.075 198 M
723.075 178.056 L
730.466 178.056 L
730.466 198 L
cp
S
GR
GS
[1.11111 0 0 1.11111 0 0] CT
10.0 ML
0.45 LW
N
730.466 198 M
730.466 185.643 L
737.858 185.643 L
737.858 198 L
cp
S
GR
GS
[1.11111 0 0 1.11111 0 0] CT
10.0 ML
0.45 LW
N
737.858 198 M
737.858 187.966 L
745.25 187.966 L
745.25 198 L
cp
S
GR
GS
[1.11111 0 0 1.11111 0 0] CT
10.0 ML
0.45 LW
N
745.25 198 M
745.25 188.926 L
752.642 188.926 L
752.642 198 L
cp
S
GR
GS
[1.11111 0 0 1.11111 0 0] CT
10.0 ML
0.45 LW
N
752.642 198 M
752.642 188.523 L
760.034 188.523 L
760.034 198 L
cp
S
GR
GS
[1.11111 0 0 1.11111 0 0] CT
10.0 ML
0.45 LW
N
760.034 198 M
760.034 190.474 L
767.425 190.474 L
767.425 198 L
cp
S
GR
GS
[1.11111 0 0 1.11111 0 0] CT
10.0 ML
0.45 LW
N
767.425 198 M
767.425 189.917 L
774.817 189.917 L
774.817 198 L
cp
S
GR
GS
[1.11111 0 0 1.11111 0 0] CT
10.0 ML
0.45 LW
N
774.817 198 M
774.817 191.434 L
782.209 191.434 L
782.209 198 L
cp
S
GR
GS
[1.11111 0 0 1.11111 0 0] CT
10.0 ML
0.45 LW
N
782.209 198 M
782.209 192.085 L
789.601 192.085 L
789.601 198 L
cp
S
GR
GS
[1.11111 0 0 1.11111 0 0] CT
10.0 ML
0.45 LW
N
789.601 198 M
789.601 193.571 L
796.993 193.571 L
796.993 198 L
cp
S
GR
GS
[1.11111 0 0 1.11111 0 0] CT
10.0 ML
0.45 LW
N
796.993 198 M
796.993 193.447 L
804.385 193.447 L
804.385 198 L
cp
S
GR
GS
[1.11111 0 0 1.11111 0 0] CT
10.0 ML
0.45 LW
N
804.385 198 M
804.385 194.562 L
811.776 194.562 L
811.776 198 L
cp
S
GR
GS
[1.11111 0 0 1.11111 0 0] CT
10.0 ML
0.45 LW
N
811.776 198 M
811.776 195.182 L
819.168 195.182 L
819.168 198 L
cp
S
GR
GS
[1.11111 0 0 1.11111 0 0] CT
10.0 ML
0.45 LW
N
819.168 198 M
819.168 194.562 L
826.56 194.562 L
826.56 198 L
cp
S
GR
GS
[1.11111 0 0 1.11111 0 0] CT
10.0 ML
0.45 LW
N
826.56 198 M
826.56 195.151 L
833.952 195.151 L
833.952 198 L
cp
S
GR
GS
[1.11111 0 0 1.11111 0 0] CT
10.0 ML
0.45 LW
N
833.952 198 M
833.952 195.43 L
841.344 195.43 L
841.344 198 L
cp
S
GR
GS
[1.11111 0 0 1.11111 0 0] CT
10.0 ML
0.45 LW
N
841.344 198 M
841.344 195.956 L
848.736 195.956 L
848.736 198 L
cp
S
GR
GS
[1.11111 0 0 1.11111 0 0] CT
10.0 ML
0.45 LW
N
848.736 198 M
848.736 195.925 L
856.127 195.925 L
856.127 198 L
cp
S
GR
GS
[1.11111 0 0 1.11111 0 0] CT
10.0 ML
0.45 LW
N
856.127 198 M
856.127 195.368 L
863.519 195.368 L
863.519 198 L
cp
S
GR
GS
[1.11111 0 0 1.11111 0 0] CT
10.0 ML
0.45 LW
N
863.519 198 M
863.519 195.12 L
870.911 195.12 L
870.911 198 L
cp
S
GR
GS
[1.11111 0 0 1.11111 0 0] CT
10.0 ML
0.45 LW
N
870.911 198 M
870.911 195.244 L
878.303 195.244 L
878.303 198 L
cp
S
GR
GS
[1.11111 0 0 1.11111 0 0] CT
10.0 ML
0.45 LW
N
878.303 198 M
878.303 195.646 L
885.695 195.646 L
885.695 198 L
cp
S
GR
GS
[1.11111 0 0 1.11111 0 0] CT
10.0 ML
0.45 LW
N
885.695 198 M
885.695 195.058 L
893.087 195.058 L
893.087 198 L
cp
S
GR
GS
[1.11111 0 0 1.11111 0 0] CT
0.149 GC
2 setlinecap
1 LJ
0.45 LW
N
591.5 198 M
899 198 L
S
GR
GS
[1.11111 0 0 1.11111 0 0] CT
0.149 GC
2 setlinecap
1 LJ
0.45 LW
N
591.5 31.5 M
899 31.5 L
S
GR
GS
[1.11111 0 0 1.11111 0 0] CT
0.149 GC
2 setlinecap
1 LJ
0.45 LW
N
593.147 198 M
593.147 194.925 L
S
GR
GS
[1.11111 0 0 1.11111 0 0] CT
0.149 GC
2 setlinecap
1 LJ
0.45 LW
N
645.841 198 M
645.841 194.925 L
S
GR
GS
[1.11111 0 0 1.11111 0 0] CT
0.149 GC
2 setlinecap
1 LJ
0.45 LW
N
698.534 198 M
698.534 194.925 L
S
GR
GS
[1.11111 0 0 1.11111 0 0] CT
0.149 GC
2 setlinecap
1 LJ
0.45 LW
N
751.228 198 M
751.228 194.925 L
S
GR
GS
[1.11111 0 0 1.11111 0 0] CT
0.149 GC
2 setlinecap
1 LJ
0.45 LW
N
803.922 198 M
803.922 194.925 L
S
GR
GS
[1.11111 0 0 1.11111 0 0] CT
0.149 GC
2 setlinecap
1 LJ
0.45 LW
N
856.615 198 M
856.615 194.925 L
S
GR
GS
[1.11111 0 0 1.11111 0 0] CT
0.149 GC
2 setlinecap
1 LJ
0.45 LW
N
593.147 31.5 M
593.147 34.575 L
S
GR
GS
[1.11111 0 0 1.11111 0 0] CT
0.149 GC
2 setlinecap
1 LJ
0.45 LW
N
645.841 31.5 M
645.841 34.575 L
S
GR
GS
[1.11111 0 0 1.11111 0 0] CT
0.149 GC
2 setlinecap
1 LJ
0.45 LW
N
698.534 31.5 M
698.534 34.575 L
S
GR
GS
[1.11111 0 0 1.11111 0 0] CT
0.149 GC
2 setlinecap
1 LJ
0.45 LW
N
751.228 31.5 M
751.228 34.575 L
S
GR
GS
[1.11111 0 0 1.11111 0 0] CT
0.149 GC
2 setlinecap
1 LJ
0.45 LW
N
803.922 31.5 M
803.922 34.575 L
S
GR
GS
[1.11111 0 0 1.11111 0 0] CT
0.149 GC
2 setlinecap
1 LJ
0.45 LW
N
856.615 31.5 M
856.615 34.575 L
S
GR
GS
[1.11111 0 0 1.11111 659.05267 226.22223] CT
0.149 GC
N
/f868474374{0 15.511 M
-2.203 15.511 -3 13.698 QT
-3.797 11.886 -3.797 9.386 QT
-3.797 7.823 -3.508 6.44 QT
-3.219 5.057 -2.375 4.096 QT
-1.531 3.136 0 3.136 QT
1.188 3.136 1.945 3.714 QT
2.703 4.292 3.094 5.214 QT
3.484 6.136 3.633 7.182 QT
3.781 8.229 3.781 9.386 QT
3.781 10.932 3.492 12.276 QT
3.203 13.62 2.367 14.565 QT
1.531 15.511 0 15.511 QT
cp
0 15.042 M
1 15.042 1.492 14.018 QT
1.984 12.995 2.102 11.745 QT
2.219 10.495 2.219 9.089 QT
2.219 7.729 2.102 6.589 QT
1.984 5.448 1.5 4.526 QT
1.016 3.604 0 3.604 QT
-1.016 3.604 -1.508 4.534 QT
-2 5.464 -2.117 6.596 QT
-2.234 7.729 -2.234 9.089 QT
-2.234 10.089 -2.188 10.979 QT
-2.141 11.87 -1.93 12.815 QT
-1.719 13.761 -1.242 14.401 QT
-0.766 15.042 0 15.042 QT
cp}def
f868474374
f
GR
GS
[1.11111 0 0 1.11111 717.60105 226.22223] CT
0.149 GC
N
/f-473596020{-7.328 15.12 M
-7.328 14.479 L
-5.078 14.479 -5.078 13.917 QT
-5.078 4.464 L
-6.016 4.917 -7.438 4.917 QT
-7.438 4.276 L
-5.234 4.276 -4.109 3.136 QT
-3.844 3.136 L
-3.781 3.136 -3.727 3.182 QT
-3.672 3.229 -3.672 3.292 QT
-3.672 13.917 L
-3.672 14.479 -1.422 14.479 QT
-1.422 15.12 L
-7.328 15.12 L
cp}def
f-473596020
f
GR
GS
[1.11111 0 0 1.11111 717.60105 226.22223] CT
0.149 GC
N
/f-442272507{4.5 15.511 M
2.297 15.511 1.5 13.698 QT
0.703 11.886 0.703 9.386 QT
0.703 7.823 0.992 6.44 QT
1.281 5.057 2.125 4.096 QT
2.969 3.136 4.5 3.136 QT
5.688 3.136 6.445 3.714 QT
7.203 4.292 7.594 5.214 QT
7.984 6.136 8.133 7.182 QT
8.281 8.229 8.281 9.386 QT
8.281 10.932 7.992 12.276 QT
7.703 13.62 6.867 14.565 QT
6.031 15.511 4.5 15.511 QT
cp
4.5 15.042 M
5.5 15.042 5.992 14.018 QT
6.484 12.995 6.602 11.745 QT
6.719 10.495 6.719 9.089 QT
6.719 7.729 6.602 6.589 QT
6.484 5.448 6 4.526 QT
5.516 3.604 4.5 3.604 QT
3.484 3.604 2.992 4.534 QT
2.5 5.464 2.383 6.596 QT
2.266 7.729 2.266 9.089 QT
2.266 10.089 2.313 10.979 QT
2.359 11.87 2.57 12.815 QT
2.781 13.761 3.258 14.401 QT
3.734 15.042 4.5 15.042 QT
cp}def
f-442272507
f
GR
GS
[1.11111 0 0 1.11111 776.14943 226.22223] CT
0.149 GC
N
/f-1720886811{-8.109 15.12 M
-8.109 14.636 L
-8.109 14.589 -8.063 14.542 QT
-5.266 11.448 L
-4.641 10.761 -4.242 10.292 QT
-3.844 9.823 -3.461 9.221 QT
-3.078 8.62 -2.852 7.987 QT
-2.625 7.354 -2.625 6.651 QT
-2.625 5.917 -2.898 5.245 QT
-3.172 4.573 -3.711 4.167 QT
-4.25 3.761 -5.016 3.761 QT
-5.797 3.761 -6.422 4.229 QT
-7.047 4.698 -7.297 5.448 QT
-7.234 5.432 -7.109 5.432 QT
-6.703 5.432 -6.422 5.706 QT
-6.141 5.979 -6.141 6.417 QT
-6.141 6.823 -6.422 7.112 QT
-6.703 7.401 -7.109 7.401 QT
-7.531 7.401 -7.82 7.104 QT
-8.109 6.807 -8.109 6.417 QT
-8.109 5.729 -7.852 5.136 QT
-7.594 4.542 -7.117 4.081 QT
-6.641 3.62 -6.039 3.378 QT
-5.438 3.136 -4.75 3.136 QT
-3.719 3.136 -2.836 3.565 QT
-1.953 3.995 -1.43 4.792 QT
-0.906 5.589 -0.906 6.651 QT
-0.906 7.432 -1.25 8.136 QT
-1.594 8.839 -2.133 9.417 QT
-2.672 9.995 -3.508 10.721 QT
-4.344 11.448 -4.609 11.698 QT
-6.641 13.667 L
-4.906 13.667 L
-3.641 13.667 -2.781 13.643 QT
-1.922 13.62 -1.875 13.573 QT
-1.656 13.339 -1.438 11.917 QT
-0.906 11.917 L
-1.422 15.12 L
-8.109 15.12 L
cp}def
f-1720886811
f
GR
GS
[1.11111 0 0 1.11111 776.14943 226.22223] CT
0.149 GC
N
f-442272507
f
GR
GS
[1.11111 0 0 1.11111 834.69781 226.22223] CT
0.149 GC
N
/f1847436656{-7.281 13.729 M
-6.859 14.339 -6.148 14.643 QT
-5.438 14.948 -4.625 14.948 QT
-3.578 14.948 -3.141 14.057 QT
-2.703 13.167 -2.703 12.026 QT
-2.703 11.511 -2.789 11.003 QT
-2.875 10.495 -3.102 10.057 QT
-3.328 9.62 -3.711 9.354 QT
-4.094 9.089 -4.641 9.089 QT
-5.828 9.089 L
-6 9.089 -6 8.917 QT
-6 8.761 L
-6 8.62 -5.828 8.62 QT
-4.844 8.542 L
-4.203 8.542 -3.789 8.065 QT
-3.375 7.589 -3.18 6.909 QT
-2.984 6.229 -2.984 5.62 QT
-2.984 4.761 -3.391 4.206 QT
-3.797 3.651 -4.625 3.651 QT
-5.313 3.651 -5.938 3.909 QT
-6.563 4.167 -6.922 4.698 QT
-6.891 4.682 -6.867 4.682 QT
-6.844 4.682 -6.797 4.682 QT
-6.391 4.682 -6.125 4.964 QT
-5.859 5.245 -5.859 5.636 QT
-5.859 6.026 -6.125 6.307 QT
-6.391 6.589 -6.797 6.589 QT
-7.203 6.589 -7.484 6.307 QT
-7.766 6.026 -7.766 5.636 QT
-7.766 4.87 -7.297 4.292 QT
-6.828 3.714 -6.094 3.425 QT
-5.359 3.136 -4.625 3.136 QT
-4.078 3.136 -3.469 3.3 QT
-2.859 3.464 -2.367 3.761 QT
-1.875 4.057 -1.563 4.534 QT
-1.25 5.011 -1.25 5.62 QT
-1.25 6.37 -1.594 7.011 QT
-1.938 7.651 -2.523 8.12 QT
-3.109 8.589 -3.813 8.823 QT
-3.031 8.964 -2.328 9.401 QT
-1.625 9.839 -1.195 10.526 QT
-0.766 11.214 -0.766 12.011 QT
-0.766 12.995 -1.313 13.8 QT
-1.859 14.604 -2.75 15.057 QT
-3.641 15.511 -4.625 15.511 QT
-5.469 15.511 -6.313 15.19 QT
-7.156 14.87 -7.703 14.229 QT
-8.25 13.589 -8.25 12.698 QT
-8.25 12.245 -7.945 11.948 QT
-7.641 11.651 -7.203 11.651 QT
-6.906 11.651 -6.664 11.784 QT
-6.422 11.917 -6.289 12.167 QT
-6.156 12.417 -6.156 12.698 QT
-6.156 13.136 -6.461 13.432 QT
-6.766 13.729 -7.203 13.729 QT
-7.281 13.729 L
cp}def
f1847436656
f
GR
GS
[1.11111 0 0 1.11111 834.69781 226.22223] CT
0.149 GC
N
f-442272507
f
GR
GS
[1.11111 0 0 1.11111 893.24619 226.22223] CT
0.149 GC
N
/f-356005740{-8.5 12.151 M
-8.5 11.511 L
-2.938 3.214 L
-2.875 3.136 -2.75 3.136 QT
-2.484 3.136 L
-2.281 3.136 -2.281 3.339 QT
-2.281 11.511 L
-0.516 11.511 L
-0.516 12.151 L
-2.281 12.151 L
-2.281 13.917 L
-2.281 14.292 -1.758 14.386 QT
-1.234 14.479 -0.531 14.479 QT
-0.531 15.12 L
-5.5 15.12 L
-5.5 14.479 L
-4.797 14.479 -4.273 14.386 QT
-3.75 14.292 -3.75 13.917 QT
-3.75 12.151 L
-8.5 12.151 L
cp
-7.906 11.511 M
-3.641 11.511 L
-3.641 5.151 L
-7.906 11.511 L
cp}def
f-356005740
f
GR
GS
[1.11111 0 0 1.11111 893.24619 226.22223] CT
0.149 GC
N
f-442272507
f
GR
GS
[1.11111 0 0 1.11111 951.79464 226.22223] CT
0.149 GC
N
/f-1264574211{-7.438 13.073 M
-7.25 13.604 -6.867 14.034 QT
-6.484 14.464 -5.961 14.706 QT
-5.438 14.948 -4.875 14.948 QT
-3.578 14.948 -3.086 13.932 QT
-2.594 12.917 -2.594 11.479 QT
-2.594 10.854 -2.617 10.432 QT
-2.641 10.011 -2.734 9.604 QT
-2.906 8.979 -3.32 8.503 QT
-3.734 8.026 -4.344 8.026 QT
-4.953 8.026 -5.383 8.214 QT
-5.813 8.401 -6.086 8.643 QT
-6.359 8.886 -6.57 9.159 QT
-6.781 9.432 -6.844 9.448 QT
-7.047 9.448 L
-7.078 9.448 -7.148 9.393 QT
-7.219 9.339 -7.219 9.276 QT
-7.219 3.276 L
-7.219 3.229 -7.156 3.182 QT
-7.094 3.136 -7.047 3.136 QT
-6.984 3.136 L
-5.781 3.714 -4.406 3.714 QT
-3.078 3.714 -1.844 3.136 QT
-1.781 3.136 L
-1.719 3.136 -1.664 3.175 QT
-1.609 3.214 -1.609 3.276 QT
-1.609 3.432 L
-1.609 3.526 -1.656 3.526 QT
-2.266 4.339 -3.195 4.8 QT
-4.125 5.261 -5.109 5.261 QT
-5.828 5.261 -6.594 5.057 QT
-6.594 8.464 L
-6 7.979 -5.523 7.768 QT
-5.047 7.557 -4.328 7.557 QT
-3.328 7.557 -2.539 8.128 QT
-1.75 8.698 -1.328 9.62 QT
-0.906 10.542 -0.906 11.495 QT
-0.906 12.573 -1.445 13.503 QT
-1.984 14.432 -2.898 14.971 QT
-3.813 15.511 -4.875 15.511 QT
-5.766 15.511 -6.508 15.057 QT
-7.25 14.604 -7.68 13.831 QT
-8.109 13.057 -8.109 12.182 QT
-8.109 11.776 -7.844 11.526 QT
-7.578 11.276 -7.188 11.276 QT
-6.781 11.276 -6.516 11.534 QT
-6.25 11.792 -6.25 12.182 QT
-6.25 12.573 -6.516 12.839 QT
-6.781 13.104 -7.188 13.104 QT
-7.234 13.104 -7.32 13.089 QT
-7.406 13.073 -7.438 13.073 QT
cp}def
f-1264574211
f
GR
GS
[1.11111 0 0 1.11111 951.79464 226.22223] CT
0.149 GC
N
f-442272507
f
GR
GS
[1.11111 0 0 1.11111 0 0] CT
0.149 GC
2 setlinecap
1 LJ
0.45 LW
N
591.5 198 M
591.5 31.5 L
S
GR
GS
[1.11111 0 0 1.11111 0 0] CT
0.149 GC
2 setlinecap
1 LJ
0.45 LW
N
899 198 M
899 31.5 L
S
GR
GS
[1.11111 0 0 1.11111 0 0] CT
0.149 GC
2 setlinecap
1 LJ
0.45 LW
N
591.5 198 M
594.575 198 L
S
GR
GS
[1.11111 0 0 1.11111 0 0] CT
0.149 GC
2 setlinecap
1 LJ
0.45 LW
N
591.5 162.762 M
594.575 162.762 L
S
GR
GS
[1.11111 0 0 1.11111 0 0] CT
0.149 GC
2 setlinecap
1 LJ
0.45 LW
N
591.5 127.524 M
594.575 127.524 L
S
GR
GS
[1.11111 0 0 1.11111 0 0] CT
0.149 GC
2 setlinecap
1 LJ
0.45 LW
N
591.5 92.286 M
594.575 92.286 L
S
GR
GS
[1.11111 0 0 1.11111 0 0] CT
0.149 GC
2 setlinecap
1 LJ
0.45 LW
N
591.5 57.048 M
594.575 57.048 L
S
GR
GS
[1.11111 0 0 1.11111 0 0] CT
0.149 GC
2 setlinecap
1 LJ
0.45 LW
N
899 198 M
895.925 198 L
S
GR
GS
[1.11111 0 0 1.11111 0 0] CT
0.149 GC
2 setlinecap
1 LJ
0.45 LW
N
899 162.762 M
895.925 162.762 L
S
GR
GS
[1.11111 0 0 1.11111 0 0] CT
0.149 GC
2 setlinecap
1 LJ
0.45 LW
N
899 127.524 M
895.925 127.524 L
S
GR
GS
[1.11111 0 0 1.11111 0 0] CT
0.149 GC
2 setlinecap
1 LJ
0.45 LW
N
899 92.286 M
895.925 92.286 L
S
GR
GS
[1.11111 0 0 1.11111 0 0] CT
0.149 GC
2 setlinecap
1 LJ
0.45 LW
N
899 57.048 M
895.925 57.048 L
S
GR
GS
[1.11111 0 0 1.11111 651.00003 220] CT
0.149 GC
N
f263113603
f
GR
GS
[1.11111 0 0 1.11111 651.00003 180.84656] CT
0.149 GC
N
/f-2064231689{-27.5 4.711 M
-29.703 4.711 -30.5 2.898 QT
-31.297 1.086 -31.297 -1.414 QT
-31.297 -2.977 -31.008 -4.36 QT
-30.719 -5.743 -29.875 -6.704 QT
-29.031 -7.664 -27.5 -7.664 QT
-26.313 -7.664 -25.555 -7.086 QT
-24.797 -6.508 -24.406 -5.586 QT
-24.016 -4.664 -23.867 -3.618 QT
-23.719 -2.571 -23.719 -1.414 QT
-23.719 0.132 -24.008 1.476 QT
-24.297 2.82 -25.133 3.765 QT
-25.969 4.711 -27.5 4.711 QT
cp
-27.5 4.242 M
-26.5 4.242 -26.008 3.218 QT
-25.516 2.195 -25.399 0.945 QT
-25.281 -0.305 -25.281 -1.711 QT
-25.281 -3.071 -25.399 -4.211 QT
-25.516 -5.352 -26 -6.274 QT
-26.484 -7.196 -27.5 -7.196 QT
-28.516 -7.196 -29.008 -6.266 QT
-29.5 -5.336 -29.617 -4.204 QT
-29.734 -3.071 -29.734 -1.711 QT
-29.734 -0.711 -29.688 0.179 QT
-29.641 1.07 -29.43 2.015 QT
-29.219 2.961 -28.742 3.601 QT
-28.266 4.242 -27.5 4.242 QT
cp}def
f-2064231689
f
GR
GS
[1.11111 0 0 1.11111 651.00003 180.84656] CT
0.149 GC
N
/f-1442725014{-21.484 3.32 M
-21.484 2.929 -21.188 2.632 QT
-20.891 2.336 -20.5 2.336 QT
-20.25 2.336 -20.016 2.468 QT
-19.781 2.601 -19.649 2.843 QT
-19.516 3.086 -19.516 3.32 QT
-19.516 3.726 -19.805 4.023 QT
-20.094 4.32 -20.5 4.32 QT
-20.891 4.32 -21.188 4.023 QT
-21.484 3.726 -21.484 3.32 QT
cp}def
f-1442725014
f
GR
GS
[1.11111 0 0 1.11111 651.00003 180.84656] CT
0.149 GC
N
/f1773653943{-13.5 4.711 M
-15.703 4.711 -16.5 2.898 QT
-17.297 1.086 -17.297 -1.414 QT
-17.297 -2.977 -17.008 -4.36 QT
-16.719 -5.743 -15.875 -6.704 QT
-15.031 -7.664 -13.5 -7.664 QT
-12.313 -7.664 -11.555 -7.086 QT
-10.797 -6.508 -10.406 -5.586 QT
-10.016 -4.664 -9.867 -3.618 QT
-9.719 -2.571 -9.719 -1.414 QT
-9.719 0.132 -10.008 1.476 QT
-10.297 2.82 -11.133 3.765 QT
-11.969 4.711 -13.5 4.711 QT
cp
-13.5 4.242 M
-12.5 4.242 -12.008 3.218 QT
-11.516 2.195 -11.398 0.945 QT
-11.281 -0.305 -11.281 -1.711 QT
-11.281 -3.071 -11.398 -4.211 QT
-11.516 -5.352 -12 -6.274 QT
-12.484 -7.196 -13.5 -7.196 QT
-14.516 -7.196 -15.008 -6.266 QT
-15.5 -5.336 -15.617 -4.204 QT
-15.734 -3.071 -15.734 -1.711 QT
-15.734 -0.711 -15.688 0.179 QT
-15.641 1.07 -15.43 2.015 QT
-15.219 2.961 -14.742 3.601 QT
-14.266 4.242 -13.5 4.242 QT
cp}def
f1773653943
f
GR
GS
[1.11111 0 0 1.11111 651.00003 180.84656] CT
0.149 GC
N
f-1628302965
f
GR
GS
[1.11111 0 0 1.11111 651.00003 141.69312] CT
0.149 GC
N
f-2064231689
f
GR
GS
[1.11111 0 0 1.11111 651.00003 141.69312] CT
0.149 GC
N
f-1442725014
f
GR
GS
[1.11111 0 0 1.11111 651.00003 141.69312] CT
0.149 GC
N
f1773653943
f
GR
GS
[1.11111 0 0 1.11111 651.00003 141.69312] CT
0.149 GC
N
f-2071185025
f
GR
GS
[1.11111 0 0 1.11111 651.00003 102.53968] CT
0.149 GC
N
f-2064231689
f
GR
GS
[1.11111 0 0 1.11111 651.00003 102.53968] CT
0.149 GC
N
f-1442725014
f
GR
GS
[1.11111 0 0 1.11111 651.00003 102.53968] CT
0.149 GC
N
f1773653943
f
GR
GS
[1.11111 0 0 1.11111 651.00003 102.53968] CT
0.149 GC
N
/f1966198609{-4.5 4.711 M
-5.609 4.711 -6.359 4.117 QT
-7.109 3.523 -7.516 2.578 QT
-7.922 1.632 -8.086 0.601 QT
-8.25 -0.43 -8.25 -1.493 QT
-8.25 -2.93 -7.695 -4.36 QT
-7.141 -5.789 -6.063 -6.727 QT
-4.984 -7.664 -3.5 -7.664 QT
-2.891 -7.664 -2.359 -7.43 QT
-1.828 -7.196 -1.523 -6.75 QT
-1.219 -6.305 -1.219 -5.649 QT
-1.219 -5.289 -1.469 -5.039 QT
-1.719 -4.789 -2.094 -4.789 QT
-2.438 -4.789 -2.695 -5.039 QT
-2.953 -5.289 -2.953 -5.649 QT
-2.953 -6.008 -2.695 -6.266 QT
-2.438 -6.524 -2.094 -6.524 QT
-2 -6.524 L
-2.219 -6.836 -2.641 -6.993 QT
-3.063 -7.149 -3.5 -7.149 QT
-4.047 -7.149 -4.508 -6.914 QT
-4.969 -6.68 -5.344 -6.274 QT
-5.719 -5.868 -5.961 -5.383 QT
-6.203 -4.899 -6.344 -4.274 QT
-6.484 -3.649 -6.516 -3.102 QT
-6.547 -2.555 -6.547 -1.727 QT
-6.234 -2.461 -5.656 -2.93 QT
-5.078 -3.399 -4.344 -3.399 QT
-3.547 -3.399 -2.883 -3.079 QT
-2.219 -2.758 -1.75 -2.18 QT
-1.281 -1.602 -1.023 -0.868 QT
-0.766 -0.133 -0.766 0.632 QT
-0.766 1.679 -1.242 2.632 QT
-1.719 3.586 -2.57 4.148 QT
-3.422 4.711 -4.5 4.711 QT
cp
-4.5 4.148 M
-3.813 4.148 -3.391 3.828 QT
-2.969 3.507 -2.766 2.984 QT
-2.563 2.461 -2.516 1.929 QT
-2.469 1.398 -2.469 0.632 QT
-2.469 -0.399 -2.563 -1.118 QT
-2.656 -1.836 -3.094 -2.383 QT
-3.531 -2.93 -4.406 -2.93 QT
-5.141 -2.93 -5.609 -2.438 QT
-6.078 -1.946 -6.297 -1.196 QT
-6.516 -0.446 -6.516 0.257 QT
-6.516 0.492 -6.5 0.617 QT
-6.5 0.632 -6.5 0.656 QT
-6.5 0.679 -6.516 0.695 QT
-6.516 1.476 -6.359 2.265 QT
-6.203 3.054 -5.75 3.601 QT
-5.297 4.148 -4.5 4.148 QT
cp}def
f1966198609
f
GR
GS
[1.11111 0 0 1.11111 651.00003 63.38625] CT
0.149 GC
N
f-2064231689
f
GR
GS
[1.11111 0 0 1.11111 651.00003 63.38625] CT
0.149 GC
N
f-1442725014
f
GR
GS
[1.11111 0 0 1.11111 651.00003 63.38625] CT
0.149 GC
N
f1773653943
f
GR
GS
[1.11111 0 0 1.11111 651.00003 63.38625] CT
0.149 GC
N
/f-1943797556{-8.25 1.586 M
-8.25 0.507 -7.531 -0.321 QT
-6.813 -1.149 -5.703 -1.711 QT
-6.375 -2.133 L
-6.984 -2.539 -7.375 -3.211 QT
-7.766 -3.883 -7.766 -4.633 QT
-7.766 -5.493 -7.313 -6.188 QT
-6.859 -6.883 -6.109 -7.274 QT
-5.359 -7.664 -4.5 -7.664 QT
-3.703 -7.664 -2.961 -7.344 QT
-2.219 -7.024 -1.734 -6.414 QT
-1.25 -5.805 -1.25 -4.977 QT
-1.25 -4.368 -1.539 -3.844 QT
-1.828 -3.321 -2.328 -2.914 QT
-2.828 -2.508 -3.391 -2.211 QT
-2.359 -1.555 L
-1.641 -1.086 -1.203 -0.329 QT
-0.766 0.429 -0.766 1.257 QT
-0.766 2.242 -1.289 3.039 QT
-1.813 3.836 -2.68 4.273 QT
-3.547 4.711 -4.5 4.711 QT
-5.438 4.711 -6.297 4.336 QT
-7.156 3.961 -7.703 3.242 QT
-8.25 2.523 -8.25 1.586 QT
cp
-7.266 1.586 M
-7.266 2.304 -6.875 2.89 QT
-6.484 3.476 -5.844 3.812 QT
-5.203 4.148 -4.5 4.148 QT
-3.453 4.148 -2.602 3.539 QT
-1.75 2.929 -1.75 1.914 QT
-1.75 1.57 -1.883 1.234 QT
-2.016 0.898 -2.258 0.617 QT
-2.5 0.336 -2.797 0.164 QT
-5.219 -1.399 L
-5.781 -1.102 -6.25 -0.649 QT
-6.719 -0.196 -6.992 0.382 QT
-7.266 0.961 -7.266 1.586 QT
cp
-6.031 -3.914 M
-3.844 -2.508 L
-3.094 -2.946 -2.609 -3.571 QT
-2.125 -4.196 -2.125 -4.977 QT
-2.125 -5.571 -2.461 -6.079 QT
-2.797 -6.586 -3.344 -6.868 QT
-3.891 -7.149 -4.516 -7.149 QT
-5.063 -7.149 -5.617 -6.938 QT
-6.172 -6.727 -6.531 -6.313 QT
-6.891 -5.899 -6.891 -5.336 QT
-6.891 -4.493 -6.031 -3.914 QT
cp}def
f-1943797556
f
GR
GS
[1.11111 0 0 1.11111 0 0] CT
1 GC
N
996 198 M
1303 198 L
1303 31.5 L
996 31.5 L
cp
f
GR
GS
[1.11111 0 0 1.11111 1277.22344 32] CT
N
/f2064887985{-44.996 -7.464 M
-44.996 -12.604 L
-44.996 -12.776 -44.808 -12.776 QT
-44.527 -12.776 L
-44.464 -12.776 -44.41 -12.721 QT
-44.355 -12.667 -44.355 -12.604 QT
-44.355 -10.448 -43.019 -9.26 QT
-41.683 -8.073 -39.511 -8.073 QT
-38.746 -8.073 -38.105 -8.51 QT
-37.464 -8.948 -37.105 -9.659 QT
-36.746 -10.37 -36.746 -11.135 QT
-36.746 -11.807 -37.011 -12.432 QT
-37.277 -13.057 -37.785 -13.518 QT
-38.293 -13.979 -38.918 -14.135 QT
-41.777 -14.839 L
-43.199 -15.214 -44.097 -16.378 QT
-44.996 -17.542 -44.996 -18.995 QT
-44.996 -20.135 -44.418 -21.135 QT
-43.839 -22.135 -42.855 -22.714 QT
-41.871 -23.292 -40.73 -23.292 QT
-38.527 -23.292 -37.23 -21.792 QT
-36.324 -23.229 L
-36.261 -23.292 -36.168 -23.292 QT
-36.027 -23.292 L
-35.964 -23.292 -35.902 -23.245 QT
-35.839 -23.198 -35.839 -23.104 QT
-35.839 -18.01 L
-35.839 -17.807 -36.027 -17.807 QT
-36.277 -17.807 L
-36.48 -17.807 -36.48 -18.01 QT
-36.48 -18.557 -36.668 -19.229 QT
-36.855 -19.901 -37.191 -20.51 QT
-37.527 -21.12 -37.918 -21.51 QT
-38.98 -22.573 -40.73 -22.573 QT
-41.48 -22.573 -42.113 -22.198 QT
-42.746 -21.823 -43.121 -21.167 QT
-43.496 -20.51 -43.496 -19.792 QT
-43.496 -18.839 -42.91 -18.073 QT
-42.324 -17.307 -41.386 -17.057 QT
-38.527 -16.354 L
-37.824 -16.182 -37.191 -15.737 QT
-36.558 -15.292 -36.144 -14.706 QT
-35.73 -14.12 -35.488 -13.393 QT
-35.246 -12.667 -35.246 -11.885 QT
-35.246 -10.698 -35.793 -9.643 QT
-36.339 -8.589 -37.339 -7.94 QT
-38.339 -7.292 -39.511 -7.292 QT
-40.246 -7.292 -41.011 -7.456 QT
-41.777 -7.62 -42.418 -7.948 QT
-43.058 -8.276 -43.589 -8.807 QT
-44.511 -7.354 L
-44.574 -7.292 -44.668 -7.292 QT
-44.808 -7.292 L
-44.996 -7.292 -44.996 -7.464 QT
cp}def
f2064887985
f
GR
GS
[1.11111 0 0 1.11111 1277.22344 32] CT
N
/f-623947612{-33.558 -7.776 M
-33.558 -8.557 L
-32.808 -8.557 -32.324 -8.675 QT
-31.839 -8.792 -31.839 -9.245 QT
-31.839 -15.26 L
-31.839 -16.104 -32.168 -16.3 QT
-32.496 -16.495 -33.449 -16.495 QT
-33.449 -17.26 L
-30.293 -17.495 L
-30.293 -9.245 L
-30.293 -8.792 -29.871 -8.675 QT
-29.449 -8.557 -28.746 -8.557 QT
-28.746 -7.776 L
-33.558 -7.776 L
cp
-32.621 -21.276 M
-32.621 -21.76 -32.254 -22.128 QT
-31.886 -22.495 -31.418 -22.495 QT
-31.105 -22.495 -30.816 -22.331 QT
-30.527 -22.167 -30.363 -21.878 QT
-30.199 -21.589 -30.199 -21.276 QT
-30.199 -20.807 -30.566 -20.44 QT
-30.933 -20.073 -31.418 -20.073 QT
-31.886 -20.073 -32.254 -20.44 QT
-32.621 -20.807 -32.621 -21.276 QT
cp}def
f-623947612
f
GR
GS
[1.11111 0 0 1.11111 1277.22344 32] CT
N
/f-65902227{-27.574 -7.776 M
-27.574 -8.557 L
-26.824 -8.557 -26.339 -8.675 QT
-25.855 -8.792 -25.855 -9.245 QT
-25.855 -15.26 L
-25.855 -15.839 -26.035 -16.104 QT
-26.214 -16.37 -26.543 -16.432 QT
-26.871 -16.495 -27.574 -16.495 QT
-27.574 -17.26 L
-24.386 -17.495 L
-24.386 -15.354 L
-23.949 -16.292 -23.082 -16.893 QT
-22.214 -17.495 -21.199 -17.495 QT
-18.652 -17.495 -18.214 -15.432 QT
-17.777 -16.354 -16.925 -16.925 QT
-16.074 -17.495 -15.074 -17.495 QT
-14.074 -17.495 -13.394 -17.175 QT
-12.714 -16.854 -12.371 -16.19 QT
-12.027 -15.526 -12.027 -14.526 QT
-12.027 -9.245 L
-12.027 -8.792 -11.535 -8.675 QT
-11.043 -8.557 -10.308 -8.557 QT
-10.308 -7.776 L
-15.339 -7.776 L
-15.339 -8.557 L
-14.589 -8.557 -14.105 -8.675 QT
-13.621 -8.792 -13.621 -9.245 QT
-13.621 -14.464 L
-13.621 -15.573 -13.933 -16.253 QT
-14.246 -16.932 -15.214 -16.932 QT
-16.48 -16.932 -17.308 -15.909 QT
-18.136 -14.885 -18.136 -13.589 QT
-18.136 -9.245 L
-18.136 -8.792 -17.652 -8.675 QT
-17.168 -8.557 -16.418 -8.557 QT
-16.418 -7.776 L
-21.449 -7.776 L
-21.449 -8.557 L
-20.699 -8.557 -20.214 -8.675 QT
-19.73 -8.792 -19.73 -9.245 QT
-19.73 -14.464 L
-19.73 -15.542 -20.043 -16.237 QT
-20.355 -16.932 -21.324 -16.932 QT
-22.605 -16.932 -23.425 -15.909 QT
-24.246 -14.885 -24.246 -13.589 QT
-24.246 -9.245 L
-24.246 -8.792 -23.761 -8.675 QT
-23.277 -8.557 -22.543 -8.557 QT
-22.543 -7.776 L
-27.574 -7.776 L
cp}def
f-65902227
f
GR
GS
[1.11111 0 0 1.11111 1277.22344 32] CT
N
/f-656460423{-9.558 -7.776 M
-9.558 -8.557 L
-8.808 -8.557 -8.324 -8.675 QT
-7.839 -8.792 -7.839 -9.245 QT
-7.839 -15.26 L
-7.839 -16.104 -8.168 -16.3 QT
-8.496 -16.495 -9.449 -16.495 QT
-9.449 -17.26 L
-6.293 -17.495 L
-6.293 -9.245 L
-6.293 -8.792 -5.871 -8.675 QT
-5.449 -8.557 -4.746 -8.557 QT
-4.746 -7.776 L
-9.558 -7.776 L
cp
-8.621 -21.276 M
-8.621 -21.76 -8.253 -22.128 QT
-7.886 -22.495 -7.418 -22.495 QT
-7.105 -22.495 -6.816 -22.331 QT
-6.527 -22.167 -6.363 -21.878 QT
-6.199 -21.589 -6.199 -21.276 QT
-6.199 -20.807 -6.566 -20.44 QT
-6.933 -20.073 -7.418 -20.073 QT
-7.886 -20.073 -8.253 -20.44 QT
-8.621 -20.807 -8.621 -21.276 QT
cp}def
f-656460423
f
GR
GS
[1.11111 0 0 1.11111 1277.22344 32] CT
N
/f-1620074403{-3.558 -7.776 M
-3.558 -8.557 L
-2.808 -8.557 -2.324 -8.675 QT
-1.839 -8.792 -1.839 -9.245 QT
-1.839 -20.792 L
-1.839 -21.385 -2.011 -21.651 QT
-2.183 -21.917 -2.519 -21.971 QT
-2.855 -22.026 -3.558 -22.026 QT
-3.558 -22.807 L
-0.292 -23.042 L
-0.292 -9.245 L
-0.292 -8.792 0.192 -8.675 QT
0.676 -8.557 1.426 -8.557 QT
1.426 -7.776 L
-3.558 -7.776 L
cp}def
f-1620074403
f
GR
GS
[1.11111 0 0 1.11111 1277.22344 32] CT
N
/f1273231694{2.645 -9.932 M
2.645 -11.245 3.676 -12.065 QT
4.708 -12.885 6.153 -13.229 QT
7.598 -13.573 8.911 -13.573 QT
8.911 -14.464 L
8.911 -15.104 8.629 -15.698 QT
8.348 -16.292 7.817 -16.675 QT
7.286 -17.057 6.661 -17.057 QT
5.192 -17.057 4.442 -16.401 QT
4.848 -16.401 5.122 -16.089 QT
5.395 -15.776 5.395 -15.354 QT
5.395 -14.917 5.09 -14.604 QT
4.786 -14.292 4.348 -14.292 QT
3.911 -14.292 3.598 -14.604 QT
3.286 -14.917 3.286 -15.354 QT
3.286 -16.51 4.34 -17.073 QT
5.395 -17.635 6.661 -17.635 QT
7.551 -17.635 8.45 -17.253 QT
9.348 -16.87 9.926 -16.167 QT
10.504 -15.464 10.504 -14.51 QT
10.504 -9.557 L
10.504 -9.135 10.684 -8.776 QT
10.864 -8.417 11.254 -8.417 QT
11.614 -8.417 11.793 -8.776 QT
11.973 -9.135 11.973 -9.557 QT
11.973 -10.964 L
12.614 -10.964 L
12.614 -9.557 L
12.614 -9.073 12.356 -8.62 QT
12.098 -8.167 11.668 -7.909 QT
11.239 -7.651 10.723 -7.651 QT
10.083 -7.651 9.614 -8.151 QT
9.145 -8.651 9.098 -9.339 QT
8.692 -8.51 7.895 -8.018 QT
7.098 -7.526 6.192 -7.526 QT
5.364 -7.526 4.551 -7.776 QT
3.739 -8.026 3.192 -8.557 QT
2.645 -9.089 2.645 -9.932 QT
cp
4.442 -9.932 M
4.442 -9.167 5.004 -8.635 QT
5.567 -8.104 6.348 -8.104 QT
7.051 -8.104 7.637 -8.464 QT
8.223 -8.823 8.567 -9.432 QT
8.911 -10.042 8.911 -10.714 QT
8.911 -13.01 L
7.911 -13.01 6.864 -12.682 QT
5.817 -12.354 5.129 -11.659 QT
4.442 -10.964 4.442 -9.932 QT
cp}def
f1273231694
f
GR
GS
[1.11111 0 0 1.11111 1277.22344 32] CT
N
/f1315636937{13.133 -7.776 M
13.133 -8.557 L
13.898 -8.557 14.375 -8.675 QT
14.851 -8.792 14.851 -9.245 QT
14.851 -15.26 L
14.851 -15.839 14.679 -16.104 QT
14.508 -16.37 14.172 -16.432 QT
13.836 -16.495 13.133 -16.495 QT
13.133 -17.26 L
16.289 -17.495 L
16.289 -15.354 L
16.648 -16.307 17.297 -16.901 QT
17.945 -17.495 18.883 -17.495 QT
19.539 -17.495 20.054 -17.112 QT
20.57 -16.729 20.57 -16.089 QT
20.57 -15.698 20.289 -15.401 QT
20.008 -15.104 19.586 -15.104 QT
19.179 -15.104 18.89 -15.393 QT
18.601 -15.682 18.601 -16.089 QT
18.601 -16.682 19.023 -16.932 QT
18.883 -16.932 L
17.992 -16.932 17.429 -16.284 QT
16.867 -15.635 16.633 -14.682 QT
16.398 -13.729 16.398 -12.854 QT
16.398 -9.245 L
16.398 -8.557 18.539 -8.557 QT
18.539 -7.776 L
13.133 -7.776 L
cp}def
f1315636937
f
GR
GS
[1.11111 0 0 1.11111 1277.22344 32] CT
N
/f-1401055889{21.702 -7.776 M
21.702 -8.557 L
22.452 -8.557 22.936 -8.675 QT
23.421 -8.792 23.421 -9.245 QT
23.421 -15.26 L
23.421 -16.104 23.093 -16.3 QT
22.764 -16.495 21.811 -16.495 QT
21.811 -17.26 L
24.968 -17.495 L
24.968 -9.245 L
24.968 -8.792 25.389 -8.675 QT
25.811 -8.557 26.514 -8.557 QT
26.514 -7.776 L
21.702 -7.776 L
cp
22.639 -21.276 M
22.639 -21.76 23.007 -22.128 QT
23.374 -22.495 23.843 -22.495 QT
24.155 -22.495 24.444 -22.331 QT
24.733 -22.167 24.897 -21.878 QT
25.061 -21.589 25.061 -21.276 QT
25.061 -20.807 24.694 -20.44 QT
24.327 -20.073 23.843 -20.073 QT
23.374 -20.073 23.007 -20.44 QT
22.639 -20.807 22.639 -21.276 QT
cp}def
f-1401055889
f
GR
GS
[1.11111 0 0 1.11111 1277.22344 32] CT
N
/f-1032521080{29.28 -10.417 M
29.28 -16.495 L
27.452 -16.495 L
27.452 -17.057 L
28.889 -17.057 29.569 -18.401 QT
30.249 -19.745 30.249 -21.307 QT
30.874 -21.307 L
30.874 -17.26 L
33.983 -17.26 L
33.983 -16.495 L
30.874 -16.495 L
30.874 -10.464 L
30.874 -9.542 31.179 -8.854 QT
31.483 -8.167 32.28 -8.167 QT
33.03 -8.167 33.366 -8.893 QT
33.702 -9.62 33.702 -10.464 QT
33.702 -11.76 L
34.343 -11.76 L
34.343 -10.417 L
34.343 -9.729 34.085 -9.057 QT
33.827 -8.385 33.335 -7.956 QT
32.843 -7.526 32.139 -7.526 QT
30.811 -7.526 30.046 -8.315 QT
29.28 -9.104 29.28 -10.417 QT
cp}def
f-1032521080
f
GR
GS
[1.11111 0 0 1.11111 1277.22344 32] CT
N
/f-1493986138{36.346 -4.167 M
36.768 -3.839 37.268 -3.839 QT
38.658 -3.839 39.533 -5.932 QT
40.283 -7.776 L
36.986 -15.854 L
36.783 -16.26 36.369 -16.378 QT
35.955 -16.495 35.252 -16.495 QT
35.252 -17.26 L
39.861 -17.26 L
39.861 -16.495 L
38.658 -16.495 38.658 -15.964 QT
38.658 -15.87 38.674 -15.839 QT
41.127 -9.823 L
43.33 -15.229 L
43.393 -15.401 43.393 -15.604 QT
43.393 -15.87 43.244 -16.073 QT
43.096 -16.276 42.869 -16.385 QT
42.643 -16.495 42.346 -16.495 QT
42.346 -17.26 L
46.002 -17.26 L
46.002 -16.495 L
45.33 -16.495 44.814 -16.182 QT
44.299 -15.87 44.033 -15.26 QT
40.221 -5.932 L
39.924 -5.214 39.518 -4.62 QT
39.111 -4.026 38.533 -3.643 QT
37.955 -3.26 37.268 -3.26 QT
36.471 -3.26 35.861 -3.792 QT
35.252 -4.323 35.252 -5.104 QT
35.252 -5.526 35.533 -5.8 QT
35.814 -6.073 36.221 -6.073 QT
36.502 -6.073 36.721 -5.956 QT
36.939 -5.839 37.064 -5.62 QT
37.189 -5.401 37.189 -5.104 QT
37.189 -4.76 36.947 -4.479 QT
36.705 -4.198 36.346 -4.167 QT
cp}def
f-1493986138
f
GR
GS
[1.11111 0 0 1.11111 0 0] CT
0.149 GC
1 LJ
0.5 LW
N
996 198 M
1303 198 L
S
GR
GS
[1.11111 0 0 1.11111 0 0] CT
0 0.447 0.741 RC
N
1009.284 196.211 M
1001.904 196.211 L
1001.904 198 L
1009.284 198 L
1016.663 198 L
1016.663 196.211 L
cp
1024.043 198 M
1024.043 195.929 L
1016.663 195.929 L
1016.663 198 L
cp
1031.423 198 M
1031.423 195.27 L
1024.043 195.27 L
1024.043 198 L
cp
1038.803 198 M
1038.803 195.929 L
1031.423 195.929 L
1031.423 198 L
cp
1046.183 198 M
1046.183 194.077 L
1038.803 194.077 L
1038.803 198 L
cp
1053.563 198 M
1053.563 194.109 L
1046.183 194.109 L
1046.183 198 L
cp
1060.942 198 M
1060.942 193.293 L
1053.563 193.293 L
1053.563 198 L
cp
1068.322 198 M
1068.322 191.943 L
1060.942 191.943 L
1060.942 198 L
cp
1075.702 198 M
1075.702 189.119 L
1068.322 189.119 L
1068.322 198 L
cp
1083.082 198 M
1083.082 186.012 L
1075.702 186.012 L
1075.702 198 L
cp
1090.462 198 M
1090.462 183.94 L
1083.082 183.94 L
1083.082 198 L
cp
1097.841 198 M
1097.841 180.112 L
1090.462 180.112 L
1090.462 198 L
cp
1105.221 198 M
1105.221 169.379 L
1097.841 169.379 L
1097.841 198 L
cp
1112.601 198 M
1112.601 162.129 L
1105.221 162.129 L
1105.221 198 L
cp
1119.981 198 M
1119.981 150.8 L
1112.601 150.8 L
1112.601 198 L
cp
1127.361 198 M
1127.361 126.447 L
1119.981 126.447 L
1119.981 198 L
cp
1134.74 198 M
1134.74 104.197 L
1127.361 104.197 L
1127.361 198 L
cp
1142.12 198 M
1142.12 83.766 L
1134.74 83.766 L
1134.74 198 L
cp
1149.5 198 M
1149.5 55.428 L
1142.12 55.428 L
1142.12 198 L
cp
1156.88 198 M
1156.88 59.413 L
1149.5 59.413 L
1149.5 198 L
cp
1164.26 198 M
1164.26 81.632 L
1156.88 81.632 L
1156.88 198 L
cp
1171.639 198 M
1171.639 101.152 L
1164.26 101.152 L
1164.26 198 L
cp
1179.019 198 M
1179.019 118.35 L
1171.639 118.35 L
1171.639 198 L
cp
1186.399 198 M
1186.399 138.624 L
1179.019 138.624 L
1179.019 198 L
cp
1193.779 198 M
1193.779 152.401 L
1186.399 152.401 L
1186.399 198 L
cp
1201.159 198 M
1201.159 162.977 L
1193.779 162.977 L
1193.779 198 L
cp
1208.538 198 M
1208.538 174.839 L
1201.159 174.839 L
1201.159 198 L
cp
1215.918 198 M
1215.918 181.712 L
1208.538 181.712 L
1208.538 198 L
cp
1223.298 198 M
1223.298 187.644 L
1215.918 187.644 L
1215.918 198 L
cp
1230.678 198 M
1230.678 190.217 L
1223.298 190.217 L
1223.298 198 L
cp
1238.058 198 M
1238.058 191.818 L
1230.678 191.818 L
1230.678 198 L
cp
1245.438 198 M
1245.438 192.571 L
1238.058 192.571 L
1238.058 198 L
cp
1252.817 198 M
1252.817 194.705 L
1245.438 194.705 L
1245.438 198 L
cp
1260.197 198 M
1260.197 194.924 L
1252.817 194.924 L
1252.817 198 L
cp
1267.577 198 M
1267.577 195.019 L
1260.197 195.019 L
1260.197 198 L
cp
1274.957 198 M
1274.957 195.897 L
1267.577 195.897 L
1267.577 198 L
cp
1282.337 198 M
1282.337 196.023 L
1274.957 196.023 L
1274.957 198 L
cp
1289.716 198 M
1289.716 196.713 L
1282.337 196.713 L
1282.337 198 L
cp
1297.096 198 M
1297.096 196.274 L
1289.716 196.274 L
1289.716 198 L
cp
f
GR
GS
[1.11111 0 0 1.11111 0 0] CT
10.0 ML
0.45 LW
N
1001.904 198 M
1001.904 196.211 L
1009.284 196.211 L
1009.284 198 L
cp
S
GR
GS
[1.11111 0 0 1.11111 0 0] CT
10.0 ML
0.45 LW
N
1009.284 198 M
1009.284 196.211 L
1016.663 196.211 L
1016.663 198 L
cp
S
GR
GS
[1.11111 0 0 1.11111 0 0] CT
10.0 ML
0.45 LW
N
1016.663 198 M
1016.663 195.929 L
1024.043 195.929 L
1024.043 198 L
cp
S
GR
GS
[1.11111 0 0 1.11111 0 0] CT
10.0 ML
0.45 LW
N
1024.043 198 M
1024.043 195.27 L
1031.423 195.27 L
1031.423 198 L
cp
S
GR
GS
[1.11111 0 0 1.11111 0 0] CT
10.0 ML
0.45 LW
N
1031.423 198 M
1031.423 195.929 L
1038.803 195.929 L
1038.803 198 L
cp
S
GR
GS
[1.11111 0 0 1.11111 0 0] CT
10.0 ML
0.45 LW
N
1038.803 198 M
1038.803 194.077 L
1046.183 194.077 L
1046.183 198 L
cp
S
GR
GS
[1.11111 0 0 1.11111 0 0] CT
10.0 ML
0.45 LW
N
1046.183 198 M
1046.183 194.109 L
1053.563 194.109 L
1053.563 198 L
cp
S
GR
GS
[1.11111 0 0 1.11111 0 0] CT
10.0 ML
0.45 LW
N
1053.563 198 M
1053.563 193.293 L
1060.942 193.293 L
1060.942 198 L
cp
S
GR
GS
[1.11111 0 0 1.11111 0 0] CT
10.0 ML
0.45 LW
N
1060.942 198 M
1060.942 191.943 L
1068.322 191.943 L
1068.322 198 L
cp
S
GR
GS
[1.11111 0 0 1.11111 0 0] CT
10.0 ML
0.45 LW
N
1068.322 198 M
1068.322 189.119 L
1075.702 189.119 L
1075.702 198 L
cp
S
GR
GS
[1.11111 0 0 1.11111 0 0] CT
10.0 ML
0.45 LW
N
1075.702 198 M
1075.702 186.012 L
1083.082 186.012 L
1083.082 198 L
cp
S
GR
GS
[1.11111 0 0 1.11111 0 0] CT
10.0 ML
0.45 LW
N
1083.082 198 M
1083.082 183.94 L
1090.462 183.94 L
1090.462 198 L
cp
S
GR
GS
[1.11111 0 0 1.11111 0 0] CT
10.0 ML
0.45 LW
N
1090.462 198 M
1090.462 180.112 L
1097.841 180.112 L
1097.841 198 L
cp
S
GR
GS
[1.11111 0 0 1.11111 0 0] CT
10.0 ML
0.45 LW
N
1097.841 198 M
1097.841 169.379 L
1105.221 169.379 L
1105.221 198 L
cp
S
GR
GS
[1.11111 0 0 1.11111 0 0] CT
10.0 ML
0.45 LW
N
1105.221 198 M
1105.221 162.129 L
1112.601 162.129 L
1112.601 198 L
cp
S
GR
GS
[1.11111 0 0 1.11111 0 0] CT
10.0 ML
0.45 LW
N
1112.601 198 M
1112.601 150.8 L
1119.981 150.8 L
1119.981 198 L
cp
S
GR
GS
[1.11111 0 0 1.11111 0 0] CT
10.0 ML
0.45 LW
N
1119.981 198 M
1119.981 126.447 L
1127.361 126.447 L
1127.361 198 L
cp
S
GR
GS
[1.11111 0 0 1.11111 0 0] CT
10.0 ML
0.45 LW
N
1127.361 198 M
1127.361 104.197 L
1134.74 104.197 L
1134.74 198 L
cp
S
GR
GS
[1.11111 0 0 1.11111 0 0] CT
10.0 ML
0.45 LW
N
1134.74 198 M
1134.74 83.766 L
1142.12 83.766 L
1142.12 198 L
cp
S
GR
GS
[1.11111 0 0 1.11111 0 0] CT
10.0 ML
0.45 LW
N
1142.12 198 M
1142.12 55.428 L
1149.5 55.428 L
1149.5 198 L
cp
S
GR
GS
[1.11111 0 0 1.11111 0 0] CT
10.0 ML
0.45 LW
N
1149.5 198 M
1149.5 59.413 L
1156.88 59.413 L
1156.88 198 L
cp
S
GR
GS
[1.11111 0 0 1.11111 0 0] CT
10.0 ML
0.45 LW
N
1156.88 198 M
1156.88 81.632 L
1164.26 81.632 L
1164.26 198 L
cp
S
GR
GS
[1.11111 0 0 1.11111 0 0] CT
10.0 ML
0.45 LW
N
1164.26 198 M
1164.26 101.152 L
1171.639 101.152 L
1171.639 198 L
cp
S
GR
GS
[1.11111 0 0 1.11111 0 0] CT
10.0 ML
0.45 LW
N
1171.639 198 M
1171.639 118.35 L
1179.019 118.35 L
1179.019 198 L
cp
S
GR
GS
[1.11111 0 0 1.11111 0 0] CT
10.0 ML
0.45 LW
N
1179.019 198 M
1179.019 138.624 L
1186.399 138.624 L
1186.399 198 L
cp
S
GR
GS
[1.11111 0 0 1.11111 0 0] CT
10.0 ML
0.45 LW
N
1186.399 198 M
1186.399 152.401 L
1193.779 152.401 L
1193.779 198 L
cp
S
GR
GS
[1.11111 0 0 1.11111 0 0] CT
10.0 ML
0.45 LW
N
1193.779 198 M
1193.779 162.977 L
1201.159 162.977 L
1201.159 198 L
cp
S
GR
GS
[1.11111 0 0 1.11111 0 0] CT
10.0 ML
0.45 LW
N
1201.159 198 M
1201.159 174.839 L
1208.538 174.839 L
1208.538 198 L
cp
S
GR
GS
[1.11111 0 0 1.11111 0 0] CT
10.0 ML
0.45 LW
N
1208.538 198 M
1208.538 181.712 L
1215.918 181.712 L
1215.918 198 L
cp
S
GR
GS
[1.11111 0 0 1.11111 0 0] CT
10.0 ML
0.45 LW
N
1215.918 198 M
1215.918 187.644 L
1223.298 187.644 L
1223.298 198 L
cp
S
GR
GS
[1.11111 0 0 1.11111 0 0] CT
10.0 ML
0.45 LW
N
1223.298 198 M
1223.298 190.217 L
1230.678 190.217 L
1230.678 198 L
cp
S
GR
GS
[1.11111 0 0 1.11111 0 0] CT
10.0 ML
0.45 LW
N
1230.678 198 M
1230.678 191.818 L
1238.058 191.818 L
1238.058 198 L
cp
S
GR
GS
[1.11111 0 0 1.11111 0 0] CT
10.0 ML
0.45 LW
N
1238.058 198 M
1238.058 192.571 L
1245.438 192.571 L
1245.438 198 L
cp
S
GR
GS
[1.11111 0 0 1.11111 0 0] CT
10.0 ML
0.45 LW
N
1245.438 198 M
1245.438 194.705 L
1252.817 194.705 L
1252.817 198 L
cp
S
GR
GS
[1.11111 0 0 1.11111 0 0] CT
10.0 ML
0.45 LW
N
1252.817 198 M
1252.817 194.924 L
1260.197 194.924 L
1260.197 198 L
cp
S
GR
GS
[1.11111 0 0 1.11111 0 0] CT
10.0 ML
0.45 LW
N
1260.197 198 M
1260.197 195.019 L
1267.577 195.019 L
1267.577 198 L
cp
S
GR
GS
[1.11111 0 0 1.11111 0 0] CT
10.0 ML
0.45 LW
N
1267.577 198 M
1267.577 195.897 L
1274.957 195.897 L
1274.957 198 L
cp
S
GR
GS
[1.11111 0 0 1.11111 0 0] CT
10.0 ML
0.45 LW
N
1274.957 198 M
1274.957 196.023 L
1282.337 196.023 L
1282.337 198 L
cp
S
GR
GS
[1.11111 0 0 1.11111 0 0] CT
10.0 ML
0.45 LW
N
1282.337 198 M
1282.337 196.713 L
1289.716 196.713 L
1289.716 198 L
cp
S
GR
GS
[1.11111 0 0 1.11111 0 0] CT
10.0 ML
0.45 LW
N
1289.716 198 M
1289.716 196.274 L
1297.096 196.274 L
1297.096 198 L
cp
S
GR
GS
[1.11111 0 0 1.11111 0 0] CT
0.149 GC
2 setlinecap
1 LJ
0.45 LW
N
996 198 M
1303 198 L
S
GR
GS
[1.11111 0 0 1.11111 0 0] CT
0.149 GC
2 setlinecap
1 LJ
0.45 LW
N
996 31.5 M
1303 31.5 L
S
GR
GS
[1.11111 0 0 1.11111 0 0] CT
0.149 GC
2 setlinecap
1 LJ
0.45 LW
N
1064.425 198 M
1064.425 194.93 L
S
GR
GS
[1.11111 0 0 1.11111 0 0] CT
0.149 GC
2 setlinecap
1 LJ
0.45 LW
N
1147.354 198 M
1147.354 194.93 L
S
GR
GS
[1.11111 0 0 1.11111 0 0] CT
0.149 GC
2 setlinecap
1 LJ
0.45 LW
N
1230.283 198 M
1230.283 194.93 L
S
GR
GS
[1.11111 0 0 1.11111 0 0] CT
0.149 GC
2 setlinecap
1 LJ
0.45 LW
N
1064.425 31.5 M
1064.425 34.57 L
S
GR
GS
[1.11111 0 0 1.11111 0 0] CT
0.149 GC
2 setlinecap
1 LJ
0.45 LW
N
1147.354 31.5 M
1147.354 34.57 L
S
GR
GS
[1.11111 0 0 1.11111 0 0] CT
0.149 GC
2 setlinecap
1 LJ
0.45 LW
N
1230.283 31.5 M
1230.283 34.57 L
S
GR
GS
[1.11111 0 0 1.11111 1182.69423 226.22223] CT
0.149 GC
N
/f1075072188{-11.797 11.792 M
-11.797 10.667 L
-7.031 10.667 L
-7.031 11.792 L
-11.797 11.792 L
cp}def
f1075072188
f
GR
GS
[1.11111 0 0 1.11111 1182.69423 226.22223] CT
0.149 GC
N
/f-662208719{-5.109 15.12 M
-5.109 14.636 L
-5.109 14.589 -5.063 14.542 QT
-2.266 11.448 L
-1.641 10.761 -1.242 10.292 QT
-0.844 9.823 -0.461 9.221 QT
-0.078 8.62 0.148 7.987 QT
0.375 7.354 0.375 6.651 QT
0.375 5.917 0.102 5.245 QT
-0.172 4.573 -0.711 4.167 QT
-1.25 3.761 -2.016 3.761 QT
-2.797 3.761 -3.422 4.229 QT
-4.047 4.698 -4.297 5.448 QT
-4.234 5.432 -4.109 5.432 QT
-3.703 5.432 -3.422 5.706 QT
-3.141 5.979 -3.141 6.417 QT
-3.141 6.823 -3.422 7.112 QT
-3.703 7.401 -4.109 7.401 QT
-4.531 7.401 -4.82 7.104 QT
-5.109 6.807 -5.109 6.417 QT
-5.109 5.729 -4.852 5.136 QT
-4.594 4.542 -4.117 4.081 QT
-3.641 3.62 -3.039 3.378 QT
-2.438 3.136 -1.75 3.136 QT
-0.719 3.136 0.164 3.565 QT
1.047 3.995 1.57 4.792 QT
2.094 5.589 2.094 6.651 QT
2.094 7.432 1.75 8.136 QT
1.406 8.839 0.867 9.417 QT
0.328 9.995 -0.508 10.721 QT
-1.344 11.448 -1.609 11.698 QT
-3.641 13.667 L
-1.906 13.667 L
-0.641 13.667 0.219 13.643 QT
1.078 13.62 1.125 13.573 QT
1.344 13.339 1.562 11.917 QT
2.094 11.917 L
1.578 15.12 L
-5.109 15.12 L
cp}def
f-662208719
f
GR
GS
[1.11111 0 0 1.11111 1182.69423 226.22223] CT
0.149 GC
N
/f-466057440{7.5 15.511 M
5.297 15.511 4.5 13.698 QT
3.703 11.886 3.703 9.386 QT
3.703 7.823 3.992 6.44 QT
4.281 5.057 5.125 4.096 QT
5.969 3.136 7.5 3.136 QT
8.688 3.136 9.445 3.714 QT
10.203 4.292 10.594 5.214 QT
10.984 6.136 11.133 7.182 QT
11.281 8.229 11.281 9.386 QT
11.281 10.932 10.992 12.276 QT
10.703 13.62 9.867 14.565 QT
9.031 15.511 7.5 15.511 QT
cp
7.5 15.042 M
8.5 15.042 8.992 14.018 QT
9.484 12.995 9.602 11.745 QT
9.719 10.495 9.719 9.089 QT
9.719 7.729 9.602 6.589 QT
9.484 5.448 9 4.526 QT
8.516 3.604 7.5 3.604 QT
6.484 3.604 5.992 4.534 QT
5.5 5.464 5.383 6.596 QT
5.266 7.729 5.266 9.089 QT
5.266 10.089 5.313 10.979 QT
5.359 11.87 5.57 12.815 QT
5.781 13.761 6.258 14.401 QT
6.734 15.042 7.5 15.042 QT
cp}def
f-466057440
f
GR
GS
[1.11111 0 0 1.11111 1274.83765 226.22223] CT
0.149 GC
N
f868474374
f
GR
GS
[1.11111 0 0 1.11111 1366.98107 226.22223] CT
0.149 GC
N
f-1720886811
f
GR
GS
[1.11111 0 0 1.11111 1366.98107 226.22223] CT
0.149 GC
N
f-442272507
f
GR
GS
[1.11111 0 0 1.11111 0 0] CT
0.149 GC
2 setlinecap
1 LJ
0.45 LW
N
996 198 M
996 31.5 L
S
GR
GS
[1.11111 0 0 1.11111 0 0] CT
0.149 GC
2 setlinecap
1 LJ
0.45 LW
N
1303 198 M
1303 31.5 L
S
GR
GS
[1.11111 0 0 1.11111 0 0] CT
0.149 GC
2 setlinecap
1 LJ
0.45 LW
N
996 198 M
999.07 198 L
S
GR
GS
[1.11111 0 0 1.11111 0 0] CT
0.149 GC
2 setlinecap
1 LJ
0.45 LW
N
996 152.694 M
999.07 152.694 L
S
GR
GS
[1.11111 0 0 1.11111 0 0] CT
0.149 GC
2 setlinecap
1 LJ
0.45 LW
N
996 107.388 M
999.07 107.388 L
S
GR
GS
[1.11111 0 0 1.11111 0 0] CT
0.149 GC
2 setlinecap
1 LJ
0.45 LW
N
996 62.082 M
999.07 62.082 L
S
GR
GS
[1.11111 0 0 1.11111 0 0] CT
0.149 GC
2 setlinecap
1 LJ
0.45 LW
N
1303 198 M
1299.93 198 L
S
GR
GS
[1.11111 0 0 1.11111 0 0] CT
0.149 GC
2 setlinecap
1 LJ
0.45 LW
N
1303 152.694 M
1299.93 152.694 L
S
GR
GS
[1.11111 0 0 1.11111 0 0] CT
0.149 GC
2 setlinecap
1 LJ
0.45 LW
N
1303 107.388 M
1299.93 107.388 L
S
GR
GS
[1.11111 0 0 1.11111 0 0] CT
0.149 GC
2 setlinecap
1 LJ
0.45 LW
N
1303 62.082 M
1299.93 62.082 L
S
GR
GS
[1.11111 0 0 1.11111 1100.44447 220] CT
0.149 GC
N
f263113603
f
GR
GS
[1.11111 0 0 1.11111 1100.44447 169.65986] CT
0.149 GC
N
f-2064231689
f
GR
GS
[1.11111 0 0 1.11111 1100.44447 169.65986] CT
0.149 GC
N
f-1442725014
f
GR
GS
[1.11111 0 0 1.11111 1100.44447 169.65986] CT
0.149 GC
N
f1773653943
f
GR
GS
[1.11111 0 0 1.11111 1100.44447 169.65986] CT
0.149 GC
N
f-1628302965
f
GR
GS
[1.11111 0 0 1.11111 1100.44447 119.31973] CT
0.149 GC
N
f-2064231689
f
GR
GS
[1.11111 0 0 1.11111 1100.44447 119.31973] CT
0.149 GC
N
f-1442725014
f
GR
GS
[1.11111 0 0 1.11111 1100.44447 119.31973] CT
0.149 GC
N
f1773653943
f
GR
GS
[1.11111 0 0 1.11111 1100.44447 119.31973] CT
0.149 GC
N
f-2071185025
f
GR
GS
[1.11111 0 0 1.11111 1100.44447 68.97959] CT
0.149 GC
N
f-2064231689
f
GR
GS
[1.11111 0 0 1.11111 1100.44447 68.97959] CT
0.149 GC
N
f-1442725014
f
GR
GS
[1.11111 0 0 1.11111 1100.44447 68.97959] CT
0.149 GC
N
f1773653943
f
GR
GS
[1.11111 0 0 1.11111 1100.44447 68.97959] CT
0.149 GC
N
f1966198609
f
GR
%%Trailer
%%Pages: 1
%%EOF
