%!PS-Adobe-3.0 EPSF-3.0
%%Creator: (MATLAB, The Mathworks, Inc. Version 9.7.0.1216025 \(R2019b\) Update 1. Operating System: Mac OS X)
%%Title: ../../results/TF_IDF/baseline/Figures/hist_perf.eps
%%CreationDate: 2020-03-12T14:55:07
%%Pages: (atend)
%%BoundingBox:   125     6  1159   244
%%LanguageLevel: 3
%%EndComments
%%BeginProlog
%%BeginResource: procset (Apache XML Graphics Std ProcSet) 1.2 0
%%Version: 1.2 0
%%Copyright: (Copyright 2001-2003,2010 The Apache Software Foundation. License terms: http://www.apache.org/licenses/LICENSE-2.0)
/bd{bind def}bind def
/ld{load def}bd
/GR/grestore ld
/GS/gsave ld
/RM/rmoveto ld
/C/curveto ld
/t/show ld
/L/lineto ld
/ML/setmiterlimit ld
/CT/concat ld
/f/fill ld
/N/newpath ld
/S/stroke ld
/CC/setcmykcolor ld
/A/ashow ld
/cp/closepath ld
/RC/setrgbcolor ld
/LJ/setlinejoin ld
/GC/setgray ld
/LW/setlinewidth ld
/M/moveto ld
/re {4 2 roll M
1 index 0 rlineto
0 exch rlineto
neg 0 rlineto
cp } bd
/_ctm matrix def
/_tm matrix def
/BT { _ctm currentmatrix pop matrix _tm copy pop 0 0 moveto } bd
/ET { _ctm setmatrix } bd
/iTm { _ctm setmatrix _tm concat } bd
/Tm { _tm astore pop iTm 0 0 moveto } bd
/ux 0.0 def
/uy 0.0 def
/F {
  /Tp exch def
  /Tf exch def
  Tf findfont Tp scalefont setfont
  /cf Tf def  /cs Tp def
} bd
/ULS {currentpoint /uy exch def /ux exch def} bd
/ULE {
  /Tcx currentpoint pop def
  gsave
  newpath
  cf findfont cs scalefont dup
  /FontMatrix get 0 get /Ts exch def /FontInfo get dup
  /UnderlinePosition get Ts mul /To exch def
  /UnderlineThickness get Ts mul /Tt exch def
  ux uy To add moveto  Tcx uy To add lineto
  Tt setlinewidth stroke
  grestore
} bd
/OLE {
  /Tcx currentpoint pop def
  gsave
  newpath
  cf findfont cs scalefont dup
  /FontMatrix get 0 get /Ts exch def /FontInfo get dup
  /UnderlinePosition get Ts mul /To exch def
  /UnderlineThickness get Ts mul /Tt exch def
  ux uy To add cs add moveto Tcx uy To add cs add lineto
  Tt setlinewidth stroke
  grestore
} bd
/SOE {
  /Tcx currentpoint pop def
  gsave
  newpath
  cf findfont cs scalefont dup
  /FontMatrix get 0 get /Ts exch def /FontInfo get dup
  /UnderlinePosition get Ts mul /To exch def
  /UnderlineThickness get Ts mul /Tt exch def
  ux uy To add cs 10 mul 26 idiv add moveto Tcx uy To add cs 10 mul 26 idiv add lineto
  Tt setlinewidth stroke
  grestore
} bd
/QT {
/Y22 exch store
/X22 exch store
/Y21 exch store
/X21 exch store
currentpoint
/Y21 load 2 mul add 3 div exch
/X21 load 2 mul add 3 div exch
/X21 load 2 mul /X22 load add 3 div
/Y21 load 2 mul /Y22 load add 3 div
/X22 load /Y22 load curveto
} bd
/SSPD {
dup length /d exch dict def
{
/v exch def
/k exch def
currentpagedevice k known {
/cpdv currentpagedevice k get def
v cpdv ne {
/upd false def
/nullv v type /nulltype eq def
/nullcpdv cpdv type /nulltype eq def
nullv nullcpdv or
{
/upd true def
} {
/sametype v type cpdv type eq def
sametype {
v type /arraytype eq {
/vlen v length def
/cpdvlen cpdv length def
vlen cpdvlen eq {
0 1 vlen 1 sub {
/i exch def
/obj v i get def
/cpdobj cpdv i get def
obj cpdobj ne {
/upd true def
exit
} if
} for
} {
/upd true def
} ifelse
} {
v type /dicttype eq {
v {
/dv exch def
/dk exch def
/cpddv cpdv dk get def
dv cpddv ne {
/upd true def
exit
} if
} forall
} {
/upd true def
} ifelse
} ifelse
} if
} ifelse
upd true eq {
d k v put
} if
} if
} if
} forall
d length 0 gt {
d setpagedevice
} if
} bd
/RE { % /NewFontName [NewEncodingArray] /FontName RE -
  findfont dup length dict begin
  {
    1 index /FID ne
    {def} {pop pop} ifelse
  } forall
  /Encoding exch def
  /FontName 1 index def
  currentdict definefont pop
  end
} bind def
%%EndResource
%%BeginResource: procset (Apache XML Graphics EPS ProcSet) 1.0 0
%%Version: 1.0 0
%%Copyright: (Copyright 2002-2003 The Apache Software Foundation. License terms: http://www.apache.org/licenses/LICENSE-2.0)
/BeginEPSF { %def
/b4_Inc_state save def         % Save state for cleanup
/dict_count countdictstack def % Count objects on dict stack
/op_count count 1 sub def      % Count objects on operand stack
userdict begin                 % Push userdict on dict stack
/showpage { } def              % Redefine showpage, { } = null proc
0 setgray 0 setlinecap         % Prepare graphics state
1 setlinewidth 0 setlinejoin
10 setmiterlimit [ ] 0 setdash newpath
/languagelevel where           % If level not equal to 1 then
{pop languagelevel             % set strokeadjust and
1 ne                           % overprint to their defaults.
{false setstrokeadjust false setoverprint
} if
} if
} bd
/EndEPSF { %def
count op_count sub {pop} repeat            % Clean up stacks
countdictstack dict_count sub {end} repeat
b4_Inc_state restore
} bd
%%EndResource
%FOPBeginFontDict
%%IncludeResource: font Courier-Oblique
%%IncludeResource: font Courier-BoldOblique
%%IncludeResource: font Courier-Bold
%%IncludeResource: font ZapfDingbats
%%IncludeResource: font Symbol
%%IncludeResource: font Helvetica
%%IncludeResource: font Helvetica-Oblique
%%IncludeResource: font Helvetica-Bold
%%IncludeResource: font Helvetica-BoldOblique
%%IncludeResource: font Times-Roman
%%IncludeResource: font Times-Italic
%%IncludeResource: font Times-Bold
%%IncludeResource: font Times-BoldItalic
%%IncludeResource: font Courier
%FOPEndFontDict
%%BeginResource: encoding WinAnsiEncoding
/WinAnsiEncoding [
/.notdef /.notdef /.notdef /.notdef /.notdef
/.notdef /.notdef /.notdef /.notdef /.notdef
/.notdef /.notdef /.notdef /.notdef /.notdef
/.notdef /.notdef /.notdef /.notdef /.notdef
/.notdef /.notdef /.notdef /.notdef /.notdef
/.notdef /.notdef /.notdef /.notdef /.notdef
/.notdef /.notdef /space /exclam /quotedbl
/numbersign /dollar /percent /ampersand /quotesingle
/parenleft /parenright /asterisk /plus /comma
/hyphen /period /slash /zero /one
/two /three /four /five /six
/seven /eight /nine /colon /semicolon
/less /equal /greater /question /at
/A /B /C /D /E
/F /G /H /I /J
/K /L /M /N /O
/P /Q /R /S /T
/U /V /W /X /Y
/Z /bracketleft /backslash /bracketright /asciicircum
/underscore /quoteleft /a /b /c
/d /e /f /g /h
/i /j /k /l /m
/n /o /p /q /r
/s /t /u /v /w
/x /y /z /braceleft /bar
/braceright /asciitilde /bullet /Euro /bullet
/quotesinglbase /florin /quotedblbase /ellipsis /dagger
/daggerdbl /circumflex /perthousand /Scaron /guilsinglleft
/OE /bullet /Zcaron /bullet /bullet
/quoteleft /quoteright /quotedblleft /quotedblright /bullet
/endash /emdash /asciitilde /trademark /scaron
/guilsinglright /oe /bullet /zcaron /Ydieresis
/space /exclamdown /cent /sterling /currency
/yen /brokenbar /section /dieresis /copyright
/ordfeminine /guillemotleft /logicalnot /sfthyphen /registered
/macron /degree /plusminus /twosuperior /threesuperior
/acute /mu /paragraph /middot /cedilla
/onesuperior /ordmasculine /guillemotright /onequarter /onehalf
/threequarters /questiondown /Agrave /Aacute /Acircumflex
/Atilde /Adieresis /Aring /AE /Ccedilla
/Egrave /Eacute /Ecircumflex /Edieresis /Igrave
/Iacute /Icircumflex /Idieresis /Eth /Ntilde
/Ograve /Oacute /Ocircumflex /Otilde /Odieresis
/multiply /Oslash /Ugrave /Uacute /Ucircumflex
/Udieresis /Yacute /Thorn /germandbls /agrave
/aacute /acircumflex /atilde /adieresis /aring
/ae /ccedilla /egrave /eacute /ecircumflex
/edieresis /igrave /iacute /icircumflex /idieresis
/eth /ntilde /ograve /oacute /ocircumflex
/otilde /odieresis /divide /oslash /ugrave
/uacute /ucircumflex /udieresis /yacute /thorn
/ydieresis
] def
%%EndResource
%FOPBeginFontReencode
/Courier-Oblique findfont
dup length dict begin
  {1 index /FID ne {def} {pop pop} ifelse} forall
  /Encoding WinAnsiEncoding def
  currentdict
end
/Courier-Oblique exch definefont pop
/Courier-BoldOblique findfont
dup length dict begin
  {1 index /FID ne {def} {pop pop} ifelse} forall
  /Encoding WinAnsiEncoding def
  currentdict
end
/Courier-BoldOblique exch definefont pop
/Courier-Bold findfont
dup length dict begin
  {1 index /FID ne {def} {pop pop} ifelse} forall
  /Encoding WinAnsiEncoding def
  currentdict
end
/Courier-Bold exch definefont pop
/Helvetica findfont
dup length dict begin
  {1 index /FID ne {def} {pop pop} ifelse} forall
  /Encoding WinAnsiEncoding def
  currentdict
end
/Helvetica exch definefont pop
/Helvetica-Oblique findfont
dup length dict begin
  {1 index /FID ne {def} {pop pop} ifelse} forall
  /Encoding WinAnsiEncoding def
  currentdict
end
/Helvetica-Oblique exch definefont pop
/Helvetica-Bold findfont
dup length dict begin
  {1 index /FID ne {def} {pop pop} ifelse} forall
  /Encoding WinAnsiEncoding def
  currentdict
end
/Helvetica-Bold exch definefont pop
/Helvetica-BoldOblique findfont
dup length dict begin
  {1 index /FID ne {def} {pop pop} ifelse} forall
  /Encoding WinAnsiEncoding def
  currentdict
end
/Helvetica-BoldOblique exch definefont pop
/Times-Roman findfont
dup length dict begin
  {1 index /FID ne {def} {pop pop} ifelse} forall
  /Encoding WinAnsiEncoding def
  currentdict
end
/Times-Roman exch definefont pop
/Times-Italic findfont
dup length dict begin
  {1 index /FID ne {def} {pop pop} ifelse} forall
  /Encoding WinAnsiEncoding def
  currentdict
end
/Times-Italic exch definefont pop
/Times-Bold findfont
dup length dict begin
  {1 index /FID ne {def} {pop pop} ifelse} forall
  /Encoding WinAnsiEncoding def
  currentdict
end
/Times-Bold exch definefont pop
/Times-BoldItalic findfont
dup length dict begin
  {1 index /FID ne {def} {pop pop} ifelse} forall
  /Encoding WinAnsiEncoding def
  currentdict
end
/Times-BoldItalic exch definefont pop
/Courier findfont
dup length dict begin
  {1 index /FID ne {def} {pop pop} ifelse} forall
  /Encoding WinAnsiEncoding def
  currentdict
end
/Courier exch definefont pop
%FOPEndFontReencode
%%EndProlog
%%Page: 1 1
%%PageBoundingBox: 0 0 1280 250
%%BeginPageSetup
[1 0 0 -1 0 250] CT
%%EndPageSetup
GS
1 GC
N
0 0 1280 250 re
f
GR
GS
1 GC
N
0 0 1280 250 re
f
GR
GS
1 GC
N
166.5 220 M
367 220 L
367 35 L
166.5 35 L
cp
f
GR
GS
[1 0 0 1 266.75024 32] CT
N
-36.07 -8.64 M
-36.07 -9.484 L
-33.601 -9.484 -33.601 -10.249 QT
-33.601 -23.437 L
-33.601 -24.187 -36.07 -24.187 QT
-36.07 -25.031 L
-28.539 -25.031 L
-27.179 -25.031 -25.703 -24.546 QT
-24.226 -24.062 -23.226 -23.07 QT
-22.226 -22.078 -22.226 -20.687 QT
-22.226 -19.687 -22.828 -18.89 QT
-23.429 -18.093 -24.375 -17.562 QT
-25.32 -17.031 -26.304 -16.796 QT
-25.226 -16.421 -24.421 -15.601 QT
-23.617 -14.781 -23.445 -13.734 QT
-23.101 -11.593 L
-22.867 -10.156 -22.609 -9.445 QT
-22.351 -8.734 -21.476 -8.734 QT
-20.726 -8.734 -20.359 -9.429 QT
-19.992 -10.124 -19.992 -10.953 QT
-19.992 -11.031 -19.914 -11.093 QT
-19.835 -11.156 -19.757 -11.156 QT
-19.539 -11.156 L
-19.304 -11.156 -19.304 -10.843 QT
-19.304 -10.187 -19.562 -9.562 QT
-19.82 -8.937 -20.304 -8.523 QT
-20.789 -8.109 -21.46 -8.109 QT
-23.195 -8.109 -24.437 -8.976 QT
-25.679 -9.843 -25.679 -11.499 QT
-25.679 -13.64 L
-25.679 -14.828 -26.515 -15.687 QT
-27.351 -16.546 -28.554 -16.546 QT
-31.445 -16.546 L
-31.445 -10.249 L
-31.445 -9.484 -28.96 -9.484 QT
-28.96 -8.64 L
-36.07 -8.64 L
cp
-31.445 -17.156 M
-28.867 -17.156 L
-26.882 -17.156 -25.835 -17.96 QT
-24.789 -18.765 -24.789 -20.687 QT
-24.789 -22.593 -25.82 -23.39 QT
-26.851 -24.187 -28.867 -24.187 QT
-30.226 -24.187 L
-30.648 -24.187 -30.89 -24.156 QT
-31.132 -24.124 -31.289 -23.953 QT
-31.445 -23.781 -31.445 -23.437 QT
-31.445 -17.156 L
cp
f
GR
GS
[1 0 0 1 266.75024 32] CT
N
-13.216 -8.374 M
-14.684 -8.374 -15.911 -9.14 QT
-17.138 -9.906 -17.833 -11.187 QT
-18.528 -12.468 -18.528 -13.906 QT
-18.528 -15.312 -17.888 -16.578 QT
-17.247 -17.843 -16.106 -18.624 QT
-14.966 -19.406 -13.559 -19.406 QT
-12.466 -19.406 -11.645 -19.031 QT
-10.825 -18.656 -10.302 -17.999 QT
-9.778 -17.343 -9.505 -16.453 QT
-9.231 -15.562 -9.231 -14.499 QT
-9.231 -14.187 -9.481 -14.187 QT
-16.434 -14.187 L
-16.434 -13.921 L
-16.434 -11.937 -15.63 -10.507 QT
-14.825 -9.078 -13.013 -9.078 QT
-12.278 -9.078 -11.645 -9.406 QT
-11.013 -9.734 -10.552 -10.32 QT
-10.091 -10.906 -9.934 -11.578 QT
-9.903 -11.656 -9.841 -11.718 QT
-9.778 -11.781 -9.7 -11.781 QT
-9.481 -11.781 L
-9.231 -11.781 -9.231 -11.484 QT
-9.575 -10.124 -10.7 -9.249 QT
-11.825 -8.374 -13.216 -8.374 QT
cp
-16.403 -14.781 M
-10.934 -14.781 L
-10.934 -15.687 -11.184 -16.609 QT
-11.434 -17.531 -12.02 -18.148 QT
-12.606 -18.765 -13.559 -18.765 QT
-14.919 -18.765 -15.661 -17.492 QT
-16.403 -16.218 -16.403 -14.781 QT
cp
f
GR
GS
[1 0 0 1 266.75024 32] CT
N
-6.08 -11.531 M
-6.08 -18.14 L
-8.08 -18.14 L
-8.08 -18.765 L
-6.502 -18.765 -5.768 -20.234 QT
-5.033 -21.703 -5.033 -23.406 QT
-4.33 -23.406 L
-4.33 -18.984 L
-0.955 -18.984 L
-0.955 -18.14 L
-4.33 -18.14 L
-4.33 -11.578 L
-4.33 -10.578 -4.002 -9.828 QT
-3.674 -9.078 -2.799 -9.078 QT
-1.986 -9.078 -1.619 -9.867 QT
-1.252 -10.656 -1.252 -11.578 QT
-1.252 -12.984 L
-0.565 -12.984 L
-0.565 -11.531 L
-0.565 -10.781 -0.838 -10.046 QT
-1.111 -9.312 -1.651 -8.843 QT
-2.19 -8.374 -2.971 -8.374 QT
-4.408 -8.374 -5.244 -9.234 QT
-6.08 -10.093 -6.08 -11.531 QT
cp
f
GR
GS
[1 0 0 1 266.75024 32] CT
N
3.394 -11.499 M
3.394 -16.796 L
3.394 -17.437 3.198 -17.726 QT
3.003 -18.015 2.644 -18.078 QT
2.284 -18.14 1.519 -18.14 QT
1.519 -18.984 L
5.144 -19.249 L
5.144 -11.499 L
5.144 -10.562 5.284 -10.039 QT
5.425 -9.515 5.862 -9.257 QT
6.3 -8.999 7.253 -8.999 QT
8.55 -8.999 9.308 -10.078 QT
10.066 -11.156 10.066 -12.531 QT
10.066 -16.796 L
10.066 -17.437 9.87 -17.726 QT
9.675 -18.015 9.316 -18.078 QT
8.956 -18.14 8.191 -18.14 QT
8.191 -18.984 L
11.816 -19.249 L
11.816 -10.828 L
11.816 -10.187 12.011 -9.898 QT
12.206 -9.609 12.566 -9.546 QT
12.925 -9.484 13.691 -9.484 QT
13.691 -8.64 L
10.144 -8.374 L
10.144 -10.406 L
9.691 -9.499 8.894 -8.937 QT
8.097 -8.374 7.144 -8.374 QT
5.425 -8.374 4.409 -9.109 QT
3.394 -9.843 3.394 -11.499 QT
cp
f
GR
GS
[1 0 0 1 266.75024 32] CT
N
14.758 -8.64 M
14.758 -9.484 L
15.571 -9.484 16.102 -9.617 QT
16.633 -9.749 16.633 -10.249 QT
16.633 -16.796 L
16.633 -17.437 16.438 -17.726 QT
16.243 -18.015 15.883 -18.078 QT
15.524 -18.14 14.758 -18.14 QT
14.758 -18.984 L
18.196 -19.249 L
18.196 -16.906 L
18.571 -17.953 19.29 -18.601 QT
20.008 -19.249 21.024 -19.249 QT
21.743 -19.249 22.305 -18.828 QT
22.868 -18.406 22.868 -17.718 QT
22.868 -17.281 22.555 -16.96 QT
22.243 -16.64 21.79 -16.64 QT
21.336 -16.64 21.024 -16.953 QT
20.711 -17.265 20.711 -17.718 QT
20.711 -18.359 21.165 -18.624 QT
21.024 -18.624 L
20.055 -18.624 19.438 -17.921 QT
18.821 -17.218 18.563 -16.179 QT
18.305 -15.14 18.305 -14.187 QT
18.305 -10.249 L
18.305 -9.484 20.633 -9.484 QT
20.633 -8.64 L
14.758 -8.64 L
cp
f
GR
GS
[1 0 0 1 266.75024 32] CT
N
24.252 -8.64 M
24.252 -9.484 L
25.065 -9.484 25.596 -9.617 QT
26.127 -9.749 26.127 -10.249 QT
26.127 -16.796 L
26.127 -17.437 25.932 -17.726 QT
25.736 -18.015 25.377 -18.078 QT
25.018 -18.14 24.252 -18.14 QT
24.252 -18.984 L
27.736 -19.249 L
27.736 -16.906 L
28.205 -17.937 29.151 -18.593 QT
30.096 -19.249 31.205 -19.249 QT
32.877 -19.249 33.713 -18.453 QT
34.549 -17.656 34.549 -16.015 QT
34.549 -10.249 L
34.549 -9.749 35.08 -9.617 QT
35.611 -9.484 36.424 -9.484 QT
36.424 -8.64 L
30.924 -8.64 L
30.924 -9.484 L
31.752 -9.484 32.276 -9.617 QT
32.799 -9.749 32.799 -10.249 QT
32.799 -15.937 L
32.799 -17.109 32.463 -17.867 QT
32.127 -18.624 31.065 -18.624 QT
29.674 -18.624 28.776 -17.515 QT
27.877 -16.406 27.877 -14.984 QT
27.877 -10.249 L
27.877 -9.749 28.408 -9.617 QT
28.94 -9.484 29.752 -9.484 QT
29.752 -8.64 L
24.252 -8.64 L
cp
f
GR
GS
0.149 GC
1 LJ
0.5 LW
N
166.5 220 M
367 220 L
S
GR
GS
0 0.447 0.741 RC
N
175.175 220 M
175.175 218.606 L
170.356 218.606 L
170.356 220 L
cp
179.995 220 M
179.995 217.595 L
175.175 217.595 L
175.175 220 L
cp
184.815 220 M
184.815 217.567 L
179.995 217.567 L
179.995 220 L
cp
189.635 220 M
189.635 217.813 L
184.815 217.813 L
184.815 220 L
cp
194.454 220 M
194.454 217.513 L
189.635 217.513 L
189.635 220 L
cp
199.274 220 M
199.274 218.114 L
194.454 218.114 L
194.454 220 L
cp
204.094 220 M
204.094 217.649 L
199.274 217.649 L
199.274 220 L
cp
208.913 220 M
208.913 218.251 L
204.094 218.251 L
204.094 220 L
cp
213.733 220 M
213.733 217.349 L
208.913 217.349 L
208.913 220 L
cp
218.553 220 M
218.553 216.693 L
213.733 216.693 L
213.733 220 L
cp
223.373 220 M
223.373 216.228 L
218.553 216.228 L
218.553 220 L
cp
228.192 220 M
228.192 212.566 L
223.373 212.566 L
223.373 220 L
cp
233.012 220 M
233.012 207.373 L
228.192 207.373 L
228.192 220 L
cp
237.832 220 M
237.832 201.305 L
233.012 201.305 L
233.012 220 L
cp
242.651 220 M
242.651 194.418 L
237.832 194.418 L
237.832 220 L
cp
247.471 220 M
247.471 187.284 L
242.651 187.284 L
242.651 220 L
cp
252.291 220 M
252.291 171.077 L
247.471 171.077 L
247.471 220 L
cp
257.111 220 M
257.111 152.682 L
252.291 152.682 L
252.291 220 L
cp
261.93 220 M
261.93 119.283 L
257.111 119.283 L
257.111 220 L
cp
266.75 220 M
266.75 57.541 L
261.93 57.541 L
261.93 220 L
cp
271.57 220 M
271.57 53.496 L
266.75 53.496 L
266.75 220 L
cp
276.389 220 M
276.389 100.288 L
271.57 100.288 L
271.57 220 L
cp
281.209 220 M
281.209 134.179 L
276.389 134.179 L
276.389 220 L
cp
286.029 220 M
286.029 156.236 L
281.209 156.236 L
281.209 220 L
cp
290.849 220 M
290.849 172.88 L
286.029 172.88 L
286.029 220 L
cp
295.668 220 M
295.668 184.66 L
290.849 184.66 L
290.849 220 L
cp
300.488 220 M
300.488 195.757 L
295.668 195.757 L
295.668 220 L
cp
305.308 220 M
305.308 204.093 L
300.488 204.093 L
300.488 220 L
cp
310.127 220 M
310.127 208.521 L
305.308 208.521 L
305.308 220 L
cp
314.947 220 M
314.947 211.609 L
310.127 211.609 L
310.127 220 L
cp
319.767 220 M
319.767 211.5 L
314.947 211.5 L
314.947 220 L
cp
324.587 220 M
324.587 214.698 L
319.767 214.698 L
319.767 220 L
cp
329.406 220 M
329.406 216.775 L
324.587 216.775 L
324.587 220 L
cp
334.226 220 M
334.226 217.294 L
329.406 217.294 L
329.406 220 L
cp
339.046 220 M
339.046 218.251 L
334.226 218.251 L
334.226 220 L
cp
343.865 220 M
343.865 218.169 L
339.046 218.169 L
339.046 220 L
cp
348.685 220 M
348.685 218.551 L
343.865 218.551 L
343.865 220 L
cp
353.505 220 M
353.505 219.207 L
348.685 219.207 L
348.685 220 L
cp
358.325 220 M
358.325 219.289 L
353.505 219.289 L
353.505 220 L
cp
363.144 220 M
363.144 219.153 L
358.325 219.153 L
358.325 220 L
cp
f
GR
GS
10.0 ML
0.5 LW
N
170.356 220 M
170.356 218.606 L
175.175 218.606 L
175.175 220 L
cp
S
GR
GS
10.0 ML
0.5 LW
N
175.175 220 M
175.175 217.595 L
179.995 217.595 L
179.995 220 L
cp
S
GR
GS
10.0 ML
0.5 LW
N
179.995 220 M
179.995 217.567 L
184.815 217.567 L
184.815 220 L
cp
S
GR
GS
10.0 ML
0.5 LW
N
184.815 220 M
184.815 217.813 L
189.635 217.813 L
189.635 220 L
cp
S
GR
GS
10.0 ML
0.5 LW
N
189.635 220 M
189.635 217.513 L
194.454 217.513 L
194.454 220 L
cp
S
GR
GS
10.0 ML
0.5 LW
N
194.454 220 M
194.454 218.114 L
199.274 218.114 L
199.274 220 L
cp
S
GR
GS
10.0 ML
0.5 LW
N
199.274 220 M
199.274 217.649 L
204.094 217.649 L
204.094 220 L
cp
S
GR
GS
10.0 ML
0.5 LW
N
204.094 220 M
204.094 218.251 L
208.913 218.251 L
208.913 220 L
cp
S
GR
GS
10.0 ML
0.5 LW
N
208.913 220 M
208.913 217.349 L
213.733 217.349 L
213.733 220 L
cp
S
GR
GS
10.0 ML
0.5 LW
N
213.733 220 M
213.733 216.693 L
218.553 216.693 L
218.553 220 L
cp
S
GR
GS
10.0 ML
0.5 LW
N
218.553 220 M
218.553 216.228 L
223.373 216.228 L
223.373 220 L
cp
S
GR
GS
10.0 ML
0.5 LW
N
223.373 220 M
223.373 212.566 L
228.192 212.566 L
228.192 220 L
cp
S
GR
GS
10.0 ML
0.5 LW
N
228.192 220 M
228.192 207.373 L
233.012 207.373 L
233.012 220 L
cp
S
GR
GS
10.0 ML
0.5 LW
N
233.012 220 M
233.012 201.305 L
237.832 201.305 L
237.832 220 L
cp
S
GR
GS
10.0 ML
0.5 LW
N
237.832 220 M
237.832 194.418 L
242.651 194.418 L
242.651 220 L
cp
S
GR
GS
10.0 ML
0.5 LW
N
242.651 220 M
242.651 187.284 L
247.471 187.284 L
247.471 220 L
cp
S
GR
GS
10.0 ML
0.5 LW
N
247.471 220 M
247.471 171.077 L
252.291 171.077 L
252.291 220 L
cp
S
GR
GS
10.0 ML
0.5 LW
N
252.291 220 M
252.291 152.682 L
257.111 152.682 L
257.111 220 L
cp
S
GR
GS
10.0 ML
0.5 LW
N
257.111 220 M
257.111 119.283 L
261.93 119.283 L
261.93 220 L
cp
S
GR
GS
10.0 ML
0.5 LW
N
261.93 220 M
261.93 57.541 L
266.75 57.541 L
266.75 220 L
cp
S
GR
GS
10.0 ML
0.5 LW
N
266.75 220 M
266.75 53.496 L
271.57 53.496 L
271.57 220 L
cp
S
GR
GS
10.0 ML
0.5 LW
N
271.57 220 M
271.57 100.288 L
276.389 100.288 L
276.389 220 L
cp
S
GR
GS
10.0 ML
0.5 LW
N
276.389 220 M
276.389 134.179 L
281.209 134.179 L
281.209 220 L
cp
S
GR
GS
10.0 ML
0.5 LW
N
281.209 220 M
281.209 156.236 L
286.029 156.236 L
286.029 220 L
cp
S
GR
GS
10.0 ML
0.5 LW
N
286.029 220 M
286.029 172.88 L
290.849 172.88 L
290.849 220 L
cp
S
GR
GS
10.0 ML
0.5 LW
N
290.849 220 M
290.849 184.66 L
295.668 184.66 L
295.668 220 L
cp
S
GR
GS
10.0 ML
0.5 LW
N
295.668 220 M
295.668 195.757 L
300.488 195.757 L
300.488 220 L
cp
S
GR
GS
10.0 ML
0.5 LW
N
300.488 220 M
300.488 204.093 L
305.308 204.093 L
305.308 220 L
cp
S
GR
GS
10.0 ML
0.5 LW
N
305.308 220 M
305.308 208.521 L
310.127 208.521 L
310.127 220 L
cp
S
GR
GS
10.0 ML
0.5 LW
N
310.127 220 M
310.127 211.609 L
314.947 211.609 L
314.947 220 L
cp
S
GR
GS
10.0 ML
0.5 LW
N
314.947 220 M
314.947 211.5 L
319.767 211.5 L
319.767 220 L
cp
S
GR
GS
10.0 ML
0.5 LW
N
319.767 220 M
319.767 214.698 L
324.587 214.698 L
324.587 220 L
cp
S
GR
GS
10.0 ML
0.5 LW
N
324.587 220 M
324.587 216.775 L
329.406 216.775 L
329.406 220 L
cp
S
GR
GS
10.0 ML
0.5 LW
N
329.406 220 M
329.406 217.294 L
334.226 217.294 L
334.226 220 L
cp
S
GR
GS
10.0 ML
0.5 LW
N
334.226 220 M
334.226 218.251 L
339.046 218.251 L
339.046 220 L
cp
S
GR
GS
10.0 ML
0.5 LW
N
339.046 220 M
339.046 218.169 L
343.865 218.169 L
343.865 220 L
cp
S
GR
GS
10.0 ML
0.5 LW
N
343.865 220 M
343.865 218.551 L
348.685 218.551 L
348.685 220 L
cp
S
GR
GS
10.0 ML
0.5 LW
N
348.685 220 M
348.685 219.207 L
353.505 219.207 L
353.505 220 L
cp
S
GR
GS
10.0 ML
0.5 LW
N
353.505 220 M
353.505 219.289 L
358.325 219.289 L
358.325 220 L
cp
S
GR
GS
10.0 ML
0.5 LW
N
358.325 220 M
358.325 219.153 L
363.144 219.153 L
363.144 220 L
cp
S
GR
GS
0.149 GC
2 setlinecap
1 LJ
0.5 LW
N
166.5 220 M
367 220 L
S
GR
GS
0.149 GC
2 setlinecap
1 LJ
0.5 LW
N
166.5 35 M
367 35 L
S
GR
GS
0.149 GC
2 setlinecap
1 LJ
0.5 LW
N
207.902 220 M
207.902 217.995 L
S
GR
GS
0.149 GC
2 setlinecap
1 LJ
0.5 LW
N
260.967 220 M
260.967 217.995 L
S
GR
GS
0.149 GC
2 setlinecap
1 LJ
0.5 LW
N
314.031 220 M
314.031 217.995 L
S
GR
GS
0.149 GC
2 setlinecap
1 LJ
0.5 LW
N
207.902 35 M
207.902 37.005 L
S
GR
GS
0.149 GC
2 setlinecap
1 LJ
0.5 LW
N
260.967 35 M
260.967 37.005 L
S
GR
GS
0.149 GC
2 setlinecap
1 LJ
0.5 LW
N
314.031 35 M
314.031 37.005 L
S
GR
GS
[1 0 0 1 207.90187 226] CT
0.149 GC
N
-13.115 13.097 M
-13.115 11.862 L
-7.818 11.862 L
-7.818 13.097 L
-13.115 13.097 L
cp
f
GR
GS
[1 0 0 1 207.90187 226] CT
0.149 GC
N
-4.932 14.519 M
-4.729 15.112 -4.299 15.589 QT
-3.87 16.066 -3.292 16.331 QT
-2.714 16.597 -2.089 16.597 QT
-0.635 16.597 -0.089 15.48 QT
0.458 14.362 0.458 12.753 QT
0.458 12.066 0.435 11.589 QT
0.411 11.112 0.302 10.675 QT
0.115 9.972 -0.354 9.448 QT
-0.823 8.925 -1.495 8.925 QT
-2.167 8.925 -2.651 9.128 QT
-3.135 9.331 -3.432 9.605 QT
-3.729 9.878 -3.964 10.183 QT
-4.198 10.487 -4.26 10.503 QT
-4.495 10.503 L
-4.542 10.503 -4.612 10.441 QT
-4.682 10.378 -4.682 10.316 QT
-4.682 3.628 L
-4.682 3.581 -4.62 3.526 QT
-4.557 3.472 -4.495 3.472 QT
-4.432 3.472 L
-3.089 4.128 -1.573 4.128 QT
-0.089 4.128 1.286 3.472 QT
1.349 3.472 L
1.427 3.472 1.482 3.526 QT
1.536 3.581 1.536 3.628 QT
1.536 3.816 L
1.536 3.925 1.505 3.925 QT
0.818 4.831 -0.214 5.339 QT
-1.245 5.847 -2.354 5.847 QT
-3.151 5.847 -3.995 5.612 QT
-3.995 9.394 L
-3.323 8.862 -2.799 8.628 QT
-2.276 8.394 -1.464 8.394 QT
-0.37 8.394 0.505 9.034 QT
1.38 9.675 1.849 10.691 QT
2.318 11.706 2.318 12.769 QT
2.318 13.972 1.724 15.003 QT
1.13 16.034 0.115 16.636 QT
-0.901 17.237 -2.089 17.237 QT
-3.073 17.237 -3.901 16.73 QT
-4.729 16.222 -5.198 15.362 QT
-5.667 14.503 -5.667 13.534 QT
-5.667 13.081 -5.378 12.8 QT
-5.089 12.519 -4.651 12.519 QT
-4.198 12.519 -3.901 12.808 QT
-3.604 13.097 -3.604 13.534 QT
-3.604 13.972 -3.901 14.269 QT
-4.198 14.566 -4.651 14.566 QT
-4.714 14.566 -4.799 14.55 QT
-4.885 14.534 -4.932 14.519 QT
cp
f
GR
GS
[1 0 0 1 207.90187 226] CT
0.149 GC
N
8.333 17.237 M
5.88 17.237 4.997 15.222 QT
4.115 13.206 4.115 10.425 QT
4.115 8.691 4.435 7.151 QT
4.755 5.612 5.693 4.542 QT
6.63 3.472 8.333 3.472 QT
9.646 3.472 10.49 4.12 QT
11.333 4.769 11.771 5.792 QT
12.208 6.816 12.372 7.98 QT
12.536 9.144 12.536 10.425 QT
12.536 12.144 12.216 13.644 QT
11.896 15.144 10.966 16.191 QT
10.036 17.237 8.333 17.237 QT
cp
8.333 16.722 M
9.443 16.722 9.99 15.581 QT
10.536 14.441 10.669 13.05 QT
10.802 11.659 10.802 10.097 QT
10.802 8.597 10.669 7.323 QT
10.536 6.05 9.997 5.026 QT
9.458 4.003 8.333 4.003 QT
7.208 4.003 6.661 5.034 QT
6.115 6.066 5.982 7.331 QT
5.849 8.597 5.849 10.097 QT
5.849 11.206 5.904 12.198 QT
5.958 13.191 6.193 14.237 QT
6.427 15.284 6.951 16.003 QT
7.474 16.722 8.333 16.722 QT
cp
f
GR
GS
[1 0 0 1 260.96664 226] CT
0.149 GC
N
0 17.237 M
-2.453 17.237 -3.336 15.222 QT
-4.219 13.206 -4.219 10.425 QT
-4.219 8.691 -3.898 7.151 QT
-3.578 5.612 -2.641 4.542 QT
-1.703 3.472 0 3.472 QT
1.313 3.472 2.156 4.12 QT
3 4.769 3.438 5.792 QT
3.875 6.816 4.039 7.98 QT
4.203 9.144 4.203 10.425 QT
4.203 12.144 3.883 13.644 QT
3.563 15.144 2.633 16.191 QT
1.703 17.237 0 17.237 QT
cp
0 16.722 M
1.109 16.722 1.656 15.581 QT
2.203 14.441 2.336 13.05 QT
2.469 11.659 2.469 10.097 QT
2.469 8.597 2.336 7.323 QT
2.203 6.05 1.664 5.026 QT
1.125 4.003 0 4.003 QT
-1.125 4.003 -1.672 5.034 QT
-2.219 6.066 -2.352 7.331 QT
-2.484 8.597 -2.484 10.097 QT
-2.484 11.206 -2.43 12.198 QT
-2.375 13.191 -2.141 14.237 QT
-1.906 15.284 -1.383 16.003 QT
-0.859 16.722 0 16.722 QT
cp
f
GR
GS
[1 0 0 1 314.0314 226] CT
0.149 GC
N
-8.266 14.519 M
-8.063 15.112 -7.633 15.589 QT
-7.203 16.066 -6.625 16.331 QT
-6.047 16.597 -5.422 16.597 QT
-3.969 16.597 -3.422 15.48 QT
-2.875 14.362 -2.875 12.753 QT
-2.875 12.066 -2.898 11.589 QT
-2.922 11.112 -3.031 10.675 QT
-3.219 9.972 -3.688 9.448 QT
-4.156 8.925 -4.828 8.925 QT
-5.5 8.925 -5.984 9.128 QT
-6.469 9.331 -6.766 9.605 QT
-7.063 9.878 -7.297 10.183 QT
-7.531 10.487 -7.594 10.503 QT
-7.828 10.503 L
-7.875 10.503 -7.945 10.441 QT
-8.016 10.378 -8.016 10.316 QT
-8.016 3.628 L
-8.016 3.581 -7.953 3.526 QT
-7.891 3.472 -7.828 3.472 QT
-7.766 3.472 L
-6.422 4.128 -4.906 4.128 QT
-3.422 4.128 -2.047 3.472 QT
-1.984 3.472 L
-1.906 3.472 -1.852 3.526 QT
-1.797 3.581 -1.797 3.628 QT
-1.797 3.816 L
-1.797 3.925 -1.828 3.925 QT
-2.516 4.831 -3.547 5.339 QT
-4.578 5.847 -5.688 5.847 QT
-6.484 5.847 -7.328 5.612 QT
-7.328 9.394 L
-6.656 8.862 -6.133 8.628 QT
-5.609 8.394 -4.797 8.394 QT
-3.703 8.394 -2.828 9.034 QT
-1.953 9.675 -1.484 10.691 QT
-1.016 11.706 -1.016 12.769 QT
-1.016 13.972 -1.609 15.003 QT
-2.203 16.034 -3.219 16.636 QT
-4.234 17.237 -5.422 17.237 QT
-6.406 17.237 -7.234 16.73 QT
-8.063 16.222 -8.531 15.362 QT
-9 14.503 -9 13.534 QT
-9 13.081 -8.711 12.8 QT
-8.422 12.519 -7.984 12.519 QT
-7.531 12.519 -7.234 12.808 QT
-6.938 13.097 -6.938 13.534 QT
-6.938 13.972 -7.234 14.269 QT
-7.531 14.566 -7.984 14.566 QT
-8.047 14.566 -8.133 14.55 QT
-8.219 14.534 -8.266 14.519 QT
cp
f
GR
GS
[1 0 0 1 314.0314 226] CT
0.149 GC
N
5 17.237 M
2.547 17.237 1.664 15.222 QT
0.781 13.206 0.781 10.425 QT
0.781 8.691 1.102 7.151 QT
1.422 5.612 2.359 4.542 QT
3.297 3.472 5 3.472 QT
6.313 3.472 7.156 4.12 QT
8 4.769 8.438 5.792 QT
8.875 6.816 9.039 7.98 QT
9.203 9.144 9.203 10.425 QT
9.203 12.144 8.883 13.644 QT
8.563 15.144 7.633 16.191 QT
6.703 17.237 5 17.237 QT
cp
5 16.722 M
6.109 16.722 6.656 15.581 QT
7.203 14.441 7.336 13.05 QT
7.469 11.659 7.469 10.097 QT
7.469 8.597 7.336 7.323 QT
7.203 6.05 6.664 5.026 QT
6.125 4.003 5 4.003 QT
3.875 4.003 3.328 5.034 QT
2.781 6.066 2.648 7.331 QT
2.516 8.597 2.516 10.097 QT
2.516 11.206 2.57 12.198 QT
2.625 13.191 2.859 14.237 QT
3.094 15.284 3.617 16.003 QT
4.141 16.722 5 16.722 QT
cp
f
GR
GS
0.149 GC
2 setlinecap
1 LJ
0.5 LW
N
166.5 220 M
166.5 35 L
S
GR
GS
0.149 GC
2 setlinecap
1 LJ
0.5 LW
N
367 220 M
367 35 L
S
GR
GS
0.149 GC
2 setlinecap
1 LJ
0.5 LW
N
166.5 220 M
168.505 220 L
S
GR
GS
0.149 GC
2 setlinecap
1 LJ
0.5 LW
N
166.5 169.66 M
168.505 169.66 L
S
GR
GS
0.149 GC
2 setlinecap
1 LJ
0.5 LW
N
166.5 119.32 M
168.505 119.32 L
S
GR
GS
0.149 GC
2 setlinecap
1 LJ
0.5 LW
N
166.5 68.98 M
168.505 68.98 L
S
GR
GS
0.149 GC
2 setlinecap
1 LJ
0.5 LW
N
367 220 M
364.995 220 L
S
GR
GS
0.149 GC
2 setlinecap
1 LJ
0.5 LW
N
367 169.66 M
364.995 169.66 L
S
GR
GS
0.149 GC
2 setlinecap
1 LJ
0.5 LW
N
367 119.32 M
364.995 119.32 L
S
GR
GS
0.149 GC
2 setlinecap
1 LJ
0.5 LW
N
367 68.98 M
364.995 68.98 L
S
GR
GS
[1 0 0 1 160.5 220] CT
0.149 GC
N
-5 5.237 M
-7.453 5.237 -8.336 3.222 QT
-9.219 1.206 -9.219 -1.575 QT
-9.219 -3.309 -8.898 -4.849 QT
-8.578 -6.388 -7.641 -7.458 QT
-6.703 -8.528 -5 -8.528 QT
-3.688 -8.528 -2.844 -7.88 QT
-2 -7.231 -1.563 -6.208 QT
-1.125 -5.184 -0.961 -4.02 QT
-0.797 -2.856 -0.797 -1.575 QT
-0.797 0.144 -1.117 1.644 QT
-1.438 3.144 -2.367 4.191 QT
-3.297 5.237 -5 5.237 QT
cp
-5 4.722 M
-3.891 4.722 -3.344 3.581 QT
-2.797 2.441 -2.664 1.05 QT
-2.531 -0.341 -2.531 -1.903 QT
-2.531 -3.403 -2.664 -4.677 QT
-2.797 -5.95 -3.336 -6.974 QT
-3.875 -7.997 -5 -7.997 QT
-6.125 -7.997 -6.672 -6.966 QT
-7.219 -5.934 -7.352 -4.669 QT
-7.484 -3.403 -7.484 -1.903 QT
-7.484 -0.794 -7.43 0.198 QT
-7.375 1.191 -7.141 2.237 QT
-6.906 3.284 -6.383 4.003 QT
-5.859 4.722 -5 4.722 QT
cp
f
GR
GS
[1 0 0 1 160.5 169.65987] CT
0.149 GC
N
-30.556 5.237 M
-33.009 5.237 -33.892 3.222 QT
-34.774 1.206 -34.774 -1.575 QT
-34.774 -3.309 -34.454 -4.849 QT
-34.134 -6.388 -33.196 -7.458 QT
-32.259 -8.528 -30.556 -8.528 QT
-29.243 -8.528 -28.399 -7.88 QT
-27.556 -7.231 -27.118 -6.208 QT
-26.681 -5.184 -26.517 -4.02 QT
-26.353 -2.856 -26.353 -1.575 QT
-26.353 0.144 -26.673 1.644 QT
-26.993 3.144 -27.923 4.191 QT
-28.853 5.237 -30.556 5.237 QT
cp
-30.556 4.722 M
-29.446 4.722 -28.899 3.581 QT
-28.353 2.441 -28.22 1.05 QT
-28.087 -0.341 -28.087 -1.903 QT
-28.087 -3.403 -28.22 -4.677 QT
-28.353 -5.95 -28.892 -6.974 QT
-29.431 -7.997 -30.556 -7.997 QT
-31.681 -7.997 -32.228 -6.966 QT
-32.774 -5.934 -32.907 -4.669 QT
-33.04 -3.403 -33.04 -1.903 QT
-33.04 -0.794 -32.985 0.198 QT
-32.931 1.191 -32.696 2.237 QT
-32.462 3.284 -31.938 4.003 QT
-31.415 4.722 -30.556 4.722 QT
cp
f
GR
GS
[1 0 0 1 160.5 169.65987] CT
0.149 GC
N
-23.868 3.691 M
-23.868 3.253 -23.54 2.925 QT
-23.212 2.597 -22.774 2.597 QT
-22.493 2.597 -22.235 2.745 QT
-21.978 2.894 -21.829 3.159 QT
-21.681 3.425 -21.681 3.691 QT
-21.681 4.128 -22.001 4.464 QT
-22.321 4.8 -22.774 4.8 QT
-23.212 4.8 -23.54 4.464 QT
-23.868 4.128 -23.868 3.691 QT
cp
f
GR
GS
[1 0 0 1 160.5 169.65987] CT
0.149 GC
N
-15 5.237 M
-17.453 5.237 -18.336 3.222 QT
-19.219 1.206 -19.219 -1.575 QT
-19.219 -3.309 -18.898 -4.849 QT
-18.578 -6.388 -17.641 -7.458 QT
-16.703 -8.528 -15 -8.528 QT
-13.688 -8.528 -12.844 -7.88 QT
-12 -7.231 -11.563 -6.208 QT
-11.125 -5.184 -10.961 -4.02 QT
-10.797 -2.856 -10.797 -1.575 QT
-10.797 0.144 -11.117 1.644 QT
-11.438 3.144 -12.367 4.191 QT
-13.297 5.237 -15 5.237 QT
cp
-15 4.722 M
-13.891 4.722 -13.344 3.581 QT
-12.797 2.441 -12.664 1.05 QT
-12.531 -0.341 -12.531 -1.903 QT
-12.531 -3.403 -12.664 -4.677 QT
-12.797 -5.95 -13.336 -6.974 QT
-13.875 -7.997 -15 -7.997 QT
-16.125 -7.997 -16.672 -6.966 QT
-17.219 -5.934 -17.352 -4.669 QT
-17.484 -3.403 -17.484 -1.903 QT
-17.484 -0.794 -17.43 0.198 QT
-17.375 1.191 -17.141 2.237 QT
-16.906 3.284 -16.383 4.003 QT
-15.859 4.722 -15 4.722 QT
cp
f
GR
GS
[1 0 0 1 160.5 169.65987] CT
0.149 GC
N
-8.141 4.8 M
-8.141 4.097 L
-5.641 4.097 -5.641 3.456 QT
-5.641 -7.044 L
-6.672 -6.544 -8.266 -6.544 QT
-8.266 -7.247 L
-5.813 -7.247 -4.563 -8.528 QT
-4.281 -8.528 L
-4.203 -8.528 -4.141 -8.474 QT
-4.078 -8.419 -4.078 -8.341 QT
-4.078 3.456 L
-4.078 4.097 -1.578 4.097 QT
-1.578 4.8 L
-8.141 4.8 L
cp
f
GR
GS
[1 0 0 1 160.5 119.31973] CT
0.149 GC
N
/f573311018{-30.556 5.237 M
-33.009 5.237 -33.892 3.222 QT
-34.774 1.206 -34.774 -1.575 QT
-34.774 -3.309 -34.454 -4.849 QT
-34.134 -6.388 -33.196 -7.458 QT
-32.259 -8.528 -30.556 -8.528 QT
-29.243 -8.528 -28.399 -7.88 QT
-27.556 -7.231 -27.118 -6.208 QT
-26.681 -5.184 -26.517 -4.02 QT
-26.353 -2.856 -26.353 -1.575 QT
-26.353 0.144 -26.673 1.644 QT
-26.993 3.144 -27.923 4.191 QT
-28.853 5.237 -30.556 5.237 QT
cp
-30.556 4.722 M
-29.446 4.722 -28.899 3.581 QT
-28.353 2.441 -28.22 1.05 QT
-28.087 -0.341 -28.087 -1.903 QT
-28.087 -3.403 -28.22 -4.677 QT
-28.353 -5.95 -28.892 -6.974 QT
-29.431 -7.997 -30.556 -7.997 QT
-31.681 -7.997 -32.228 -6.966 QT
-32.774 -5.934 -32.907 -4.669 QT
-33.04 -3.403 -33.04 -1.903 QT
-33.04 -0.794 -32.985 0.198 QT
-32.931 1.191 -32.696 2.237 QT
-32.462 3.284 -31.938 4.003 QT
-31.415 4.722 -30.556 4.722 QT
cp}def
f573311018
f
GR
GS
[1 0 0 1 160.5 119.31973] CT
0.149 GC
N
/f-325359852{-23.868 3.691 M
-23.868 3.253 -23.54 2.925 QT
-23.212 2.597 -22.774 2.597 QT
-22.493 2.597 -22.235 2.745 QT
-21.978 2.894 -21.829 3.159 QT
-21.681 3.425 -21.681 3.691 QT
-21.681 4.128 -22.001 4.464 QT
-22.321 4.8 -22.774 4.8 QT
-23.212 4.8 -23.54 4.464 QT
-23.868 4.128 -23.868 3.691 QT
cp}def
f-325359852
f
GR
GS
[1 0 0 1 160.5 119.31973] CT
0.149 GC
N
/f-1560039422{-15 5.237 M
-17.453 5.237 -18.336 3.222 QT
-19.219 1.206 -19.219 -1.575 QT
-19.219 -3.309 -18.898 -4.849 QT
-18.578 -6.388 -17.641 -7.458 QT
-16.703 -8.528 -15 -8.528 QT
-13.688 -8.528 -12.844 -7.88 QT
-12 -7.231 -11.563 -6.208 QT
-11.125 -5.184 -10.961 -4.02 QT
-10.797 -2.856 -10.797 -1.575 QT
-10.797 0.144 -11.117 1.644 QT
-11.438 3.144 -12.367 4.191 QT
-13.297 5.237 -15 5.237 QT
cp
-15 4.722 M
-13.891 4.722 -13.344 3.581 QT
-12.797 2.441 -12.664 1.05 QT
-12.531 -0.341 -12.531 -1.903 QT
-12.531 -3.403 -12.664 -4.677 QT
-12.797 -5.95 -13.336 -6.974 QT
-13.875 -7.997 -15 -7.997 QT
-16.125 -7.997 -16.672 -6.966 QT
-17.219 -5.934 -17.352 -4.669 QT
-17.484 -3.403 -17.484 -1.903 QT
-17.484 -0.794 -17.43 0.198 QT
-17.375 1.191 -17.141 2.237 QT
-16.906 3.284 -16.383 4.003 QT
-15.859 4.722 -15 4.722 QT
cp}def
f-1560039422
f
GR
GS
[1 0 0 1 160.5 119.31973] CT
0.149 GC
N
/f-959722706{-9 4.8 M
-9 4.269 L
-9 4.206 -8.969 4.159 QT
-5.859 0.722 L
-5.156 -0.044 -4.719 -0.559 QT
-4.281 -1.075 -3.852 -1.755 QT
-3.422 -2.434 -3.172 -3.13 QT
-2.922 -3.825 -2.922 -4.606 QT
-2.922 -5.419 -3.227 -6.169 QT
-3.531 -6.919 -4.125 -7.372 QT
-4.719 -7.825 -5.578 -7.825 QT
-6.438 -7.825 -7.133 -7.302 QT
-7.828 -6.778 -8.109 -5.95 QT
-8.031 -5.966 -7.906 -5.966 QT
-7.453 -5.966 -7.133 -5.661 QT
-6.813 -5.356 -6.813 -4.872 QT
-6.813 -4.419 -7.133 -4.099 QT
-7.453 -3.778 -7.906 -3.778 QT
-8.375 -3.778 -8.688 -4.106 QT
-9 -4.434 -9 -4.872 QT
-9 -5.638 -8.719 -6.294 QT
-8.438 -6.95 -7.906 -7.466 QT
-7.375 -7.981 -6.703 -8.255 QT
-6.031 -8.528 -5.281 -8.528 QT
-4.141 -8.528 -3.156 -8.044 QT
-2.172 -7.559 -1.594 -6.677 QT
-1.016 -5.794 -1.016 -4.606 QT
-1.016 -3.731 -1.398 -2.95 QT
-1.781 -2.169 -2.375 -1.528 QT
-2.969 -0.888 -3.898 -0.083 QT
-4.828 0.722 -5.109 1.003 QT
-7.375 3.175 L
-5.453 3.175 L
-4.047 3.175 -3.094 3.151 QT
-2.141 3.128 -2.078 3.081 QT
-1.844 2.831 -1.594 1.237 QT
-1.016 1.237 L
-1.578 4.8 L
-9 4.8 L
cp}def
f-959722706
f
GR
GS
[1 0 0 1 160.5 68.9796] CT
0.149 GC
N
f573311018
f
GR
GS
[1 0 0 1 160.5 68.9796] CT
0.149 GC
N
f-325359852
f
GR
GS
[1 0 0 1 160.5 68.9796] CT
0.149 GC
N
f-1560039422
f
GR
GS
[1 0 0 1 160.5 68.9796] CT
0.149 GC
N
/f-1136742856{-8.094 3.253 M
-7.625 3.941 -6.836 4.269 QT
-6.047 4.597 -5.141 4.597 QT
-3.969 4.597 -3.484 3.612 QT
-3 2.628 -3 1.362 QT
-3 0.8 -3.102 0.23 QT
-3.203 -0.341 -3.445 -0.825 QT
-3.688 -1.309 -4.117 -1.606 QT
-4.547 -1.903 -5.156 -1.903 QT
-6.484 -1.903 L
-6.656 -1.903 -6.656 -2.091 QT
-6.656 -2.263 L
-6.656 -2.419 -6.484 -2.419 QT
-5.375 -2.513 L
-4.672 -2.513 -4.211 -3.036 QT
-3.75 -3.559 -3.531 -4.317 QT
-3.313 -5.075 -3.313 -5.763 QT
-3.313 -6.716 -3.766 -7.333 QT
-4.219 -7.95 -5.141 -7.95 QT
-5.891 -7.95 -6.586 -7.661 QT
-7.281 -7.372 -7.688 -6.778 QT
-7.656 -6.794 -7.625 -6.802 QT
-7.594 -6.809 -7.563 -6.809 QT
-7.109 -6.809 -6.805 -6.497 QT
-6.5 -6.184 -6.5 -5.731 QT
-6.5 -5.309 -6.805 -4.997 QT
-7.109 -4.684 -7.563 -4.684 QT
-8 -4.684 -8.313 -4.997 QT
-8.625 -5.309 -8.625 -5.731 QT
-8.625 -6.591 -8.109 -7.231 QT
-7.594 -7.872 -6.773 -8.2 QT
-5.953 -8.528 -5.141 -8.528 QT
-4.531 -8.528 -3.859 -8.341 QT
-3.188 -8.153 -2.641 -7.817 QT
-2.094 -7.481 -1.742 -6.958 QT
-1.391 -6.434 -1.391 -5.763 QT
-1.391 -4.919 -1.766 -4.208 QT
-2.141 -3.497 -2.797 -2.974 QT
-3.453 -2.45 -4.234 -2.2 QT
-3.375 -2.044 -2.594 -1.552 QT
-1.813 -1.059 -1.336 -0.302 QT
-0.859 0.456 -0.859 1.347 QT
-0.859 2.441 -1.461 3.339 QT
-2.063 4.237 -3.055 4.737 QT
-4.047 5.237 -5.141 5.237 QT
-6.078 5.237 -7.016 4.878 QT
-7.953 4.519 -8.555 3.808 QT
-9.156 3.097 -9.156 2.097 QT
-9.156 1.612 -8.828 1.276 QT
-8.5 0.941 -8 0.941 QT
-7.672 0.941 -7.406 1.089 QT
-7.141 1.237 -6.984 1.511 QT
-6.828 1.784 -6.828 2.097 QT
-6.828 2.597 -7.172 2.925 QT
-7.516 3.253 -8 3.253 QT
-8.094 3.253 L
cp}def
f-1136742856
f
GR
GS
1 GC
N
430 220 M
630.5 220 L
630.5 35 L
430 35 L
cp
f
GR
GS
[1 0 0 1 530.25049 32.00001] CT
N
/f1462428552{-55.599 -8.64 M
-55.599 -9.484 L
-53.115 -9.484 -53.115 -10.249 QT
-53.115 -23.437 L
-53.115 -24.187 -55.599 -24.187 QT
-55.599 -25.031 L
-42.365 -25.031 L
-41.693 -19.546 L
-42.38 -19.546 L
-42.552 -21.046 -42.826 -21.921 QT
-43.099 -22.796 -43.63 -23.296 QT
-44.162 -23.796 -45.044 -23.992 QT
-45.927 -24.187 -47.474 -24.187 QT
-49.662 -24.187 L
-50.099 -24.187 -50.341 -24.156 QT
-50.583 -24.124 -50.732 -23.953 QT
-50.88 -23.781 -50.88 -23.437 QT
-50.88 -17.249 L
-49.177 -17.249 L
-47.958 -17.249 -47.38 -17.468 QT
-46.802 -17.687 -46.583 -18.265 QT
-46.365 -18.843 -46.365 -20.062 QT
-45.677 -20.062 L
-45.677 -13.609 L
-46.365 -13.609 L
-46.365 -14.843 -46.583 -15.414 QT
-46.802 -15.984 -47.38 -16.203 QT
-47.958 -16.421 -49.177 -16.421 QT
-50.88 -16.421 L
-50.88 -10.249 L
-50.88 -9.484 -47.818 -9.484 QT
-47.818 -8.64 L
-55.599 -8.64 L
cp}def
f1462428552
f
GR
GS
[1 0 0 1 530.25049 32.00001] CT
N
/f-1066181363{-40.073 -11.499 M
-40.073 -16.796 L
-40.073 -17.437 -40.268 -17.726 QT
-40.464 -18.015 -40.823 -18.078 QT
-41.182 -18.14 -41.948 -18.14 QT
-41.948 -18.984 L
-38.323 -19.249 L
-38.323 -11.499 L
-38.323 -10.562 -38.182 -10.039 QT
-38.042 -9.515 -37.604 -9.257 QT
-37.167 -8.999 -36.214 -8.999 QT
-34.917 -8.999 -34.159 -10.078 QT
-33.401 -11.156 -33.401 -12.531 QT
-33.401 -16.796 L
-33.401 -17.437 -33.596 -17.726 QT
-33.792 -18.015 -34.151 -18.078 QT
-34.511 -18.14 -35.276 -18.14 QT
-35.276 -18.984 L
-31.651 -19.249 L
-31.651 -10.828 L
-31.651 -10.187 -31.456 -9.898 QT
-31.261 -9.609 -30.901 -9.546 QT
-30.542 -9.484 -29.776 -9.484 QT
-29.776 -8.64 L
-33.323 -8.374 L
-33.323 -10.406 L
-33.776 -9.499 -34.573 -8.937 QT
-35.37 -8.374 -36.323 -8.374 QT
-38.042 -8.374 -39.057 -9.109 QT
-40.073 -9.843 -40.073 -11.499 QT
cp}def
f-1066181363
f
GR
GS
[1 0 0 1 530.25049 32.00001] CT
N
/f-1688529225{-28.615 -8.64 M
-28.615 -9.484 L
-27.802 -9.484 -27.271 -9.617 QT
-26.74 -9.749 -26.74 -10.249 QT
-26.74 -16.796 L
-26.74 -17.437 -26.935 -17.726 QT
-27.13 -18.015 -27.49 -18.078 QT
-27.849 -18.14 -28.615 -18.14 QT
-28.615 -18.984 L
-25.13 -19.249 L
-25.13 -16.906 L
-24.662 -17.937 -23.716 -18.593 QT
-22.771 -19.249 -21.662 -19.249 QT
-19.99 -19.249 -19.154 -18.453 QT
-18.318 -17.656 -18.318 -16.015 QT
-18.318 -10.249 L
-18.318 -9.749 -17.787 -9.617 QT
-17.255 -9.484 -16.443 -9.484 QT
-16.443 -8.64 L
-21.943 -8.64 L
-21.943 -9.484 L
-21.115 -9.484 -20.591 -9.617 QT
-20.068 -9.749 -20.068 -10.249 QT
-20.068 -15.937 L
-20.068 -17.109 -20.404 -17.867 QT
-20.74 -18.624 -21.802 -18.624 QT
-23.193 -18.624 -24.091 -17.515 QT
-24.99 -16.406 -24.99 -14.984 QT
-24.99 -10.249 L
-24.99 -9.749 -24.458 -9.617 QT
-23.927 -9.484 -23.115 -9.484 QT
-23.115 -8.64 L
-28.615 -8.64 L
cp}def
f-1688529225
f
GR
GS
[1 0 0 1 530.25049 32.00001] CT
N
/f2055325268{-10.141 -8.374 M
-11.563 -8.374 -12.734 -9.14 QT
-13.906 -9.906 -14.555 -11.164 QT
-15.203 -12.421 -15.203 -13.828 QT
-15.203 -15.281 -14.492 -16.523 QT
-13.781 -17.765 -12.563 -18.507 QT
-11.344 -19.249 -9.875 -19.249 QT
-9 -19.249 -8.219 -18.882 QT
-7.438 -18.515 -6.859 -17.859 QT
-6.859 -22.843 L
-6.859 -23.484 -7.055 -23.773 QT
-7.25 -24.062 -7.602 -24.124 QT
-7.953 -24.187 -8.719 -24.187 QT
-8.719 -25.031 L
-5.172 -25.296 L
-5.172 -10.828 L
-5.172 -10.187 -4.977 -9.898 QT
-4.781 -9.609 -4.422 -9.546 QT
-4.063 -9.484 -3.313 -9.484 QT
-3.313 -8.64 L
-6.922 -8.374 L
-6.922 -9.89 L
-7.547 -9.171 -8.406 -8.773 QT
-9.266 -8.374 -10.141 -8.374 QT
cp
-12.594 -10.734 M
-12.172 -9.937 -11.492 -9.468 QT
-10.813 -8.999 -10 -8.999 QT
-9 -8.999 -8.172 -9.578 QT
-7.344 -10.156 -6.922 -11.062 QT
-6.922 -16.828 L
-7.203 -17.343 -7.633 -17.765 QT
-8.063 -18.187 -8.594 -18.406 QT
-9.125 -18.624 -9.734 -18.624 QT
-10.984 -18.624 -11.742 -17.914 QT
-12.5 -17.203 -12.805 -16.101 QT
-13.109 -14.999 -13.109 -13.796 QT
-13.109 -12.843 -13.016 -12.124 QT
-12.922 -11.406 -12.594 -10.734 QT
cp}def
f2055325268
f
GR
GS
[1 0 0 1 530.25049 32.00001] CT
N
/f759388484{6.068 -8.64 M
6.068 -9.484 L
8.552 -9.484 8.552 -10.249 QT
8.552 -23.437 L
8.552 -24.187 6.068 -24.187 QT
6.068 -25.031 L
19.302 -25.031 L
19.974 -19.546 L
19.286 -19.546 L
19.115 -21.046 18.841 -21.921 QT
18.568 -22.796 18.036 -23.296 QT
17.505 -23.796 16.622 -23.992 QT
15.74 -24.187 14.193 -24.187 QT
12.005 -24.187 L
11.568 -24.187 11.326 -24.156 QT
11.083 -24.124 10.935 -23.953 QT
10.786 -23.781 10.786 -23.437 QT
10.786 -17.249 L
12.49 -17.249 L
13.708 -17.249 14.286 -17.468 QT
14.865 -17.687 15.083 -18.265 QT
15.302 -18.843 15.302 -20.062 QT
15.99 -20.062 L
15.99 -13.609 L
15.302 -13.609 L
15.302 -14.843 15.083 -15.414 QT
14.865 -15.984 14.286 -16.203 QT
13.708 -16.421 12.49 -16.421 QT
10.786 -16.421 L
10.786 -10.249 L
10.786 -9.484 13.849 -9.484 QT
13.849 -8.64 L
6.068 -8.64 L
cp}def
f759388484
f
GR
GS
[1 0 0 1 530.25049 32.00001] CT
N
/f-1457993291{21.734 -8.64 M
21.734 -9.484 L
22.563 -9.484 23.086 -9.617 QT
23.609 -9.749 23.609 -10.249 QT
23.609 -22.843 L
23.609 -23.484 23.422 -23.773 QT
23.234 -24.062 22.867 -24.124 QT
22.5 -24.187 21.734 -24.187 QT
21.734 -25.031 L
25.297 -25.296 L
25.297 -10.249 L
25.297 -9.749 25.828 -9.617 QT
26.359 -9.484 27.172 -9.484 QT
27.172 -8.64 L
21.734 -8.64 L
cp}def
f-1457993291
f
GR
GS
[1 0 0 1 530.25049 32.00001] CT
N
/f-1832926048{33.667 -8.374 M
32.229 -8.374 30.995 -9.109 QT
29.761 -9.843 29.05 -11.07 QT
28.339 -12.296 28.339 -13.749 QT
28.339 -14.859 28.729 -15.874 QT
29.12 -16.89 29.854 -17.695 QT
30.589 -18.499 31.557 -18.953 QT
32.526 -19.406 33.667 -19.406 QT
35.151 -19.406 36.362 -18.624 QT
37.573 -17.843 38.276 -16.539 QT
38.979 -15.234 38.979 -13.749 QT
38.979 -12.312 38.261 -11.078 QT
37.542 -9.843 36.323 -9.109 QT
35.104 -8.374 33.667 -8.374 QT
cp
33.667 -9.078 M
35.589 -9.078 36.237 -10.468 QT
36.886 -11.859 36.886 -14.015 QT
36.886 -15.234 36.753 -16.023 QT
36.62 -16.812 36.182 -17.453 QT
35.917 -17.859 35.503 -18.156 QT
35.089 -18.453 34.628 -18.609 QT
34.167 -18.765 33.667 -18.765 QT
32.917 -18.765 32.245 -18.429 QT
31.573 -18.093 31.12 -17.453 QT
30.682 -16.781 30.557 -15.96 QT
30.432 -15.14 30.432 -14.015 QT
30.432 -12.671 30.667 -11.601 QT
30.901 -10.531 31.612 -9.804 QT
32.323 -9.078 33.667 -9.078 QT
cp}def
f-1832926048
f
GR
GS
[1 0 0 1 530.25049 32.00001] CT
N
/f741099665{44.313 -8.64 M
41.203 -17.374 L
41 -17.906 40.602 -18.023 QT
40.203 -18.14 39.438 -18.14 QT
39.438 -18.984 L
44.375 -18.984 L
44.375 -18.14 L
42.969 -18.14 42.969 -17.546 QT
42.969 -17.515 42.977 -17.476 QT
42.984 -17.437 42.984 -17.374 QT
45.297 -10.906 L
47.281 -16.546 L
46.969 -17.374 L
46.781 -17.906 46.375 -18.023 QT
45.969 -18.14 45.219 -18.14 QT
45.219 -18.984 L
49.953 -18.984 L
49.953 -18.14 L
48.531 -18.14 48.531 -17.546 QT
48.531 -17.453 48.547 -17.374 QT
50.953 -10.609 L
53.141 -16.734 L
53.188 -16.921 53.188 -17.062 QT
53.188 -17.578 52.758 -17.859 QT
52.328 -18.14 51.797 -18.14 QT
51.797 -18.984 L
55.875 -18.984 L
55.875 -18.14 L
55.156 -18.14 54.633 -17.765 QT
54.109 -17.39 53.859 -16.734 QT
51 -8.64 L
50.922 -8.374 50.641 -8.374 QT
50.453 -8.374 L
50.172 -8.374 50.094 -8.64 QT
47.656 -15.484 L
45.234 -8.64 L
45.125 -8.374 44.859 -8.374 QT
44.688 -8.374 L
44.391 -8.374 44.313 -8.64 QT
cp}def
f741099665
f
GR
GS
0.149 GC
1 LJ
0.5 LW
N
430 220 M
630.5 220 L
S
GR
GS
0 0.447 0.741 RC
N
438.675 220 M
438.675 218.431 L
433.856 218.431 L
433.856 220 L
cp
443.495 220 M
443.495 218.054 L
438.675 218.054 L
438.675 220 L
cp
448.315 220 M
448.315 217.049 L
443.495 217.049 L
443.495 220 L
cp
453.135 220 M
453.135 216.516 L
448.315 216.516 L
448.315 220 L
cp
457.954 220 M
457.954 214.35 L
453.135 214.35 L
453.135 220 L
cp
462.774 220 M
462.774 213.471 L
457.954 213.471 L
457.954 220 L
cp
467.594 220 M
467.594 210.866 L
462.774 210.866 L
462.774 220 L
cp
472.413 220 M
472.413 203.458 L
467.594 203.458 L
467.594 220 L
cp
477.233 220 M
477.233 195.172 L
472.413 195.172 L
472.413 220 L
cp
482.053 220 M
482.053 180.952 L
477.233 180.952 L
477.233 220 L
cp
486.873 220 M
486.873 162.402 L
482.053 162.402 L
482.053 220 L
cp
491.692 220 M
491.692 135.282 L
486.873 135.282 L
486.873 220 L
cp
496.512 220 M
496.512 106.436 L
491.692 106.436 L
491.692 220 L
cp
501.332 220 M
501.332 72.097 L
496.512 72.097 L
496.512 220 L
cp
506.151 220 M
506.151 47.488 L
501.332 47.488 L
501.332 220 L
cp
510.971 220 M
510.971 57.438 L
506.151 57.438 L
506.151 220 L
cp
515.791 220 M
515.791 97.616 L
510.971 97.616 L
510.971 220 L
cp
520.611 220 M
520.611 136.098 L
515.791 136.098 L
515.791 220 L
cp
525.43 220 M
525.43 164.473 L
520.611 164.473 L
520.611 220 L
cp
530.25 220 M
530.25 183.621 L
525.43 183.621 L
525.43 220 L
cp
535.07 220 M
535.07 194.23 L
530.25 194.23 L
530.25 220 L
cp
539.889 220 M
539.889 198.781 L
535.07 198.781 L
535.07 220 L
cp
544.709 220 M
544.709 203.552 L
539.889 203.552 L
539.889 220 L
cp
549.529 220 M
549.529 207.696 L
544.709 207.696 L
544.709 220 L
cp
554.349 220 M
554.349 210.521 L
549.529 210.521 L
549.529 220 L
cp
559.168 220 M
559.168 213.565 L
554.349 213.565 L
554.349 220 L
cp
563.988 220 M
563.988 213.408 L
559.168 213.408 L
559.168 220 L
cp
568.808 220 M
568.808 215.198 L
563.988 215.198 L
563.988 220 L
cp
573.627 220 M
573.627 216.359 L
568.808 216.359 L
568.808 220 L
cp
578.447 220 M
578.447 216.61 L
573.627 216.61 L
573.627 220 L
cp
583.267 220 M
583.267 217.363 L
578.447 217.363 L
578.447 220 L
cp
588.087 220 M
588.087 217.677 L
583.267 217.677 L
583.267 220 L
cp
592.906 220 M
592.906 218.399 L
588.087 218.399 L
588.087 220 L
cp
597.726 220 M
597.726 218.682 L
592.906 218.682 L
592.906 220 L
cp
602.546 220 M
602.546 218.588 L
597.726 218.588 L
597.726 220 L
cp
607.365 220 M
607.365 218.619 L
602.546 218.619 L
602.546 220 L
cp
612.185 220 M
612.185 218.807 L
607.365 218.807 L
607.365 220 L
cp
617.005 220 M
617.005 219.153 L
612.185 219.153 L
612.185 220 L
cp
621.825 220 M
621.825 219.121 L
617.005 219.121 L
617.005 220 L
cp
626.644 220 M
626.644 219.372 L
621.825 219.372 L
621.825 220 L
cp
f
GR
GS
10.0 ML
0.5 LW
N
433.856 220 M
433.856 218.431 L
438.675 218.431 L
438.675 220 L
cp
S
GR
GS
10.0 ML
0.5 LW
N
438.675 220 M
438.675 218.054 L
443.495 218.054 L
443.495 220 L
cp
S
GR
GS
10.0 ML
0.5 LW
N
443.495 220 M
443.495 217.049 L
448.315 217.049 L
448.315 220 L
cp
S
GR
GS
10.0 ML
0.5 LW
N
448.315 220 M
448.315 216.516 L
453.135 216.516 L
453.135 220 L
cp
S
GR
GS
10.0 ML
0.5 LW
N
453.135 220 M
453.135 214.35 L
457.954 214.35 L
457.954 220 L
cp
S
GR
GS
10.0 ML
0.5 LW
N
457.954 220 M
457.954 213.471 L
462.774 213.471 L
462.774 220 L
cp
S
GR
GS
10.0 ML
0.5 LW
N
462.774 220 M
462.774 210.866 L
467.594 210.866 L
467.594 220 L
cp
S
GR
GS
10.0 ML
0.5 LW
N
467.594 220 M
467.594 203.458 L
472.413 203.458 L
472.413 220 L
cp
S
GR
GS
10.0 ML
0.5 LW
N
472.413 220 M
472.413 195.172 L
477.233 195.172 L
477.233 220 L
cp
S
GR
GS
10.0 ML
0.5 LW
N
477.233 220 M
477.233 180.952 L
482.053 180.952 L
482.053 220 L
cp
S
GR
GS
10.0 ML
0.5 LW
N
482.053 220 M
482.053 162.402 L
486.873 162.402 L
486.873 220 L
cp
S
GR
GS
10.0 ML
0.5 LW
N
486.873 220 M
486.873 135.282 L
491.692 135.282 L
491.692 220 L
cp
S
GR
GS
10.0 ML
0.5 LW
N
491.692 220 M
491.692 106.436 L
496.512 106.436 L
496.512 220 L
cp
S
GR
GS
10.0 ML
0.5 LW
N
496.512 220 M
496.512 72.097 L
501.332 72.097 L
501.332 220 L
cp
S
GR
GS
10.0 ML
0.5 LW
N
501.332 220 M
501.332 47.488 L
506.151 47.488 L
506.151 220 L
cp
S
GR
GS
10.0 ML
0.5 LW
N
506.151 220 M
506.151 57.438 L
510.971 57.438 L
510.971 220 L
cp
S
GR
GS
10.0 ML
0.5 LW
N
510.971 220 M
510.971 97.616 L
515.791 97.616 L
515.791 220 L
cp
S
GR
GS
10.0 ML
0.5 LW
N
515.791 220 M
515.791 136.098 L
520.611 136.098 L
520.611 220 L
cp
S
GR
GS
10.0 ML
0.5 LW
N
520.611 220 M
520.611 164.473 L
525.43 164.473 L
525.43 220 L
cp
S
GR
GS
10.0 ML
0.5 LW
N
525.43 220 M
525.43 183.621 L
530.25 183.621 L
530.25 220 L
cp
S
GR
GS
10.0 ML
0.5 LW
N
530.25 220 M
530.25 194.23 L
535.07 194.23 L
535.07 220 L
cp
S
GR
GS
10.0 ML
0.5 LW
N
535.07 220 M
535.07 198.781 L
539.889 198.781 L
539.889 220 L
cp
S
GR
GS
10.0 ML
0.5 LW
N
539.889 220 M
539.889 203.552 L
544.709 203.552 L
544.709 220 L
cp
S
GR
GS
10.0 ML
0.5 LW
N
544.709 220 M
544.709 207.696 L
549.529 207.696 L
549.529 220 L
cp
S
GR
GS
10.0 ML
0.5 LW
N
549.529 220 M
549.529 210.521 L
554.349 210.521 L
554.349 220 L
cp
S
GR
GS
10.0 ML
0.5 LW
N
554.349 220 M
554.349 213.565 L
559.168 213.565 L
559.168 220 L
cp
S
GR
GS
10.0 ML
0.5 LW
N
559.168 220 M
559.168 213.408 L
563.988 213.408 L
563.988 220 L
cp
S
GR
GS
10.0 ML
0.5 LW
N
563.988 220 M
563.988 215.198 L
568.808 215.198 L
568.808 220 L
cp
S
GR
GS
10.0 ML
0.5 LW
N
568.808 220 M
568.808 216.359 L
573.627 216.359 L
573.627 220 L
cp
S
GR
GS
10.0 ML
0.5 LW
N
573.627 220 M
573.627 216.61 L
578.447 216.61 L
578.447 220 L
cp
S
GR
GS
10.0 ML
0.5 LW
N
578.447 220 M
578.447 217.363 L
583.267 217.363 L
583.267 220 L
cp
S
GR
GS
10.0 ML
0.5 LW
N
583.267 220 M
583.267 217.677 L
588.087 217.677 L
588.087 220 L
cp
S
GR
GS
10.0 ML
0.5 LW
N
588.087 220 M
588.087 218.399 L
592.906 218.399 L
592.906 220 L
cp
S
GR
GS
10.0 ML
0.5 LW
N
592.906 220 M
592.906 218.682 L
597.726 218.682 L
597.726 220 L
cp
S
GR
GS
10.0 ML
0.5 LW
N
597.726 220 M
597.726 218.588 L
602.546 218.588 L
602.546 220 L
cp
S
GR
GS
10.0 ML
0.5 LW
N
602.546 220 M
602.546 218.619 L
607.365 218.619 L
607.365 220 L
cp
S
GR
GS
10.0 ML
0.5 LW
N
607.365 220 M
607.365 218.807 L
612.185 218.807 L
612.185 220 L
cp
S
GR
GS
10.0 ML
0.5 LW
N
612.185 220 M
612.185 219.153 L
617.005 219.153 L
617.005 220 L
cp
S
GR
GS
10.0 ML
0.5 LW
N
617.005 220 M
617.005 219.121 L
621.825 219.121 L
621.825 220 L
cp
S
GR
GS
10.0 ML
0.5 LW
N
621.825 220 M
621.825 219.372 L
626.644 219.372 L
626.644 220 L
cp
S
GR
GS
0.149 GC
2 setlinecap
1 LJ
0.5 LW
N
430 220 M
630.5 220 L
S
GR
GS
0.149 GC
2 setlinecap
1 LJ
0.5 LW
N
430 35 M
630.5 35 L
S
GR
GS
0.149 GC
2 setlinecap
1 LJ
0.5 LW
N
440.666 220 M
440.666 217.995 L
S
GR
GS
0.149 GC
2 setlinecap
1 LJ
0.5 LW
N
510.314 220 M
510.314 217.995 L
S
GR
GS
0.149 GC
2 setlinecap
1 LJ
0.5 LW
N
579.962 220 M
579.962 217.995 L
S
GR
GS
0.149 GC
2 setlinecap
1 LJ
0.5 LW
N
440.666 35 M
440.666 37.005 L
S
GR
GS
0.149 GC
2 setlinecap
1 LJ
0.5 LW
N
510.314 35 M
510.314 37.005 L
S
GR
GS
0.149 GC
2 setlinecap
1 LJ
0.5 LW
N
579.962 35 M
579.962 37.005 L
S
GR
GS
[1 0 0 1 440.66611 226] CT
0.149 GC
N
/f-1544942653{-18.115 13.097 M
-18.115 11.862 L
-12.818 11.862 L
-12.818 13.097 L
-18.115 13.097 L
cp}def
f-1544942653
f
GR
GS
[1 0 0 1 440.66611 226] CT
0.149 GC
N
/f-137365623{-9.807 16.8 M
-9.807 16.097 L
-7.307 16.097 -7.307 15.456 QT
-7.307 4.956 L
-8.339 5.456 -9.932 5.456 QT
-9.932 4.753 L
-7.479 4.753 -6.229 3.472 QT
-5.948 3.472 L
-5.87 3.472 -5.807 3.526 QT
-5.745 3.581 -5.745 3.659 QT
-5.745 15.456 L
-5.745 16.097 -3.245 16.097 QT
-3.245 16.8 L
-9.807 16.8 L
cp}def
f-137365623
f
GR
GS
[1 0 0 1 440.66611 226] CT
0.149 GC
N
/f-151759843{3.333 17.237 M
0.88 17.237 -0.003 15.222 QT
-0.885 13.206 -0.885 10.425 QT
-0.885 8.691 -0.565 7.151 QT
-0.245 5.612 0.693 4.542 QT
1.63 3.472 3.333 3.472 QT
4.646 3.472 5.49 4.12 QT
6.333 4.769 6.771 5.792 QT
7.208 6.816 7.372 7.98 QT
7.536 9.144 7.536 10.425 QT
7.536 12.144 7.216 13.644 QT
6.896 15.144 5.966 16.191 QT
5.036 17.237 3.333 17.237 QT
cp
3.333 16.722 M
4.443 16.722 4.99 15.581 QT
5.536 14.441 5.669 13.05 QT
5.802 11.659 5.802 10.097 QT
5.802 8.597 5.669 7.323 QT
5.536 6.05 4.997 5.026 QT
4.458 4.003 3.333 4.003 QT
2.208 4.003 1.661 5.034 QT
1.115 6.066 0.982 7.331 QT
0.849 8.597 0.849 10.097 QT
0.849 11.206 0.904 12.198 QT
0.958 13.191 1.193 14.237 QT
1.427 15.284 1.951 16.003 QT
2.474 16.722 3.333 16.722 QT
cp}def
f-151759843
f
GR
GS
[1 0 0 1 440.66611 226] CT
0.149 GC
N
/f1441904243{13.333 17.237 M
10.88 17.237 9.997 15.222 QT
9.115 13.206 9.115 10.425 QT
9.115 8.691 9.435 7.151 QT
9.755 5.612 10.693 4.542 QT
11.63 3.472 13.333 3.472 QT
14.646 3.472 15.49 4.12 QT
16.333 4.769 16.771 5.792 QT
17.208 6.816 17.372 7.98 QT
17.536 9.144 17.536 10.425 QT
17.536 12.144 17.216 13.644 QT
16.896 15.144 15.966 16.191 QT
15.036 17.237 13.333 17.237 QT
cp
13.333 16.722 M
14.443 16.722 14.99 15.581 QT
15.536 14.441 15.669 13.05 QT
15.802 11.659 15.802 10.097 QT
15.802 8.597 15.669 7.323 QT
15.536 6.05 14.997 5.026 QT
14.458 4.003 13.333 4.003 QT
12.208 4.003 11.661 5.034 QT
11.115 6.066 10.982 7.331 QT
10.849 8.597 10.849 10.097 QT
10.849 11.206 10.904 12.198 QT
10.958 13.191 11.193 14.237 QT
11.427 15.284 11.951 16.003 QT
12.474 16.722 13.333 16.722 QT
cp}def
f1441904243
f
GR
GS
[1 0 0 1 510.31393 226] CT
0.149 GC
N
/f1536617579{0 17.237 M
-2.453 17.237 -3.336 15.222 QT
-4.219 13.206 -4.219 10.425 QT
-4.219 8.691 -3.898 7.151 QT
-3.578 5.612 -2.641 4.542 QT
-1.703 3.472 0 3.472 QT
1.313 3.472 2.156 4.12 QT
3 4.769 3.438 5.792 QT
3.875 6.816 4.039 7.98 QT
4.203 9.144 4.203 10.425 QT
4.203 12.144 3.883 13.644 QT
3.563 15.144 2.633 16.191 QT
1.703 17.237 0 17.237 QT
cp
0 16.722 M
1.109 16.722 1.656 15.581 QT
2.203 14.441 2.336 13.05 QT
2.469 11.659 2.469 10.097 QT
2.469 8.597 2.336 7.323 QT
2.203 6.05 1.664 5.026 QT
1.125 4.003 0 4.003 QT
-1.125 4.003 -1.672 5.034 QT
-2.219 6.066 -2.352 7.331 QT
-2.484 8.597 -2.484 10.097 QT
-2.484 11.206 -2.43 12.198 QT
-2.375 13.191 -2.141 14.237 QT
-1.906 15.284 -1.383 16.003 QT
-0.859 16.722 0 16.722 QT
cp}def
f1536617579
f
GR
GS
[1 0 0 1 579.96173 226] CT
0.149 GC
N
/f-1143418805{-13.141 16.8 M
-13.141 16.097 L
-10.641 16.097 -10.641 15.456 QT
-10.641 4.956 L
-11.672 5.456 -13.266 5.456 QT
-13.266 4.753 L
-10.813 4.753 -9.563 3.472 QT
-9.281 3.472 L
-9.203 3.472 -9.141 3.526 QT
-9.078 3.581 -9.078 3.659 QT
-9.078 15.456 L
-9.078 16.097 -6.578 16.097 QT
-6.578 16.8 L
-13.141 16.8 L
cp}def
f-1143418805
f
GR
GS
[1 0 0 1 579.96173 226] CT
0.149 GC
N
f1536617579
f
GR
GS
[1 0 0 1 579.96173 226] CT
0.149 GC
N
/f1705293814{10 17.237 M
7.547 17.237 6.664 15.222 QT
5.781 13.206 5.781 10.425 QT
5.781 8.691 6.102 7.151 QT
6.422 5.612 7.359 4.542 QT
8.297 3.472 10 3.472 QT
11.313 3.472 12.156 4.12 QT
13 4.769 13.438 5.792 QT
13.875 6.816 14.039 7.98 QT
14.203 9.144 14.203 10.425 QT
14.203 12.144 13.883 13.644 QT
13.563 15.144 12.633 16.191 QT
11.703 17.237 10 17.237 QT
cp
10 16.722 M
11.109 16.722 11.656 15.581 QT
12.203 14.441 12.336 13.05 QT
12.469 11.659 12.469 10.097 QT
12.469 8.597 12.336 7.323 QT
12.203 6.05 11.664 5.026 QT
11.125 4.003 10 4.003 QT
8.875 4.003 8.328 5.034 QT
7.781 6.066 7.648 7.331 QT
7.516 8.597 7.516 10.097 QT
7.516 11.206 7.57 12.198 QT
7.625 13.191 7.859 14.237 QT
8.094 15.284 8.617 16.003 QT
9.141 16.722 10 16.722 QT
cp}def
f1705293814
f
GR
GS
0.149 GC
2 setlinecap
1 LJ
0.5 LW
N
430 220 M
430 35 L
S
GR
GS
0.149 GC
2 setlinecap
1 LJ
0.5 LW
N
630.5 220 M
630.5 35 L
S
GR
GS
0.149 GC
2 setlinecap
1 LJ
0.5 LW
N
430 220 M
432.005 220 L
S
GR
GS
0.149 GC
2 setlinecap
1 LJ
0.5 LW
N
430 175.952 M
432.005 175.952 L
S
GR
GS
0.149 GC
2 setlinecap
1 LJ
0.5 LW
N
430 131.905 M
432.005 131.905 L
S
GR
GS
0.149 GC
2 setlinecap
1 LJ
0.5 LW
N
430 87.857 M
432.005 87.857 L
S
GR
GS
0.149 GC
2 setlinecap
1 LJ
0.5 LW
N
430 43.81 M
432.005 43.81 L
S
GR
GS
0.149 GC
2 setlinecap
1 LJ
0.5 LW
N
630.5 220 M
628.495 220 L
S
GR
GS
0.149 GC
2 setlinecap
1 LJ
0.5 LW
N
630.5 175.952 M
628.495 175.952 L
S
GR
GS
0.149 GC
2 setlinecap
1 LJ
0.5 LW
N
630.5 131.905 M
628.495 131.905 L
S
GR
GS
0.149 GC
2 setlinecap
1 LJ
0.5 LW
N
630.5 87.857 M
628.495 87.857 L
S
GR
GS
0.149 GC
2 setlinecap
1 LJ
0.5 LW
N
630.5 43.81 M
628.495 43.81 L
S
GR
GS
[1 0 0 1 424 220] CT
0.149 GC
N
/f-259944110{-5 5.237 M
-7.453 5.237 -8.336 3.222 QT
-9.219 1.206 -9.219 -1.575 QT
-9.219 -3.309 -8.898 -4.849 QT
-8.578 -6.388 -7.641 -7.458 QT
-6.703 -8.528 -5 -8.528 QT
-3.688 -8.528 -2.844 -7.88 QT
-2 -7.231 -1.563 -6.208 QT
-1.125 -5.184 -0.961 -4.02 QT
-0.797 -2.856 -0.797 -1.575 QT
-0.797 0.144 -1.117 1.644 QT
-1.438 3.144 -2.367 4.191 QT
-3.297 5.237 -5 5.237 QT
cp
-5 4.722 M
-3.891 4.722 -3.344 3.581 QT
-2.797 2.441 -2.664 1.05 QT
-2.531 -0.341 -2.531 -1.903 QT
-2.531 -3.403 -2.664 -4.677 QT
-2.797 -5.95 -3.336 -6.974 QT
-3.875 -7.997 -5 -7.997 QT
-6.125 -7.997 -6.672 -6.966 QT
-7.219 -5.934 -7.352 -4.669 QT
-7.484 -3.403 -7.484 -1.903 QT
-7.484 -0.794 -7.43 0.198 QT
-7.375 1.191 -7.141 2.237 QT
-6.906 3.284 -6.383 4.003 QT
-5.859 4.722 -5 4.722 QT
cp}def
f-259944110
f
GR
GS
[1 0 0 1 424 175.95238] CT
0.149 GC
N
/f-87032955{-40.556 5.237 M
-43.009 5.237 -43.892 3.222 QT
-44.774 1.206 -44.774 -1.575 QT
-44.774 -3.309 -44.454 -4.849 QT
-44.134 -6.388 -43.196 -7.458 QT
-42.259 -8.528 -40.556 -8.528 QT
-39.243 -8.528 -38.399 -7.88 QT
-37.556 -7.231 -37.118 -6.208 QT
-36.681 -5.184 -36.517 -4.02 QT
-36.353 -2.856 -36.353 -1.575 QT
-36.353 0.144 -36.673 1.644 QT
-36.993 3.144 -37.923 4.191 QT
-38.853 5.237 -40.556 5.237 QT
cp
-40.556 4.722 M
-39.446 4.722 -38.899 3.581 QT
-38.353 2.441 -38.22 1.05 QT
-38.087 -0.341 -38.087 -1.903 QT
-38.087 -3.403 -38.22 -4.677 QT
-38.353 -5.95 -38.892 -6.974 QT
-39.431 -7.997 -40.556 -7.997 QT
-41.681 -7.997 -42.228 -6.966 QT
-42.774 -5.934 -42.907 -4.669 QT
-43.04 -3.403 -43.04 -1.903 QT
-43.04 -0.794 -42.985 0.198 QT
-42.931 1.191 -42.696 2.237 QT
-42.462 3.284 -41.939 4.003 QT
-41.415 4.722 -40.556 4.722 QT
cp}def
f-87032955
f
GR
GS
[1 0 0 1 424 175.95238] CT
0.149 GC
N
/f283242285{-33.868 3.691 M
-33.868 3.253 -33.54 2.925 QT
-33.212 2.597 -32.774 2.597 QT
-32.493 2.597 -32.235 2.745 QT
-31.978 2.894 -31.829 3.159 QT
-31.681 3.425 -31.681 3.691 QT
-31.681 4.128 -32.001 4.464 QT
-32.321 4.8 -32.774 4.8 QT
-33.212 4.8 -33.54 4.464 QT
-33.868 4.128 -33.868 3.691 QT
cp}def
f283242285
f
GR
GS
[1 0 0 1 424 175.95238] CT
0.149 GC
N
/f-1546389953{-25 5.237 M
-27.453 5.237 -28.336 3.222 QT
-29.219 1.206 -29.219 -1.575 QT
-29.219 -3.309 -28.899 -4.849 QT
-28.578 -6.388 -27.641 -7.458 QT
-26.703 -8.528 -25 -8.528 QT
-23.688 -8.528 -22.844 -7.88 QT
-22 -7.231 -21.563 -6.208 QT
-21.125 -5.184 -20.961 -4.02 QT
-20.797 -2.856 -20.797 -1.575 QT
-20.797 0.144 -21.117 1.644 QT
-21.438 3.144 -22.367 4.191 QT
-23.297 5.237 -25 5.237 QT
cp
-25 4.722 M
-23.891 4.722 -23.344 3.581 QT
-22.797 2.441 -22.664 1.05 QT
-22.531 -0.341 -22.531 -1.903 QT
-22.531 -3.403 -22.664 -4.677 QT
-22.797 -5.95 -23.336 -6.974 QT
-23.875 -7.997 -25 -7.997 QT
-26.125 -7.997 -26.672 -6.966 QT
-27.219 -5.934 -27.352 -4.669 QT
-27.484 -3.403 -27.484 -1.903 QT
-27.484 -0.794 -27.43 0.198 QT
-27.375 1.191 -27.141 2.237 QT
-26.906 3.284 -26.383 4.003 QT
-25.859 4.722 -25 4.722 QT
cp}def
f-1546389953
f
GR
GS
[1 0 0 1 424 175.95238] CT
0.149 GC
N
f-1560039422
f
GR
GS
[1 0 0 1 424 175.95238] CT
0.149 GC
N
/f2128899210{-8.266 2.519 M
-8.063 3.112 -7.633 3.589 QT
-7.203 4.066 -6.625 4.331 QT
-6.047 4.597 -5.422 4.597 QT
-3.969 4.597 -3.422 3.48 QT
-2.875 2.362 -2.875 0.753 QT
-2.875 0.066 -2.898 -0.411 QT
-2.922 -0.888 -3.031 -1.325 QT
-3.219 -2.028 -3.688 -2.552 QT
-4.156 -3.075 -4.828 -3.075 QT
-5.5 -3.075 -5.984 -2.872 QT
-6.469 -2.669 -6.766 -2.395 QT
-7.063 -2.122 -7.297 -1.817 QT
-7.531 -1.513 -7.594 -1.497 QT
-7.828 -1.497 L
-7.875 -1.497 -7.945 -1.559 QT
-8.016 -1.622 -8.016 -1.684 QT
-8.016 -8.372 L
-8.016 -8.419 -7.953 -8.474 QT
-7.891 -8.528 -7.828 -8.528 QT
-7.766 -8.528 L
-6.422 -7.872 -4.906 -7.872 QT
-3.422 -7.872 -2.047 -8.528 QT
-1.984 -8.528 L
-1.906 -8.528 -1.852 -8.474 QT
-1.797 -8.419 -1.797 -8.372 QT
-1.797 -8.184 L
-1.797 -8.075 -1.828 -8.075 QT
-2.516 -7.169 -3.547 -6.661 QT
-4.578 -6.153 -5.688 -6.153 QT
-6.484 -6.153 -7.328 -6.388 QT
-7.328 -2.606 L
-6.656 -3.138 -6.133 -3.372 QT
-5.609 -3.606 -4.797 -3.606 QT
-3.703 -3.606 -2.828 -2.966 QT
-1.953 -2.325 -1.484 -1.309 QT
-1.016 -0.294 -1.016 0.769 QT
-1.016 1.972 -1.609 3.003 QT
-2.203 4.034 -3.219 4.636 QT
-4.234 5.237 -5.422 5.237 QT
-6.406 5.237 -7.234 4.73 QT
-8.063 4.222 -8.531 3.362 QT
-9 2.503 -9 1.534 QT
-9 1.081 -8.711 0.8 QT
-8.422 0.519 -7.984 0.519 QT
-7.531 0.519 -7.234 0.808 QT
-6.938 1.097 -6.938 1.534 QT
-6.938 1.972 -7.234 2.269 QT
-7.531 2.566 -7.984 2.566 QT
-8.047 2.566 -8.133 2.55 QT
-8.219 2.534 -8.266 2.519 QT
cp}def
f2128899210
f
GR
GS
[1 0 0 1 424 131.90477] CT
0.149 GC
N
f573311018
f
GR
GS
[1 0 0 1 424 131.90477] CT
0.149 GC
N
f-325359852
f
GR
GS
[1 0 0 1 424 131.90477] CT
0.149 GC
N
f-1560039422
f
GR
GS
[1 0 0 1 424 131.90477] CT
0.149 GC
N
/f1667698322{-8.141 4.8 M
-8.141 4.097 L
-5.641 4.097 -5.641 3.456 QT
-5.641 -7.044 L
-6.672 -6.544 -8.266 -6.544 QT
-8.266 -7.247 L
-5.813 -7.247 -4.563 -8.528 QT
-4.281 -8.528 L
-4.203 -8.528 -4.141 -8.474 QT
-4.078 -8.419 -4.078 -8.341 QT
-4.078 3.456 L
-4.078 4.097 -1.578 4.097 QT
-1.578 4.8 L
-8.141 4.8 L
cp}def
f1667698322
f
GR
GS
[1 0 0 1 424 87.85715] CT
0.149 GC
N
f-87032955
f
GR
GS
[1 0 0 1 424 87.85715] CT
0.149 GC
N
f283242285
f
GR
GS
[1 0 0 1 424 87.85715] CT
0.149 GC
N
f-1546389953
f
GR
GS
[1 0 0 1 424 87.85715] CT
0.149 GC
N
/f902764462{-18.141 4.8 M
-18.141 4.097 L
-15.641 4.097 -15.641 3.456 QT
-15.641 -7.044 L
-16.672 -6.544 -18.266 -6.544 QT
-18.266 -7.247 L
-15.813 -7.247 -14.563 -8.528 QT
-14.281 -8.528 L
-14.203 -8.528 -14.141 -8.474 QT
-14.078 -8.419 -14.078 -8.341 QT
-14.078 3.456 L
-14.078 4.097 -11.578 4.097 QT
-11.578 4.8 L
-18.141 4.8 L
cp}def
f902764462
f
GR
GS
[1 0 0 1 424 87.85715] CT
0.149 GC
N
f2128899210
f
GR
GS
[1 0 0 1 424 43.80953] CT
0.149 GC
N
f573311018
f
GR
GS
[1 0 0 1 424 43.80953] CT
0.149 GC
N
f-325359852
f
GR
GS
[1 0 0 1 424 43.80953] CT
0.149 GC
N
f-1560039422
f
GR
GS
[1 0 0 1 424 43.80953] CT
0.149 GC
N
f-959722706
f
GR
GS
1 GC
N
694 220 M
894.5 220 L
894.5 35 L
694 35 L
cp
f
GR
GS
[1 0 0 1 794.25073 32] CT
N
/f-154388936{-30.885 -8.64 M
-30.885 -9.484 L
-28.745 -9.484 -28.26 -10.906 QT
-23.214 -25.562 L
-23.151 -25.828 -22.823 -25.828 QT
-22.526 -25.828 L
-22.214 -25.828 -22.135 -25.562 QT
-16.87 -10.249 L
-16.651 -9.749 -16.026 -9.617 QT
-15.401 -9.484 -14.464 -9.484 QT
-14.464 -8.64 L
-21.151 -8.64 L
-21.151 -9.484 L
-19.167 -9.484 -19.167 -10.124 QT
-19.167 -10.249 L
-20.464 -13.999 L
-26.292 -13.999 L
-27.37 -10.906 L
-27.385 -10.828 -27.385 -10.656 QT
-27.385 -10.062 -26.815 -9.773 QT
-26.245 -9.484 -25.589 -9.484 QT
-25.589 -8.64 L
-30.885 -8.64 L
cp
-26.01 -14.828 M
-20.745 -14.828 L
-23.385 -22.499 L
-26.01 -14.828 L
cp}def
f-154388936
f
GR
GS
[1 0 0 1 794.25073 32] CT
N
/f-877750296{-12.932 -8.64 M
-12.932 -9.484 L
-12.104 -9.484 -11.581 -9.617 QT
-11.057 -9.749 -11.057 -10.249 QT
-11.057 -22.843 L
-11.057 -23.484 -11.245 -23.773 QT
-11.432 -24.062 -11.8 -24.124 QT
-12.167 -24.187 -12.932 -24.187 QT
-12.932 -25.031 L
-9.37 -25.296 L
-9.37 -10.249 L
-9.37 -9.749 -8.839 -9.617 QT
-8.307 -9.484 -7.495 -9.484 QT
-7.495 -8.64 L
-12.932 -8.64 L
cp}def
f-877750296
f
GR
GS
[1 0 0 1 794.25073 32] CT
N
/f-1089342375{-6.375 -3.984 M
-6.375 -4.812 L
-5.563 -4.812 -5.031 -4.953 QT
-4.5 -5.093 -4.5 -5.593 QT
-4.5 -17.156 L
-4.5 -17.812 -4.969 -17.976 QT
-5.438 -18.14 -6.375 -18.14 QT
-6.375 -18.984 L
-2.828 -19.249 L
-2.828 -17.765 L
-2.172 -18.484 -1.297 -18.867 QT
-0.422 -19.249 0.562 -19.249 QT
1.984 -19.249 3.117 -18.484 QT
4.25 -17.718 4.891 -16.468 QT
5.531 -15.218 5.531 -13.828 QT
5.531 -12.374 4.82 -11.117 QT
4.109 -9.859 2.883 -9.117 QT
1.656 -8.374 0.203 -8.374 QT
-1.547 -8.374 -2.75 -9.796 QT
-2.75 -5.593 L
-2.75 -5.093 -2.219 -4.953 QT
-1.688 -4.812 -0.875 -4.812 QT
-0.875 -3.984 L
-6.375 -3.984 L
cp
-2.75 -10.968 M
-2.328 -10.124 -1.578 -9.562 QT
-0.828 -8.999 0.062 -8.999 QT
0.891 -8.999 1.531 -9.445 QT
2.172 -9.89 2.602 -10.64 QT
3.031 -11.39 3.234 -12.218 QT
3.437 -13.046 3.437 -13.828 QT
3.437 -14.781 3.094 -15.898 QT
2.75 -17.015 2.039 -17.789 QT
1.328 -18.562 0.328 -18.562 QT
-0.641 -18.562 -1.461 -18.062 QT
-2.281 -17.562 -2.75 -16.703 QT
-2.75 -10.968 L
cp}def
f-1089342375
f
GR
GS
[1 0 0 1 794.25073 32] CT
N
/f-968696486{7.052 -8.64 M
7.052 -9.484 L
7.865 -9.484 8.396 -9.617 QT
8.927 -9.749 8.927 -10.249 QT
8.927 -22.843 L
8.927 -23.484 8.732 -23.773 QT
8.536 -24.062 8.177 -24.124 QT
7.818 -24.187 7.052 -24.187 QT
7.052 -25.031 L
10.615 -25.296 L
10.615 -17.046 L
11.115 -18.046 12.021 -18.648 QT
12.927 -19.249 14.005 -19.249 QT
15.677 -19.249 16.513 -18.453 QT
17.349 -17.656 17.349 -16.015 QT
17.349 -10.249 L
17.349 -9.749 17.88 -9.617 QT
18.411 -9.484 19.224 -9.484 QT
19.224 -8.64 L
13.724 -8.64 L
13.724 -9.484 L
14.552 -9.484 15.076 -9.617 QT
15.599 -9.749 15.599 -10.249 QT
15.599 -15.937 L
15.599 -17.109 15.263 -17.867 QT
14.927 -18.624 13.865 -18.624 QT
12.474 -18.624 11.576 -17.515 QT
10.677 -16.406 10.677 -14.984 QT
10.677 -10.249 L
10.677 -9.749 11.208 -9.617 QT
11.74 -9.484 12.552 -9.484 QT
12.552 -8.64 L
7.052 -8.64 L
cp}def
f-968696486
f
GR
GS
[1 0 0 1 794.25073 32] CT
N
/f102226999{20.635 -10.999 M
20.635 -12.421 21.76 -13.32 QT
22.885 -14.218 24.456 -14.585 QT
26.026 -14.953 27.448 -14.953 QT
27.448 -15.937 L
27.448 -16.64 27.143 -17.289 QT
26.839 -17.937 26.268 -18.351 QT
25.698 -18.765 24.995 -18.765 QT
23.401 -18.765 22.573 -18.046 QT
23.026 -18.046 23.331 -17.703 QT
23.635 -17.359 23.635 -16.906 QT
23.635 -16.421 23.292 -16.085 QT
22.948 -15.749 22.479 -15.749 QT
21.995 -15.749 21.659 -16.085 QT
21.323 -16.421 21.323 -16.906 QT
21.323 -18.171 22.471 -18.789 QT
23.62 -19.406 24.995 -19.406 QT
25.979 -19.406 26.964 -18.984 QT
27.948 -18.562 28.573 -17.789 QT
29.198 -17.015 29.198 -15.984 QT
29.198 -10.593 L
29.198 -10.124 29.393 -9.726 QT
29.589 -9.328 30.01 -9.328 QT
30.417 -9.328 30.612 -9.726 QT
30.807 -10.124 30.807 -10.593 QT
30.807 -12.124 L
31.51 -12.124 L
31.51 -10.593 L
31.51 -10.046 31.229 -9.562 QT
30.948 -9.078 30.471 -8.789 QT
29.995 -8.499 29.448 -8.499 QT
28.745 -8.499 28.229 -9.046 QT
27.714 -9.593 27.667 -10.343 QT
27.214 -9.437 26.346 -8.906 QT
25.479 -8.374 24.495 -8.374 QT
23.589 -8.374 22.698 -8.64 QT
21.807 -8.906 21.221 -9.492 QT
20.635 -10.078 20.635 -10.999 QT
cp
22.573 -10.999 M
22.573 -10.156 23.198 -9.578 QT
23.823 -8.999 24.667 -8.999 QT
25.432 -8.999 26.065 -9.39 QT
26.698 -9.781 27.073 -10.445 QT
27.448 -11.109 27.448 -11.859 QT
27.448 -14.343 L
26.354 -14.343 25.214 -13.992 QT
24.073 -13.64 23.323 -12.874 QT
22.573 -12.109 22.573 -10.999 QT
cp}def
f102226999
f
GR
GS
0.149 GC
1 LJ
0.5 LW
N
694 220 M
894.5 220 L
S
GR
GS
0 0.447 0.741 RC
N
702.675 218.012 M
697.856 218.012 L
697.856 220 L
702.675 220 L
707.495 220 L
707.495 218.012 L
cp
712.315 220 M
712.315 217.699 L
707.495 217.699 L
707.495 220 L
cp
717.135 220 M
717.135 216.966 L
712.315 216.966 L
712.315 220 L
cp
721.954 220 M
721.954 217.699 L
717.135 217.699 L
717.135 220 L
cp
726.774 220 M
726.774 215.641 L
721.954 215.641 L
721.954 220 L
cp
731.594 220 M
731.594 215.676 L
726.774 215.676 L
726.774 220 L
cp
736.413 220 M
736.413 214.77 L
731.594 214.77 L
731.594 220 L
cp
741.233 220 M
741.233 213.27 L
736.413 213.27 L
736.413 220 L
cp
746.053 220 M
746.053 210.132 L
741.233 210.132 L
741.233 220 L
cp
750.873 220 M
750.873 206.68 L
746.053 206.68 L
746.053 220 L
cp
755.692 220 M
755.692 204.378 L
750.873 204.378 L
750.873 220 L
cp
760.512 220 M
760.512 200.124 L
755.692 200.124 L
755.692 220 L
cp
765.332 220 M
765.332 188.199 L
760.512 188.199 L
760.512 220 L
cp
770.151 220 M
770.151 180.144 L
765.332 180.144 L
765.332 220 L
cp
774.971 220 M
774.971 167.556 L
770.151 167.556 L
770.151 220 L
cp
779.791 220 M
779.791 140.497 L
774.971 140.497 L
774.971 220 L
cp
784.611 220 M
784.611 115.774 L
779.791 115.774 L
779.791 220 L
cp
789.43 220 M
789.43 93.074 L
784.611 93.074 L
784.611 220 L
cp
794.25 220 M
794.25 61.586 L
789.43 61.586 L
789.43 220 L
cp
799.07 220 M
799.07 66.015 L
794.25 66.015 L
794.25 220 L
cp
803.889 220 M
803.889 90.703 L
799.07 90.703 L
799.07 220 L
cp
808.709 220 M
808.709 112.392 L
803.889 112.392 L
803.889 220 L
cp
813.529 220 M
813.529 131.5 L
808.709 131.5 L
808.709 220 L
cp
818.349 220 M
818.349 154.026 L
813.529 154.026 L
813.529 220 L
cp
823.168 220 M
823.168 169.334 L
818.349 169.334 L
818.349 220 L
cp
827.988 220 M
827.988 181.085 L
823.168 181.085 L
823.168 220 L
cp
832.808 220 M
832.808 194.266 L
827.988 194.266 L
827.988 220 L
cp
837.627 220 M
837.627 201.903 L
832.808 201.903 L
832.808 220 L
cp
842.447 220 M
842.447 208.493 L
837.627 208.493 L
837.627 220 L
cp
847.267 220 M
847.267 211.352 L
842.447 211.352 L
842.447 220 L
cp
852.087 220 M
852.087 213.131 L
847.267 213.131 L
847.267 220 L
cp
856.906 220 M
856.906 213.968 L
852.087 213.968 L
852.087 220 L
cp
861.726 220 M
861.726 216.339 L
856.906 216.339 L
856.906 220 L
cp
866.546 220 M
866.546 216.583 L
861.726 216.583 L
861.726 220 L
cp
871.365 220 M
871.365 216.687 L
866.546 216.687 L
866.546 220 L
cp
876.185 220 M
876.185 217.664 L
871.365 217.664 L
871.365 220 L
cp
881.005 220 M
881.005 217.803 L
876.185 217.803 L
876.185 220 L
cp
885.825 220 M
885.825 218.57 L
881.005 218.57 L
881.005 220 L
cp
890.644 220 M
890.644 218.082 L
885.825 218.082 L
885.825 220 L
cp
f
GR
GS
10.0 ML
0.5 LW
N
697.856 220 M
697.856 218.012 L
702.675 218.012 L
702.675 220 L
cp
S
GR
GS
10.0 ML
0.5 LW
N
702.675 220 M
702.675 218.012 L
707.495 218.012 L
707.495 220 L
cp
S
GR
GS
10.0 ML
0.5 LW
N
707.495 220 M
707.495 217.699 L
712.315 217.699 L
712.315 220 L
cp
S
GR
GS
10.0 ML
0.5 LW
N
712.315 220 M
712.315 216.966 L
717.135 216.966 L
717.135 220 L
cp
S
GR
GS
10.0 ML
0.5 LW
N
717.135 220 M
717.135 217.699 L
721.954 217.699 L
721.954 220 L
cp
S
GR
GS
10.0 ML
0.5 LW
N
721.954 220 M
721.954 215.641 L
726.774 215.641 L
726.774 220 L
cp
S
GR
GS
10.0 ML
0.5 LW
N
726.774 220 M
726.774 215.676 L
731.594 215.676 L
731.594 220 L
cp
S
GR
GS
10.0 ML
0.5 LW
N
731.594 220 M
731.594 214.77 L
736.413 214.77 L
736.413 220 L
cp
S
GR
GS
10.0 ML
0.5 LW
N
736.413 220 M
736.413 213.27 L
741.233 213.27 L
741.233 220 L
cp
S
GR
GS
10.0 ML
0.5 LW
N
741.233 220 M
741.233 210.132 L
746.053 210.132 L
746.053 220 L
cp
S
GR
GS
10.0 ML
0.5 LW
N
746.053 220 M
746.053 206.68 L
750.873 206.68 L
750.873 220 L
cp
S
GR
GS
10.0 ML
0.5 LW
N
750.873 220 M
750.873 204.378 L
755.692 204.378 L
755.692 220 L
cp
S
GR
GS
10.0 ML
0.5 LW
N
755.692 220 M
755.692 200.124 L
760.512 200.124 L
760.512 220 L
cp
S
GR
GS
10.0 ML
0.5 LW
N
760.512 220 M
760.512 188.199 L
765.332 188.199 L
765.332 220 L
cp
S
GR
GS
10.0 ML
0.5 LW
N
765.332 220 M
765.332 180.144 L
770.151 180.144 L
770.151 220 L
cp
S
GR
GS
10.0 ML
0.5 LW
N
770.151 220 M
770.151 167.556 L
774.971 167.556 L
774.971 220 L
cp
S
GR
GS
10.0 ML
0.5 LW
N
774.971 220 M
774.971 140.497 L
779.791 140.497 L
779.791 220 L
cp
S
GR
GS
10.0 ML
0.5 LW
N
779.791 220 M
779.791 115.774 L
784.611 115.774 L
784.611 220 L
cp
S
GR
GS
10.0 ML
0.5 LW
N
784.611 220 M
784.611 93.074 L
789.43 93.074 L
789.43 220 L
cp
S
GR
GS
10.0 ML
0.5 LW
N
789.43 220 M
789.43 61.586 L
794.25 61.586 L
794.25 220 L
cp
S
GR
GS
10.0 ML
0.5 LW
N
794.25 220 M
794.25 66.015 L
799.07 66.015 L
799.07 220 L
cp
S
GR
GS
10.0 ML
0.5 LW
N
799.07 220 M
799.07 90.703 L
803.889 90.703 L
803.889 220 L
cp
S
GR
GS
10.0 ML
0.5 LW
N
803.889 220 M
803.889 112.392 L
808.709 112.392 L
808.709 220 L
cp
S
GR
GS
10.0 ML
0.5 LW
N
808.709 220 M
808.709 131.5 L
813.529 131.5 L
813.529 220 L
cp
S
GR
GS
10.0 ML
0.5 LW
N
813.529 220 M
813.529 154.026 L
818.349 154.026 L
818.349 220 L
cp
S
GR
GS
10.0 ML
0.5 LW
N
818.349 220 M
818.349 169.334 L
823.168 169.334 L
823.168 220 L
cp
S
GR
GS
10.0 ML
0.5 LW
N
823.168 220 M
823.168 181.085 L
827.988 181.085 L
827.988 220 L
cp
S
GR
GS
10.0 ML
0.5 LW
N
827.988 220 M
827.988 194.266 L
832.808 194.266 L
832.808 220 L
cp
S
GR
GS
10.0 ML
0.5 LW
N
832.808 220 M
832.808 201.903 L
837.627 201.903 L
837.627 220 L
cp
S
GR
GS
10.0 ML
0.5 LW
N
837.627 220 M
837.627 208.493 L
842.447 208.493 L
842.447 220 L
cp
S
GR
GS
10.0 ML
0.5 LW
N
842.447 220 M
842.447 211.352 L
847.267 211.352 L
847.267 220 L
cp
S
GR
GS
10.0 ML
0.5 LW
N
847.267 220 M
847.267 213.131 L
852.087 213.131 L
852.087 220 L
cp
S
GR
GS
10.0 ML
0.5 LW
N
852.087 220 M
852.087 213.968 L
856.906 213.968 L
856.906 220 L
cp
S
GR
GS
10.0 ML
0.5 LW
N
856.906 220 M
856.906 216.339 L
861.726 216.339 L
861.726 220 L
cp
S
GR
GS
10.0 ML
0.5 LW
N
861.726 220 M
861.726 216.583 L
866.546 216.583 L
866.546 220 L
cp
S
GR
GS
10.0 ML
0.5 LW
N
866.546 220 M
866.546 216.687 L
871.365 216.687 L
871.365 220 L
cp
S
GR
GS
10.0 ML
0.5 LW
N
871.365 220 M
871.365 217.664 L
876.185 217.664 L
876.185 220 L
cp
S
GR
GS
10.0 ML
0.5 LW
N
876.185 220 M
876.185 217.803 L
881.005 217.803 L
881.005 220 L
cp
S
GR
GS
10.0 ML
0.5 LW
N
881.005 220 M
881.005 218.57 L
885.825 218.57 L
885.825 220 L
cp
S
GR
GS
10.0 ML
0.5 LW
N
885.825 220 M
885.825 218.082 L
890.644 218.082 L
890.644 220 L
cp
S
GR
GS
0.149 GC
2 setlinecap
1 LJ
0.5 LW
N
694 220 M
894.5 220 L
S
GR
GS
0.149 GC
2 setlinecap
1 LJ
0.5 LW
N
694 35 M
894.5 35 L
S
GR
GS
0.149 GC
2 setlinecap
1 LJ
0.5 LW
N
738.688 220 M
738.688 217.995 L
S
GR
GS
0.149 GC
2 setlinecap
1 LJ
0.5 LW
N
792.848 220 M
792.848 217.995 L
S
GR
GS
0.149 GC
2 setlinecap
1 LJ
0.5 LW
N
847.009 220 M
847.009 217.995 L
S
GR
GS
0.149 GC
2 setlinecap
1 LJ
0.5 LW
N
738.688 35 M
738.688 37.005 L
S
GR
GS
0.149 GC
2 setlinecap
1 LJ
0.5 LW
N
792.848 35 M
792.848 37.005 L
S
GR
GS
0.149 GC
2 setlinecap
1 LJ
0.5 LW
N
847.009 35 M
847.009 37.005 L
S
GR
GS
[1 0 0 1 738.68787 226] CT
0.149 GC
N
/f1798162136{-13.115 13.097 M
-13.115 11.862 L
-7.818 11.862 L
-7.818 13.097 L
-13.115 13.097 L
cp}def
f1798162136
f
GR
GS
[1 0 0 1 738.68787 226] CT
0.149 GC
N
/f885412729{-5.667 16.8 M
-5.667 16.269 L
-5.667 16.206 -5.635 16.159 QT
-2.526 12.722 L
-1.823 11.956 -1.385 11.441 QT
-0.948 10.925 -0.518 10.245 QT
-0.089 9.566 0.161 8.87 QT
0.411 8.175 0.411 7.394 QT
0.411 6.581 0.107 5.831 QT
-0.198 5.081 -0.792 4.628 QT
-1.385 4.175 -2.245 4.175 QT
-3.104 4.175 -3.799 4.698 QT
-4.495 5.222 -4.776 6.05 QT
-4.698 6.034 -4.573 6.034 QT
-4.12 6.034 -3.799 6.339 QT
-3.479 6.644 -3.479 7.128 QT
-3.479 7.581 -3.799 7.901 QT
-4.12 8.222 -4.573 8.222 QT
-5.042 8.222 -5.354 7.894 QT
-5.667 7.566 -5.667 7.128 QT
-5.667 6.362 -5.385 5.706 QT
-5.104 5.05 -4.573 4.534 QT
-4.042 4.019 -3.37 3.745 QT
-2.698 3.472 -1.948 3.472 QT
-0.807 3.472 0.177 3.956 QT
1.161 4.441 1.74 5.323 QT
2.318 6.206 2.318 7.394 QT
2.318 8.269 1.935 9.05 QT
1.552 9.831 0.958 10.472 QT
0.365 11.112 -0.565 11.917 QT
-1.495 12.722 -1.776 13.003 QT
-4.042 15.175 L
-2.12 15.175 L
-0.714 15.175 0.24 15.151 QT
1.193 15.128 1.255 15.081 QT
1.49 14.831 1.74 13.237 QT
2.318 13.237 L
1.755 16.8 L
-5.667 16.8 L
cp}def
f885412729
f
GR
GS
[1 0 0 1 738.68787 226] CT
0.149 GC
N
/f833082638{8.333 17.237 M
5.88 17.237 4.997 15.222 QT
4.115 13.206 4.115 10.425 QT
4.115 8.691 4.435 7.151 QT
4.755 5.612 5.693 4.542 QT
6.63 3.472 8.333 3.472 QT
9.646 3.472 10.49 4.12 QT
11.333 4.769 11.771 5.792 QT
12.208 6.816 12.372 7.98 QT
12.536 9.144 12.536 10.425 QT
12.536 12.144 12.216 13.644 QT
11.896 15.144 10.966 16.191 QT
10.036 17.237 8.333 17.237 QT
cp
8.333 16.722 M
9.443 16.722 9.99 15.581 QT
10.536 14.441 10.669 13.05 QT
10.802 11.659 10.802 10.097 QT
10.802 8.597 10.669 7.323 QT
10.536 6.05 9.997 5.026 QT
9.458 4.003 8.333 4.003 QT
7.208 4.003 6.661 5.034 QT
6.115 6.066 5.982 7.331 QT
5.849 8.597 5.849 10.097 QT
5.849 11.206 5.904 12.198 QT
5.958 13.191 6.193 14.237 QT
6.427 15.284 6.951 16.003 QT
7.474 16.722 8.333 16.722 QT
cp}def
f833082638
f
GR
GS
[1 0 0 1 792.84839 226] CT
0.149 GC
N
f1536617579
f
GR
GS
[1 0 0 1 847.00885 226] CT
0.149 GC
N
/f-1201213183{-9 16.8 M
-9 16.269 L
-9 16.206 -8.969 16.159 QT
-5.859 12.722 L
-5.156 11.956 -4.719 11.441 QT
-4.281 10.925 -3.852 10.245 QT
-3.422 9.566 -3.172 8.87 QT
-2.922 8.175 -2.922 7.394 QT
-2.922 6.581 -3.227 5.831 QT
-3.531 5.081 -4.125 4.628 QT
-4.719 4.175 -5.578 4.175 QT
-6.438 4.175 -7.133 4.698 QT
-7.828 5.222 -8.109 6.05 QT
-8.031 6.034 -7.906 6.034 QT
-7.453 6.034 -7.133 6.339 QT
-6.813 6.644 -6.813 7.128 QT
-6.813 7.581 -7.133 7.901 QT
-7.453 8.222 -7.906 8.222 QT
-8.375 8.222 -8.688 7.894 QT
-9 7.566 -9 7.128 QT
-9 6.362 -8.719 5.706 QT
-8.438 5.05 -7.906 4.534 QT
-7.375 4.019 -6.703 3.745 QT
-6.031 3.472 -5.281 3.472 QT
-4.141 3.472 -3.156 3.956 QT
-2.172 4.441 -1.594 5.323 QT
-1.016 6.206 -1.016 7.394 QT
-1.016 8.269 -1.398 9.05 QT
-1.781 9.831 -2.375 10.472 QT
-2.969 11.112 -3.898 11.917 QT
-4.828 12.722 -5.109 13.003 QT
-7.375 15.175 L
-5.453 15.175 L
-4.047 15.175 -3.094 15.151 QT
-2.141 15.128 -2.078 15.081 QT
-1.844 14.831 -1.594 13.237 QT
-1.016 13.237 L
-1.578 16.8 L
-9 16.8 L
cp}def
f-1201213183
f
GR
GS
[1 0 0 1 847.00885 226] CT
0.149 GC
N
/f1017945436{5 17.237 M
2.547 17.237 1.664 15.222 QT
0.781 13.206 0.781 10.425 QT
0.781 8.691 1.102 7.151 QT
1.422 5.612 2.359 4.542 QT
3.297 3.472 5 3.472 QT
6.313 3.472 7.156 4.12 QT
8 4.769 8.438 5.792 QT
8.875 6.816 9.039 7.98 QT
9.203 9.144 9.203 10.425 QT
9.203 12.144 8.883 13.644 QT
8.563 15.144 7.633 16.191 QT
6.703 17.237 5 17.237 QT
cp
5 16.722 M
6.109 16.722 6.656 15.581 QT
7.203 14.441 7.336 13.05 QT
7.469 11.659 7.469 10.097 QT
7.469 8.597 7.336 7.323 QT
7.203 6.05 6.664 5.026 QT
6.125 4.003 5 4.003 QT
3.875 4.003 3.328 5.034 QT
2.781 6.066 2.648 7.331 QT
2.516 8.597 2.516 10.097 QT
2.516 11.206 2.57 12.198 QT
2.625 13.191 2.859 14.237 QT
3.094 15.284 3.617 16.003 QT
4.141 16.722 5 16.722 QT
cp}def
f1017945436
f
GR
GS
0.149 GC
2 setlinecap
1 LJ
0.5 LW
N
694 220 M
694 35 L
S
GR
GS
0.149 GC
2 setlinecap
1 LJ
0.5 LW
N
894.5 220 M
894.5 35 L
S
GR
GS
0.149 GC
2 setlinecap
1 LJ
0.5 LW
N
694 220 M
696.005 220 L
S
GR
GS
0.149 GC
2 setlinecap
1 LJ
0.5 LW
N
694 169.66 M
696.005 169.66 L
S
GR
GS
0.149 GC
2 setlinecap
1 LJ
0.5 LW
N
694 119.32 M
696.005 119.32 L
S
GR
GS
0.149 GC
2 setlinecap
1 LJ
0.5 LW
N
694 68.98 M
696.005 68.98 L
S
GR
GS
0.149 GC
2 setlinecap
1 LJ
0.5 LW
N
894.5 220 M
892.495 220 L
S
GR
GS
0.149 GC
2 setlinecap
1 LJ
0.5 LW
N
894.5 169.66 M
892.495 169.66 L
S
GR
GS
0.149 GC
2 setlinecap
1 LJ
0.5 LW
N
894.5 119.32 M
892.495 119.32 L
S
GR
GS
0.149 GC
2 setlinecap
1 LJ
0.5 LW
N
894.5 68.98 M
892.495 68.98 L
S
GR
GS
[1 0 0 1 688 220] CT
0.149 GC
N
f-259944110
f
GR
GS
[1 0 0 1 688 169.65987] CT
0.149 GC
N
f573311018
f
GR
GS
[1 0 0 1 688 169.65987] CT
0.149 GC
N
f-325359852
f
GR
GS
[1 0 0 1 688 169.65987] CT
0.149 GC
N
f-1560039422
f
GR
GS
[1 0 0 1 688 169.65987] CT
0.149 GC
N
f-959722706
f
GR
GS
[1 0 0 1 688 119.31973] CT
0.149 GC
N
f573311018
f
GR
GS
[1 0 0 1 688 119.31973] CT
0.149 GC
N
f-325359852
f
GR
GS
[1 0 0 1 688 119.31973] CT
0.149 GC
N
f-1560039422
f
GR
GS
[1 0 0 1 688 119.31973] CT
0.149 GC
N
/f-426388810{-9.438 1.503 M
-9.438 0.8 L
-3.266 -8.419 L
-3.188 -8.528 -3.063 -8.528 QT
-2.766 -8.528 L
-2.531 -8.528 -2.531 -8.294 QT
-2.531 0.8 L
-0.578 0.8 L
-0.578 1.503 L
-2.531 1.503 L
-2.531 3.456 L
-2.531 3.878 -1.945 3.987 QT
-1.359 4.097 -0.594 4.097 QT
-0.594 4.8 L
-6.109 4.8 L
-6.109 4.097 L
-5.328 4.097 -4.742 3.987 QT
-4.156 3.878 -4.156 3.456 QT
-4.156 1.503 L
-9.438 1.503 L
cp
-8.781 0.8 M
-4.047 0.8 L
-4.047 -6.278 L
-8.781 0.8 L
cp}def
f-426388810
f
GR
GS
[1 0 0 1 688 68.9796] CT
0.149 GC
N
f573311018
f
GR
GS
[1 0 0 1 688 68.9796] CT
0.149 GC
N
f-325359852
f
GR
GS
[1 0 0 1 688 68.9796] CT
0.149 GC
N
f-1560039422
f
GR
GS
[1 0 0 1 688 68.9796] CT
0.149 GC
N
/f-1609365487{-5 5.237 M
-6.234 5.237 -7.07 4.581 QT
-7.906 3.925 -8.359 2.87 QT
-8.813 1.816 -8.984 0.667 QT
-9.156 -0.481 -9.156 -1.669 QT
-9.156 -3.247 -8.539 -4.841 QT
-7.922 -6.434 -6.727 -7.481 QT
-5.531 -8.528 -3.891 -8.528 QT
-3.219 -8.528 -2.625 -8.263 QT
-2.031 -7.997 -1.695 -7.497 QT
-1.359 -6.997 -1.359 -6.278 QT
-1.359 -5.872 -1.633 -5.599 QT
-1.906 -5.325 -2.328 -5.325 QT
-2.719 -5.325 -3 -5.606 QT
-3.281 -5.888 -3.281 -6.278 QT
-3.281 -6.669 -3 -6.958 QT
-2.719 -7.247 -2.328 -7.247 QT
-2.219 -7.247 L
-2.469 -7.606 -2.93 -7.778 QT
-3.391 -7.95 -3.891 -7.95 QT
-4.5 -7.95 -5.016 -7.684 QT
-5.531 -7.419 -5.938 -6.966 QT
-6.344 -6.513 -6.617 -5.974 QT
-6.891 -5.434 -7.047 -4.739 QT
-7.203 -4.044 -7.242 -3.442 QT
-7.281 -2.841 -7.281 -1.919 QT
-6.922 -2.747 -6.281 -3.263 QT
-5.641 -3.778 -4.828 -3.778 QT
-3.938 -3.778 -3.203 -3.419 QT
-2.469 -3.059 -1.945 -2.419 QT
-1.422 -1.778 -1.141 -0.958 QT
-0.859 -0.138 -0.859 0.691 QT
-0.859 1.862 -1.383 2.925 QT
-1.906 3.987 -2.852 4.612 QT
-3.797 5.237 -5 5.237 QT
cp
-5 4.597 M
-4.234 4.597 -3.766 4.245 QT
-3.297 3.894 -3.07 3.316 QT
-2.844 2.737 -2.797 2.144 QT
-2.75 1.55 -2.75 0.691 QT
-2.75 -0.434 -2.852 -1.239 QT
-2.953 -2.044 -3.438 -2.653 QT
-3.922 -3.263 -4.906 -3.263 QT
-5.719 -3.263 -6.234 -2.716 QT
-6.75 -2.169 -6.992 -1.333 QT
-7.234 -0.497 -7.234 0.284 QT
-7.234 0.534 -7.219 0.675 QT
-7.219 0.706 -7.219 0.73 QT
-7.219 0.753 -7.234 0.769 QT
-7.234 1.628 -7.063 2.511 QT
-6.891 3.394 -6.391 3.995 QT
-5.891 4.597 -5 4.597 QT
cp}def
f-1609365487
f
GR
GS
1 GC
N
958 220 M
1158.5 220 L
1158.5 35 L
958 35 L
cp
f
GR
GS
[1 0 0 1 1058.25098 32] CT
N
/f1103005691{-40.214 -8.374 M
-45.87 -23.437 L
-46.089 -23.937 -46.682 -24.062 QT
-47.276 -24.187 -48.214 -24.187 QT
-48.214 -25.031 L
-41.604 -25.031 L
-41.604 -24.187 L
-43.604 -24.187 -43.604 -23.578 QT
-43.589 -23.531 -43.581 -23.507 QT
-43.573 -23.484 -43.573 -23.437 QT
-38.979 -11.187 L
-34.62 -22.781 L
-34.573 -22.874 -34.573 -23.062 QT
-34.573 -23.656 -35.112 -23.921 QT
-35.651 -24.187 -36.323 -24.187 QT
-36.323 -25.031 L
-31.151 -25.031 L
-31.151 -24.187 L
-32.042 -24.187 -32.729 -23.859 QT
-33.417 -23.531 -33.714 -22.781 QT
-39.136 -8.374 L
-39.214 -8.109 -39.526 -8.109 QT
-39.823 -8.109 L
-40.151 -8.109 -40.214 -8.374 QT
cp}def
f1103005691
f
GR
GS
[1 0 0 1 1058.25098 32] CT
N
/f-934320254{-26.667 -8.374 M
-28.104 -8.374 -29.339 -9.109 QT
-30.573 -9.843 -31.284 -11.07 QT
-31.995 -12.296 -31.995 -13.749 QT
-31.995 -14.859 -31.604 -15.874 QT
-31.214 -16.89 -30.479 -17.695 QT
-29.745 -18.499 -28.776 -18.953 QT
-27.807 -19.406 -26.667 -19.406 QT
-25.182 -19.406 -23.971 -18.624 QT
-22.761 -17.843 -22.057 -16.539 QT
-21.354 -15.234 -21.354 -13.749 QT
-21.354 -12.312 -22.073 -11.078 QT
-22.792 -9.843 -24.011 -9.109 QT
-25.229 -8.374 -26.667 -8.374 QT
cp
-26.667 -9.078 M
-24.745 -9.078 -24.096 -10.468 QT
-23.448 -11.859 -23.448 -14.015 QT
-23.448 -15.234 -23.581 -16.023 QT
-23.714 -16.812 -24.151 -17.453 QT
-24.417 -17.859 -24.831 -18.156 QT
-25.245 -18.453 -25.706 -18.609 QT
-26.167 -18.765 -26.667 -18.765 QT
-27.417 -18.765 -28.089 -18.429 QT
-28.761 -18.093 -29.214 -17.453 QT
-29.651 -16.781 -29.776 -15.96 QT
-29.901 -15.14 -29.901 -14.015 QT
-29.901 -12.671 -29.667 -11.601 QT
-29.432 -10.531 -28.721 -9.804 QT
-28.011 -9.078 -26.667 -9.078 QT
cp}def
f-934320254
f
GR
GS
[1 0 0 1 1058.25098 32] CT
N
/f-592097783{-19.932 -8.64 M
-19.932 -9.484 L
-19.104 -9.484 -18.581 -9.617 QT
-18.057 -9.749 -18.057 -10.249 QT
-18.057 -22.843 L
-18.057 -23.484 -18.245 -23.773 QT
-18.432 -24.062 -18.8 -24.124 QT
-19.167 -24.187 -19.932 -24.187 QT
-19.932 -25.031 L
-16.37 -25.296 L
-16.37 -10.249 L
-16.37 -9.749 -15.839 -9.617 QT
-15.307 -9.484 -14.495 -9.484 QT
-14.495 -8.64 L
-19.932 -8.64 L
cp}def
f-592097783
f
GR
GS
[1 0 0 1 1058.25098 32] CT
N
/f2103137411{-13.031 -10.999 M
-13.031 -12.421 -11.906 -13.32 QT
-10.781 -14.218 -9.211 -14.585 QT
-7.641 -14.953 -6.219 -14.953 QT
-6.219 -15.937 L
-6.219 -16.64 -6.523 -17.289 QT
-6.828 -17.937 -7.398 -18.351 QT
-7.969 -18.765 -8.672 -18.765 QT
-10.266 -18.765 -11.094 -18.046 QT
-10.641 -18.046 -10.336 -17.703 QT
-10.031 -17.359 -10.031 -16.906 QT
-10.031 -16.421 -10.375 -16.085 QT
-10.719 -15.749 -11.188 -15.749 QT
-11.672 -15.749 -12.008 -16.085 QT
-12.344 -16.421 -12.344 -16.906 QT
-12.344 -18.171 -11.195 -18.789 QT
-10.047 -19.406 -8.672 -19.406 QT
-7.688 -19.406 -6.703 -18.984 QT
-5.719 -18.562 -5.094 -17.789 QT
-4.469 -17.015 -4.469 -15.984 QT
-4.469 -10.593 L
-4.469 -10.124 -4.273 -9.726 QT
-4.078 -9.328 -3.656 -9.328 QT
-3.25 -9.328 -3.055 -9.726 QT
-2.859 -10.124 -2.859 -10.593 QT
-2.859 -12.124 L
-2.156 -12.124 L
-2.156 -10.593 L
-2.156 -10.046 -2.438 -9.562 QT
-2.719 -9.078 -3.195 -8.789 QT
-3.672 -8.499 -4.219 -8.499 QT
-4.922 -8.499 -5.438 -9.046 QT
-5.953 -9.593 -6 -10.343 QT
-6.453 -9.437 -7.32 -8.906 QT
-8.188 -8.374 -9.172 -8.374 QT
-10.078 -8.374 -10.969 -8.64 QT
-11.859 -8.906 -12.445 -9.492 QT
-13.031 -10.078 -13.031 -10.999 QT
cp
-11.094 -10.999 M
-11.094 -10.156 -10.469 -9.578 QT
-9.844 -8.999 -9 -8.999 QT
-8.234 -8.999 -7.602 -9.39 QT
-6.969 -9.781 -6.594 -10.445 QT
-6.219 -11.109 -6.219 -11.859 QT
-6.219 -14.343 L
-7.313 -14.343 -8.453 -13.992 QT
-9.594 -13.64 -10.344 -12.874 QT
-11.094 -12.109 -11.094 -10.999 QT
cp}def
f2103137411
f
GR
GS
[1 0 0 1 1058.25098 32] CT
N
/f-45030359{0.453 -11.531 M
0.453 -18.14 L
-1.547 -18.14 L
-1.547 -18.765 L
0.031 -18.765 0.766 -20.234 QT
1.5 -21.703 1.5 -23.406 QT
2.203 -23.406 L
2.203 -18.984 L
5.578 -18.984 L
5.578 -18.14 L
2.203 -18.14 L
2.203 -11.578 L
2.203 -10.578 2.531 -9.828 QT
2.859 -9.078 3.734 -9.078 QT
4.547 -9.078 4.914 -9.867 QT
5.281 -10.656 5.281 -11.578 QT
5.281 -12.984 L
5.969 -12.984 L
5.969 -11.531 L
5.969 -10.781 5.695 -10.046 QT
5.422 -9.312 4.883 -8.843 QT
4.344 -8.374 3.562 -8.374 QT
2.125 -8.374 1.289 -9.234 QT
0.453 -10.093 0.453 -11.531 QT
cp}def
f-45030359
f
GR
GS
[1 0 0 1 1058.25098 32] CT
N
/f411828865{8.068 -8.64 M
8.068 -9.484 L
8.896 -9.484 9.419 -9.617 QT
9.943 -9.749 9.943 -10.249 QT
9.943 -16.796 L
9.943 -17.718 9.591 -17.929 QT
9.24 -18.14 8.177 -18.14 QT
8.177 -18.984 L
11.63 -19.249 L
11.63 -10.249 L
11.63 -9.749 12.091 -9.617 QT
12.552 -9.484 13.318 -9.484 QT
13.318 -8.64 L
8.068 -8.64 L
cp
9.099 -23.374 M
9.099 -23.906 9.497 -24.304 QT
9.896 -24.703 10.411 -24.703 QT
10.74 -24.703 11.06 -24.523 QT
11.38 -24.343 11.552 -24.031 QT
11.724 -23.718 11.724 -23.374 QT
11.724 -22.859 11.326 -22.46 QT
10.927 -22.062 10.411 -22.062 QT
9.896 -22.062 9.497 -22.46 QT
9.099 -22.859 9.099 -23.374 QT
cp}def
f411828865
f
GR
GS
[1 0 0 1 1058.25098 32] CT
N
/f-1363848819{14.734 -8.64 M
14.734 -9.484 L
15.563 -9.484 16.086 -9.617 QT
16.609 -9.749 16.609 -10.249 QT
16.609 -22.843 L
16.609 -23.484 16.422 -23.773 QT
16.234 -24.062 15.867 -24.124 QT
15.5 -24.187 14.734 -24.187 QT
14.734 -25.031 L
18.297 -25.296 L
18.297 -10.249 L
18.297 -9.749 18.828 -9.617 QT
19.359 -9.484 20.172 -9.484 QT
20.172 -8.64 L
14.734 -8.64 L
cp}def
f-1363848819
f
GR
GS
[1 0 0 1 1058.25098 32] CT
N
/f236168058{21.401 -8.64 M
21.401 -9.484 L
22.229 -9.484 22.753 -9.617 QT
23.276 -9.749 23.276 -10.249 QT
23.276 -16.796 L
23.276 -17.718 22.925 -17.929 QT
22.573 -18.14 21.51 -18.14 QT
21.51 -18.984 L
24.964 -19.249 L
24.964 -10.249 L
24.964 -9.749 25.425 -9.617 QT
25.885 -9.484 26.651 -9.484 QT
26.651 -8.64 L
21.401 -8.64 L
cp
22.432 -23.374 M
22.432 -23.906 22.831 -24.304 QT
23.229 -24.703 23.745 -24.703 QT
24.073 -24.703 24.393 -24.523 QT
24.714 -24.343 24.885 -24.031 QT
25.057 -23.718 25.057 -23.374 QT
25.057 -22.859 24.659 -22.46 QT
24.26 -22.062 23.745 -22.062 QT
23.229 -22.062 22.831 -22.46 QT
22.432 -22.859 22.432 -23.374 QT
cp}def
f236168058
f
GR
GS
[1 0 0 1 1058.25098 32] CT
N
/f-773972715{29.787 -11.531 M
29.787 -18.14 L
27.787 -18.14 L
27.787 -18.765 L
29.365 -18.765 30.099 -20.234 QT
30.833 -21.703 30.833 -23.406 QT
31.537 -23.406 L
31.537 -18.984 L
34.912 -18.984 L
34.912 -18.14 L
31.537 -18.14 L
31.537 -11.578 L
31.537 -10.578 31.865 -9.828 QT
32.193 -9.078 33.068 -9.078 QT
33.88 -9.078 34.247 -9.867 QT
34.615 -10.656 34.615 -11.578 QT
34.615 -12.984 L
35.302 -12.984 L
35.302 -11.531 L
35.302 -10.781 35.029 -10.046 QT
34.755 -9.312 34.216 -8.843 QT
33.677 -8.374 32.896 -8.374 QT
31.458 -8.374 30.622 -9.234 QT
29.787 -10.093 29.787 -11.531 QT
cp}def
f-773972715
f
GR
GS
[1 0 0 1 1058.25098 32] CT
N
/f-197553797{37.656 -4.703 M
38.109 -4.343 38.656 -4.343 QT
40.172 -4.343 41.141 -6.624 QT
41.953 -8.64 L
38.359 -17.453 L
38.141 -17.906 37.68 -18.023 QT
37.219 -18.14 36.453 -18.14 QT
36.453 -18.984 L
41.5 -18.984 L
41.5 -18.14 L
40.172 -18.14 40.172 -17.578 QT
40.172 -17.484 40.203 -17.437 QT
42.875 -10.874 L
45.266 -16.781 L
45.344 -16.968 45.344 -17.187 QT
45.344 -17.484 45.188 -17.695 QT
45.031 -17.906 44.774 -18.023 QT
44.516 -18.14 44.203 -18.14 QT
44.203 -18.984 L
48.188 -18.984 L
48.188 -18.14 L
47.453 -18.14 46.899 -17.804 QT
46.344 -17.468 46.031 -16.796 QT
41.891 -6.624 L
41.563 -5.843 41.117 -5.195 QT
40.672 -4.546 40.039 -4.132 QT
39.406 -3.718 38.656 -3.718 QT
37.781 -3.718 37.117 -4.296 QT
36.453 -4.874 36.453 -5.734 QT
36.453 -6.171 36.758 -6.476 QT
37.063 -6.781 37.516 -6.781 QT
37.813 -6.781 38.055 -6.648 QT
38.297 -6.515 38.43 -6.281 QT
38.563 -6.046 38.563 -5.734 QT
38.563 -5.343 38.305 -5.039 QT
38.047 -4.734 37.656 -4.703 QT
cp}def
f-197553797
f
GR
GS
0.149 GC
1 LJ
0.5 LW
N
958 220 M
1158.5 220 L
S
GR
GS
0 0.447 0.741 RC
N
966.675 220 M
966.675 85.49 L
961.856 85.49 L
961.856 220 L
cp
971.495 220 M
971.495 46.399 L
966.675 46.399 L
966.675 220 L
cp
976.315 220 M
976.315 127.883 L
971.495 127.883 L
971.495 220 L
cp
981.135 220 M
981.135 169.382 L
976.315 169.382 L
976.315 220 L
cp
985.954 220 M
985.954 176.402 L
981.135 176.402 L
981.135 220 L
cp
990.774 220 M
990.774 169.967 L
985.954 169.967 L
985.954 220 L
cp
995.594 220 M
995.594 158.646 L
990.774 158.646 L
990.774 220 L
cp
1000.413 220 M
1000.413 130.808 L
995.594 130.808 L
995.594 220 L
cp
1005.233 220 M
1005.233 112.398 L
1000.413 112.398 L
1000.413 220 L
cp
1010.053 220 M
1010.053 131.668 L
1005.233 131.668 L
1005.233 220 L
cp
1014.873 220 M
1014.873 142.955 L
1010.053 142.955 L
1010.053 220 L
cp
1019.692 220 M
1019.692 159.851 L
1014.873 159.851 L
1014.873 220 L
cp
1024.512 220 M
1024.512 165.287 L
1019.692 165.287 L
1019.692 220 L
cp
1029.332 220 M
1029.332 167.111 L
1024.512 167.111 L
1024.512 220 L
cp
1034.151 220 M
1034.151 170.139 L
1029.332 170.139 L
1029.332 220 L
cp
1038.971 220 M
1038.971 185.624 L
1034.151 185.624 L
1034.151 220 L
cp
1043.791 220 M
1043.791 189.719 L
1038.971 189.719 L
1038.971 220 L
cp
1048.611 220 M
1048.611 197.84 L
1043.791 197.84 L
1043.791 220 L
cp
1053.43 220 M
1053.43 206.27 L
1048.611 206.27 L
1048.611 220 L
cp
1058.25 220 M
1058.25 208.851 L
1053.43 208.851 L
1053.43 220 L
cp
1063.07 220 M
1063.07 209.918 L
1058.25 209.918 L
1058.25 220 L
cp
1067.889 220 M
1067.889 209.47 L
1063.07 209.47 L
1063.07 220 L
cp
1072.709 220 M
1072.709 211.638 L
1067.889 211.638 L
1067.889 220 L
cp
1077.529 220 M
1077.529 211.019 L
1072.709 211.019 L
1072.709 220 L
cp
1082.349 220 M
1082.349 212.705 L
1077.529 212.705 L
1077.529 220 L
cp
1087.168 220 M
1087.168 213.428 L
1082.349 213.428 L
1082.349 220 L
cp
1091.988 220 M
1091.988 215.079 L
1087.168 215.079 L
1087.168 220 L
cp
1096.808 220 M
1096.808 214.942 L
1091.988 214.942 L
1091.988 220 L
cp
1101.627 220 M
1101.627 216.18 L
1096.808 216.18 L
1096.808 220 L
cp
1106.447 220 M
1106.447 216.869 L
1101.627 216.869 L
1101.627 220 L
cp
1111.267 220 M
1111.267 216.18 L
1106.447 216.18 L
1106.447 220 L
cp
1116.087 220 M
1116.087 216.834 L
1111.267 216.834 L
1111.267 220 L
cp
1120.906 220 M
1120.906 217.144 L
1116.087 217.144 L
1116.087 220 L
cp
1125.726 220 M
1125.726 217.729 L
1120.906 217.729 L
1120.906 220 L
cp
1130.546 220 M
1130.546 217.695 L
1125.726 217.695 L
1125.726 220 L
cp
1135.365 220 M
1135.365 217.075 L
1130.546 217.075 L
1130.546 220 L
cp
1140.185 220 M
1140.185 216.8 L
1135.365 216.8 L
1135.365 220 L
cp
1145.005 220 M
1145.005 216.937 L
1140.185 216.937 L
1140.185 220 L
cp
1149.824 220 M
1149.824 217.385 L
1145.005 217.385 L
1145.005 220 L
cp
1154.644 220 M
1154.644 216.731 L
1149.824 216.731 L
1149.824 220 L
cp
f
GR
GS
10.0 ML
0.5 LW
N
961.856 220 M
961.856 85.49 L
966.675 85.49 L
966.675 220 L
cp
S
GR
GS
10.0 ML
0.5 LW
N
966.675 220 M
966.675 46.399 L
971.495 46.399 L
971.495 220 L
cp
S
GR
GS
10.0 ML
0.5 LW
N
971.495 220 M
971.495 127.883 L
976.315 127.883 L
976.315 220 L
cp
S
GR
GS
10.0 ML
0.5 LW
N
976.315 220 M
976.315 169.382 L
981.135 169.382 L
981.135 220 L
cp
S
GR
GS
10.0 ML
0.5 LW
N
981.135 220 M
981.135 176.402 L
985.954 176.402 L
985.954 220 L
cp
S
GR
GS
10.0 ML
0.5 LW
N
985.954 220 M
985.954 169.967 L
990.774 169.967 L
990.774 220 L
cp
S
GR
GS
10.0 ML
0.5 LW
N
990.774 220 M
990.774 158.646 L
995.594 158.646 L
995.594 220 L
cp
S
GR
GS
10.0 ML
0.5 LW
N
995.594 220 M
995.594 130.808 L
1000.413 130.808 L
1000.413 220 L
cp
S
GR
GS
10.0 ML
0.5 LW
N
1000.413 220 M
1000.413 112.398 L
1005.233 112.398 L
1005.233 220 L
cp
S
GR
GS
10.0 ML
0.5 LW
N
1005.233 220 M
1005.233 131.668 L
1010.053 131.668 L
1010.053 220 L
cp
S
GR
GS
10.0 ML
0.5 LW
N
1010.053 220 M
1010.053 142.955 L
1014.873 142.955 L
1014.873 220 L
cp
S
GR
GS
10.0 ML
0.5 LW
N
1014.873 220 M
1014.873 159.851 L
1019.692 159.851 L
1019.692 220 L
cp
S
GR
GS
10.0 ML
0.5 LW
N
1019.692 220 M
1019.692 165.287 L
1024.512 165.287 L
1024.512 220 L
cp
S
GR
GS
10.0 ML
0.5 LW
N
1024.512 220 M
1024.512 167.111 L
1029.332 167.111 L
1029.332 220 L
cp
S
GR
GS
10.0 ML
0.5 LW
N
1029.332 220 M
1029.332 170.139 L
1034.151 170.139 L
1034.151 220 L
cp
S
GR
GS
10.0 ML
0.5 LW
N
1034.151 220 M
1034.151 185.624 L
1038.971 185.624 L
1038.971 220 L
cp
S
GR
GS
10.0 ML
0.5 LW
N
1038.971 220 M
1038.971 189.719 L
1043.791 189.719 L
1043.791 220 L
cp
S
GR
GS
10.0 ML
0.5 LW
N
1043.791 220 M
1043.791 197.84 L
1048.611 197.84 L
1048.611 220 L
cp
S
GR
GS
10.0 ML
0.5 LW
N
1048.611 220 M
1048.611 206.27 L
1053.43 206.27 L
1053.43 220 L
cp
S
GR
GS
10.0 ML
0.5 LW
N
1053.43 220 M
1053.43 208.851 L
1058.25 208.851 L
1058.25 220 L
cp
S
GR
GS
10.0 ML
0.5 LW
N
1058.25 220 M
1058.25 209.918 L
1063.07 209.918 L
1063.07 220 L
cp
S
GR
GS
10.0 ML
0.5 LW
N
1063.07 220 M
1063.07 209.47 L
1067.889 209.47 L
1067.889 220 L
cp
S
GR
GS
10.0 ML
0.5 LW
N
1067.889 220 M
1067.889 211.638 L
1072.709 211.638 L
1072.709 220 L
cp
S
GR
GS
10.0 ML
0.5 LW
N
1072.709 220 M
1072.709 211.019 L
1077.529 211.019 L
1077.529 220 L
cp
S
GR
GS
10.0 ML
0.5 LW
N
1077.529 220 M
1077.529 212.705 L
1082.349 212.705 L
1082.349 220 L
cp
S
GR
GS
10.0 ML
0.5 LW
N
1082.349 220 M
1082.349 213.428 L
1087.168 213.428 L
1087.168 220 L
cp
S
GR
GS
10.0 ML
0.5 LW
N
1087.168 220 M
1087.168 215.079 L
1091.988 215.079 L
1091.988 220 L
cp
S
GR
GS
10.0 ML
0.5 LW
N
1091.988 220 M
1091.988 214.942 L
1096.808 214.942 L
1096.808 220 L
cp
S
GR
GS
10.0 ML
0.5 LW
N
1096.808 220 M
1096.808 216.18 L
1101.627 216.18 L
1101.627 220 L
cp
S
GR
GS
10.0 ML
0.5 LW
N
1101.627 220 M
1101.627 216.869 L
1106.447 216.869 L
1106.447 220 L
cp
S
GR
GS
10.0 ML
0.5 LW
N
1106.447 220 M
1106.447 216.18 L
1111.267 216.18 L
1111.267 220 L
cp
S
GR
GS
10.0 ML
0.5 LW
N
1111.267 220 M
1111.267 216.834 L
1116.087 216.834 L
1116.087 220 L
cp
S
GR
GS
10.0 ML
0.5 LW
N
1116.087 220 M
1116.087 217.144 L
1120.906 217.144 L
1120.906 220 L
cp
S
GR
GS
10.0 ML
0.5 LW
N
1120.906 220 M
1120.906 217.729 L
1125.726 217.729 L
1125.726 220 L
cp
S
GR
GS
10.0 ML
0.5 LW
N
1125.726 220 M
1125.726 217.695 L
1130.546 217.695 L
1130.546 220 L
cp
S
GR
GS
10.0 ML
0.5 LW
N
1130.546 220 M
1130.546 217.075 L
1135.365 217.075 L
1135.365 220 L
cp
S
GR
GS
10.0 ML
0.5 LW
N
1135.365 220 M
1135.365 216.8 L
1140.185 216.8 L
1140.185 220 L
cp
S
GR
GS
10.0 ML
0.5 LW
N
1140.185 220 M
1140.185 216.937 L
1145.005 216.937 L
1145.005 220 L
cp
S
GR
GS
10.0 ML
0.5 LW
N
1145.005 220 M
1145.005 217.385 L
1149.824 217.385 L
1149.824 220 L
cp
S
GR
GS
10.0 ML
0.5 LW
N
1149.824 220 M
1149.824 216.731 L
1154.644 216.731 L
1154.644 220 L
cp
S
GR
GS
0.149 GC
2 setlinecap
1 LJ
0.5 LW
N
958 220 M
1158.5 220 L
S
GR
GS
0.149 GC
2 setlinecap
1 LJ
0.5 LW
N
958 35 M
1158.5 35 L
S
GR
GS
0.149 GC
2 setlinecap
1 LJ
0.5 LW
N
959.074 220 M
959.074 217.995 L
S
GR
GS
0.149 GC
2 setlinecap
1 LJ
0.5 LW
N
1027.79 220 M
1027.79 217.995 L
S
GR
GS
0.149 GC
2 setlinecap
1 LJ
0.5 LW
N
1096.506 220 M
1096.506 217.995 L
S
GR
GS
0.149 GC
2 setlinecap
1 LJ
0.5 LW
N
959.074 35 M
959.074 37.005 L
S
GR
GS
0.149 GC
2 setlinecap
1 LJ
0.5 LW
N
1027.79 35 M
1027.79 37.005 L
S
GR
GS
0.149 GC
2 setlinecap
1 LJ
0.5 LW
N
1096.506 35 M
1096.506 37.005 L
S
GR
GS
[1 0 0 1 959.07416 226] CT
0.149 GC
N
f1536617579
f
GR
GS
[1 0 0 1 1027.78992 226] CT
0.149 GC
N
f-1201213183
f
GR
GS
[1 0 0 1 1027.78992 226] CT
0.149 GC
N
f1017945436
f
GR
GS
[1 0 0 1 1096.50574 226] CT
0.149 GC
N
/f461999703{-9.438 13.503 M
-9.438 12.8 L
-3.266 3.581 L
-3.188 3.472 -3.063 3.472 QT
-2.766 3.472 L
-2.531 3.472 -2.531 3.706 QT
-2.531 12.8 L
-0.578 12.8 L
-0.578 13.503 L
-2.531 13.503 L
-2.531 15.456 L
-2.531 15.878 -1.945 15.987 QT
-1.359 16.097 -0.594 16.097 QT
-0.594 16.8 L
-6.109 16.8 L
-6.109 16.097 L
-5.328 16.097 -4.742 15.987 QT
-4.156 15.878 -4.156 15.456 QT
-4.156 13.503 L
-9.438 13.503 L
cp
-8.781 12.8 M
-4.047 12.8 L
-4.047 5.722 L
-8.781 12.8 L
cp}def
f461999703
f
GR
GS
[1 0 0 1 1096.50574 226] CT
0.149 GC
N
f1017945436
f
GR
GS
0.149 GC
2 setlinecap
1 LJ
0.5 LW
N
958 220 M
958 35 L
S
GR
GS
0.149 GC
2 setlinecap
1 LJ
0.5 LW
N
1158.5 220 M
1158.5 35 L
S
GR
GS
0.149 GC
2 setlinecap
1 LJ
0.5 LW
N
958 220 M
960.005 220 L
S
GR
GS
0.149 GC
2 setlinecap
1 LJ
0.5 LW
N
958 180.847 M
960.005 180.847 L
S
GR
GS
0.149 GC
2 setlinecap
1 LJ
0.5 LW
N
958 141.693 M
960.005 141.693 L
S
GR
GS
0.149 GC
2 setlinecap
1 LJ
0.5 LW
N
958 102.54 M
960.005 102.54 L
S
GR
GS
0.149 GC
2 setlinecap
1 LJ
0.5 LW
N
958 63.386 M
960.005 63.386 L
S
GR
GS
0.149 GC
2 setlinecap
1 LJ
0.5 LW
N
1158.5 220 M
1156.495 220 L
S
GR
GS
0.149 GC
2 setlinecap
1 LJ
0.5 LW
N
1158.5 180.847 M
1156.495 180.847 L
S
GR
GS
0.149 GC
2 setlinecap
1 LJ
0.5 LW
N
1158.5 141.693 M
1156.495 141.693 L
S
GR
GS
0.149 GC
2 setlinecap
1 LJ
0.5 LW
N
1158.5 102.54 M
1156.495 102.54 L
S
GR
GS
0.149 GC
2 setlinecap
1 LJ
0.5 LW
N
1158.5 63.386 M
1156.495 63.386 L
S
GR
GS
[1 0 0 1 952 220] CT
0.149 GC
N
f-259944110
f
GR
GS
[1 0 0 1 952 180.84656] CT
0.149 GC
N
f573311018
f
GR
GS
[1 0 0 1 952 180.84656] CT
0.149 GC
N
f-325359852
f
GR
GS
[1 0 0 1 952 180.84656] CT
0.149 GC
N
f-1560039422
f
GR
GS
[1 0 0 1 952 180.84656] CT
0.149 GC
N
f-959722706
f
GR
GS
[1 0 0 1 952 141.69313] CT
0.149 GC
N
f573311018
f
GR
GS
[1 0 0 1 952 141.69313] CT
0.149 GC
N
f-325359852
f
GR
GS
[1 0 0 1 952 141.69313] CT
0.149 GC
N
f-1560039422
f
GR
GS
[1 0 0 1 952 141.69313] CT
0.149 GC
N
f-426388810
f
GR
GS
[1 0 0 1 952 102.53969] CT
0.149 GC
N
f573311018
f
GR
GS
[1 0 0 1 952 102.53969] CT
0.149 GC
N
f-325359852
f
GR
GS
[1 0 0 1 952 102.53969] CT
0.149 GC
N
f-1560039422
f
GR
GS
[1 0 0 1 952 102.53969] CT
0.149 GC
N
f-1609365487
f
GR
GS
[1 0 0 1 952 63.38625] CT
0.149 GC
N
f573311018
f
GR
GS
[1 0 0 1 952 63.38625] CT
0.149 GC
N
f-325359852
f
GR
GS
[1 0 0 1 952 63.38625] CT
0.149 GC
N
f-1560039422
f
GR
GS
[1 0 0 1 952 63.38625] CT
0.149 GC
N
/f-374587059{-9.156 1.769 M
-9.156 0.566 -8.367 -0.356 QT
-7.578 -1.278 -6.344 -1.903 QT
-7.078 -2.372 L
-7.766 -2.825 -8.195 -3.575 QT
-8.625 -4.325 -8.625 -5.138 QT
-8.625 -6.106 -8.117 -6.872 QT
-7.609 -7.638 -6.781 -8.083 QT
-5.953 -8.528 -5 -8.528 QT
-4.109 -8.528 -3.281 -8.161 QT
-2.453 -7.794 -1.922 -7.122 QT
-1.391 -6.45 -1.391 -5.528 QT
-1.391 -4.856 -1.711 -4.278 QT
-2.031 -3.7 -2.586 -3.239 QT
-3.141 -2.778 -3.766 -2.45 QT
-2.609 -1.731 L
-1.828 -1.2 -1.344 -0.364 QT
-0.859 0.472 -0.859 1.394 QT
-0.859 2.487 -1.438 3.378 QT
-2.016 4.269 -2.977 4.753 QT
-3.938 5.237 -5 5.237 QT
-6.031 5.237 -6.992 4.816 QT
-7.953 4.394 -8.555 3.597 QT
-9.156 2.8 -9.156 1.769 QT
cp
-8.078 1.769 M
-8.078 2.55 -7.641 3.206 QT
-7.203 3.862 -6.492 4.23 QT
-5.781 4.597 -5 4.597 QT
-3.844 4.597 -2.891 3.925 QT
-1.938 3.253 -1.938 2.128 QT
-1.938 1.737 -2.094 1.362 QT
-2.25 0.987 -2.516 0.683 QT
-2.781 0.378 -3.109 0.175 QT
-5.797 -1.559 L
-6.422 -1.231 -6.945 -0.724 QT
-7.469 -0.216 -7.773 0.425 QT
-8.078 1.066 -8.078 1.769 QT
cp
-6.703 -4.341 M
-4.281 -2.778 L
-3.438 -3.263 -2.898 -3.958 QT
-2.359 -4.653 -2.359 -5.528 QT
-2.359 -6.2 -2.734 -6.763 QT
-3.109 -7.325 -3.719 -7.638 QT
-4.328 -7.95 -5.016 -7.95 QT
-5.625 -7.95 -6.242 -7.716 QT
-6.859 -7.481 -7.258 -7.013 QT
-7.656 -6.544 -7.656 -5.919 QT
-7.656 -4.981 -6.703 -4.341 QT
cp}def
f-374587059
f
GR
%%Trailer
%%Pages: 1
%%EOF
