,Date,LetterLSEns,LetterEns_Q1,LetterEns_Q2,LetterEns_Q3,LetterEns_Q4,LetterEns_Q5,1/N,SummaryLSEns,SummaryEns_Q1,SummaryEns_Q2,SummaryEns_Q3,SummaryEns_Q4,SummaryEns_Q5,ControlLSEns,ControlEns_Q1,ControlEns_Q2,ControlEns_Q3,ControlEns_Q4,ControlEns_Q5
0,2007Q3,3.376894,1.594937,1.777070,1.834395,1.828025,1.732484,0.030522,3.483419,1.689873,1.847134,1.904459,1.929936,1.738854,2.868735,1.379747,1.560510,1.649682,1.662420,1.439490
1,2007Q4,2.252279,1.042017,1.420168,1.611814,1.424370,1.247899,0.035794,2.279206,1.126050,1.478992,1.527426,1.445378,1.184874,1.922511,0.894958,1.315126,1.400844,1.365546,1.075630
2,2008Q1,2.406223,1.327273,1.456204,1.565693,1.427007,1.200025,0.066958,2.479158,1.374545,1.536496,1.565693,1.496350,1.221818,2.328258,1.309091,1.390511,1.481752,1.459854,1.152750
3,2008Q2,1.608628,0.852891,1.245406,1.275991,1.157233,0.796238,0.037421,1.588150,0.902821,1.264546,1.172414,1.053606,0.727273,1.850554,1.094044,1.421526,1.329154,1.220272,0.799373
4,2008Q3,1.511679,0.823086,1.317567,1.288195,1.312263,0.824579,0.073942,1.393214,0.787666,1.313120,1.239441,1.166550,0.735935,1.680844,0.984513,1.333202,1.304684,1.254227,0.844423
5,2008Q4,1.856504,0.884532,1.456212,1.482962,1.468613,1.038145,0.123714,2.062400,0.973529,1.519708,1.475332,1.409026,1.189922,1.717369,0.782057,1.328265,1.458868,1.375898,0.970586
6,2009Q1,1.945998,1.047926,1.259540,1.297357,1.309527,0.984911,0.075208,1.735324,0.977471,1.282233,1.244518,1.251454,0.837013,1.863450,1.077784,1.305038,1.306244,1.257080,0.878212
7,2009Q2,1.732545,0.487976,0.995350,1.126836,1.229840,0.782867,0.074393,1.915316,0.564261,1.078707,1.229230,1.285733,0.893696,1.787595,0.474527,0.973446,1.120082,1.297418,0.852542
8,2009Q3,1.972011,0.977403,1.366284,1.295152,1.046044,0.507691,0.051479,1.915586,0.946388,1.338488,1.226892,1.021346,0.482130,1.897986,0.965200,1.358812,1.195403,0.949176,0.443733
9,2009Q4,2.601680,1.044235,1.457908,1.589945,1.530925,1.474872,0.030471,2.619008,1.020966,1.363489,1.505037,1.459373,1.516056,2.692906,1.081188,1.295710,1.510992,1.479766,1.525899
10,2010Q1,2.134518,1.164835,1.309890,1.422907,1.476923,0.832967,0.026475,2.017280,1.160440,1.325275,1.387665,1.318681,0.716484,1.956413,1.149451,1.316484,1.400881,1.338462,0.663736
11,2010Q2,1.276858,0.547780,0.920691,1.051752,1.022189,0.738468,0.086451,1.296122,0.611005,0.963224,1.091227,1.017414,0.701337,1.333538,0.608454,0.932982,1.022923,1.059745,0.741599
12,2010Q3,2.239665,0.994289,1.462030,1.502091,1.496812,0.950263,0.042836,2.521402,1.193864,1.455716,1.466440,1.505350,1.037321,2.380643,1.158111,1.468464,1.492285,1.412077,0.936889
13,2010Q4,1.497600,0.668494,1.128816,1.196679,1.196368,0.755785,0.055414,1.578235,0.738191,1.118969,1.260750,1.248628,0.770996,1.710683,0.890147,1.088313,1.194103,1.120802,0.736725
14,2011Q1,2.094534,0.872180,1.341426,1.350304,1.370345,1.109474,0.053611,2.224475,0.966980,1.412250,1.495574,1.460252,1.152026,2.242009,1.010203,1.365638,1.385119,1.433051,1.126357
15,2011Q2,0.770622,0.311651,0.526020,0.595517,0.648119,0.452693,0.039001,0.721511,0.294253,0.491619,0.578467,0.626557,0.419977,0.731320,0.277041,0.489971,0.572319,0.632865,0.448738
16,2011Q3,1.116801,0.371978,0.808432,0.966244,0.920093,0.626634,0.104524,1.086187,0.352383,0.776430,0.909171,0.864618,0.608860,1.070200,0.344303,0.723229,0.879515,0.839902,0.596507
17,2011Q4,1.677562,0.519405,1.190229,1.269691,1.339595,0.964523,0.048731,1.685306,0.530206,1.175831,1.227969,1.247982,0.957551,1.713586,0.540418,1.207790,1.261745,1.315623,0.974119
18,2012Q1,1.841873,0.759564,1.317772,1.311174,1.215214,0.825020,0.055045,1.790273,0.730054,1.265936,1.291961,1.144157,0.803134,1.828616,0.745130,1.349402,1.345654,1.194326,0.826552
19,2012Q2,0.955610,0.464203,0.887795,1.045292,0.957782,0.485630,0.043975,0.878973,0.409268,0.813413,1.014710,0.888294,0.463988,0.934339,0.410614,0.825818,1.012581,0.955331,0.514308
20,2012Q3,1.130078,0.485810,1.058619,1.213388,1.079062,0.500980,0.026965,1.241487,0.528558,1.163408,1.245623,1.115075,0.568545,1.069555,0.439568,0.966545,1.140104,1.036059,0.485338
21,2012Q4,1.548353,0.703047,1.285197,1.334532,1.272220,0.786499,0.026325,1.496301,0.690369,1.283694,1.362624,1.216157,0.747933,1.559042,0.707246,1.255356,1.334489,1.198960,0.793326
22,2013Q1,2.573063,1.257155,1.330410,1.303465,1.362557,1.113710,0.057380,2.627400,1.282654,1.373527,1.426375,1.384058,1.141336,2.515173,1.251833,1.293798,1.319946,1.290663,1.058007
23,2013Q2,1.169269,0.562070,1.025959,1.059472,1.061339,0.609810,0.037853,1.084503,0.497366,0.951939,1.057779,1.048272,0.589282,1.178530,0.536346,0.997951,1.082825,1.089684,0.646505
24,2013Q3,1.860638,0.984202,1.371735,1.382388,1.286034,0.764181,0.041926,1.893242,0.963518,1.351578,1.374841,1.254753,0.814400,1.793076,0.953526,1.315279,1.334344,1.260698,0.724653
25,2013Q4,1.407696,0.682357,1.037748,1.196440,1.032968,0.622601,0.040086,1.514955,0.710312,1.086217,1.197928,1.088680,0.701869,1.359979,0.658902,0.996581,1.156651,1.022458,0.595981
26,2014Q1,1.334701,0.567423,1.007578,1.129557,1.111408,0.703214,0.026447,1.340975,0.571062,1.005444,1.116660,1.143890,0.706707,1.241582,0.478216,0.878399,0.987118,1.078142,0.700472
27,2014Q2,0.644345,0.255390,0.530553,0.566809,0.562325,0.258128,0.018181,0.684049,0.282480,0.598496,0.647257,0.585684,0.270937,0.604250,0.244406,0.534888,0.543282,0.494855,0.228830
28,2014Q3,0.980165,0.543774,0.982761,1.030410,0.821917,0.427023,0.035869,0.984134,0.563270,0.976631,1.054600,0.815937,0.411679,0.939047,0.558302,0.955233,1.056370,0.800947,0.369289
29,2014Q4,1.197781,0.575453,0.951734,1.027317,0.984826,0.558963,0.035257,1.279861,0.628410,0.971088,1.082447,1.081033,0.588648,1.289936,0.643553,0.950332,1.103645,1.067835,0.582605
30,2015Q1,1.912141,0.953854,1.230769,1.208081,1.155919,0.880986,0.026046,1.773082,0.860908,1.220665,1.204040,1.139764,0.834522,1.787886,0.869007,1.149798,1.198011,1.117493,0.840586
31,2015Q2,1.076090,0.531328,1.033257,1.110002,1.009013,0.537307,0.023366,1.117991,0.595233,1.061911,1.069811,0.979235,0.515238,1.045726,0.514929,0.990229,1.007557,0.944494,0.522760
32,2015Q3,1.671810,0.838449,1.249492,1.248738,1.143992,0.831370,0.055419,1.600048,0.758317,1.122667,1.148705,1.109214,0.833827,1.526266,0.741599,1.181584,1.170949,1.107683,0.771088
33,2015Q4,1.224835,0.604577,0.959644,1.116385,1.104793,0.564852,0.033909,1.211471,0.600431,0.930118,1.149679,1.126504,0.552694,1.082136,0.579714,0.879175,1.053342,0.968691,0.446507
34,2016Q1,1.495686,0.698135,1.166281,1.221159,1.140554,0.747868,0.031343,1.481528,0.691819,1.156114,1.206738,1.173347,0.739806,1.388401,0.642975,1.104625,1.140832,1.124436,0.694813
35,2016Q2,1.641155,0.783008,1.116447,1.176946,1.071989,0.789209,0.034816,1.514573,0.699604,1.108218,1.148756,1.030734,0.745933,1.534523,0.703511,1.071094,1.126030,1.006372,0.762030
36,2016Q3,1.714550,0.750357,1.235251,1.324863,1.223337,0.871473,0.032941,1.643814,0.689600,1.223116,1.407738,1.235367,0.864870,1.629068,0.750103,1.255371,1.393809,1.200713,0.787579
37,2016Q4,1.757505,0.969592,1.344135,1.382059,1.394433,0.784792,0.040506,1.617155,0.868402,1.393051,1.454280,1.360133,0.746480,1.640658,0.841561,1.354798,1.435662,1.397129,0.793924
