,Date,LetterLSEns,LetterEns_Q1,LetterEns_Q2,LetterEns_Q3,LetterEns_Q4,LetterEns_Q5,1/N,SummaryLSEns,SummaryEns_Q1,SummaryEns_Q2,SummaryEns_Q3,SummaryEns_Q4,SummaryEns_Q5,ControlLSEns,ControlEns_Q1,ControlEns_Q2,ControlEns_Q3,ControlEns_Q4,ControlEns_Q5
0,2007Q3,0.068848,1.194833,1.262559,1.468595,1.221495,1.263681,1.921661,-0.040492,1.378278,1.243749,1.223983,1.227369,1.337785,0.204524,1.127614,1.141114,1.361263,1.449035,1.332138
1,2007Q4,0.770521,-1.330934,-0.050407,0.620283,0.042245,-0.560413,-1.451539,1.087543,-1.340674,0.081778,0.292622,-0.059759,-0.253131,0.042049,-1.230322,0.241275,0.690576,0.206878,-1.188273
2,2008Q1,2.667289,-4.476206,-1.796292,-1.652436,-2.064028,-1.808917,-6.351601,1.821305,-3.948996,-2.025615,-1.596991,-2.098354,-2.127691,1.078854,-4.012856,-1.861396,-1.219760,-1.768047,-2.934002
3,2008Q2,1.144573,-1.594412,-0.657499,-0.341944,-0.217972,-0.449839,-0.071141,1.016804,-1.562855,-0.705920,-0.346429,-0.100175,-0.546051,0.814338,-1.484724,-0.470665,-0.491192,-0.144294,-0.670387
4,2008Q3,2.331921,-7.101462,-6.750971,-5.644778,-4.713805,-4.769542,-9.385641,2.352962,-6.950419,-6.890096,-5.730360,-4.812973,-4.597457,1.264759,-6.485989,-6.845267,-6.003882,-4.423575,-5.221230
5,2008Q4,13.790905,-18.659125,-12.292144,-8.804537,-5.976168,-4.868220,-16.549211,13.065248,-18.267009,-11.117844,-9.123984,-6.890512,-5.201762,13.643816,-18.450718,-11.582740,-8.657656,-7.101754,-4.806903
6,2009Q1,9.336433,-8.185611,-4.132506,-0.896883,1.353751,1.150821,-5.236209,9.035601,-7.852026,-4.007782,-0.949366,0.914156,1.183575,8.845964,-8.188501,-3.919981,-0.517847,1.259813,0.657463
7,2009Q2,-7.320412,15.211942,11.955595,8.401648,7.153519,7.891530,14.710500,-8.104688,15.463231,11.526358,8.229661,8.037162,7.358543,-7.405013,15.261603,11.917724,8.116931,7.461347,7.856591
8,2009Q3,-4.261629,14.066380,11.577352,8.915391,7.260362,9.804751,13.624107,-4.191109,14.024558,11.218904,9.045918,7.501732,9.833449,-4.371100,14.156433,11.478830,8.828973,7.374452,9.785333
9,2009Q4,-1.103438,3.137218,2.168446,1.906783,1.419267,2.033780,3.600789,-0.922766,2.986174,2.281689,1.880952,1.453270,2.063409,-1.001179,3.082586,2.166161,1.846877,1.488462,2.081407
10,2010Q1,-1.348503,4.035372,2.895028,2.289910,2.614471,2.686869,4.038686,-1.393997,4.146180,2.763845,2.405845,2.453597,2.752183,-1.485277,4.261150,2.878286,2.183029,2.423312,2.775873
11,2010Q2,4.301325,-5.838489,-3.805435,-2.927620,-2.167388,-1.537164,-6.514252,3.657750,-5.256573,-3.902786,-3.372371,-2.146521,-1.598823,3.757456,-5.626171,-3.344237,-3.202130,-2.235445,-1.868715
12,2010Q3,-4.425942,9.485088,7.492000,7.265786,5.517275,5.059146,9.475329,-4.254447,9.256550,7.584767,7.428873,5.547002,5.002103,-4.305236,9.132567,7.428536,7.545930,5.884932,4.827331
13,2010Q4,-5.271654,5.937683,3.481558,2.213079,1.799794,0.666029,6.742785,-4.896466,5.713468,3.401852,2.555683,1.610294,0.817002,-5.589371,6.304823,3.427861,2.134845,1.514270,0.715453
14,2011Q1,-2.011451,3.960033,2.772793,2.091456,2.007083,1.948582,4.081885,-1.808582,3.669126,2.739722,2.382209,2.128537,1.860543,-1.838206,3.687999,2.709530,2.218682,2.314472,1.849793
15,2011Q2,1.350852,0.371385,1.255575,2.380051,2.465987,1.722238,0.750111,1.407438,0.384772,1.277253,2.233762,2.507209,1.792210,1.360871,0.357321,1.348331,2.293874,2.477547,1.718193
16,2011Q3,12.580670,-15.257514,-7.241202,-1.590455,-0.355886,-2.676844,-11.402292,12.685178,-15.301946,-7.100301,-1.837520,-0.265904,-2.616768,12.655107,-15.492876,-6.981801,-1.593436,-0.216025,-2.837769
17,2011Q4,-5.198891,8.733133,5.352306,3.953641,3.371332,3.534241,7.121570,-5.267361,8.845499,5.209158,3.987520,3.324093,3.578138,-5.211097,8.854400,5.194835,3.930880,3.320969,3.643303
18,2012Q1,-5.315473,9.168746,5.950155,4.328620,3.600485,3.853274,8.992140,-5.144539,9.087061,5.836767,4.375511,3.659600,3.942522,-5.428996,9.216791,5.947188,4.118200,3.831200,3.787795
19,2012Q2,1.192684,-2.234701,0.094466,0.540156,0.233271,-1.042016,-2.808471,1.194804,-2.148831,0.022361,0.385190,0.286299,-0.954027,1.025996,-2.176025,0.145720,0.513007,0.258377,-1.150029
20,2012Q3,-0.688488,4.797201,3.449344,3.158733,3.097025,4.108713,4.702458,-0.717580,4.778815,3.486525,3.276615,3.007714,4.061236,-0.641963,4.830889,3.498066,3.002506,3.090721,4.188926
21,2012Q4,-0.458238,1.929406,1.171149,0.838297,0.939066,1.471168,1.381605,-0.419637,1.901057,1.198720,0.838236,0.929692,1.481420,-0.438127,1.917439,1.187091,0.848947,0.916305,1.479312
22,2013Q1,-0.962442,5.805247,2.995985,2.152658,2.310500,4.842805,5.920214,-1.132387,5.928055,2.727473,2.168138,2.487596,4.795668,-0.964469,5.934422,2.850458,2.045564,2.306519,4.969953
23,2013Q2,0.572277,-1.069608,-1.383865,-1.707856,-1.369899,-0.497331,-0.166040,0.448316,-1.075705,-1.390531,-1.528919,-1.405729,-0.627388,0.442571,-1.124871,-1.492782,-1.444761,-1.283337,-0.682300
24,2013Q3,0.711156,3.150138,2.251776,1.726699,2.311838,3.861293,5.178184,0.768642,3.197773,2.102667,1.712419,2.322370,3.966415,0.700985,3.252500,2.038547,1.743141,2.313855,3.953485
25,2013Q4,0.298795,3.487446,3.673508,3.023521,3.027692,3.786241,5.295335,0.189389,3.522086,3.374677,3.375362,3.015549,3.711474,0.352971,3.539056,3.382674,3.184833,3.000158,3.892027
26,2014Q1,-0.110978,2.296612,2.263040,2.331807,2.431102,2.185633,1.932405,-0.185053,2.277549,2.246404,2.434159,2.457803,2.092496,-0.182946,2.296842,2.249806,2.419954,2.427883,2.113896
27,2014Q2,-0.107940,3.535428,2.896619,2.715084,2.954988,3.427488,3.423409,-0.158229,3.546642,2.879914,2.710738,3.003961,3.388413,-0.152226,3.563007,2.835090,2.737895,2.982812,3.410781
28,2014Q3,0.231486,-1.264931,-0.555952,-0.382238,-0.705490,-1.033445,-1.692079,0.333102,-1.291466,-0.587902,-0.328467,-0.775802,-0.958364,0.301523,-1.346443,-0.545825,-0.169416,-0.835279,-1.044921
29,2014Q4,-0.196083,2.221656,1.633557,1.184091,1.321030,2.025573,2.153103,-0.122919,2.160323,1.554682,1.292748,1.340982,2.037404,-0.150087,2.214943,1.490806,1.357088,1.258584,2.064855
30,2015Q1,-0.164112,2.006822,1.492024,1.358002,1.424661,1.842709,2.301826,-0.195357,2.030694,1.417006,1.400985,1.440146,1.835337,-0.149536,2.024045,1.478747,1.364711,1.382170,1.874508
31,2015Q2,-0.211631,-0.579123,-0.676988,-0.836245,-0.744081,-0.790754,-0.237419,-0.200112,-0.598183,-0.612575,-0.838620,-0.779459,-0.798295,-0.127413,-0.645914,-0.592448,-0.818658,-0.796779,-0.773327
32,2015Q3,1.661023,-4.898603,-4.044054,-1.914360,-1.711900,-3.237581,-5.951554,1.759167,-4.950302,-3.985982,-2.122538,-1.556531,-3.191135,1.621453,-5.009422,-3.910857,-2.082502,-1.415216,-3.387969
33,2015Q4,-0.590909,2.595976,1.402750,1.270529,1.278681,2.005067,2.728020,-0.579370,2.672918,1.274183,1.179409,1.332785,2.093549,-0.551668,2.653669,1.348817,1.116817,1.331580,2.102001
34,2016Q1,0.064471,1.351412,1.684877,1.818947,1.643364,1.415883,0.561785,0.100630,1.337207,1.746271,1.784404,1.608749,1.437836,0.070293,1.383763,1.711246,1.720971,1.644298,1.454057
35,2016Q2,0.034514,2.295924,2.539099,2.467642,2.348198,2.330438,2.187126,0.051255,2.319980,2.516445,2.448456,2.325136,2.371235,0.084067,2.286162,2.578366,2.465837,2.280727,2.370229
36,2016Q3,-1.033690,3.084067,2.077024,1.906658,1.600441,2.050377,3.693507,-1.198027,3.081814,2.013293,2.056607,1.683415,1.883786,-1.249908,3.150628,1.931603,1.989277,1.746510,1.900720
37,2016Q4,-1.268541,0.754611,-0.584542,-1.414288,-1.126500,-0.513930,0.363525,-1.349957,0.777874,-0.555566,-1.419656,-1.115148,-0.572082,-1.063468,0.773247,-0.663420,-1.439859,-1.264892,-0.290222
