FundNo,Date,Future Return,Future Fund Flow,Alpha,Volatility
3558,2009-03-31,-12.023424532095838,-6.431669353154801,27.65900169542311,1.7107433180284026
3558,2010-03-31,4.572022178119818,12.366533947782273,-15.453304736226219,0.2917491320801542
3558,2010-12-31,7.451402353975894,-5.934864594628139,-12.205696959197246,-2.0024924501085
3560,2009-03-31,-38.176694355518705,0.36091673025695314,8.21214663366792,5.9785440403352546
3560,2010-03-31,-12.935645604188473,27.529935293753457,-7.610459646132838,1.371937930603412
3560,2013-03-28,1.555457388618808,-25.345024008539262,-9.641836266952161,-0.9752327476408222
3560,2014-03-31,17.618226060730567,-1.1876092872215338,1.3080905519708197,-4.715695653943005
3560,2015-03-31,30.437764445632588,4.501389758673223,19.994050474075355,-4.155572867907377
3560,2016-03-31,1.500892064724983,-5.859608486924165,-12.261991746629763,2.4960192985526675
3563,2009-03-31,-61.427081158250104,15.812665526088939,1.2109284772484938,14.805754572300808
3563,2010-03-31,-7.12195779360152,-7.2187900005238905,-4.81233785860537,2.8454446143483167
3563,2011-03-31,20.72550976091738,-4.617583645509534,0.7942902180065419,-4.703412716637174
3563,2012-03-30,-16.518650901383282,4.088069560168752,-5.431766788789085,-5.27591984086358
3563,2013-03-28,24.85872454599904,-7.93090876741697,5.053298169334962,-1.192595983859496
3563,2014-03-31,5.448194362315114,-17.73957568101737,-3.5552848791560208,-0.10674610736009527
3563,2015-03-31,14.24194587126231,15.188459752553106,3.8087967261381106,-6.278273510719492
3563,2016-03-31,19.793315312740734,2.4176632556553095,2.9320759358214885,-0.09425102720917344
3564,2009-03-31,-4.085620730620576e-14,-2.2026824808563106e-13,-1.1113332476497817e-13,1.4210854715202004e-14
3569,2015-03-31,6.754283018497249,8.11703309694725,3.816463661510185,-0.9069432737195289
3569,2016-03-31,-6.754283018497326,-8.117033096947692,-3.8164636615104115,0.9069432737195662
3596,2012-03-30,-22.5853800289348,-18.05454363259705,-6.977416355715722,-0.44545234588370874
3596,2013-03-28,17.948182589467518,-2.1138410899763826,5.965351890102495,0.6181192786461729
3596,2014-03-31,3.2589665578783142,21.133979855875822,-2.425697236429631,2.0962330452895603
3596,2015-03-31,1.7270674863709465,3.8815646108677377,3.7129395701735235,-2.3038849702242583
3596,2016-03-31,-0.3488366047822469,-4.8471597441713445,-0.2751778681312327,0.03498499217231377
3597,2012-03-30,-4.757614823105609,-1.7784100712191249,4.029665154173197,-2.5142254343264074
3597,2013-03-28,7.409786380269367,0.5727659959699878,3.2971408990482347,0.6045085024842365
3597,2014-03-31,0.9110595780538737,-2.4809567216724115,-3.757078433736525,0.32791337029582834
3597,2015-03-31,3.83011145148162,2.1213047872995356,0.9459481523879948,-0.1745362934508936
3597,2016-03-31,-7.393342586699486,1.5652960096209316,-4.515675771873466,1.7563398549973126
3616,2009-03-31,-55.142803861164154,-3.2755471281448365,-15.256694008833122,5.323009669092812
3616,2010-03-31,-8.885786942032635,49.506286564997374,0.006307663149130116,1.9936878989145885
3616,2011-03-31,28.64527246308345,-8.590615113404821,2.2903628101578013,-5.095826198047594
3616,2012-03-30,-9.637085803881655,-0.7391716130922399,-6.68874333859352,-2.6462817511796484
3616,2013-03-28,13.045205772812364,-12.817850432123496,8.090095163255,-0.2580895219839441
3616,2014-03-31,15.155394590805676,-7.828590991056082,2.9259837388497454,0.5157931526180732
3616,2015-03-31,9.961740646585218,-14.974091148004987,2.0099973562576308,-0.14890102254172355
3616,2016-03-31,6.858063133791374,-1.2804201391728753,6.622690615756423,0.31660777312760224
3689,2016-06-30,-4.085620730620576e-14,-2.2026824808563106e-13,-1.1113332476497817e-13,1.4210854715202004e-14
3714,2011-03-31,-2.170650710618723,22.80864634267561,3.511189499885358,2.0037308131111686
3714,2012-03-30,9.359179174292752,-2.4218047019577966,-2.1132628218503675,-0.8338265614054272
3714,2016-03-31,-7.188528463674169,-20.38684164071845,-1.3979266780353283,-1.169904251705697
3993,2006-09-29,-3.9895862269332554,15.732348925617208,-0.016146622631055804,3.6239076834543305
3993,2007-03-30,-14.893829908906458,1.0334508152429205,-5.326464093309546,2.328317522733755
3993,2007-09-28,2.7199867380128318,-1.2652212765620208,-0.33192855441097446,1.030529076690037
3993,2008-03-31,6.232150559371389,-6.597382850914077,-1.4021514769014356,0.18849832255029497
3993,2008-09-30,9.765292976710423,-95.66021622909287,-17.23671510221695,-10.690877515416142
3993,2009-03-31,8.84039901624589,-17.203998444609603,16.69284574302817,0.5470838559461164
3993,2009-09-30,-8.674413154501078,103.96101906031691,7.620560106441016,2.972541054041722
4456,2012-09-28,0.8874214672205465,7.2155623487595415,2.2394316475148046,0.2420085195765651
4456,2013-09-30,-3.515153801884816,-16.913314246863052,-6.033848577428111,0.28190492606340634
4456,2016-09-30,2.6277323346641506,9.697751898102894,3.7944169299129773,-0.5239134456399235
5372,2012-09-28,24.837961818149818,12.630481843514556,19.42158302823822,2.6372182809623492
5372,2013-09-30,7.611627925554393,-1.806331581752353,10.104282933807257,-0.2920416786116373
5372,2014-09-30,-6.493884839312232,4.171154880585484,-13.816446346879118,-1.0273883607792769
5372,2015-09-30,-13.513334308894898,-9.080615316810475,-10.659540282852094,1.0818168572301676
5372,2016-09-30,-12.442370595497252,-5.914689825538288,-5.049879332314811,-2.3996050988015067
5468,2006-09-29,3.9895862269332723,-15.732348925617696,0.016146622630948126,-3.6239076834543127
5468,2007-03-30,-1.3439079114541337,17.8579699970265,1.7517774826325163,-1.91666202102083
5468,2007-09-28,-32.544732249164696,-8.9086328946658,-4.580140695703566,1.9066153080577735
5468,2008-03-31,-11.832341274347794,-22.038290886903702,-13.725789118752495,0.9945337520165989
5468,2009-03-31,31.568595232435804,-45.799542570665935,-4.725910108513575,-1.7191175279565272
5468,2009-09-30,3.224671040413652,-24.54167749176061,-6.199698569592019,2.1294896429667034
5468,2010-09-30,11.672782131653404,76.0038637297685,5.218128212863682,-6.433908416308224
5468,2011-03-31,-18.964317049150182,-21.61192169459058,4.028693264084105,6.611132985339513
5468,2012-03-30,9.182211529061796,7.899334963934891,8.71529776056901,-0.14886433265549037
5468,2013-03-28,5.047452323618408,36.87124577347214,9.501495149780277,2.200688293014995
5940,2011-09-30,-24.392279607813485,-37.77134280531612,-8.188758099302818,-0.14364756369331033
5940,2013-09-30,-6.491733893177175,8.773903859283983,-6.355686536721047,0.8834430412762782
5940,2014-09-30,-1.3721782595890346,15.457701297708741,-0.9218876084113286,0.681381805964218
5940,2015-09-30,8.749623344340907,17.324925627814622,6.828688142419936,0.10886201919316996
5940,2016-09-30,23.50656841623855,-3.785187979492336,8.637644102014704,-1.5300393027402919
6281,2014-03-31,-4.085620730620576e-14,-2.2026824808563106e-13,-1.1113332476497817e-13,1.4210854715202004e-14
6710,2008-03-31,-13.777652440852151,11.14513592253532,-13.971067906108223,3.274356601463017
6710,2009-03-31,46.00381561223775,-18.153719956131408,-2.040101012560397,0.3962504767878343
6710,2009-09-30,8.743203957118878,34.16325237024111,5.186723780414317,2.1528362950548807
6710,2010-03-31,-2.3488896996711706,-49.329964546292395,8.937065066052229,-0.02904878443854564
6710,2011-03-31,-25.975887387314206,8.990746962140651,-7.199337499013716,2.2145589455690136
6710,2012-03-30,6.7359387743419,-0.19732646986871316,9.160807628794629,-1.3454337160195262
6710,2014-03-31,-3.0889711693861814,2.9192656279728935,0.7848595590156648,-3.295361830666918
6710,2015-03-31,-8.965932598870532,-0.21273454510815704,3.7000468182244166,0.9413932932185087
6710,2016-03-31,-7.325625047604666,10.675344634508747,-4.558996434819935,-4.309551280968119
6741,2015-03-31,-5.659223182333627,-11.196603344685213,6.239909393706597,1.701326590972748
6741,2016-03-31,5.6592231823335455,11.196603344684775,-6.239909393706818,-1.7013265909727142
6886,2014-12-31,4.203567741212936,-26.609626830705693,4.713403331692712,2.0384831418046527
6886,2015-12-31,1.220553562083471,64.21061834445025,-0.7817011960995597,-0.315548116362649
6886,2016-12-30,-5.42412130329654,-37.60099151374527,-3.931702135593497,-1.7229350254419469
7145,2008-06-30,-29.298447698952756,3.5672011605348466,-1.1326406910118392,15.974178821366957
7145,2010-06-30,33.429996820420165,2.7997862371139988,-1.6496173179506335,-5.53692205968993
7145,2011-06-30,-16.93726495790548,-2.4535756792945183,0.37069726970388495,8.635921862626494
7145,2012-06-29,4.799978211481241,-8.69310610672563,1.71047979603593,-4.8483472544076385
7145,2013-06-28,16.338071106214443,8.246579803864694,0.005435015407341037,-6.404145684818622
7145,2014-06-30,-15.384860725509741,-9.745749707116701,-0.6857697956002468,-3.065500838789214
7145,2015-06-30,-15.914922284492913,3.449008407263859,2.3025979903680573,-0.7681575632611217
7145,2016-06-30,22.967449528744638,2.829855884357693,-0.9211822669533838,-3.9870272830267783
7236,2013-03-28,2.1834013895824813,12.706368828160208,3.079780949140747,-1.651398228925812
7236,2014-03-31,1.8712435463116188,4.490119564975001,0.2285114316187945,-0.39789866975290167
7236,2015-03-31,-11.05404796974912,-22.617184358445215,-5.4622041972424356,3.1893998184955397
7236,2016-03-31,6.999403033854863,5.4206959653091245,2.1539118164824487,-1.140102919816746
7995,2008-12-31,-4.085620730620576e-14,-2.2026824808563106e-13,-1.1113332476497817e-13,1.4210854715202004e-14
8008,2015-03-31,-8.04716877800506,0.6157147190284382,0.40986613075857403,1.4015440930772822
8008,2016-03-31,8.047168778004973,-0.6157147190288801,-0.40986613075880163,-1.4015440930772485
8032,2008-06-30,-10.238908596436968,-14.747827412017614,19.731110020353533,-2.0537452678842882
8032,2009-06-30,-11.589386965843046,-0.4310079306862775,-17.121803766306332,0.22065415369714003
8032,2010-06-30,10.418680891852922,12.505935661587424,1.7317633396362906,1.446514748287214
8032,2012-06-29,11.409614670426935,2.6728996811155623,-4.341069593683941,0.38657636590000166
8155,2008-03-31,-0.1418825803723225,-1.9921599990830219,-1.4621644955828763,-0.28348738098252824
8155,2010-03-31,0.14188258037225054,1.9921599990826087,1.4621644955826594,0.28348738098256554
8171,2009-03-31,-23.00232286029825,4.22604621144686,0.27504064852081256,2.0690722245042927
8171,2010-03-31,23.002322860298165,-4.226046211447298,-0.27504064852103416,-2.0690722245042625
8196,2008-03-31,-7.859810208604902,-0.6015649187473375,9.0861450361687,-0.6571036337878162
8196,2009-03-31,28.2590379389379,-13.545432635197493,-4.5299506163009005,-1.2291142108374782
8196,2010-03-31,-20.399227730333106,14.1469975539442,-4.556194419868124,1.8862178446253477
8229,2008-03-31,7.845327143245541,3.1711191411482513,-0.3543456326313665,0.9877203615329844
8229,2009-03-31,-7.845327143245619,-3.1711191411487327,0.3543456326311345,-0.9877203615329453
9217,2007-03-30,-13.307477578526248,13.961860186977471,-4.397666602853316,2.2067085823782797
9217,2007-09-28,0.5461185071551267,6.99226215061266,-1.3943746967652522,0.316704991726251
9217,2008-03-31,2.4984695363216396,-0.49023948436985876,-1.8383799487991728,4.011922112156427
9217,2008-09-30,24.501847452779003,-2.3135339586597805,1.8614950964257941,-11.235336560968227
9217,2009-03-31,-10.188251317657254,15.3612599620947,1.5802390430063573,0.23362042130287541
9217,2009-09-30,-11.06468642379533,5.791262821070681,0.8466579119159299,2.1022491312395513
9217,2010-03-31,4.725922466388626,17.631924191999673,4.495111385075642,-1.6023539745475368
9217,2011-03-31,3.813958166042564,14.638016536554328,-1.145429130493151,-0.7309804603985324
9217,2012-03-30,-1.5259008087085073,-71.57281240628183,-0.0076530575138337165,4.6974657571110505
9221,2007-06-29,-5.843970947476331,35.371112450647296,-4.156539776677475,-0.27531657154037603
9221,2008-03-31,14.747446541926413,-16.71481936043034,-4.368012884419823,-0.3216482218159751
9221,2008-06-30,38.54643576638431,6.695218395629974,-3.234900501314417,-8.494106369269831
9221,2009-03-31,-7.861190407098277,-3.847014816715852,0.5305095657980259,-2.3490128302393813
9221,2009-06-30,-7.899924795096054,-5.360837875695422,1.065464496052472,2.7147879277429894
9221,2010-06-30,-20.482375727714306,-20.06986242554519,-9.758374159973902,1.8437141624820832
9221,2011-06-30,14.746242173216492,-8.047015145382016,9.36978103155181,-6.30937208919751
9221,2012-09-28,-11.39777993676934,0.9005829635557511,4.096503399388855,3.979103297634774
9221,2013-06-28,-18.277926667760823,3.062590569063084,-2.289027404750594,1.9051861566936896
9221,2014-06-30,3.199777697760563,1.9105844334779354,4.176558705436907,1.982105235806788
9221,2015-06-30,11.067370988801791,11.050007927078774,5.7026095484632435,0.5959034741579039
9221,2016-09-30,-10.544104686174906,-4.950547115686444,-1.1345720195563769,4.728655827545037
9228,2007-06-29,-11.628512991420914,-35.55641800624253,-4.141618984014146,1.907431131066481
9228,2007-09-28,-0.4147820668268132,-29.796857669138394,-3.4308756686807915,0.3864719241493031
9228,2008-06-30,33.73781017926076,2.34933623918074,2.100430073538215,-11.078216925832976
9228,2008-09-30,28.909634704754907,90.60533342675019,3.9081117908770397,-12.298385640269606
9228,2009-06-30,-10.813581769870206,69.05821201810744,3.1498594421265658,3.7719468382143244
9228,2010-06-30,-13.83804852058857,-33.98707043387859,-1.3982621109451543,1.7311928061741515
9228,2011-06-30,2.2086498993925563,-13.19736537960966,-0.5926870802199099,-4.941337696924748
9228,2012-06-29,-6.795730450510793,-4.706163019955172,-2.399385497514447,3.9638752038064844
9228,2013-06-28,-13.677165761715464,-17.520440564789737,1.0086147027004198,4.188298213741939
9228,2014-06-30,-6.016399374747972,-21.91983921993684,-1.495478013057587,3.559835444415288
9228,2015-06-30,1.4153541572770685,-10.553334715961265,0.6926734389996754,3.1934168355573274
9228,2016-06-30,-3.087228005005056,5.224607325471119,2.5986179061887875,5.615471865902233
9232,2007-06-29,-4.285209865137542,0.8923150627912584,5.361363883462149,2.0924630576364898
9232,2008-03-31,16.286493257641347,3.421583526578045,5.567149986680619,0.3852937216933352
9232,2008-06-30,46.169135405941155,74.7616842877207,8.987725100180498,-13.603065667961715
9232,2009-03-31,-3.8955279928268567,3.6992959237110448,0.06720764558128245,-0.9819336219519972
9232,2011-03-31,1.4668692404888617,4.335460377931196,-4.024142961954524,-3.63451488531253
9232,2012-03-30,-0.36978992254421605,0.3195025850554001,-4.346996276409491,2.1996859169088143
9232,2013-03-28,-23.416466588620715,-11.799446558111043,-0.8332839652454003,3.8141464462287065
9232,2014-03-31,-18.0773888508754,-18.734033310230963,-5.085685419647648,5.262428125443762
9232,2015-03-31,0.5333139562441218,-9.854075509539111,-1.8612145054472955,2.524071217531759
9232,2016-03-31,-14.411428640311229,-47.04228638590891,-3.8321234872013354,1.9414256897835394
9246,2007-06-29,18.086457983210217,-5.274355791549091,2.0203202775547164,-2.159660971026957
9246,2007-12-31,-7.204022914933717,-2.5102177097451746,-2.630602418160901,-1.5545818354785084
9246,2008-06-30,-29.321968204795596,11.164563773600529,-0.32870587189433387,13.308945256204902
9246,2008-12-31,-12.733168086894274,1.4901703340042438,-0.23164213797541877,1.839367294840148
9246,2010-03-31,-8.535344885947094,-2.1502393648401483,-5.342200758100297,-2.874718879928574
9246,2010-12-31,10.389387092558085,2.6378640252705186,4.774327978968532,-2.8809186691989943
9246,2011-12-30,8.943309979421741,5.94231943460452,1.227171502004742,-1.5353046835598274
9246,2012-12-31,16.22332949115544,-16.929474009178822,7.302459307274466,-2.028350812104101
9246,2013-12-31,2.5781226838494096,-0.394990741755727,-2.216597244768614,0.16972488069784397
9246,2014-12-31,2.818079627063544,-6.338589845099463,1.447518842887404,-1.0357303427700586
9246,2016-03-31,-1.2441827646881478,12.36294989468607,-6.022049477791522,-1.2487712376756672
9263,2007-03-30,-2.3487919670425037,1.770720129608316,-6.5576517995650985,-2.651834564150887
9263,2007-09-28,15.021658430519238,6.2554760531324645,-1.4879561045933585,-1.9052105983018208
9263,2008-03-31,14.138567082633944,-24.5199764500411,-1.803092935015825,-1.422080750430819
9263,2008-09-30,38.58440767758573,-11.15137459559677,0.3707772295882201,-7.85431878448505
9263,2009-03-31,-24.178468353209055,-29.52390742526523,-3.5706496022240835,0.9876830843198166
9263,2009-09-30,-21.53843263653571,-15.933404707041326,-5.786598343638113,-0.3973323156846096
9263,2010-03-31,21.513970657273415,2.284011035837854,12.627392299815561,-2.840586162609828
9263,2011-03-31,30.229294069818977,6.292774681008655,14.53007025448906,-2.5496920862544297
9263,2012-03-30,4.638938001423883,85.26651917621851,10.990753330843544,2.1309770673626236
9263,2013-03-28,-45.810746175420476,-22.487523817955886,-20.632549125296567,4.000167948426517
9263,2014-03-31,-7.443955059579936,19.415883676734175,4.466513844588706,1.8200254013709891
9263,2015-03-31,-14.862053421603079,-31.03131844753252,-17.49917799977795,6.751246557500799
9263,2016-03-31,-7.944388305865036,13.362120690889867,14.352168950784376,3.9309552029368966
9299,2007-09-28,1.9449453740208797,-4.3615635809253055,1.297492109165781,-0.5794988102132006
9299,2008-03-31,2.585080674157018,25.614024852601986,6.968647904595237,-3.6038886485446344
9299,2008-09-30,-42.474117463726735,-6.638309842844621,-4.766560443363062,18.87228710957082
9299,2009-03-31,8.051166169429873,-24.99074932659238,-2.3083573458252227,-7.0969453483987675
9299,2009-09-30,8.032521753792953,-36.43277252562385,2.0157432178398036,-2.635062513266181
9299,2010-03-31,-3.85610025992215,27.66825667452079,-4.1028843284957786,-1.3381009803984405
9299,2011-03-31,10.616407549151724,12.769438768386046,5.287962867389891,-0.2759493126882546
9299,2012-03-30,8.595392765430553,23.60207545704155,1.4565201810996988,-0.6356872241938234
9299,2013-03-28,-2.6933275103520335,23.3192614545149,-1.6759493322019843,-0.9573305282110258
9299,2014-03-31,16.81771955965443,2.823217996833586,3.3690579240259937,-2.3749405011688136
9299,2015-03-31,-7.023637878015364,-35.40863026450269,-3.415832077629097,1.6007569921779083
9299,2016-03-31,-0.5960507336216239,-7.964249663412433,-4.1258406766025395,-0.9756402346654056
9498,2007-03-30,12.843085469489523,8.078176599333025,-0.660143854037107,-1.768377038567344
9498,2007-09-28,0.08066322485794819,2.1900384967434317,5.7945934420877,-1.234556163219784
9498,2008-03-31,-5.617323148745777,17.288692616513725,2.1932885987058253,-1.8652921028227052
9498,2008-09-30,-54.32069311570494,-2.118935377295831,-0.6293735718066378,18.207352625010977
9498,2009-03-31,22.086697933047994,6.746712980995307,-8.499285623165843,-3.5832371609461457
9498,2009-09-30,4.221687190159818,-13.04389235574633,-1.8743315842900508,-1.7669365760155031
9498,2010-03-31,3.1503746026877435,-9.06228063676952,0.28600242250583296,0.5710921083839651
9498,2011-03-31,-10.13649587469728,14.161552602995165,-3.804180392727818,3.921253798691872
9498,2012-03-30,2.3096568921902163,3.2885671620106978,0.0206845987416453,-2.6132958789921883
9498,2013-03-28,6.106733098489504,14.859054569560422,-0.6529703385642471,-2.4757978214401533
9498,2014-03-31,8.898983313635151,0.4111775854746753,-3.458434672579098,-2.0528291261811358
9498,2015-03-31,-0.37241455876111784,-5.591571188192069,9.00709895339146,-0.25451122837166373
9498,2016-03-31,10.749044973350728,-37.20729305562564,2.277052021736922,-5.0848654355300145
9499,2007-06-29,-1.174440869917822,8.066942470405909,5.4542900637158525,0.19402413923525685
9499,2007-12-31,11.254253207377712,-15.215138030589198,-7.129508231789856,0.8864875801177252
9499,2008-06-30,44.24075791401089,7.480279454526261,8.780924532623395,-11.168265753327832
9499,2009-06-30,-9.786178963757706,7.10817454685966,1.0149339548091625,2.524379688087272
9499,2010-06-30,-19.301406466419593,-20.913940493864136,-0.6997774654192499,2.2483574158227686
9499,2011-06-30,8.743384879264545,-13.881551101066508,1.8982737068934914,-5.014255904397414
9499,2012-06-29,-6.773180473050922,3.541573671743289,-2.953251549903791,2.193215076213553
9499,2013-06-28,-18.139787124677042,3.258004243090266,-5.117679438847059,3.656527608124854
9499,2014-06-30,-4.0900035305475395,0.9643885225168694,-0.5023292366829809,1.22085077638957
9499,2015-06-30,0.961333225195478,8.176537354208342,-2.937671171570207,0.5024138615640172
9499,2016-06-30,-5.93473179747844,11.414729362166698,2.1917948361700215,2.7562655121704402
9589,2007-06-29,-7.39628187034384,36.95195516682161,-1.6861088909977826,0.6165127656670784
9589,2008-03-31,10.519194186212195,-24.218311317186078,-7.001201463357459,0.09040106830097727
9589,2008-06-30,42.23438728572459,5.498271323028734,1.70473504253326,-10.562122656847205
9589,2009-03-31,-6.377371404523949,-10.800059175440031,-3.192200096393071,-2.2274082578488033
9589,2009-06-30,-11.875802316242158,-2.4894117976030645,-1.4617552895026855,3.284434844711134
9589,2010-06-30,-20.734443727743503,-11.60096076116309,-7.4130271199181035,1.8036532277384687
9589,2011-06-30,12.836478867005626,-5.252508972413903,7.620488396452924,-5.786230706944835
9589,2012-06-29,-7.262193561078304,-1.7316457471405804,0.06153006420325924,2.6915517175635095
9589,2013-06-28,-13.007877033562421,-0.23164811950151165,2.1724328124077616,2.03819589102131
9589,2014-06-30,1.7167470056235086,3.0422188294875703,4.4461564548548775,2.6203381058966873
9589,2015-06-30,9.550919011372336,8.421933699704173,4.6088267719718505,1.0740791829626026
9589,2016-09-30,-10.203756442444696,2.410166871403292,0.14012331774377818,4.3565948177792695
9630,2009-09-30,3.3430039052563956,-5.937883854795796,-3.807442186439133,-1.9881169012774844
9630,2010-09-30,-20.406881486822236,-4.090623209898309,-13.052780372062932,4.362479343457743
9630,2011-09-30,7.4815605679639114,0.39412825744224733,11.236056143568913,-2.2045271682637626
9630,2012-09-28,-5.261482649653907,7.883443451279009,0.9119893591576406,2.81385443828591
9630,2013-09-30,-10.591724289792708,-6.984788483676358,0.8784590076843246,-0.848721402381349
9630,2014-09-30,3.1903858052936425,8.521113748419145,2.1014101775485647,-1.246957839754666
9630,2015-09-30,28.46021944200589,0.1377933112907579,9.595246475226263,-3.4870688380708845
9630,2016-09-30,-6.215081294251356,0.0768167799373527,-7.862938604684553,2.5990583680046413
9688,2007-03-30,-3.2017925569669643,-20.015203024435884,-0.25540585762871393,1.1169275277657942
9688,2007-09-28,14.806413701145736,-26.55967407630682,7.605230382231104,0.06735849268978633
9688,2008-03-31,10.046306838485012,-41.7337246286511,0.5466494600097622,1.353800517384654
9688,2008-09-30,37.76242153908612,1.970727117401422,6.3887712292394365,-12.473929703590288
9688,2009-03-31,-9.344980001070624,-68.17728806750257,0.3016629751611548,0.43436784711083387
9688,2009-09-30,-11.268690606498035,-51.24744161257837,-0.3531192635699574,1.938294087524783
9688,2010-03-31,4.2850133311840075,-19.551570004500313,1.8917790286048664,-2.306928494636603
9688,2011-03-31,4.059219194991549,-33.68345473987247,-0.7476860251052568,-3.758483660385105
9688,2012-03-30,4.391215607793413,-17.62021861358195,2.95379165790817,2.0178069445228317
9688,2013-03-28,-30.824759460664488,-45.40652588562459,-8.341913540614357,2.7180463146439884
9688,2015-03-31,-2.623701999945766,135.35405773965675,-4.48009580346872,4.99706166127851
9688,2016-03-31,-18.086665587540374,186.67031579599322,-5.509664242768807,3.8956784656910397
9709,2007-12-31,-0.300393495564089,15.045200909489813,2.5386349095110408,0.374626828575936
9709,2008-12-31,-2.4863930154807043,17.581873312285516,-0.9948680395206764,-0.16167707001648424
9709,2009-06-30,2.7867865110446806,-32.627074221775956,-1.543766869990702,-0.21294975855940024
9726,2010-09-30,8.833875668979285,21.037103797323304,17.322185674834724,4.2401199192375945
9726,2011-09-30,-24.35480232241565,-35.50228951625209,-12.129876843268669,-4.12425538005728
9726,2012-09-28,15.520926653436234,14.465185718928133,-5.192308831566399,-0.11586453918026862
9882,2007-06-29,15.53347008240207,4.590602476581111,0.5486772687793806,-1.959684642817166
9882,2007-09-28,-6.618736431092932,-10.582237339849842,1.98044205956333,1.1724130152510295
9882,2008-06-30,-36.539851433743344,-11.08430653960288,-2.029515331551772,0.41341551668619836
9882,2009-06-30,3.222657210423435,-22.47590205480424,-3.412988366643592,-1.708162816382373
9882,2010-06-30,-5.1951915860004885,-2.0361266507745546,0.9743253501162221,5.463028045436934
9882,2011-06-30,-8.018150932258344,-17.95546275782931,-9.171340526071887,5.678324322490232
9882,2012-06-29,-9.92479898501514,-14.430963847595837,3.4190952027884243,0.18651451803039443
9882,2013-06-28,31.440407549253035,24.212156051344856,7.862108413818566,-1.97829653692086
9882,2014-06-30,17.3140570681385,25.79977011222183,-0.7654141706010084,-4.00641396701392
9882,2016-06-30,-1.213862542107166,23.96247055030676,0.5946100998012429,-3.2611374547603518
10957,2012-12-31,-8.406687335429666,-35.868840516498054,-2.364035919532128,1.1584959446468144
10957,2013-09-30,-5.710123156206546,5.206142637693834,-3.557620467537366,0.1374347218864731
10957,2014-09-30,1.6680373226748806,7.138468340815141,0.9627030572732203,0.5043415995457288
10957,2015-09-30,2.43464991232751,4.2456185272987765,3.628953843883867,0.8233467048192669
10957,2016-09-30,10.014123256633605,19.278611010689158,1.3299994859118605,-2.623618970898187
10960,2008-06-30,-41.65538865606395,-46.67414170799279,-27.326392805587055,1.8056784959729129
10960,2010-06-30,25.45688090748672,3.8616447221435544,18.363044857947177,-0.4105028955245924
10960,2011-06-30,-16.406080792322477,22.07435430081208,2.46707189549505,5.602625558163249
10960,2012-06-29,7.502436901242122,19.733918083120088,5.7773484872252,0.045943812832572206
10960,2013-06-28,15.627862119814177,10.656020053560402,9.22905679397825,-4.306293721858384
10960,2014-06-30,9.474289519843168,-9.651795451644688,-8.510129229059281,-2.737451249585675
10961,2008-12-31,18.45251426863765,24.34853420217125,-3.129660028754913,-4.133462793550915
10961,2010-09-30,-11.687886412976283,-16.657374260074775,-2.143280332880589,2.307543243890393
10961,2012-09-28,-1.831049920051358,-7.140695995371976,0.29095457662381136,1.6796754896239943
10961,2013-09-30,-7.9802223352617325,10.530884034531145,0.25979861905936297,0.777385975480307
10961,2014-09-30,3.046644399651546,-11.081347981256716,4.722187165951782,-0.631141915443683
10964,2008-06-30,-23.732850548005565,-46.703319247905874,-25.379547233156796,-2.6382771351734196
10964,2009-06-30,9.383458961725678,-2.070334315677414,7.744248349715541,0.5977817177531808
10964,2010-06-30,5.122133576518598,7.017018255933582,5.590333365422131,-1.3432414084283142
10964,2011-06-30,-7.646636794067825,-3.4991516077402824,-0.34322568968257755,0.6520885861110575
10964,2012-03-30,6.981218526334825,5.095747894010084,0.12163874596547913,1.572653761913628
10964,2013-03-28,4.482618982874291,43.86725390180541,9.099803321637022,0.7868030891598004
10964,2014-03-31,3.581551969429757,-2.464557030664345,0.4777887620141375,-0.19945507755478076
10964,2015-03-31,1.8285053251899193,-1.2426578497628675,2.6889603780841873,0.5716464662189829
10970,2016-12-30,-4.085620730620576e-14,-2.2026824808563106e-13,-1.1113332476497817e-13,1.4210854715202004e-14
11397,2009-03-31,-7.302420046467233,-13.560252358840945,-0.9612165209655199,1.0035442324289683
11397,2010-03-31,2.1327805081938465,6.039985316670266,1.3215796728388396,-1.2590749305747622
11397,2011-03-31,3.751635215630735,12.99236301441944,0.4948974246139761,-2.237994412313693
11397,2012-03-30,1.4180043226425028,-5.472095972249673,-0.8552605764877317,2.4935251104595597
11582,2010-03-31,1.0930353718878134,-9.474762451054795,2.415190519778142,-0.45537867682898714
11582,2011-03-31,-3.082088173206774,-5.036892108415909,-0.7978419084139212,-2.619364542219648
11582,2012-03-30,1.989052801318838,14.511654559470035,-1.6173486113645474,3.0747432190486776
11755,2010-12-31,4.313597787087742,5.632503171015449,4.645361097320151,1.3487031177082542
11755,2011-12-30,-4.313597787087822,-5.63250317101587,-4.645361097320377,-1.3487031177082187
11808,2010-03-31,-4.085620730620576e-14,-2.2026824808563106e-13,-1.1113332476497817e-13,1.4210854715202004e-14
11840,2010-03-31,-3.165873397859695,0.5043826479215041,-3.2274524476009274,-1.3095800857813842
11840,2011-03-31,0.42418091271289704,-0.23714829601441823,1.810774638429697,-1.8905807078961292
11840,2012-03-30,2.741692485146669,-0.2672343519078173,1.4166778091708983,3.2001607936775684
11866,2009-09-30,0.3340639714461666,3.528682326063361,15.119353353796006,3.5262675450060925
11866,2010-09-30,-26.636928525802908,-19.563763229115544,-14.909702909590788,-2.6521894044281105
11866,2011-09-30,26.302864554356628,16.035080903051583,-0.20965044420553847,-0.8740781405779341
11943,2008-06-30,-33.271057739745586,-4.0881021212097295,-10.186512322632938,10.948908500231454
11943,2009-06-30,14.792711370081907,-24.691868667014823,5.7008196012917844,-4.88018305091448
11943,2010-06-30,23.582064569522917,20.64048737980224,9.591149075052083,-6.3113936459851185
11943,2011-06-30,-5.103718199859403,8.139483408421395,-5.105456353711384,0.24266819666819295
11975,2009-12-31,-1.3574288446878313,13.548838069240645,-0.31229433588271693,-0.24381697765258892
11975,2010-12-31,-4.716191905700622,-0.19883529041129755,2.434203782421169,0.0682786652794043
11975,2011-12-30,6.0736207503883275,-13.350002778829992,-2.121909446538787,0.17553831237324502
11977,2008-06-30,-12.215481464701263,7.903268636929896,-3.102354155282699,0.6636769185224001
11977,2009-06-30,5.721719388302628,8.441368001448623,-0.0759493076757855,-3.92073290033772
11977,2010-06-30,-1.1298434870500698,-1.7676998501041783,5.175589962838358,2.709098013664386
11977,2011-06-30,7.623605563448531,-14.576936788275313,-1.997286499880327,0.5479579681510067
12082,2008-03-31,-6.169940949275398,-18.027390564336045,2.757290990626926,-0.8286776857379028
12082,2009-03-31,14.566740117222803,29.170395991556592,-5.2316342707289,-3.3600518060389586
12082,2010-03-31,-2.7222236513652946,16.720878228644636,-0.52018651415096,0.6367871448907678
12082,2011-03-31,-6.407487372404624,3.3539338295259533,-0.04600745120907446,5.551688995032116
12082,2012-03-30,0.732911855822266,-31.217817485392285,3.040537245461447,-1.9997466481459476
12086,2009-09-30,11.280344436480643,42.800639179787574,-3.7353849749242616,2.3777247218640376
12086,2010-09-30,-10.523764558850525,-29.54094367085364,-1.232184266947399,0.1905543409052246
12086,2011-09-30,-0.7565798776302479,-13.259695508934575,4.967569241871336,-2.5682790627692107
12675,2008-12-31,17.8543433959357,-28.749263874807195,4.791217094240058,-3.4103005266821684
12675,2009-12-31,13.69408817520807,14.737172035414035,3.3172522733591903,-3.992550726382447
12675,2010-12-31,-18.710186452994023,-7.086861181835966,-4.7001959434895415,2.882175496008042
12675,2016-12-30,-12.838245118149908,21.09895302122824,-3.408273424110156,4.520675757056637
13692,2016-03-31,1.2890053557969425,-26.363842180489634,0.2899729539714353,-0.9631738610432379
13692,2016-12-30,-1.289005355797027,26.36384218048922,-0.2899729539716547,0.9631738610432752
14030,2012-03-30,1.8033917229716656,22.773003372598282,-1.0457246821579407,-1.4019623043915121
14030,2014-03-31,-8.516217107644076,-8.63655542219921,-0.9163326812998006,0.8740173826660413
14030,2016-03-31,6.712825384672293,-14.136447950399706,1.9620573634574043,0.5279449217255241
14095,2014-03-31,-4.085620730620576e-14,-2.2026824808563106e-13,-1.1113332476497817e-13,1.4210854715202004e-14
15113,2008-06-30,-9.70719064678782,42.13780439137977,9.977769516961441,13.94586574710009
15113,2009-06-30,14.561836474244297,49.16235358976855,0.1301394424458031,-4.620121347209736
15113,2010-06-30,10.255493878476178,16.700402060171815,-1.6322992590357206,-4.475964294307616
15113,2011-06-30,-9.578995684721914,6.267926611148102,-0.22803181962505814,4.848060164604238
15113,2012-06-29,-2.30549940623177,10.849614262690281,-7.2735281995248275,-3.007413153972502
15113,2013-06-28,24.746154757304147,-30.430984620931614,6.990752451537446,-5.412432293642452
15113,2014-06-30,-10.414049605553135,-54.368348467738386,0.2733082837694736,-1.2894912458389882
15113,2015-06-30,-16.172119591397802,-27.210131059004006,1.0613069396317814,1.0152893606128206
15113,2016-06-30,-1.3856301753325528,-13.108636767486509,-9.299417356161335,-1.0037929373456418
15270,2010-03-31,-4.085620730620576e-14,-2.2026824808563106e-13,-1.1113332476497817e-13,1.4210854715202004e-14
16292,2008-03-31,3.2675785300866496,-49.866496503324946,0.5207926400173726,-0.9728337247058949
16292,2009-03-31,9.56176148698501,-0.5619272030259062,-5.677138796686543,-0.777986319635481
16292,2010-03-31,-4.2672142707559555,1.8176843993376748,4.588833176092026,1.1930837788980408
16292,2011-03-31,-17.30951091451494,43.48336844818754,-4.232900945262197,3.4766078540340732
16292,2012-03-30,-8.040278004255553,22.271922523103473,-3.567626700760711,-0.03604115263680363
16292,2013-03-28,20.637987935218284,17.489650821724695,9.513624811934466,-1.782430996342022
16292,2014-03-31,-3.850324762763745,-34.634202486003986,-1.1455841853351814,-1.1003994396117758
16293,2008-03-31,-0.615756713396947,-29.425941699748876,4.063002526875945,1.036637117670674
16293,2009-03-31,14.748176193586776,17.59215730337948,-5.06519443468758,3.182814686474618
16293,2010-03-31,-12.894707188945894,-12.902216537589783,-5.01307924816476,0.40336152092505806
16293,2011-03-31,-14.760022447957258,-15.47707519836788,-1.8964932803195504,3.1066640211461447
16293,2012-03-30,-1.1063261479819948,-2.112227133939946,0.4174818145174877,-0.8450150958350378
16293,2013-03-28,9.635301587043607,-15.060219577632987,4.703437284731461,-0.30990130340706656
16293,2015-03-31,-6.694530705460937,41.23963997393369,1.8603981015106061,-2.976985559617793
16293,2016-03-31,11.68786542311225,16.14588286996451,0.9304472355354809,-3.5975753873564535
16295,2009-03-31,14.848535322057895,7.084471959139647,5.639160908471669,-3.489031954306368
16295,2010-03-31,-2.441487518027529,1.9469548509976016,-0.5445622745634626,0.17122891968480403
16295,2011-03-31,-12.407047804030487,-9.03142681013793,-5.094598633908539,3.3178030346216065
16722,2011-09-30,-1.576049333525921,5.296961646582578,1.6090295261492746,3.2586605052973745
16722,2012-09-28,1.576049333525848,-5.296961646583036,-1.6090295261494965,-3.2586605052973336
16736,2008-09-30,7.250923618009818,35.105565127589884,15.813880848371486,2.2546844687861096
16736,2009-09-30,-7.250923618009903,-35.105565127590346,-15.813880848371703,-2.2546844687860865
17890,2015-12-31,-8.489248396051261,-6.451262433417734,-5.721650139667846,0.8336096272061493
17890,2016-12-30,8.489248396051183,6.45126243341732,5.7216501396676245,-0.8336096272061155
18010,2014-09-30,-4.085620730620576e-14,-2.2026824808563106e-13,-1.1113332476497817e-13,1.4210854715202004e-14
18084,2011-12-30,1.652368427934614,14.535708428100348,-0.2385116901816846,-0.9856896957797954
18084,2012-12-31,7.1132752477197645,-23.976343771120753,5.826615140222409,-0.8381066281258533
18084,2013-12-31,-8.765643675654506,9.440635343019775,-5.588103450041052,1.8237963239057002
18132,2010-06-30,3.8004378978605002,51.947813947609575,9.785830118640426,-0.32609661689969016
18132,2011-06-30,12.692701549991542,0.40679346319468124,1.5718167983747384,-8.195171570993669
18132,2013-06-28,-22.139196997267515,26.297099806223322,-17.437813588548373,6.113575038725706
18132,2014-06-30,-2.2616714770561064,27.22841714322178,-2.5684170320699615,1.1522444841861486
18132,2015-06-30,-3.652646941414668,-51.94019433918422,-3.2514776782902617,-1.1901014132386987
18132,2016-06-30,11.560375967885983,-53.9399300210665,11.900061381892774,2.445550078220302
18190,2009-12-31,-12.429697947669151,-16.2969772102146,-10.226727677188363,2.0101590861003373
18190,2010-12-31,-9.290931616659421,-27.135812724201937,-6.890175153383017,0.5444660416012965
18190,2011-12-30,-1.0989410864664624,-18.397007175151547,3.7857641180674872,-2.9566695401243344
18190,2012-12-31,10.71089094858765,107.92407835531733,11.124353999217796,1.4674067628059362
18190,2013-12-31,5.560504284303864,-4.569361958363293,5.540021395319151,-0.4717998319475871
18190,2014-12-31,-5.548322275798086,19.92882116861988,-4.572638301405057,0.7408567518928351
18190,2015-12-31,8.63371977472604,-35.490228594228455,2.370268285817359,1.4780161992023402
18190,2016-12-30,3.4627779189751995,-25.96351186177931,-1.1308666664462605,-2.812435469530671
18359,2012-06-29,7.675835933695383,11.513424903261573,3.641078699763686,-0.17983154193690432
18359,2013-06-28,-13.287165860423954,-1.4161575029130615,-6.987155395638027,0.7537803616962098
18359,2014-06-30,5.611329926728445,-10.097267400349157,3.3460766958740096,-0.5739488197592593
18769,2008-03-31,-3.9243227970085157,-6.519979616369878,12.186918826273288,0.511319325141887
18769,2009-03-31,10.353106016691019,-6.913733023126192,-10.086965491164404,-2.41060264338571
18769,2010-03-31,-6.428783219682625,13.433712639495374,-2.099953335109221,1.8992833182438904
18822,2011-03-31,0.7834092112681947,-5.044668311099192,0.10549696425849542,-2.650671776134061
18822,2012-03-30,-0.7834092112682898,5.044668311098736,-0.10549696425872479,2.650671776134093
19097,2011-03-31,14.8889009364977,12.755639439043778,-3.2890897402228942,-3.677296222045223
19097,2011-12-30,-13.300143506793216,-12.90954533693475,-3.2754992551880764,3.793181626005074
19097,2013-03-28,6.370721413422938,4.567240472605528,0.06336426960411057,-0.44004690979192773
19097,2014-03-31,3.679015049997493,29.095252280433762,1.6073017388084216,1.1528937342543415
19097,2015-03-31,5.150464162853731,-6.32942269331969,1.8316031078342474,-3.2929532594239213
19097,2015-12-31,-13.066494629950437,-11.865111160702536,0.05245096429090379,-0.1377149275699825
19097,2016-12-30,-3.722463426028474,-15.314053001127558,3.0098689148725315,2.6019359585717297
19400,2008-06-30,-14.613787184303362,-33.382355843665415,11.436184637055804,5.100696926987034
19400,2009-06-30,-7.009526707146907,-36.083313598405034,-2.7577268116975633,-1.1212435790673183
19400,2010-06-30,-7.5288211419951026,2.238943366025963,-7.433297137535753,5.71769398226539
19400,2011-06-30,-6.300388241935098,6.252482591755218,-1.3350577316063035,4.4730404405374244
19400,2012-06-29,-2.532973968236809,11.385169037634455,-3.7098702124389717,-2.025138159306106
19400,2013-06-28,12.06435798095231,13.614099914732925,0.035267545701973546,-1.6287979688659444
19400,2014-06-30,9.881155610085802,-6.488187182783957,1.4928904091244624,-3.5473779154857628
19400,2015-06-30,8.9431392868503,30.394376617214483,0.5223219717022256,-2.4126206609122622
19400,2016-06-30,7.096844365728551,12.068785097489409,1.7492873296931508,-4.5562530661522835
19759,2011-09-30,3.783674257604159,26.02179339827652,-0.9782186850354786,-0.5762459891397125
19759,2013-09-30,14.810004088272533,-7.668931460927654,6.74242163909512,1.979237303240641
19759,2014-09-30,-1.0571380794430354,-19.721698216553744,-0.4420618750794082,-1.2249910140504916
19759,2015-09-30,-14.224122100546186,13.197081648856633,-6.941967506621178,-0.40732100625858614
19759,2016-09-30,-3.3124181658876783,-11.828245369652876,1.6198264276403833,0.22932070620822742
20126,2008-03-31,-7.7040038684531,2.107038264044249,3.7495723235247858,2.5022544145085455
20126,2010-09-30,17.649604364184512,0.5718902659976228,5.7914464445886,-2.1877238589551133
20126,2011-09-30,-8.366200190641473,17.716998300930385,-3.7683251112169343,5.360424725599078
20126,2012-09-28,-0.7890510246092504,-14.937229085559556,-5.023815635707384,-1.872582455989983
20126,2013-09-30,5.5991899413286905,17.32663763202162,0.5056780145787976,-2.676768429081207
20126,2014-09-30,-8.000478523592934,12.58413261822048,2.299731643320595,0.8785181940477589
20126,2015-09-30,2.477504755532224,-23.971476392036802,4.18362966618898,0.03993697405179475
20126,2016-09-30,-0.8665654537489713,-11.39799160361976,-7.737917345278332,-2.0440595641807047
20245,2015-03-31,3.2052495239346754,1.0676099492824536,-3.664680531528515,0.3825414130858338
20245,2016-03-31,-3.2052495239347607,-1.067609949282934,3.664680531528288,-0.3825414130857965
20357,2013-03-28,-1.2016049090257548,8.965066557568932,1.8755961619392298,-1.3398827565231084
20357,2014-03-31,1.201604909025665,-8.965066557569402,-1.8755961619394483,1.3398827565231404
20597,2008-03-31,-16.334881397261583,9.781905250331253,-3.6904344396088318,-2.8460842459495623
20597,2009-03-31,45.19064049786341,39.43591759639594,4.343658450135345,3.492301843366249
20597,2010-03-31,-3.1590496682019524,-31.650807410486465,7.065901309052108,2.0961679229204293
20597,2011-03-31,-25.2333049976885,0.2694502048639045,-9.998839934638704,3.475348116827538
20597,2013-03-28,-0.4634044347116002,-17.836465641105796,2.2797146150595173,-6.2177336371645415
21434,2016-03-31,-4.085620730620576e-14,-2.2026824808563106e-13,-1.1113332476497817e-13,1.4210854715202004e-14
22060,2008-09-30,-4.085620730620576e-14,-2.2026824808563106e-13,-1.1113332476497817e-13,1.4210854715202004e-14
22099,2011-12-30,-4.085620730620576e-14,-2.2026824808563106e-13,-1.1113332476497817e-13,1.4210854715202004e-14
22119,2008-06-30,7.627498106183946,12.183230741916825,24.418806009826458,5.8115717880904345
22119,2009-06-30,-2.05167805796526,8.581316090336493,-2.0450313395894115,-4.928701930994727
22119,2010-06-30,16.70728548446817,13.137028984430389,-7.149355855591149,-6.5310966801220705
22119,2011-06-30,-7.599205902833751,-22.759134316373142,-12.311201997341508,4.481064074907879
22119,2012-06-29,-4.498509374821181,-14.589764903482651,-9.299457015325824,-2.784386886136323
22119,2013-06-28,19.443430398662798,-7.4997304901130395,0.5283374586329197,1.4211331424518807
22119,2015-06-30,-13.81489809554456,17.625401305698993,10.526306166470256,5.727843209107043
22119,2016-06-30,-15.81392255815054,-6.678347412415558,-4.668403427082637,-3.197426717304001
22382,2008-06-30,-4.085620730620576e-14,-2.2026824808563106e-13,-1.1113332476497817e-13,1.4210854715202004e-14
22638,2008-09-30,-24.902710404425598,-15.730818648170722,-3.394326396057004,8.602812149914133
22638,2009-09-30,24.902710404425513,15.730818648170281,3.394326396056776,-8.6028121499141
23964,2007-06-29,-10.628889439027065,-25.234703969642815,-1.750066363132051,1.7580526907097411
23964,2007-12-31,-3.74983679688006,2.68015483084371,7.2214757404392955,0.2934674267849271
23964,2008-12-31,-21.08729656219857,-14.671313973654998,-0.43504688798961233,5.866073095409508
23964,2009-06-30,12.495548444107992,28.40917137823231,-6.124924482270245,-2.2632793949802554
23964,2009-12-31,0.09303861714882355,-11.989032894441134,7.221769739711471,2.2262086179347396
23964,2010-12-31,3.365979658227247,-8.150576431317194,5.188978660675206,-0.9978877447096881
23964,2011-12-30,-2.4693253886038207,21.41571684291639,-3.6918635359450764,-0.2367927285360789
23964,2013-03-28,20.36925374664235,-14.789811124527649,-3.752575204492538,-3.8439468174640847
23964,2013-12-31,-1.6479762209726294,-5.354116329696031,-3.270189887454463,-0.3119855288913591
23964,2014-12-31,-1.4733250924785675,13.019395507184319,-1.5882838731754845,-1.7436095509273386
23964,2016-03-31,4.73282903403378,14.665116164100668,0.9807260936322608,-0.7463000653298923
23995,2009-03-31,-4.085620730620576e-14,-2.2026824808563106e-13,-1.1113332476497817e-13,1.4210854715202004e-14
24041,2007-09-28,-4.085620730620576e-14,-2.2026824808563106e-13,-1.1113332476497817e-13,1.4210854715202004e-14
24110,2010-03-31,0.8622004812088111,1.0290140070371647,-0.45600331844779163,0.9010881060305582
24110,2011-03-31,-0.8622004812088857,-1.0290140070376135,0.4560033184475718,-0.9010881060305245
24500,2007-06-29,7.337377917710795,-19.8074498598153,-1.6503174786916786,-2.173821598930312
24500,2007-09-28,4.4445830566982565,-12.897776819449941,-0.42903736178613594,-4.776275125992365
24500,2008-06-30,-24.97665702804641,-25.782213111156267,7.338844922424748,9.583622315887794
24500,2010-06-30,5.269800215674724,19.798528986105946,-7.195454176768439,-2.185019712021944
24500,2010-09-30,7.924895837962442,38.68891080431443,1.9359640948209393,-0.44850587894308447
24644,2007-03-30,15.534986863279544,-6.199808917433277,4.0132520067987985,-2.029963333382142
24644,2007-09-28,8.403291652472095,-4.622012115797718,10.555143221447056,0.46579505956466605
24644,2008-03-31,-3.164295480623556,47.405038451039005,-1.915287481230764,-2.4559990962868916
24644,2008-09-30,-41.98153251445047,-11.320585801026873,-1.7242625645382648,13.494684289521548
24644,2009-03-31,13.119391227499957,58.00728893409341,-3.548928859568405,-3.588913087150507
24644,2009-09-30,-2.469323586630571,-3.849389280572238,0.6025387089785692,-0.3760434675207769
24644,2010-03-31,0.08986909683460986,12.00026275735588,1.0327259317938933,-2.318441149592143
24644,2010-09-30,12.208042179120614,-15.347643410825826,-0.5156009537579049,-1.2970588441873545
24644,2011-03-31,-5.3626948629535,2.373316620335032,2.009865565175704,1.6385400888307426
24644,2011-09-30,5.807261991038478,0.9710350106559318,-1.3739913149067684,1.776246399032697
24644,2012-03-30,-5.175844642989862,-38.787921897943335,-2.730642715153699,-3.601056671472506
24644,2012-09-28,2.9908480774021875,-40.62958034988267,-6.404811545039532,-1.7077901873570926
24668,2007-03-30,19.036725187072108,-7.548687038004797,11.837275818638647,-2.2346921132443764
24668,2007-09-28,-16.674528801723756,64.9893092589746,-8.905254208603424,2.659495661107057
24668,2008-03-31,-20.07990392020689,-41.06242766384248,-4.159717767285073,0.18626210566164403
24668,2009-03-31,24.455513132474124,28.602942796602594,4.2343465465244385,-2.7041304384297575
24668,2009-09-30,-10.158403202680416,-23.009033012083027,-0.9360509346200392,1.0083402792426028
24668,2010-03-31,-11.615607525969844,-1.2535550444186798,-5.805820437481887,0.718256183206222
24668,2010-09-30,24.383195580810114,-17.988776427974017,1.5563048798508752,-1.6843900107919794
24668,2011-03-31,-5.914232570647771,-1.1713238714609417,5.231179347189734,5.15913955725126
24668,2011-09-30,13.452325036040897,15.20356568414832,1.494136366663992,2.173686937137699
24668,2012-03-30,-9.103921890385388,-22.48455193123452,-1.4171158293270107,-1.6565029542258252
24668,2012-09-28,-7.78116102478365,5.722537249290692,-3.129283781551467,-3.625465206914363
24792,2010-12-31,7.196943083504707,40.23658302610745,6.753196536683959,1.0376755434203453
24792,2012-12-31,-25.640808352033336,-31.14942005852041,-21.889392527183112,0.24055473277730144
24792,2013-12-31,2.2749929284735675,0.8778336867938608,5.534869186944379,-1.2097358437644985
24792,2015-12-31,16.16887234005489,-9.964996654381796,9.601326803554327,-0.06849443243308073
25469,2016-12-30,-4.085620730620576e-14,-2.2026824808563106e-13,-1.1113332476497817e-13,1.4210854715202004e-14
25799,2009-06-30,0.4547349780182248,6.243830394321196,3.705391925159076,1.818751738193967
25799,2010-06-30,-14.135749289515864,-18.354751289099095,-8.941705621552071,0.48426378641553924
25799,2012-06-29,-1.469673093773137,3.4590764951463724,0.46420581221868945,0.01085214596751527
25799,2014-06-30,8.419595989472139,0.5631998037750106,6.410880579934022,-0.6648280740593631
25799,2015-06-30,14.126312137948045,7.619484102990143,4.327128353507976,-2.326244242453054
25799,2016-06-30,-7.395220722149668,0.4691604928650346,-5.965901049268365,0.6772046459354968
25826,2007-09-28,12.870646796361022,26.88055984585737,-7.6701051411511125,-1.4392398320942945
25826,2009-09-30,8.342666569556368,3.1253855621388587,3.7206032300011986,-0.18675436447532512
25826,2010-09-30,-13.416934778258808,-33.11264438866412,0.02951952827960047,3.603079566123073
25826,2011-09-30,2.6182249250223744,4.893764629412788,7.342029219681454,-2.077985262565509
25826,2013-09-30,-11.556125176206006,2.844252424165964,-2.160714782945072,0.36022194179653866
25826,2014-09-30,1.141521663524765,-4.631318072912242,-1.261332053866738,-0.2593220487843837
25987,2015-06-30,0.13730994154859655,-6.222765725318543,-3.5779060003470713,-0.9702801469661537
25987,2016-06-30,-0.13730994154868092,6.222765725318087,3.577906000346848,0.9702801469661875
26134,2009-06-30,-3.2838754233632814,-5.824015239805042,0.03943905536725967,2.594055639028479
26134,2010-06-30,-16.569079822594524,-8.058044611673525,-9.428308058699605,1.3940467883930925
26134,2011-06-30,15.517375840607343,-6.662123228531398,7.375381700419585,-7.098586780105065
26134,2012-06-29,-4.631065575615992,12.816956276422363,-0.032564780938237614,1.530549662657247
26134,2014-06-30,4.621845936902039,6.99918731861356,3.9056825263142763,0.43882502968344106
26134,2015-06-30,11.690972423930162,3.812846777963266,2.925479353119449,-0.9139808990857858
26134,2016-06-30,-7.346173379866053,-3.084807292990704,-4.785109795583498,2.055090559428706
26478,2011-12-30,4.512708611206342,8.395313756309013,8.96020940510083,3.094439827330101
26478,2015-12-31,-4.512708611206417,-8.39531375630945,-8.960209405101057,-3.0944398273300635
27063,2008-06-30,11.426921979270741,20.29161605937976,-30.011049677714333,-7.700078028263592
27063,2009-06-30,13.758868768813738,-2.31885973981111,22.04894462478135,4.811847759354794
27063,2010-06-30,4.35171921180108,-21.93598166387234,14.250372590216926,-0.08414341836135542
27063,2011-06-30,-1.2109109681492658,48.38514906855789,-5.119358158249716,-2.595211995818854
27063,2012-06-29,10.187768129473195,-33.68791673234405,11.54306627041961,1.2723735477539453
27063,2013-06-28,-7.165470934380364,14.747047754225923,10.039488748308083,-0.22515436956951618
27063,2014-06-30,-13.225149322829571,-14.802525412814326,-7.084032372964065,2.707076240104323
27063,2015-06-30,-18.123746863999912,-10.678529333323615,-15.667432024798762,1.8132902648003935
27064,2008-06-30,42.43498194894435,-16.111081883654478,0.21791561167174,-9.079862217802416
27064,2009-06-30,-9.28179279049058,-21.332291641803756,3.5120135223956246,4.916329777098662
27064,2010-06-30,-19.479533684461096,-11.923151420954373,-2.762930376482034,2.362817754661018
27064,2014-06-30,-10.262209012025522,20.61361245288433,0.8084199562705683,1.2785759690089051
27064,2015-06-30,-3.4114464619673175,28.75291249352718,-1.7754187138564455,0.5221387170339202
27513,2015-12-31,-4.085620730620576e-14,-2.2026824808563106e-13,-1.1113332476497817e-13,1.4210854715202004e-14
27598,2014-03-31,-4.930697922301299,-6.169578557027697,-1.1420521630621026,1.346794722489582
27598,2015-03-31,9.43685328951733,11.452096658601988,-0.576001057909426,-1.2476955204276
27598,2016-03-31,-4.506155367216153,-5.282518101574993,1.7180532209711936,-0.09909920206192524
28075,2009-03-31,-50.13343018181856,-18.647458959286208,-3.9099292766207414,5.66357039285284
28075,2010-03-31,5.072007026756461,23.265899755614345,0.6978003541181268,2.059041112170089
28075,2011-03-31,33.609308074296194,-16.992110524190903,-1.1221527359193217,-6.9796825818724475
28075,2015-12-31,0.04530596034329726,7.956294254588245,3.439514687205043,1.304571477287432
28075,2016-12-30,11.4068091204224,4.41737547327342,0.8947669712163406,-2.047500400437828
28686,2012-09-28,-7.552229302714263,17.09001356329031,-1.4337075974266509,-0.9689406467090276
28686,2013-09-30,11.803003823317738,-9.852177259756179,2.2778796180438774,0.27231488158701467
28686,2014-09-30,6.4644136862828665,-4.206984874177095,3.084345374401691,0.10511511526076411
28686,2015-09-30,-14.384541044765882,-1.853327406415116,-6.635010338246552,1.8404272890352225
28686,2016-09-30,3.669352837879342,-1.1775240229429975,2.706492943227075,-1.2489166391738955
28687,2012-09-28,-11.200453491153603,2.096659938776419,-4.167505093483807,0.19744351536472315
28687,2013-09-30,6.021256874055286,-1.4562775547236448,-2.6606494676383297,-0.8744112812563376
28687,2014-09-30,1.412676824509301,-8.231221740851382,3.271350465739603,2.2204444639941965
28687,2016-09-30,3.7665197925888627,7.590839356797713,3.5568040953820943,-1.543476698102511
28693,2012-06-29,4.617991042014671,1.8669279461069017,3.39232251667364,0.5636649450344162
28693,2013-06-28,-13.965693532414026,-46.994636897859166,-6.03981811471016,-0.12157583677938177
28693,2014-06-30,1.3879832354786412,-4.401145132489173,1.481365091212489,-0.04355993832204952
28693,2015-06-30,7.270309995642158,34.90950702825834,-1.8616058341315518,-1.8843038198988076
28693,2016-06-30,0.6894092592783565,14.61934705598203,3.027736340955037,1.4857746499659044
28755,2008-03-31,3.6250517066491525,20.268320462114204,7.3433190986049635,-0.8725485523943064
28755,2009-03-31,23.58489782643987,5.306912554217542,-6.583163547240241,-3.751466170402134
28755,2010-03-31,-15.559242672876755,8.229140857565737,-4.504841219760988,0.7739318992783737
28755,2012-03-30,-5.407538020212826,2.491396088726651,-5.786988410449522,0.8821040854383284
28755,2013-03-28,8.948572732675576,18.092848716554762,15.434688625762421,1.3570004983201134
28755,2014-03-31,-0.04069233345689227,-18.718709644677013,-1.2730965738818614,-0.3337144218800301
28755,2015-03-31,-16.297054765077814,-13.571558956802358,-3.4755151609626163,2.069041635258447
28755,2016-03-31,1.1460055258592705,-22.09835007770135,-1.1544028120730658,-0.12434897361865183
29211,2010-03-31,1.6750998533789456,-10.667696809086952,-5.266438954866116,1.8615775485044388
29211,2011-03-31,-2.3556441795868945,-3.530086215236947,8.024323409294208,6.172696087802523
29211,2013-03-28,11.319670766708324,5.4556305706291255,2.4628523082578737,-1.46572120249777
29211,2014-03-31,-4.470664721277835,42.57658782402387,-5.024676224142794,-2.6381693633170205
29211,2015-03-31,-6.168461719222737,-33.83443537033021,-0.19606053854372218,-3.930383070492095
29212,2008-03-31,2.3786408099783642,129.47970919723542,8.063192047659482,-4.2646745754728155
29212,2010-03-31,-3.0204866003218758,-57.057643961647926,-5.583601837372518,-0.01832279793678282
29212,2011-03-31,-13.420821969410444,-37.83273209265799,-9.630599841921935,5.906972232249689
29212,2013-03-28,11.537564562434524,-40.18423411684876,2.554076085983316,-0.5433247177088134
29212,2014-03-31,4.793465018623945,56.162989930430605,-0.06166263821715945,-0.7101037491111182
29212,2015-03-31,-2.2683618213047465,-50.568088956512696,4.658596183868154,-0.37054639202004225
29213,2008-03-31,3.051807912439525,14.126138259802072,-7.354323890052352,4.87131919885131
29213,2010-03-31,25.26976891069556,-19.08704959357396,28.163305393622558,2.6729510450256413
29213,2011-03-31,0.4384293338562335,13.338245225474406,22.09384630081977,1.7785247538390436
29213,2013-03-28,-22.443097376288843,3.1478051750377056,-31.20893249682999,-1.140246962297688
29213,2014-03-31,9.66993619959035,-3.6743654415957234,3.2272959284269827,-7.73681729367876
29213,2015-03-31,-15.986844980293078,-7.850773625145804,-14.921191235987617,-0.4457307417394585
29324,2011-12-30,-4.085620730620576e-14,-2.2026824808563106e-13,-1.1113332476497817e-13,1.4210854715202004e-14
29408,2010-03-31,13.898467311848888,29.298231481510115,1.135230094534212,-3.9758649496354863
29408,2011-03-31,-1.0991372318111416,-19.231521340458173,-12.157169551688227,-3.2920663060176825
29408,2012-03-30,13.417581743901597,2.682596088810241,3.635163960057258,1.5590322577950992
29408,2013-03-28,-11.845501365917967,27.544571736390093,4.508030947724855,1.7720959232319906
29408,2014-03-31,-13.371154448404539,-13.438338814390995,-3.5647736437880697,2.4345176459960225
29408,2016-03-31,-1.0002560096170843,-26.855539151862605,6.443518193159299,1.5022854286301595
29986,2015-03-31,3.1547696267833807,2.3003494080089935,-2.037866639757571,-0.8703965838386587
29986,2016-03-31,-3.154769626783467,-2.3003494080094486,2.037866639757344,0.8703965838386925
30803,2016-03-31,0.0850002321768919,-20.547123268242633,0.865470845635584,0.6693050540550125
30803,2016-12-30,-0.08500023217698605,20.547123268242135,-0.8654708456358058,-0.669305054054977
30923,2016-03-31,-4.085620730620576e-14,-2.2026824808563106e-13,-1.1113332476497817e-13,1.4210854715202004e-14
30924,2016-06-30,-4.085620730620576e-14,-2.2026824808563106e-13,-1.1113332476497817e-13,1.4210854715202004e-14
30927,2016-03-31,-4.085620730620576e-14,-2.2026824808563106e-13,-1.1113332476497817e-13,1.4210854715202004e-14
30928,2016-03-31,-4.085620730620576e-14,-2.2026824808563106e-13,-1.1113332476497817e-13,1.4210854715202004e-14
30929,2016-03-31,-4.085620730620576e-14,-2.2026824808563106e-13,-1.1113332476497817e-13,1.4210854715202004e-14
30931,2016-06-30,-4.085620730620576e-14,-2.2026824808563106e-13,-1.1113332476497817e-13,1.4210854715202004e-14
30932,2016-03-31,-4.085620730620576e-14,-2.2026824808563106e-13,-1.1113332476497817e-13,1.4210854715202004e-14
30934,2016-03-31,-4.085620730620576e-14,-2.2026824808563106e-13,-1.1113332476497817e-13,1.4210854715202004e-14
31289,2009-03-31,4.137700640297359,50.01640415232922,14.535200934476114,-3.1312273303451192
31289,2010-03-31,5.868892553427315,-22.302853250107674,-0.6456964802728433,2.2255683315936725
31289,2011-03-31,-3.4960166126391226,10.544767675126147,-11.208063084251657,-4.101591041070176
31289,2014-03-31,-10.178072699028455,-15.322801058613539,0.693103074469393,2.6641447039688284
31289,2015-03-31,5.148245775281948,-6.114186078261369,0.645686761949567,0.45329228115008213
31289,2016-03-31,-1.4807496573392784,-16.82133144047413,-4.02023120637125,1.8898130547028185
31383,2009-03-31,-2.4768807482102346,3.1800309625333085,-0.44897528819889754,-2.4404615954452424
31383,2010-03-31,12.003998839146348,-11.476776381736935,-0.30633034887895727,-4.45847164989679
31383,2011-03-31,15.505166511082564,0.009853239779799239,5.725577234804745,-5.235466269022902
31383,2012-03-30,8.27292403360929,8.196647071177852,1.0459673443190431,1.0563459380308853
31383,2013-03-28,-26.276933469115342,-10.096815494633875,-12.15757755655095,4.809136020119027
31383,2014-03-31,-6.14021627956914,-11.70901488952478,2.966990087958044,2.8682860133443775
31383,2015-03-31,2.5363121347381217,11.032624053611139,-3.8867558553599437,1.0488906113636034
31383,2016-03-31,-3.4243710216819654,10.86345143879171,7.061104381906015,2.351740931507173
31478,2008-06-30,-0.8463393841378198,4.540873403373096,8.03717312297497,-1.1788202646871326
31478,2009-06-30,-3.586574316988692,-21.29950893599634,-13.567308180470576,-3.5995953054354928
31478,2011-06-30,4.432913701126397,16.758635532622606,5.530135057495281,4.77841557012267
31552,2007-03-30,-12.318997596945492,-8.938478748316225,-0.40497310067719217,4.94957543748794
31552,2007-09-28,-4.585527932435339,-8.313670032627861,0.9967712171980758,1.9293970005858796
31552,2008-09-30,16.904525529380674,17.25214878094342,-0.5917981165212214,-6.8789724380737765
31728,2011-09-30,-4.085620730620576e-14,-2.2026824808563106e-13,-1.1113332476497817e-13,1.4210854715202004e-14
31946,2013-03-28,1.9870943305721127,-2.975086817212408,2.4216693872945467,0.11163834513336113
31946,2014-03-31,-1.9870943305721998,2.975086817211965,-2.4216693872947728,-0.1116383451333256
32401,2014-03-31,-4.299671408511374,-38.57586580975296,0.4617325556110539,0.7640934894809543
32401,2014-06-30,4.299671408511278,38.57586580975253,-0.461732555611278,-0.7640934894809224
32403,2014-03-31,3.4675408620263912,9.490247224017235,7.335532253050561,0.10714040581405726
32403,2014-06-30,-3.4675408620264654,-9.490247224017663,-7.335532253050781,-0.10714040581401996
32404,2014-03-31,-5.12218958200153,32.339199768183725,0.5302431553377032,2.138731501321491
32404,2014-06-30,-0.8045694882489114,15.267860772934746,3.067495955904029,1.8399546586583728
32404,2015-06-30,5.92675907025031,-47.607060541119125,-3.597739111242067,-3.9786861599798193
32405,2013-03-28,-11.72970456778392,11.373039021026699,-8.652358789768172,-0.008383228918800611
32405,2014-03-31,0.8486553781120243,-8.346805244437558,8.657602167891701,0.33472611707694355
32405,2015-03-31,8.076807664269372,13.525487827674963,-3.8537661662587,-0.2748983368350544
32405,2016-03-31,2.8042415254023787,-16.551721604264962,3.8485227881347317,-0.0514445513230104
32448,2012-03-30,2.4424299693686766,5.194431467835644,-4.312944102792326,-1.535860716174943
32448,2013-03-28,3.2618163114506142,0.011949736681339473,7.645926575922646,1.8097127047686694
32448,2014-03-31,-5.704246280819396,-5.206381204517653,-3.3329824731306497,-0.2738519885936679
32548,2016-03-31,-3.552713678800501e-14,-2.255973186038318e-13,-1.1035616864774056e-13,1.5987211554602254e-14
