%!PS-Adobe-3.0 EPSF-3.0
%%Title: ../../results/Figures/Complexity_histogram.eps
%%Creator: matplotlib version 3.1.1, http://matplotlib.org/
%%CreationDate: Tue Feb 11 11:19:42 2020
%%Orientation: portrait
%%BoundingBox: 75.6 223.20000000000002 536.4 568.8
%%EndComments
%%BeginProlog
/mpldict 8 dict def
mpldict begin
/m { moveto } bind def
/l { lineto } bind def
/r { rlineto } bind def
/c { curveto } bind def
/cl { closepath } bind def
/box {
m
1 index 0 r
0 exch r
neg 0 r
cl
} bind def
/clipbox {
box
clip
newpath
} bind def
%!PS-Adobe-3.0 Resource-Font
%%Title: DejaVu Sans
%%Copyright: Copyright (c) 2003 by Bitstream, Inc. All Rights Reserved. Copyright (c) 2006 by Tavmjong Bah. All Rights Reserved. DejaVu changes are in public domain 
%%Creator: Converted from TrueType to type 3 by PPR
25 dict begin
/_d{bind def}bind def
/_m{moveto}_d
/_l{lineto}_d
/_cl{closepath eofill}_d
/_c{curveto}_d
/_sc{7 -1 roll{setcachedevice}{pop pop pop pop pop pop}ifelse}_d
/_e{exec}_d
/FontName /DejaVuSans def
/PaintType 0 def
/FontMatrix[.001 0 0 .001 0 0]def
/FontBBox[-1021 -463 1793 1232]def
/FontType 3 def
/Encoding [ /period /zero /one /two /three /four /five /seven /C /e /i /l /m /o /p /t /x /y ] def
/FontInfo 10 dict dup begin
/FamilyName (DejaVu Sans) def
/FullName (DejaVu Sans) def
/Notice (Copyright (c) 2003 by Bitstream, Inc. All Rights Reserved. Copyright (c) 2006 by Tavmjong Bah. All Rights Reserved. DejaVu changes are in public domain ) def
/Weight (Book) def
/Version (Version 2.35) def
/ItalicAngle 0.0 def
/isFixedPitch false def
/UnderlinePosition -130 def
/UnderlineThickness 90 def
end readonly def
/CharStrings 19 dict dup begin
/.notdef 0 def
/period{318 0 107 0 210 124 _sc
107 124 _m
210 124 _l
210 0 _l
107 0 _l
107 124 _l
_cl}_d
/zero{636 0 66 -13 570 742 _sc
318 664 _m
267 664 229 639 203 589 _c
177 539 165 464 165 364 _c
165 264 177 189 203 139 _c
229 89 267 64 318 64 _c
369 64 407 89 433 139 _c
458 189 471 264 471 364 _c
471 464 458 539 433 589 _c
407 639 369 664 318 664 _c
318 742 _m
399 742 461 709 505 645 _c
548 580 570 486 570 364 _c
570 241 548 147 505 83 _c
461 19 399 -13 318 -13 _c
236 -13 173 19 130 83 _c
87 147 66 241 66 364 _c
66 486 87 580 130 645 _c
173 709 236 742 318 742 _c
_cl}_d
/one{636 0 110 0 544 729 _sc
124 83 _m
285 83 _l
285 639 _l
110 604 _l
110 694 _l
284 729 _l
383 729 _l
383 83 _l
544 83 _l
544 0 _l
124 0 _l
124 83 _l
_cl}_d
/two{{636 0 73 0 536 742 _sc
192 83 _m
536 83 _l
536 0 _l
73 0 _l
73 83 _l
110 121 161 173 226 239 _c
290 304 331 346 348 365 _c
380 400 402 430 414 455 _c
426 479 433 504 433 528 _c
433 566 419 598 392 622 _c
365 646 330 659 286 659 _c
255 659 222 653 188 643 _c
154 632 117 616 78 594 _c
78 694 _l
118 710 155 722 189 730 _c
223 738 255 742 284 742 _c
}_e{359 742 419 723 464 685 _c
509 647 532 597 532 534 _c
532 504 526 475 515 449 _c
504 422 484 390 454 354 _c
446 344 420 317 376 272 _c
332 227 271 164 192 83 _c
_cl}_e}_d
/three{{636 0 76 -13 556 742 _sc
406 393 _m
453 383 490 362 516 330 _c
542 298 556 258 556 212 _c
556 140 531 84 482 45 _c
432 6 362 -13 271 -13 _c
240 -13 208 -10 176 -4 _c
144 1 110 10 76 22 _c
76 117 _l
103 101 133 89 166 81 _c
198 73 232 69 268 69 _c
330 69 377 81 409 105 _c
441 129 458 165 458 212 _c
458 254 443 288 413 312 _c
383 336 341 349 287 349 _c
}_e{202 349 _l
202 430 _l
291 430 _l
339 430 376 439 402 459 _c
428 478 441 506 441 543 _c
441 580 427 609 401 629 _c
374 649 336 659 287 659 _c
260 659 231 656 200 650 _c
169 644 135 635 98 623 _c
98 711 _l
135 721 170 729 203 734 _c
235 739 266 742 296 742 _c
370 742 429 725 473 691 _c
517 657 539 611 539 553 _c
539 513 527 479 504 451 _c
481 423 448 403 406 393 _c
_cl}_e}_d
/four{636 0 49 0 580 729 _sc
378 643 _m
129 254 _l
378 254 _l
378 643 _l
352 729 _m
476 729 _l
476 254 _l
580 254 _l
580 172 _l
476 172 _l
476 0 _l
378 0 _l
378 172 _l
49 172 _l
49 267 _l
352 729 _l
_cl}_d
/five{{636 0 77 -13 549 729 _sc
108 729 _m
495 729 _l
495 646 _l
198 646 _l
198 467 _l
212 472 227 476 241 478 _c
255 480 270 482 284 482 _c
365 482 429 459 477 415 _c
525 370 549 310 549 234 _c
549 155 524 94 475 51 _c
426 8 357 -13 269 -13 _c
238 -13 207 -10 175 -6 _c
143 -1 111 6 77 17 _c
77 116 _l
106 100 136 88 168 80 _c
199 72 232 69 267 69 _c
}_e{323 69 368 83 401 113 _c
433 143 450 183 450 234 _c
450 284 433 324 401 354 _c
368 384 323 399 267 399 _c
241 399 214 396 188 390 _c
162 384 135 375 108 363 _c
108 729 _l
_cl}_e}_d
/seven{636 0 82 0 551 729 _sc
82 729 _m
551 729 _l
551 687 _l
286 0 _l
183 0 _l
432 646 _l
82 646 _l
82 729 _l
_cl}_d
/C{{698 0 56 -13 644 742 _sc
644 673 _m
644 569 _l
610 599 575 622 537 638 _c
499 653 460 661 418 661 _c
334 661 270 635 226 584 _c
182 533 160 460 160 364 _c
160 268 182 194 226 143 _c
270 92 334 67 418 67 _c
460 67 499 74 537 90 _c
575 105 610 128 644 159 _c
644 56 _l
609 32 572 15 534 4 _c
496 -7 455 -13 412 -13 _c
302 -13 215 20 151 87 _c
}_e{87 154 56 246 56 364 _c
56 481 87 573 151 641 _c
215 708 302 742 412 742 _c
456 742 497 736 535 725 _c
573 713 610 696 644 673 _c
_cl}_e}_d
/e{{615 0 55 -13 562 560 _sc
562 296 _m
562 252 _l
149 252 _l
153 190 171 142 205 110 _c
238 78 284 62 344 62 _c
378 62 412 66 444 74 _c
476 82 509 95 541 113 _c
541 28 _l
509 14 476 3 442 -3 _c
408 -9 373 -13 339 -13 _c
251 -13 182 12 131 62 _c
80 112 55 181 55 268 _c
55 357 79 428 127 481 _c
175 533 241 560 323 560 _c
397 560 455 536 498 489 _c
}_e{540 441 562 377 562 296 _c
472 322 _m
471 371 457 410 431 440 _c
404 469 368 484 324 484 _c
274 484 234 469 204 441 _c
174 413 156 373 152 322 _c
472 322 _l
_cl}_e}_d
/i{278 0 94 0 184 760 _sc
94 547 _m
184 547 _l
184 0 _l
94 0 _l
94 547 _l
94 760 _m
184 760 _l
184 646 _l
94 646 _l
94 760 _l
_cl}_d
/l{278 0 94 0 184 760 _sc
94 760 _m
184 760 _l
184 0 _l
94 0 _l
94 760 _l
_cl}_d
/m{{974 0 91 0 889 560 _sc
520 442 _m
542 482 569 511 600 531 _c
631 550 668 560 711 560 _c
767 560 811 540 842 500 _c
873 460 889 403 889 330 _c
889 0 _l
799 0 _l
799 327 _l
799 379 789 418 771 444 _c
752 469 724 482 686 482 _c
639 482 602 466 575 435 _c
548 404 535 362 535 309 _c
535 0 _l
445 0 _l
445 327 _l
445 379 435 418 417 444 _c
398 469 369 482 331 482 _c
}_e{285 482 248 466 221 435 _c
194 404 181 362 181 309 _c
181 0 _l
91 0 _l
91 547 _l
181 547 _l
181 462 _l
201 495 226 520 255 536 _c
283 552 317 560 357 560 _c
397 560 430 550 458 530 _c
486 510 506 480 520 442 _c
_cl}_e}_d
/o{612 0 55 -13 557 560 _sc
306 484 _m
258 484 220 465 192 427 _c
164 389 150 338 150 273 _c
150 207 163 156 191 118 _c
219 80 257 62 306 62 _c
354 62 392 80 420 118 _c
448 156 462 207 462 273 _c
462 337 448 389 420 427 _c
392 465 354 484 306 484 _c
306 560 _m
384 560 445 534 490 484 _c
534 433 557 363 557 273 _c
557 183 534 113 490 63 _c
445 12 384 -13 306 -13 _c
227 -13 165 12 121 63 _c
77 113 55 183 55 273 _c
55 363 77 433 121 484 _c
165 534 227 560 306 560 _c
_cl}_d
/p{{635 0 91 -207 580 560 _sc
181 82 _m
181 -207 _l
91 -207 _l
91 547 _l
181 547 _l
181 464 _l
199 496 223 520 252 536 _c
281 552 316 560 356 560 _c
422 560 476 533 518 481 _c
559 428 580 359 580 273 _c
580 187 559 117 518 65 _c
476 13 422 -13 356 -13 _c
316 -13 281 -5 252 10 _c
223 25 199 49 181 82 _c
487 273 _m
487 339 473 390 446 428 _c
418 466 381 485 334 485 _c
}_e{286 485 249 466 222 428 _c
194 390 181 339 181 273 _c
181 207 194 155 222 117 _c
249 79 286 61 334 61 _c
381 61 418 79 446 117 _c
473 155 487 207 487 273 _c
_cl}_e}_d
/t{392 0 27 0 368 702 _sc
183 702 _m
183 547 _l
368 547 _l
368 477 _l
183 477 _l
183 180 _l
183 135 189 106 201 94 _c
213 81 238 75 276 75 _c
368 75 _l
368 0 _l
276 0 _l
206 0 158 13 132 39 _c
106 65 93 112 93 180 _c
93 477 _l
27 477 _l
27 547 _l
93 547 _l
93 702 _l
183 702 _l
_cl}_d
/x{592 0 29 0 559 547 _sc
549 547 _m
351 281 _l
559 0 _l
453 0 _l
294 215 _l
135 0 _l
29 0 _l
241 286 _l
47 547 _l
153 547 _l
298 352 _l
443 547 _l
549 547 _l
_cl}_d
/y{592 0 30 -207 562 547 _sc
322 -50 _m
296 -114 271 -157 247 -177 _c
223 -197 191 -207 151 -207 _c
79 -207 _l
79 -132 _l
132 -132 _l
156 -132 175 -126 189 -114 _c
203 -102 218 -75 235 -31 _c
251 9 _l
30 547 _l
125 547 _l
296 119 _l
467 547 _l
562 547 _l
322 -50 _l
_cl}_d
end readonly def

/BuildGlyph
 {exch begin
 CharStrings exch
 2 copy known not{pop /.notdef}if
 true 3 1 roll get exec
 end}_d

/BuildChar {
 1 index /Encoding get exch get
 1 index /BuildGlyph get exec
}_d

FontName currentdict end definefont pop
end
%%EndProlog
mpldict begin
75.6 223.2 translate
460.8 345.6 0 0 clipbox
gsave
0 0 m
460.8 0 l
460.8 345.6 l
0 345.6 l
cl
1.000 setgray
fill
grestore
gsave
57.6 38.016 m
414.72 38.016 l
414.72 304.128 l
57.6 304.128 l
cl
1.000 setgray
fill
grestore
gsave
357.1 266.1 57.6 38.02 clipbox
73.832727 38.016 m
81.949091 38.016 l
81.949091 58.394382 l
73.832727 58.394382 l
cl
0.000 0.500 0.000 setrgbcolor
fill
grestore
gsave
357.1 266.1 57.6 38.02 clipbox
81.949091 38.016 m
90.065455 38.016 l
90.065455 112.887206 l
81.949091 112.887206 l
cl
0.000 0.500 0.000 setrgbcolor
fill
grestore
gsave
357.1 266.1 57.6 38.02 clipbox
90.065455 38.016 m
98.181818 38.016 l
98.181818 250.247817 l
90.065455 250.247817 l
cl
0.000 0.500 0.000 setrgbcolor
fill
grestore
gsave
357.1 266.1 57.6 38.02 clipbox
98.181818 38.016 m
106.298182 38.016 l
106.298182 239.994137 l
98.181818 239.994137 l
cl
0.000 0.500 0.000 setrgbcolor
fill
grestore
gsave
357.1 266.1 57.6 38.02 clipbox
106.298182 38.016 m
114.414545 38.016 l
114.414545 256.374229 l
106.298182 256.374229 l
cl
0.000 0.500 0.000 setrgbcolor
fill
grestore
gsave
357.1 266.1 57.6 38.02 clipbox
114.414545 38.016 m
122.530909 38.016 l
122.530909 291.456 l
114.414545 291.456 l
cl
0.000 0.500 0.000 setrgbcolor
fill
grestore
gsave
357.1 266.1 57.6 38.02 clipbox
122.530909 38.016 m
130.647273 38.016 l
130.647273 277.075053 l
122.530909 277.075053 l
cl
0.000 0.500 0.000 setrgbcolor
fill
grestore
gsave
357.1 266.1 57.6 38.02 clipbox
130.647273 38.016 m
138.763636 38.016 l
138.763636 268.949496 l
130.647273 268.949496 l
cl
0.000 0.500 0.000 setrgbcolor
fill
grestore
gsave
357.1 266.1 57.6 38.02 clipbox
138.763636 38.016 m
146.88 38.016 l
146.88 198.592489 l
138.763636 198.592489 l
cl
0.000 0.500 0.000 setrgbcolor
fill
grestore
gsave
357.1 266.1 57.6 38.02 clipbox
146.88 38.016 m
154.996364 38.016 l
154.996364 169.508153 l
146.88 169.508153 l
cl
0.000 0.500 0.000 setrgbcolor
fill
grestore
gsave
357.1 266.1 57.6 38.02 clipbox
154.996364 38.016 m
163.112727 38.016 l
163.112727 101.214779 l
154.996364 101.214779 l
cl
0.000 0.500 0.000 setrgbcolor
fill
grestore
gsave
357.1 266.1 57.6 38.02 clipbox
163.112727 38.016 m
171.229091 38.016 l
171.229091 125.333496 l
163.112727 125.333496 l
cl
0.000 0.500 0.000 setrgbcolor
fill
grestore
gsave
357.1 266.1 57.6 38.02 clipbox
171.229091 38.016 m
179.345455 38.016 l
179.345455 79.869069 l
171.229091 79.869069 l
cl
0.000 0.500 0.000 setrgbcolor
fill
grestore
gsave
357.1 266.1 57.6 38.02 clipbox
179.345455 38.016 m
187.461818 38.016 l
187.461818 63.682443 l
179.345455 63.682443 l
cl
0.000 0.500 0.000 setrgbcolor
fill
grestore
gsave
357.1 266.1 57.6 38.02 clipbox
187.461818 38.016 m
195.578182 38.016 l
195.578182 73.742656 l
187.461818 73.742656 l
cl
0.000 0.500 0.000 setrgbcolor
fill
grestore
gsave
357.1 266.1 57.6 38.02 clipbox
195.578182 38.016 m
203.694545 38.016 l
203.694545 52.074504 l
195.578182 52.074504 l
cl
0.000 0.500 0.000 setrgbcolor
fill
grestore
gsave
357.1 266.1 57.6 38.02 clipbox
203.694545 38.016 m
211.810909 38.016 l
211.810909 53.235298 l
203.694545 53.235298 l
cl
0.000 0.500 0.000 setrgbcolor
fill
grestore
gsave
357.1 266.1 57.6 38.02 clipbox
211.810909 38.016 m
219.927273 38.016 l
219.927273 47.624794 l
211.810909 47.624794 l
cl
0.000 0.500 0.000 setrgbcolor
fill
grestore
gsave
357.1 266.1 57.6 38.02 clipbox
219.927273 38.016 m
228.043636 38.016 l
228.043636 40.982473 l
219.927273 40.982473 l
cl
0.000 0.500 0.000 setrgbcolor
fill
grestore
gsave
357.1 266.1 57.6 38.02 clipbox
228.043636 38.016 m
236.16 38.016 l
236.16 44.400366 l
228.043636 44.400366 l
cl
0.000 0.500 0.000 setrgbcolor
fill
grestore
gsave
357.1 266.1 57.6 38.02 clipbox
236.16 38.016 m
244.276364 38.016 l
244.276364 39.499237 l
236.16 39.499237 l
cl
0.000 0.500 0.000 setrgbcolor
fill
grestore
gsave
357.1 266.1 57.6 38.02 clipbox
244.276364 38.016 m
252.392727 38.016 l
252.392727 42.594687 l
244.276364 42.594687 l
cl
0.000 0.500 0.000 setrgbcolor
fill
grestore
gsave
357.1 266.1 57.6 38.02 clipbox
252.392727 38.016 m
260.509091 38.016 l
260.509091 42.272244 l
252.392727 42.272244 l
cl
0.000 0.500 0.000 setrgbcolor
fill
grestore
gsave
357.1 266.1 57.6 38.02 clipbox
260.509091 38.016 m
268.625455 38.016 l
268.625455 40.724519 l
260.509091 40.724519 l
cl
0.000 0.500 0.000 setrgbcolor
fill
grestore
gsave
357.1 266.1 57.6 38.02 clipbox
268.625455 38.016 m
276.741818 38.016 l
276.741818 39.176794 l
268.625455 39.176794 l
cl
0.000 0.500 0.000 setrgbcolor
fill
grestore
gsave
357.1 266.1 57.6 38.02 clipbox
276.741818 38.016 m
284.858182 38.016 l
284.858182 38.46742 l
276.741818 38.46742 l
cl
0.000 0.500 0.000 setrgbcolor
fill
grestore
gsave
357.1 266.1 57.6 38.02 clipbox
284.858182 38.016 m
292.974545 38.016 l
292.974545 39.305771 l
284.858182 39.305771 l
cl
0.000 0.500 0.000 setrgbcolor
fill
grestore
gsave
357.1 266.1 57.6 38.02 clipbox
292.974545 38.016 m
301.090909 38.016 l
301.090909 39.305771 l
292.974545 39.305771 l
cl
0.000 0.500 0.000 setrgbcolor
fill
grestore
gsave
357.1 266.1 57.6 38.02 clipbox
301.090909 38.016 m
309.207273 38.016 l
309.207273 38.209466 l
301.090909 38.209466 l
cl
0.000 0.500 0.000 setrgbcolor
fill
grestore
gsave
357.1 266.1 57.6 38.02 clipbox
309.207273 38.016 m
317.323636 38.016 l
317.323636 38.983328 l
309.207273 38.983328 l
cl
0.000 0.500 0.000 setrgbcolor
fill
grestore
gsave
357.1 266.1 57.6 38.02 clipbox
317.323636 38.016 m
325.44 38.016 l
325.44 38.402931 l
317.323636 38.402931 l
cl
0.000 0.500 0.000 setrgbcolor
fill
grestore
gsave
357.1 266.1 57.6 38.02 clipbox
325.44 38.016 m
333.556364 38.016 l
333.556364 38.209466 l
325.44 38.209466 l
cl
0.000 0.500 0.000 setrgbcolor
fill
grestore
gsave
357.1 266.1 57.6 38.02 clipbox
333.556364 38.016 m
341.672727 38.016 l
341.672727 38.531908 l
333.556364 38.531908 l
cl
0.000 0.500 0.000 setrgbcolor
fill
grestore
gsave
357.1 266.1 57.6 38.02 clipbox
341.672727 38.016 m
349.789091 38.016 l
349.789091 38.080489 l
341.672727 38.080489 l
cl
0.000 0.500 0.000 setrgbcolor
fill
grestore
gsave
357.1 266.1 57.6 38.02 clipbox
349.789091 38.016 m
357.905455 38.016 l
357.905455 38.144977 l
349.789091 38.144977 l
cl
0.000 0.500 0.000 setrgbcolor
fill
grestore
gsave
357.1 266.1 57.6 38.02 clipbox
357.905455 38.016 m
366.021818 38.016 l
366.021818 38.016 l
357.905455 38.016 l
cl
0.000 0.500 0.000 setrgbcolor
fill
grestore
gsave
357.1 266.1 57.6 38.02 clipbox
366.021818 38.016 m
374.138182 38.016 l
374.138182 38.016 l
366.021818 38.016 l
cl
0.000 0.500 0.000 setrgbcolor
fill
grestore
gsave
357.1 266.1 57.6 38.02 clipbox
374.138182 38.016 m
382.254545 38.016 l
382.254545 38.402931 l
374.138182 38.402931 l
cl
0.000 0.500 0.000 setrgbcolor
fill
grestore
gsave
357.1 266.1 57.6 38.02 clipbox
382.254545 38.016 m
390.370909 38.016 l
390.370909 38.209466 l
382.254545 38.209466 l
cl
0.000 0.500 0.000 setrgbcolor
fill
grestore
gsave
357.1 266.1 57.6 38.02 clipbox
390.370909 38.016 m
398.487273 38.016 l
398.487273 39.112305 l
390.370909 39.112305 l
cl
0.000 0.500 0.000 setrgbcolor
fill
grestore
0.800 setlinewidth
1 setlinejoin
0 setlinecap
[] 0 setdash
0.000 setgray
gsave
/o {
gsave
newpath
translate
0.8 setlinewidth
1 setlinejoin
0 setlinecap
0 0 m
0 -3.5 l

gsave
0.000 setgray
fill
grestore
stroke
grestore
} bind def
63.3067 38.016 o
grestore
/DejaVuSans findfont
10.000 scalefont
setfont
gsave
48.994213 23.422250 translate
0.000000 rotate
0.000000 0.000000 m /zero glyphshow
6.362305 0.000000 m /period glyphshow
9.541016 0.000000 m /zero glyphshow
15.903320 0.000000 m /zero glyphshow
22.265625 0.000000 m /zero glyphshow
grestore
gsave
/o {
gsave
newpath
translate
0.8 setlinewidth
1 setlinejoin
0 setlinecap
0 0 m
0 -3.5 l

gsave
0.000 setgray
fill
grestore
stroke
grestore
} bind def
110.752 38.016 o
grestore
gsave
96.439617 23.422250 translate
0.000000 rotate
0.000000 0.000000 m /zero glyphshow
6.362305 0.000000 m /period glyphshow
9.541016 0.000000 m /zero glyphshow
15.903320 0.000000 m /two glyphshow
22.265625 0.000000 m /five glyphshow
grestore
gsave
/o {
gsave
newpath
translate
0.8 setlinewidth
1 setlinejoin
0 setlinecap
0 0 m
0 -3.5 l

gsave
0.000 setgray
fill
grestore
stroke
grestore
} bind def
158.198 38.016 o
grestore
gsave
143.885021 23.422250 translate
0.000000 rotate
0.000000 0.000000 m /zero glyphshow
6.362305 0.000000 m /period glyphshow
9.541016 0.000000 m /zero glyphshow
15.903320 0.000000 m /five glyphshow
22.265625 0.000000 m /zero glyphshow
grestore
gsave
/o {
gsave
newpath
translate
0.8 setlinewidth
1 setlinejoin
0 setlinecap
0 0 m
0 -3.5 l

gsave
0.000 setgray
fill
grestore
stroke
grestore
} bind def
205.643 38.016 o
grestore
gsave
191.330425 23.422250 translate
0.000000 rotate
0.000000 0.000000 m /zero glyphshow
6.362305 0.000000 m /period glyphshow
9.541016 0.000000 m /zero glyphshow
15.903320 0.000000 m /seven glyphshow
22.265625 0.000000 m /five glyphshow
grestore
gsave
/o {
gsave
newpath
translate
0.8 setlinewidth
1 setlinejoin
0 setlinecap
0 0 m
0 -3.5 l

gsave
0.000 setgray
fill
grestore
stroke
grestore
} bind def
253.088 38.016 o
grestore
gsave
238.775829 23.422250 translate
0.000000 rotate
0.000000 0.000000 m /zero glyphshow
6.362305 0.000000 m /period glyphshow
9.541016 0.000000 m /one glyphshow
15.903320 0.000000 m /zero glyphshow
22.265625 0.000000 m /zero glyphshow
grestore
gsave
/o {
gsave
newpath
translate
0.8 setlinewidth
1 setlinejoin
0 setlinecap
0 0 m
0 -3.5 l

gsave
0.000 setgray
fill
grestore
stroke
grestore
} bind def
300.534 38.016 o
grestore
gsave
286.221233 23.422250 translate
0.000000 rotate
0.000000 0.000000 m /zero glyphshow
6.362305 0.000000 m /period glyphshow
9.541016 0.000000 m /one glyphshow
15.903320 0.000000 m /two glyphshow
22.265625 0.000000 m /five glyphshow
grestore
gsave
/o {
gsave
newpath
translate
0.8 setlinewidth
1 setlinejoin
0 setlinecap
0 0 m
0 -3.5 l

gsave
0.000 setgray
fill
grestore
stroke
grestore
} bind def
347.979 38.016 o
grestore
gsave
333.666637 23.422250 translate
0.000000 rotate
0.000000 0.000000 m /zero glyphshow
6.362305 0.000000 m /period glyphshow
9.541016 0.000000 m /one glyphshow
15.903320 0.000000 m /five glyphshow
22.265625 0.000000 m /zero glyphshow
grestore
gsave
/o {
gsave
newpath
translate
0.8 setlinewidth
1 setlinejoin
0 setlinecap
0 0 m
0 -3.5 l

gsave
0.000 setgray
fill
grestore
stroke
grestore
} bind def
395.425 38.016 o
grestore
gsave
381.112041 23.422250 translate
0.000000 rotate
0.000000 0.000000 m /zero glyphshow
6.362305 0.000000 m /period glyphshow
9.541016 0.000000 m /one glyphshow
15.903320 0.000000 m /seven glyphshow
22.265625 0.000000 m /five glyphshow
grestore
gsave
/o {
gsave
newpath
translate
0.8 setlinewidth
1 setlinejoin
0 setlinecap
0 0 m
-3.5 0 l

gsave
0.000 setgray
fill
grestore
stroke
grestore
} bind def
57.6 38.016 o
grestore
gsave
44.240625 34.219125 translate
0.000000 rotate
0.000000 0.000000 m /zero glyphshow
grestore
gsave
/o {
gsave
newpath
translate
0.8 setlinewidth
1 setlinejoin
0 setlinecap
0 0 m
-3.5 0 l

gsave
0.000 setgray
fill
grestore
stroke
grestore
} bind def
57.6 70.2603 o
grestore
gsave
31.521875 66.463400 translate
0.000000 rotate
0.000000 0.000000 m /five glyphshow
6.362305 0.000000 m /zero glyphshow
12.724609 0.000000 m /zero glyphshow
grestore
gsave
/o {
gsave
newpath
translate
0.8 setlinewidth
1 setlinejoin
0 setlinecap
0 0 m
-3.5 0 l

gsave
0.000 setgray
fill
grestore
stroke
grestore
} bind def
57.6 102.505 o
grestore
gsave
25.162500 98.707675 translate
0.000000 rotate
0.000000 0.000000 m /one glyphshow
6.362305 0.000000 m /zero glyphshow
12.724609 0.000000 m /zero glyphshow
19.086914 0.000000 m /zero glyphshow
grestore
gsave
/o {
gsave
newpath
translate
0.8 setlinewidth
1 setlinejoin
0 setlinecap
0 0 m
-3.5 0 l

gsave
0.000 setgray
fill
grestore
stroke
grestore
} bind def
57.6 134.749 o
grestore
gsave
25.162500 130.951949 translate
0.000000 rotate
0.000000 0.000000 m /one glyphshow
6.362305 0.000000 m /five glyphshow
12.724609 0.000000 m /zero glyphshow
19.086914 0.000000 m /zero glyphshow
grestore
gsave
/o {
gsave
newpath
translate
0.8 setlinewidth
1 setlinejoin
0 setlinecap
0 0 m
-3.5 0 l

gsave
0.000 setgray
fill
grestore
stroke
grestore
} bind def
57.6 166.993 o
grestore
gsave
25.162500 163.196224 translate
0.000000 rotate
0.000000 0.000000 m /two glyphshow
6.362305 0.000000 m /zero glyphshow
12.724609 0.000000 m /zero glyphshow
19.086914 0.000000 m /zero glyphshow
grestore
gsave
/o {
gsave
newpath
translate
0.8 setlinewidth
1 setlinejoin
0 setlinecap
0 0 m
-3.5 0 l

gsave
0.000 setgray
fill
grestore
stroke
grestore
} bind def
57.6 199.237 o
grestore
gsave
25.162500 195.440499 translate
0.000000 rotate
0.000000 0.000000 m /two glyphshow
6.362305 0.000000 m /five glyphshow
12.724609 0.000000 m /zero glyphshow
19.086914 0.000000 m /zero glyphshow
grestore
gsave
/o {
gsave
newpath
translate
0.8 setlinewidth
1 setlinejoin
0 setlinecap
0 0 m
-3.5 0 l

gsave
0.000 setgray
fill
grestore
stroke
grestore
} bind def
57.6 231.482 o
grestore
gsave
25.162500 227.684774 translate
0.000000 rotate
0.000000 0.000000 m /three glyphshow
6.362305 0.000000 m /zero glyphshow
12.724609 0.000000 m /zero glyphshow
19.086914 0.000000 m /zero glyphshow
grestore
gsave
/o {
gsave
newpath
translate
0.8 setlinewidth
1 setlinejoin
0 setlinecap
0 0 m
-3.5 0 l

gsave
0.000 setgray
fill
grestore
stroke
grestore
} bind def
57.6 263.726 o
grestore
gsave
25.162500 259.929049 translate
0.000000 rotate
0.000000 0.000000 m /three glyphshow
6.362305 0.000000 m /five glyphshow
12.724609 0.000000 m /zero glyphshow
19.086914 0.000000 m /zero glyphshow
grestore
gsave
/o {
gsave
newpath
translate
0.8 setlinewidth
1 setlinejoin
0 setlinecap
0 0 m
-3.5 0 l

gsave
0.000 setgray
fill
grestore
stroke
grestore
} bind def
57.6 295.97 o
grestore
gsave
25.162500 292.173323 translate
0.000000 rotate
0.000000 0.000000 m /four glyphshow
6.362305 0.000000 m /zero glyphshow
12.724609 0.000000 m /zero glyphshow
19.086914 0.000000 m /zero glyphshow
grestore
0 setlinejoin
2 setlinecap
[] 0 setdash
gsave
57.6 38.016 m
57.6 304.128 l
stroke
grestore
gsave
414.72 38.016 m
414.72 304.128 l
stroke
grestore
gsave
57.6 38.016 m
414.72 38.016 l
stroke
grestore
gsave
57.6 304.128 m
414.72 304.128 l
stroke
grestore
/DejaVuSans findfont
12.000 scalefont
setfont
gsave
202.160000 310.128000 translate
0.000000 rotate
0.000000 0.000000 m /C glyphshow
8.378906 0.000000 m /o glyphshow
15.720703 0.000000 m /m glyphshow
27.410156 0.000000 m /p glyphshow
35.027344 0.000000 m /l glyphshow
38.361328 0.000000 m /e glyphshow
45.744141 0.000000 m /x glyphshow
52.845703 0.000000 m /i glyphshow
56.179688 0.000000 m /t glyphshow
60.884766 0.000000 m /y glyphshow
grestore

end
showpage
