%!PS-Adobe-3.0 EPSF-3.0
%%Title: ../../results/Figures/Confidence_histogram.eps
%%Creator: matplotlib version 3.1.1, http://matplotlib.org/
%%CreationDate: Tue Feb 11 11:19:42 2020
%%Orientation: portrait
%%BoundingBox: 75.6 223.20000000000002 536.4 568.8
%%EndComments
%%BeginProlog
/mpldict 8 dict def
mpldict begin
/m { moveto } bind def
/l { lineto } bind def
/r { rlineto } bind def
/c { curveto } bind def
/cl { closepath } bind def
/box {
m
1 index 0 r
0 exch r
neg 0 r
cl
} bind def
/clipbox {
box
clip
newpath
} bind def
%!PS-Adobe-3.0 Resource-Font
%%Title: DejaVu Sans
%%Copyright: Copyright (c) 2003 by Bitstream, Inc. All Rights Reserved. Copyright (c) 2006 by Tavmjong Bah. All Rights Reserved. DejaVu changes are in public domain 
%%Creator: Converted from TrueType to type 3 by PPR
25 dict begin
/_d{bind def}bind def
/_m{moveto}_d
/_l{lineto}_d
/_cl{closepath eofill}_d
/_c{curveto}_d
/_sc{7 -1 roll{setcachedevice}{pop pop pop pop pop pop}ifelse}_d
/_e{exec}_d
/FontName /DejaVuSans def
/PaintType 0 def
/FontMatrix[.001 0 0 .001 0 0]def
/FontBBox[-1021 -463 1793 1232]def
/FontType 3 def
/Encoding [ /period /zero /one /two /three /four /five /six /C /c /d /e /f /i /n /o /minus ] def
/FontInfo 10 dict dup begin
/FamilyName (DejaVu Sans) def
/FullName (DejaVu Sans) def
/Notice (Copyright (c) 2003 by Bitstream, Inc. All Rights Reserved. Copyright (c) 2006 by Tavmjong Bah. All Rights Reserved. DejaVu changes are in public domain ) def
/Weight (Book) def
/Version (Version 2.35) def
/ItalicAngle 0.0 def
/isFixedPitch false def
/UnderlinePosition -130 def
/UnderlineThickness 90 def
end readonly def
/CharStrings 18 dict dup begin
/.notdef 0 def
/period{318 0 107 0 210 124 _sc
107 124 _m
210 124 _l
210 0 _l
107 0 _l
107 124 _l
_cl}_d
/zero{636 0 66 -13 570 742 _sc
318 664 _m
267 664 229 639 203 589 _c
177 539 165 464 165 364 _c
165 264 177 189 203 139 _c
229 89 267 64 318 64 _c
369 64 407 89 433 139 _c
458 189 471 264 471 364 _c
471 464 458 539 433 589 _c
407 639 369 664 318 664 _c
318 742 _m
399 742 461 709 505 645 _c
548 580 570 486 570 364 _c
570 241 548 147 505 83 _c
461 19 399 -13 318 -13 _c
236 -13 173 19 130 83 _c
87 147 66 241 66 364 _c
66 486 87 580 130 645 _c
173 709 236 742 318 742 _c
_cl}_d
/one{636 0 110 0 544 729 _sc
124 83 _m
285 83 _l
285 639 _l
110 604 _l
110 694 _l
284 729 _l
383 729 _l
383 83 _l
544 83 _l
544 0 _l
124 0 _l
124 83 _l
_cl}_d
/two{{636 0 73 0 536 742 _sc
192 83 _m
536 83 _l
536 0 _l
73 0 _l
73 83 _l
110 121 161 173 226 239 _c
290 304 331 346 348 365 _c
380 400 402 430 414 455 _c
426 479 433 504 433 528 _c
433 566 419 598 392 622 _c
365 646 330 659 286 659 _c
255 659 222 653 188 643 _c
154 632 117 616 78 594 _c
78 694 _l
118 710 155 722 189 730 _c
223 738 255 742 284 742 _c
}_e{359 742 419 723 464 685 _c
509 647 532 597 532 534 _c
532 504 526 475 515 449 _c
504 422 484 390 454 354 _c
446 344 420 317 376 272 _c
332 227 271 164 192 83 _c
_cl}_e}_d
/three{{636 0 76 -13 556 742 _sc
406 393 _m
453 383 490 362 516 330 _c
542 298 556 258 556 212 _c
556 140 531 84 482 45 _c
432 6 362 -13 271 -13 _c
240 -13 208 -10 176 -4 _c
144 1 110 10 76 22 _c
76 117 _l
103 101 133 89 166 81 _c
198 73 232 69 268 69 _c
330 69 377 81 409 105 _c
441 129 458 165 458 212 _c
458 254 443 288 413 312 _c
383 336 341 349 287 349 _c
}_e{202 349 _l
202 430 _l
291 430 _l
339 430 376 439 402 459 _c
428 478 441 506 441 543 _c
441 580 427 609 401 629 _c
374 649 336 659 287 659 _c
260 659 231 656 200 650 _c
169 644 135 635 98 623 _c
98 711 _l
135 721 170 729 203 734 _c
235 739 266 742 296 742 _c
370 742 429 725 473 691 _c
517 657 539 611 539 553 _c
539 513 527 479 504 451 _c
481 423 448 403 406 393 _c
_cl}_e}_d
/four{636 0 49 0 580 729 _sc
378 643 _m
129 254 _l
378 254 _l
378 643 _l
352 729 _m
476 729 _l
476 254 _l
580 254 _l
580 172 _l
476 172 _l
476 0 _l
378 0 _l
378 172 _l
49 172 _l
49 267 _l
352 729 _l
_cl}_d
/five{{636 0 77 -13 549 729 _sc
108 729 _m
495 729 _l
495 646 _l
198 646 _l
198 467 _l
212 472 227 476 241 478 _c
255 480 270 482 284 482 _c
365 482 429 459 477 415 _c
525 370 549 310 549 234 _c
549 155 524 94 475 51 _c
426 8 357 -13 269 -13 _c
238 -13 207 -10 175 -6 _c
143 -1 111 6 77 17 _c
77 116 _l
106 100 136 88 168 80 _c
199 72 232 69 267 69 _c
}_e{323 69 368 83 401 113 _c
433 143 450 183 450 234 _c
450 284 433 324 401 354 _c
368 384 323 399 267 399 _c
241 399 214 396 188 390 _c
162 384 135 375 108 363 _c
108 729 _l
_cl}_e}_d
/six{{636 0 70 -13 573 742 _sc
330 404 _m
286 404 251 388 225 358 _c
199 328 186 286 186 234 _c
186 181 199 139 225 109 _c
251 79 286 64 330 64 _c
374 64 409 79 435 109 _c
461 139 474 181 474 234 _c
474 286 461 328 435 358 _c
409 388 374 404 330 404 _c
526 713 _m
526 623 _l
501 635 476 644 451 650 _c
425 656 400 659 376 659 _c
310 659 260 637 226 593 _c
}_e{192 549 172 482 168 394 _c
187 422 211 444 240 459 _c
269 474 301 482 336 482 _c
409 482 467 459 509 415 _c
551 371 573 310 573 234 _c
573 159 550 99 506 54 _c
462 9 403 -13 330 -13 _c
246 -13 181 19 137 83 _c
92 147 70 241 70 364 _c
70 479 97 571 152 639 _c
206 707 280 742 372 742 _c
396 742 421 739 447 735 _c
472 730 498 723 526 713 _c
_cl}_e}_d
/C{{698 0 56 -13 644 742 _sc
644 673 _m
644 569 _l
610 599 575 622 537 638 _c
499 653 460 661 418 661 _c
334 661 270 635 226 584 _c
182 533 160 460 160 364 _c
160 268 182 194 226 143 _c
270 92 334 67 418 67 _c
460 67 499 74 537 90 _c
575 105 610 128 644 159 _c
644 56 _l
609 32 572 15 534 4 _c
496 -7 455 -13 412 -13 _c
302 -13 215 20 151 87 _c
}_e{87 154 56 246 56 364 _c
56 481 87 573 151 641 _c
215 708 302 742 412 742 _c
456 742 497 736 535 725 _c
573 713 610 696 644 673 _c
_cl}_e}_d
/c{{550 0 55 -13 488 560 _sc
488 526 _m
488 442 _l
462 456 437 466 411 473 _c
385 480 360 484 334 484 _c
276 484 230 465 198 428 _c
166 391 150 339 150 273 _c
150 206 166 154 198 117 _c
230 80 276 62 334 62 _c
360 62 385 65 411 72 _c
437 79 462 90 488 104 _c
488 21 _l
462 9 436 0 410 -5 _c
383 -10 354 -13 324 -13 _c
242 -13 176 12 128 64 _c
}_e{79 115 55 185 55 273 _c
55 362 79 432 128 483 _c
177 534 244 560 330 560 _c
358 560 385 557 411 551 _c
437 545 463 537 488 526 _c
_cl}_e}_d
/d{{635 0 55 -13 544 760 _sc
454 464 _m
454 760 _l
544 760 _l
544 0 _l
454 0 _l
454 82 _l
435 49 411 25 382 10 _c
353 -5 319 -13 279 -13 _c
213 -13 159 13 117 65 _c
75 117 55 187 55 273 _c
55 359 75 428 117 481 _c
159 533 213 560 279 560 _c
319 560 353 552 382 536 _c
411 520 435 496 454 464 _c
148 273 _m
148 207 161 155 188 117 _c
215 79 253 61 301 61 _c
}_e{348 61 385 79 413 117 _c
440 155 454 207 454 273 _c
454 339 440 390 413 428 _c
385 466 348 485 301 485 _c
253 485 215 466 188 428 _c
161 390 148 339 148 273 _c
_cl}_e}_d
/e{{615 0 55 -13 562 560 _sc
562 296 _m
562 252 _l
149 252 _l
153 190 171 142 205 110 _c
238 78 284 62 344 62 _c
378 62 412 66 444 74 _c
476 82 509 95 541 113 _c
541 28 _l
509 14 476 3 442 -3 _c
408 -9 373 -13 339 -13 _c
251 -13 182 12 131 62 _c
80 112 55 181 55 268 _c
55 357 79 428 127 481 _c
175 533 241 560 323 560 _c
397 560 455 536 498 489 _c
}_e{540 441 562 377 562 296 _c
472 322 _m
471 371 457 410 431 440 _c
404 469 368 484 324 484 _c
274 484 234 469 204 441 _c
174 413 156 373 152 322 _c
472 322 _l
_cl}_e}_d
/f{352 0 23 0 371 760 _sc
371 760 _m
371 685 _l
285 685 _l
253 685 230 678 218 665 _c
205 652 199 629 199 595 _c
199 547 _l
347 547 _l
347 477 _l
199 477 _l
199 0 _l
109 0 _l
109 477 _l
23 477 _l
23 547 _l
109 547 _l
109 585 _l
109 645 123 690 151 718 _c
179 746 224 760 286 760 _c
371 760 _l
_cl}_d
/i{278 0 94 0 184 760 _sc
94 547 _m
184 547 _l
184 0 _l
94 0 _l
94 547 _l
94 760 _m
184 760 _l
184 646 _l
94 646 _l
94 760 _l
_cl}_d
/n{634 0 91 0 549 560 _sc
549 330 _m
549 0 _l
459 0 _l
459 327 _l
459 379 448 417 428 443 _c
408 469 378 482 338 482 _c
289 482 251 466 223 435 _c
195 404 181 362 181 309 _c
181 0 _l
91 0 _l
91 547 _l
181 547 _l
181 462 _l
202 494 227 519 257 535 _c
286 551 320 560 358 560 _c
420 560 468 540 500 501 _c
532 462 549 405 549 330 _c
_cl}_d
/o{612 0 55 -13 557 560 _sc
306 484 _m
258 484 220 465 192 427 _c
164 389 150 338 150 273 _c
150 207 163 156 191 118 _c
219 80 257 62 306 62 _c
354 62 392 80 420 118 _c
448 156 462 207 462 273 _c
462 337 448 389 420 427 _c
392 465 354 484 306 484 _c
306 560 _m
384 560 445 534 490 484 _c
534 433 557 363 557 273 _c
557 183 534 113 490 63 _c
445 12 384 -13 306 -13 _c
227 -13 165 12 121 63 _c
77 113 55 183 55 273 _c
55 363 77 433 121 484 _c
165 534 227 560 306 560 _c
_cl}_d
/minus{838 0 106 272 732 355 _sc
106 355 _m
732 355 _l
732 272 _l
106 272 _l
106 355 _l
_cl}_d
end readonly def

/BuildGlyph
 {exch begin
 CharStrings exch
 2 copy known not{pop /.notdef}if
 true 3 1 roll get exec
 end}_d

/BuildChar {
 1 index /Encoding get exch get
 1 index /BuildGlyph get exec
}_d

FontName currentdict end definefont pop
end
%%EndProlog
mpldict begin
75.6 223.2 translate
460.8 345.6 0 0 clipbox
gsave
0 0 m
460.8 0 l
460.8 345.6 l
0 345.6 l
cl
1.000 setgray
fill
grestore
gsave
57.6 38.016 m
414.72 38.016 l
414.72 304.128 l
57.6 304.128 l
cl
1.000 setgray
fill
grestore
gsave
357.1 266.1 57.6 38.02 clipbox
73.832727 38.016 m
81.949091 38.016 l
81.949091 39.493923 l
73.832727 39.493923 l
cl
0.000 0.500 0.000 setrgbcolor
fill
grestore
gsave
357.1 266.1 57.6 38.02 clipbox
81.949091 38.016 m
90.065455 38.016 l
90.065455 45.643991 l
81.949091 45.643991 l
cl
0.000 0.500 0.000 setrgbcolor
fill
grestore
gsave
357.1 266.1 57.6 38.02 clipbox
90.065455 38.016 m
98.181818 38.016 l
98.181818 47.407964 l
90.065455 47.407964 l
cl
0.000 0.500 0.000 setrgbcolor
fill
grestore
gsave
357.1 266.1 57.6 38.02 clipbox
98.181818 38.016 m
106.298182 38.016 l
106.298182 43.021869 l
98.181818 43.021869 l
cl
0.000 0.500 0.000 setrgbcolor
fill
grestore
gsave
357.1 266.1 57.6 38.02 clipbox
106.298182 38.016 m
114.414545 38.016 l
114.414545 40.066023 l
106.298182 40.066023 l
cl
0.000 0.500 0.000 setrgbcolor
fill
grestore
gsave
357.1 266.1 57.6 38.02 clipbox
114.414545 38.016 m
122.530909 38.016 l
122.530909 42.688144 l
114.414545 42.688144 l
cl
0.000 0.500 0.000 setrgbcolor
fill
grestore
gsave
357.1 266.1 57.6 38.02 clipbox
122.530909 38.016 m
130.647273 38.016 l
130.647273 43.593968 l
122.530909 43.593968 l
cl
0.000 0.500 0.000 setrgbcolor
fill
grestore
gsave
357.1 266.1 57.6 38.02 clipbox
130.647273 38.016 m
138.763636 38.016 l
138.763636 40.638122 l
130.647273 40.638122 l
cl
0.000 0.500 0.000 setrgbcolor
fill
grestore
gsave
357.1 266.1 57.6 38.02 clipbox
138.763636 38.016 m
146.88 38.016 l
146.88 59.374375 l
138.763636 59.374375 l
cl
0.000 0.500 0.000 setrgbcolor
fill
grestore
gsave
357.1 266.1 57.6 38.02 clipbox
146.88 38.016 m
154.996364 38.016 l
154.996364 44.309093 l
146.88 44.309093 l
cl
0.000 0.500 0.000 setrgbcolor
fill
grestore
gsave
357.1 266.1 57.6 38.02 clipbox
154.996364 38.016 m
163.112727 38.016 l
163.112727 51.221959 l
154.996364 51.221959 l
cl
0.000 0.500 0.000 setrgbcolor
fill
grestore
gsave
357.1 266.1 57.6 38.02 clipbox
163.112727 38.016 m
171.229091 38.016 l
171.229091 65.333743 l
163.112727 65.333743 l
cl
0.000 0.500 0.000 setrgbcolor
fill
grestore
gsave
357.1 266.1 57.6 38.02 clipbox
171.229091 38.016 m
179.345455 38.016 l
179.345455 55.512704 l
171.229091 55.512704 l
cl
0.000 0.500 0.000 setrgbcolor
fill
grestore
gsave
357.1 266.1 57.6 38.02 clipbox
179.345455 38.016 m
187.461818 38.016 l
187.461818 51.651034 l
179.345455 51.651034 l
cl
0.000 0.500 0.000 setrgbcolor
fill
grestore
gsave
357.1 266.1 57.6 38.02 clipbox
187.461818 38.016 m
195.578182 38.016 l
195.578182 59.803449 l
187.461818 59.803449 l
cl
0.000 0.500 0.000 setrgbcolor
fill
grestore
gsave
357.1 266.1 57.6 38.02 clipbox
195.578182 38.016 m
203.694545 38.016 l
203.694545 75.488506 l
195.578182 75.488506 l
cl
0.000 0.500 0.000 setrgbcolor
fill
grestore
gsave
357.1 266.1 57.6 38.02 clipbox
203.694545 38.016 m
211.810909 38.016 l
211.810909 81.114149 l
203.694545 81.114149 l
cl
0.000 0.500 0.000 setrgbcolor
fill
grestore
gsave
357.1 266.1 57.6 38.02 clipbox
211.810909 38.016 m
219.927273 38.016 l
219.927273 89.171214 l
211.810909 89.171214 l
cl
0.000 0.500 0.000 setrgbcolor
fill
grestore
gsave
357.1 266.1 57.6 38.02 clipbox
219.927273 38.016 m
228.043636 38.016 l
228.043636 71.48381 l
219.927273 71.48381 l
cl
0.000 0.500 0.000 setrgbcolor
fill
grestore
gsave
357.1 266.1 57.6 38.02 clipbox
228.043636 38.016 m
236.16 38.016 l
236.16 115.773833 l
228.043636 115.773833 l
cl
0.000 0.500 0.000 setrgbcolor
fill
grestore
gsave
357.1 266.1 57.6 38.02 clipbox
236.16 38.016 m
244.276364 38.016 l
244.276364 130.362366 l
236.16 130.362366 l
cl
0.000 0.500 0.000 setrgbcolor
fill
grestore
gsave
357.1 266.1 57.6 38.02 clipbox
244.276364 38.016 m
252.392727 38.016 l
252.392727 111.149363 l
244.276364 111.149363 l
cl
0.000 0.500 0.000 setrgbcolor
fill
grestore
gsave
357.1 266.1 57.6 38.02 clipbox
252.392727 38.016 m
260.509091 38.016 l
260.509091 94.177084 l
252.392727 94.177084 l
cl
0.000 0.500 0.000 setrgbcolor
fill
grestore
gsave
357.1 266.1 57.6 38.02 clipbox
260.509091 38.016 m
268.625455 38.016 l
268.625455 133.747287 l
260.509091 133.747287 l
cl
0.000 0.500 0.000 setrgbcolor
fill
grestore
gsave
357.1 266.1 57.6 38.02 clipbox
268.625455 38.016 m
276.741818 38.016 l
276.741818 231.051847 l
268.625455 231.051847 l
cl
0.000 0.500 0.000 setrgbcolor
fill
grestore
gsave
357.1 266.1 57.6 38.02 clipbox
276.741818 38.016 m
284.858182 38.016 l
284.858182 162.781327 l
276.741818 162.781327 l
cl
0.000 0.500 0.000 setrgbcolor
fill
grestore
gsave
357.1 266.1 57.6 38.02 clipbox
284.858182 38.016 m
292.974545 38.016 l
292.974545 291.456 l
284.858182 291.456 l
cl
0.000 0.500 0.000 setrgbcolor
fill
grestore
gsave
357.1 266.1 57.6 38.02 clipbox
292.974545 38.016 m
301.090909 38.016 l
301.090909 115.916858 l
292.974545 115.916858 l
cl
0.000 0.500 0.000 setrgbcolor
fill
grestore
gsave
357.1 266.1 57.6 38.02 clipbox
301.090909 38.016 m
309.207273 38.016 l
309.207273 74.296632 l
301.090909 74.296632 l
cl
0.000 0.500 0.000 setrgbcolor
fill
grestore
gsave
357.1 266.1 57.6 38.02 clipbox
309.207273 38.016 m
317.323636 38.016 l
317.323636 86.120018 l
309.207273 86.120018 l
cl
0.000 0.500 0.000 setrgbcolor
fill
grestore
gsave
357.1 266.1 57.6 38.02 clipbox
317.323636 38.016 m
325.44 38.016 l
325.44 62.377896 l
317.323636 62.377896 l
cl
0.000 0.500 0.000 setrgbcolor
fill
grestore
gsave
357.1 266.1 57.6 38.02 clipbox
325.44 38.016 m
333.556364 38.016 l
333.556364 60.613923 l
325.44 60.613923 l
cl
0.000 0.500 0.000 setrgbcolor
fill
grestore
gsave
357.1 266.1 57.6 38.02 clipbox
333.556364 38.016 m
341.672727 38.016 l
341.672727 48.313788 l
333.556364 48.313788 l
cl
0.000 0.500 0.000 setrgbcolor
fill
grestore
gsave
357.1 266.1 57.6 38.02 clipbox
341.672727 38.016 m
349.789091 38.016 l
349.789091 44.690492 l
341.672727 44.690492 l
cl
0.000 0.500 0.000 setrgbcolor
fill
grestore
gsave
357.1 266.1 57.6 38.02 clipbox
349.789091 38.016 m
357.905455 38.016 l
357.905455 40.971847 l
349.789091 40.971847 l
cl
0.000 0.500 0.000 setrgbcolor
fill
grestore
gsave
357.1 266.1 57.6 38.02 clipbox
357.905455 38.016 m
366.021818 38.016 l
366.021818 39.446248 l
357.905455 39.446248 l
cl
0.000 0.500 0.000 setrgbcolor
fill
grestore
gsave
357.1 266.1 57.6 38.02 clipbox
366.021818 38.016 m
374.138182 38.016 l
374.138182 39.970673 l
366.021818 39.970673 l
cl
0.000 0.500 0.000 setrgbcolor
fill
grestore
gsave
357.1 266.1 57.6 38.02 clipbox
374.138182 38.016 m
382.254545 38.016 l
382.254545 41.639296 l
374.138182 41.639296 l
cl
0.000 0.500 0.000 setrgbcolor
fill
grestore
gsave
357.1 266.1 57.6 38.02 clipbox
382.254545 38.016 m
390.370909 38.016 l
390.370909 38.063675 l
382.254545 38.063675 l
cl
0.000 0.500 0.000 setrgbcolor
fill
grestore
gsave
357.1 266.1 57.6 38.02 clipbox
390.370909 38.016 m
398.487273 38.016 l
398.487273 39.064849 l
390.370909 39.064849 l
cl
0.000 0.500 0.000 setrgbcolor
fill
grestore
0.800 setlinewidth
1 setlinejoin
0 setlinecap
[] 0 setdash
0.000 setgray
gsave
/o {
gsave
newpath
translate
0.8 setlinewidth
1 setlinejoin
0 setlinecap
0 0 m
0 -3.5 l

gsave
0.000 setgray
fill
grestore
stroke
grestore
} bind def
113.755 38.016 o
grestore
/DejaVuSans findfont
10.000 scalefont
setfont
gsave
101.614641 23.422250 translate
0.000000 rotate
0.000000 0.000000 m /minus glyphshow
8.378906 0.000000 m /zero glyphshow
14.741211 0.000000 m /period glyphshow
17.919922 0.000000 m /four glyphshow
grestore
gsave
/o {
gsave
newpath
translate
0.8 setlinewidth
1 setlinejoin
0 setlinecap
0 0 m
0 -3.5 l

gsave
0.000 setgray
fill
grestore
stroke
grestore
} bind def
173.102 38.016 o
grestore
gsave
160.961717 23.422250 translate
0.000000 rotate
0.000000 0.000000 m /minus glyphshow
8.378906 0.000000 m /zero glyphshow
14.741211 0.000000 m /period glyphshow
17.919922 0.000000 m /two glyphshow
grestore
gsave
/o {
gsave
newpath
translate
0.8 setlinewidth
1 setlinejoin
0 setlinecap
0 0 m
0 -3.5 l

gsave
0.000 setgray
fill
grestore
stroke
grestore
} bind def
232.449 38.016 o
grestore
gsave
224.496294 23.422250 translate
0.000000 rotate
0.000000 0.000000 m /zero glyphshow
6.362305 0.000000 m /period glyphshow
9.541016 0.000000 m /zero glyphshow
grestore
gsave
/o {
gsave
newpath
translate
0.8 setlinewidth
1 setlinejoin
0 setlinecap
0 0 m
0 -3.5 l

gsave
0.000 setgray
fill
grestore
stroke
grestore
} bind def
291.796 38.016 o
grestore
gsave
283.843370 23.422250 translate
0.000000 rotate
0.000000 0.000000 m /zero glyphshow
6.362305 0.000000 m /period glyphshow
9.541016 0.000000 m /two glyphshow
grestore
gsave
/o {
gsave
newpath
translate
0.8 setlinewidth
1 setlinejoin
0 setlinecap
0 0 m
0 -3.5 l

gsave
0.000 setgray
fill
grestore
stroke
grestore
} bind def
351.144 38.016 o
grestore
gsave
343.190447 23.422250 translate
0.000000 rotate
0.000000 0.000000 m /zero glyphshow
6.362305 0.000000 m /period glyphshow
9.541016 0.000000 m /four glyphshow
grestore
gsave
/o {
gsave
newpath
translate
0.8 setlinewidth
1 setlinejoin
0 setlinecap
0 0 m
0 -3.5 l

gsave
0.000 setgray
fill
grestore
stroke
grestore
} bind def
410.491 38.016 o
grestore
gsave
402.537523 23.422250 translate
0.000000 rotate
0.000000 0.000000 m /zero glyphshow
6.362305 0.000000 m /period glyphshow
9.541016 0.000000 m /six glyphshow
grestore
gsave
/o {
gsave
newpath
translate
0.8 setlinewidth
1 setlinejoin
0 setlinecap
0 0 m
-3.5 0 l

gsave
0.000 setgray
fill
grestore
stroke
grestore
} bind def
57.6 38.016 o
grestore
gsave
44.240625 34.219125 translate
0.000000 rotate
0.000000 0.000000 m /zero glyphshow
grestore
gsave
/o {
gsave
newpath
translate
0.8 setlinewidth
1 setlinejoin
0 setlinecap
0 0 m
-3.5 0 l

gsave
0.000 setgray
fill
grestore
stroke
grestore
} bind def
57.6 85.6909 o
grestore
gsave
25.162500 81.894069 translate
0.000000 rotate
0.000000 0.000000 m /one glyphshow
6.362305 0.000000 m /zero glyphshow
12.724609 0.000000 m /zero glyphshow
19.086914 0.000000 m /zero glyphshow
grestore
gsave
/o {
gsave
newpath
translate
0.8 setlinewidth
1 setlinejoin
0 setlinecap
0 0 m
-3.5 0 l

gsave
0.000 setgray
fill
grestore
stroke
grestore
} bind def
57.6 133.366 o
grestore
gsave
25.162500 129.569012 translate
0.000000 rotate
0.000000 0.000000 m /two glyphshow
6.362305 0.000000 m /zero glyphshow
12.724609 0.000000 m /zero glyphshow
19.086914 0.000000 m /zero glyphshow
grestore
gsave
/o {
gsave
newpath
translate
0.8 setlinewidth
1 setlinejoin
0 setlinecap
0 0 m
-3.5 0 l

gsave
0.000 setgray
fill
grestore
stroke
grestore
} bind def
57.6 181.041 o
grestore
gsave
25.162500 177.243956 translate
0.000000 rotate
0.000000 0.000000 m /three glyphshow
6.362305 0.000000 m /zero glyphshow
12.724609 0.000000 m /zero glyphshow
19.086914 0.000000 m /zero glyphshow
grestore
gsave
/o {
gsave
newpath
translate
0.8 setlinewidth
1 setlinejoin
0 setlinecap
0 0 m
-3.5 0 l

gsave
0.000 setgray
fill
grestore
stroke
grestore
} bind def
57.6 228.716 o
grestore
gsave
25.162500 224.918899 translate
0.000000 rotate
0.000000 0.000000 m /four glyphshow
6.362305 0.000000 m /zero glyphshow
12.724609 0.000000 m /zero glyphshow
19.086914 0.000000 m /zero glyphshow
grestore
gsave
/o {
gsave
newpath
translate
0.8 setlinewidth
1 setlinejoin
0 setlinecap
0 0 m
-3.5 0 l

gsave
0.000 setgray
fill
grestore
stroke
grestore
} bind def
57.6 276.391 o
grestore
gsave
25.162500 272.593843 translate
0.000000 rotate
0.000000 0.000000 m /five glyphshow
6.362305 0.000000 m /zero glyphshow
12.724609 0.000000 m /zero glyphshow
19.086914 0.000000 m /zero glyphshow
grestore
0 setlinejoin
2 setlinecap
[] 0 setdash
gsave
57.6 38.016 m
57.6 304.128 l
stroke
grestore
gsave
414.72 38.016 m
414.72 304.128 l
stroke
grestore
gsave
57.6 38.016 m
414.72 38.016 l
stroke
grestore
gsave
57.6 304.128 m
414.72 304.128 l
stroke
grestore
/DejaVuSans findfont
12.000 scalefont
setfont
gsave
202.417812 310.128000 translate
0.000000 rotate
0.000000 0.000000 m /C glyphshow
8.378906 0.000000 m /o glyphshow
15.720703 0.000000 m /n glyphshow
23.326172 0.000000 m /f glyphshow
27.550781 0.000000 m /i glyphshow
30.884766 0.000000 m /d glyphshow
38.501953 0.000000 m /e glyphshow
45.884766 0.000000 m /n glyphshow
53.490234 0.000000 m /c glyphshow
60.087891 0.000000 m /e glyphshow
grestore

end
showpage
