%!PS-Adobe-3.0 EPSF-3.0
%%Title: ../../results/Figures/Future Return_histogram.eps
%%Creator: matplotlib version 3.1.1, http://matplotlib.org/
%%CreationDate: Tue Feb 11 11:19:41 2020
%%Orientation: portrait
%%BoundingBox: 75.6 223.20000000000002 536.4 568.8
%%EndComments
%%BeginProlog
/mpldict 8 dict def
mpldict begin
/m { moveto } bind def
/l { lineto } bind def
/r { rlineto } bind def
/c { curveto } bind def
/cl { closepath } bind def
/box {
m
1 index 0 r
0 exch r
neg 0 r
cl
} bind def
/clipbox {
box
clip
newpath
} bind def
%!PS-Adobe-3.0 Resource-Font
%%Title: DejaVu Sans
%%Copyright: Copyright (c) 2003 by Bitstream, Inc. All Rights Reserved. Copyright (c) 2006 by Tavmjong Bah. All Rights Reserved. DejaVu changes are in public domain 
%%Creator: Converted from TrueType to type 3 by PPR
25 dict begin
/_d{bind def}bind def
/_m{moveto}_d
/_l{lineto}_d
/_cl{closepath eofill}_d
/_c{curveto}_d
/_sc{7 -1 roll{setcachedevice}{pop pop pop pop pop pop}ifelse}_d
/_e{exec}_d
/FontName /DejaVuSans def
/PaintType 0 def
/FontMatrix[.001 0 0 .001 0 0]def
/FontBBox[-1021 -463 1793 1232]def
/FontType 3 def
/Encoding [ /space /period /zero /one /two /three /four /seven /eight /nine /F /R /e /n /r /t /u ] def
/FontInfo 10 dict dup begin
/FamilyName (DejaVu Sans) def
/FullName (DejaVu Sans) def
/Notice (Copyright (c) 2003 by Bitstream, Inc. All Rights Reserved. Copyright (c) 2006 by Tavmjong Bah. All Rights Reserved. DejaVu changes are in public domain ) def
/Weight (Book) def
/Version (Version 2.35) def
/ItalicAngle 0.0 def
/isFixedPitch false def
/UnderlinePosition -130 def
/UnderlineThickness 90 def
end readonly def
/CharStrings 18 dict dup begin
/.notdef 0 def
/space{318 0 0 0 0 0 _sc
}_d
/period{318 0 107 0 210 124 _sc
107 124 _m
210 124 _l
210 0 _l
107 0 _l
107 124 _l
_cl}_d
/zero{636 0 66 -13 570 742 _sc
318 664 _m
267 664 229 639 203 589 _c
177 539 165 464 165 364 _c
165 264 177 189 203 139 _c
229 89 267 64 318 64 _c
369 64 407 89 433 139 _c
458 189 471 264 471 364 _c
471 464 458 539 433 589 _c
407 639 369 664 318 664 _c
318 742 _m
399 742 461 709 505 645 _c
548 580 570 486 570 364 _c
570 241 548 147 505 83 _c
461 19 399 -13 318 -13 _c
236 -13 173 19 130 83 _c
87 147 66 241 66 364 _c
66 486 87 580 130 645 _c
173 709 236 742 318 742 _c
_cl}_d
/one{636 0 110 0 544 729 _sc
124 83 _m
285 83 _l
285 639 _l
110 604 _l
110 694 _l
284 729 _l
383 729 _l
383 83 _l
544 83 _l
544 0 _l
124 0 _l
124 83 _l
_cl}_d
/two{{636 0 73 0 536 742 _sc
192 83 _m
536 83 _l
536 0 _l
73 0 _l
73 83 _l
110 121 161 173 226 239 _c
290 304 331 346 348 365 _c
380 400 402 430 414 455 _c
426 479 433 504 433 528 _c
433 566 419 598 392 622 _c
365 646 330 659 286 659 _c
255 659 222 653 188 643 _c
154 632 117 616 78 594 _c
78 694 _l
118 710 155 722 189 730 _c
223 738 255 742 284 742 _c
}_e{359 742 419 723 464 685 _c
509 647 532 597 532 534 _c
532 504 526 475 515 449 _c
504 422 484 390 454 354 _c
446 344 420 317 376 272 _c
332 227 271 164 192 83 _c
_cl}_e}_d
/three{{636 0 76 -13 556 742 _sc
406 393 _m
453 383 490 362 516 330 _c
542 298 556 258 556 212 _c
556 140 531 84 482 45 _c
432 6 362 -13 271 -13 _c
240 -13 208 -10 176 -4 _c
144 1 110 10 76 22 _c
76 117 _l
103 101 133 89 166 81 _c
198 73 232 69 268 69 _c
330 69 377 81 409 105 _c
441 129 458 165 458 212 _c
458 254 443 288 413 312 _c
383 336 341 349 287 349 _c
}_e{202 349 _l
202 430 _l
291 430 _l
339 430 376 439 402 459 _c
428 478 441 506 441 543 _c
441 580 427 609 401 629 _c
374 649 336 659 287 659 _c
260 659 231 656 200 650 _c
169 644 135 635 98 623 _c
98 711 _l
135 721 170 729 203 734 _c
235 739 266 742 296 742 _c
370 742 429 725 473 691 _c
517 657 539 611 539 553 _c
539 513 527 479 504 451 _c
481 423 448 403 406 393 _c
_cl}_e}_d
/four{636 0 49 0 580 729 _sc
378 643 _m
129 254 _l
378 254 _l
378 643 _l
352 729 _m
476 729 _l
476 254 _l
580 254 _l
580 172 _l
476 172 _l
476 0 _l
378 0 _l
378 172 _l
49 172 _l
49 267 _l
352 729 _l
_cl}_d
/seven{636 0 82 0 551 729 _sc
82 729 _m
551 729 _l
551 687 _l
286 0 _l
183 0 _l
432 646 _l
82 646 _l
82 729 _l
_cl}_d
/eight{{636 0 68 -13 568 742 _sc
318 346 _m
271 346 234 333 207 308 _c
180 283 167 249 167 205 _c
167 161 180 126 207 101 _c
234 76 271 64 318 64 _c
364 64 401 76 428 102 _c
455 127 469 161 469 205 _c
469 249 455 283 429 308 _c
402 333 365 346 318 346 _c
219 388 _m
177 398 144 418 120 447 _c
96 476 85 511 85 553 _c
85 611 105 657 147 691 _c
188 725 245 742 318 742 _c
}_e{390 742 447 725 489 691 _c
530 657 551 611 551 553 _c
551 511 539 476 515 447 _c
491 418 459 398 417 388 _c
464 377 501 355 528 323 _c
554 291 568 251 568 205 _c
568 134 546 80 503 43 _c
459 5 398 -13 318 -13 _c
237 -13 175 5 132 43 _c
89 80 68 134 68 205 _c
68 251 81 291 108 323 _c
134 355 171 377 219 388 _c
183 544 _m
183 506 194 476 218 455 _c
}_e{242 434 275 424 318 424 _c
360 424 393 434 417 455 _c
441 476 453 506 453 544 _c
453 582 441 611 417 632 _c
393 653 360 664 318 664 _c
275 664 242 653 218 632 _c
194 611 183 582 183 544 _c
_cl}_e}_d
/nine{{636 0 63 -13 566 742 _sc
110 15 _m
110 105 _l
134 93 159 84 185 78 _c
210 72 235 69 260 69 _c
324 69 374 90 408 134 _c
442 178 462 244 468 334 _c
448 306 424 284 396 269 _c
367 254 335 247 300 247 _c
226 247 168 269 126 313 _c
84 357 63 417 63 494 _c
63 568 85 628 129 674 _c
173 719 232 742 306 742 _c
390 742 455 709 499 645 _c
543 580 566 486 566 364 _c
}_e{566 248 538 157 484 89 _c
429 21 356 -13 264 -13 _c
239 -13 214 -10 189 -6 _c
163 -2 137 5 110 15 _c
306 324 _m
350 324 385 339 411 369 _c
437 399 450 441 450 494 _c
450 546 437 588 411 618 _c
385 648 350 664 306 664 _c
262 664 227 648 201 618 _c
175 588 162 546 162 494 _c
162 441 175 399 201 369 _c
227 339 262 324 306 324 _c
_cl}_e}_d
/F{575 0 98 0 517 729 _sc
98 729 _m
517 729 _l
517 646 _l
197 646 _l
197 431 _l
486 431 _l
486 348 _l
197 348 _l
197 0 _l
98 0 _l
98 729 _l
_cl}_d
/R{{695 0 98 0 666 729 _sc
444 342 _m
465 334 486 319 506 296 _c
526 272 546 240 566 199 _c
666 0 _l
560 0 _l
467 187 _l
443 235 419 268 397 284 _c
374 300 343 308 304 308 _c
197 308 _l
197 0 _l
98 0 _l
98 729 _l
321 729 _l
404 729 466 711 507 677 _c
548 642 569 589 569 519 _c
569 473 558 434 537 404 _c
515 374 484 353 444 342 _c
197 648 _m
197 389 _l
321 389 _l
}_e{368 389 404 400 428 422 _c
452 444 465 476 465 519 _c
465 561 452 593 428 615 _c
404 637 368 648 321 648 _c
197 648 _l
_cl}_e}_d
/e{{615 0 55 -13 562 560 _sc
562 296 _m
562 252 _l
149 252 _l
153 190 171 142 205 110 _c
238 78 284 62 344 62 _c
378 62 412 66 444 74 _c
476 82 509 95 541 113 _c
541 28 _l
509 14 476 3 442 -3 _c
408 -9 373 -13 339 -13 _c
251 -13 182 12 131 62 _c
80 112 55 181 55 268 _c
55 357 79 428 127 481 _c
175 533 241 560 323 560 _c
397 560 455 536 498 489 _c
}_e{540 441 562 377 562 296 _c
472 322 _m
471 371 457 410 431 440 _c
404 469 368 484 324 484 _c
274 484 234 469 204 441 _c
174 413 156 373 152 322 _c
472 322 _l
_cl}_e}_d
/n{634 0 91 0 549 560 _sc
549 330 _m
549 0 _l
459 0 _l
459 327 _l
459 379 448 417 428 443 _c
408 469 378 482 338 482 _c
289 482 251 466 223 435 _c
195 404 181 362 181 309 _c
181 0 _l
91 0 _l
91 547 _l
181 547 _l
181 462 _l
202 494 227 519 257 535 _c
286 551 320 560 358 560 _c
420 560 468 540 500 501 _c
532 462 549 405 549 330 _c
_cl}_d
/r{411 0 91 0 411 560 _sc
411 463 _m
401 469 390 473 378 476 _c
366 478 353 480 339 480 _c
288 480 249 463 222 430 _c
194 397 181 350 181 288 _c
181 0 _l
91 0 _l
91 547 _l
181 547 _l
181 462 _l
199 495 224 520 254 536 _c
284 552 321 560 365 560 _c
371 560 378 559 386 559 _c
393 558 401 557 411 555 _c
411 463 _l
_cl}_d
/t{392 0 27 0 368 702 _sc
183 702 _m
183 547 _l
368 547 _l
368 477 _l
183 477 _l
183 180 _l
183 135 189 106 201 94 _c
213 81 238 75 276 75 _c
368 75 _l
368 0 _l
276 0 _l
206 0 158 13 132 39 _c
106 65 93 112 93 180 _c
93 477 _l
27 477 _l
27 547 _l
93 547 _l
93 702 _l
183 702 _l
_cl}_d
/u{634 0 85 -13 543 560 _sc
85 216 _m
85 547 _l
175 547 _l
175 219 _l
175 167 185 129 205 103 _c
225 77 255 64 296 64 _c
344 64 383 79 411 110 _c
439 141 453 183 453 237 _c
453 547 _l
543 547 _l
543 0 _l
453 0 _l
453 84 _l
431 50 405 26 377 10 _c
348 -5 315 -13 277 -13 _c
214 -13 166 6 134 45 _c
101 83 85 140 85 216 _c
311 560 _m
311 560 _l
_cl}_d
end readonly def

/BuildGlyph
 {exch begin
 CharStrings exch
 2 copy known not{pop /.notdef}if
 true 3 1 roll get exec
 end}_d

/BuildChar {
 1 index /Encoding get exch get
 1 index /BuildGlyph get exec
}_d

FontName currentdict end definefont pop
end
%%EndProlog
mpldict begin
75.6 223.2 translate
460.8 345.6 0 0 clipbox
gsave
0 0 m
460.8 0 l
460.8 345.6 l
0 345.6 l
cl
1.000 setgray
fill
grestore
gsave
57.6 38.016 m
414.72 38.016 l
414.72 304.128 l
57.6 304.128 l
cl
1.000 setgray
fill
grestore
gsave
357.1 266.1 57.6 38.02 clipbox
73.832727 38.016 m
81.949091 38.016 l
81.949091 41.145604 l
73.832727 41.145604 l
cl
0.000 0.500 0.000 setrgbcolor
fill
grestore
gsave
357.1 266.1 57.6 38.02 clipbox
81.949091 38.016 m
90.065455 38.016 l
90.065455 42.53654 l
81.949091 42.53654 l
cl
0.000 0.500 0.000 setrgbcolor
fill
grestore
gsave
357.1 266.1 57.6 38.02 clipbox
90.065455 38.016 m
98.181818 38.016 l
98.181818 43.289963 l
90.065455 43.289963 l
cl
0.000 0.500 0.000 setrgbcolor
fill
grestore
gsave
357.1 266.1 57.6 38.02 clipbox
98.181818 38.016 m
106.298182 38.016 l
106.298182 47.288902 l
98.181818 47.288902 l
cl
0.000 0.500 0.000 setrgbcolor
fill
grestore
gsave
357.1 266.1 57.6 38.02 clipbox
106.298182 38.016 m
114.414545 38.016 l
114.414545 48.563926 l
106.298182 48.563926 l
cl
0.000 0.500 0.000 setrgbcolor
fill
grestore
gsave
357.1 266.1 57.6 38.02 clipbox
114.414545 38.016 m
122.530909 38.016 l
122.530909 50.476462 l
114.414545 50.476462 l
cl
0.000 0.500 0.000 setrgbcolor
fill
grestore
gsave
357.1 266.1 57.6 38.02 clipbox
122.530909 38.016 m
130.647273 38.016 l
130.647273 47.810503 l
122.530909 47.810503 l
cl
0.000 0.500 0.000 setrgbcolor
fill
grestore
gsave
357.1 266.1 57.6 38.02 clipbox
130.647273 38.016 m
138.763636 38.016 l
138.763636 46.477523 l
130.647273 46.477523 l
cl
0.000 0.500 0.000 setrgbcolor
fill
grestore
gsave
357.1 266.1 57.6 38.02 clipbox
138.763636 38.016 m
146.88 38.016 l
146.88 48.448015 l
138.763636 48.448015 l
cl
0.000 0.500 0.000 setrgbcolor
fill
grestore
gsave
357.1 266.1 57.6 38.02 clipbox
146.88 38.016 m
154.996364 38.016 l
154.996364 52.736732 l
146.88 52.736732 l
cl
0.000 0.500 0.000 setrgbcolor
fill
grestore
gsave
357.1 266.1 57.6 38.02 clipbox
154.996364 38.016 m
163.112727 38.016 l
163.112727 56.909538 l
154.996364 56.909538 l
cl
0.000 0.500 0.000 setrgbcolor
fill
grestore
gsave
357.1 266.1 57.6 38.02 clipbox
163.112727 38.016 m
171.229091 38.016 l
171.229091 69.775689 l
163.112727 69.775689 l
cl
0.000 0.500 0.000 setrgbcolor
fill
grestore
gsave
357.1 266.1 57.6 38.02 clipbox
171.229091 38.016 m
179.345455 38.016 l
179.345455 71.22458 l
171.229091 71.22458 l
cl
0.000 0.500 0.000 setrgbcolor
fill
grestore
gsave
357.1 266.1 57.6 38.02 clipbox
179.345455 38.016 m
187.461818 38.016 l
187.461818 78.121301 l
179.345455 78.121301 l
cl
0.000 0.500 0.000 setrgbcolor
fill
grestore
gsave
357.1 266.1 57.6 38.02 clipbox
187.461818 38.016 m
195.578182 38.016 l
195.578182 74.354184 l
187.461818 74.354184 l
cl
0.000 0.500 0.000 setrgbcolor
fill
grestore
gsave
357.1 266.1 57.6 38.02 clipbox
195.578182 38.016 m
203.694545 38.016 l
203.694545 82.931619 l
195.578182 82.931619 l
cl
0.000 0.500 0.000 setrgbcolor
fill
grestore
gsave
357.1 266.1 57.6 38.02 clipbox
203.694545 38.016 m
211.810909 38.016 l
211.810909 96.493238 l
203.694545 96.493238 l
cl
0.000 0.500 0.000 setrgbcolor
fill
grestore
gsave
357.1 266.1 57.6 38.02 clipbox
211.810909 38.016 m
219.927273 38.016 l
219.927273 112.083304 l
211.810909 112.083304 l
cl
0.000 0.500 0.000 setrgbcolor
fill
grestore
gsave
357.1 266.1 57.6 38.02 clipbox
219.927273 38.016 m
228.043636 38.016 l
228.043636 137.815607 l
219.927273 137.815607 l
cl
0.000 0.500 0.000 setrgbcolor
fill
grestore
gsave
357.1 266.1 57.6 38.02 clipbox
228.043636 38.016 m
236.16 38.016 l
236.16 239.237971 l
228.043636 239.237971 l
cl
0.000 0.500 0.000 setrgbcolor
fill
grestore
gsave
357.1 266.1 57.6 38.02 clipbox
236.16 38.016 m
244.276364 38.016 l
244.276364 291.456 l
236.16 291.456 l
cl
0.000 0.500 0.000 setrgbcolor
fill
grestore
gsave
357.1 266.1 57.6 38.02 clipbox
244.276364 38.016 m
252.392727 38.016 l
252.392727 235.52881 l
244.276364 235.52881 l
cl
0.000 0.500 0.000 setrgbcolor
fill
grestore
gsave
357.1 266.1 57.6 38.02 clipbox
252.392727 38.016 m
260.509091 38.016 l
260.509091 179.369798 l
252.392727 179.369798 l
cl
0.000 0.500 0.000 setrgbcolor
fill
grestore
gsave
357.1 266.1 57.6 38.02 clipbox
260.509091 38.016 m
268.625455 38.016 l
268.625455 158.505769 l
260.509091 158.505769 l
cl
0.000 0.500 0.000 setrgbcolor
fill
grestore
gsave
357.1 266.1 57.6 38.02 clipbox
268.625455 38.016 m
276.741818 38.016 l
276.741818 123.964209 l
268.625455 123.964209 l
cl
0.000 0.500 0.000 setrgbcolor
fill
grestore
gsave
357.1 266.1 57.6 38.02 clipbox
276.741818 38.016 m
284.858182 38.016 l
284.858182 98.000084 l
276.741818 98.000084 l
cl
0.000 0.500 0.000 setrgbcolor
fill
grestore
gsave
357.1 266.1 57.6 38.02 clipbox
284.858182 38.016 m
292.974545 38.016 l
292.974545 95.39208 l
284.858182 95.39208 l
cl
0.000 0.500 0.000 setrgbcolor
fill
grestore
gsave
357.1 266.1 57.6 38.02 clipbox
292.974545 38.016 m
301.090909 38.016 l
301.090909 89.538561 l
292.974545 89.538561 l
cl
0.000 0.500 0.000 setrgbcolor
fill
grestore
gsave
357.1 266.1 57.6 38.02 clipbox
301.090909 38.016 m
309.207273 38.016 l
309.207273 79.628147 l
301.090909 79.628147 l
cl
0.000 0.500 0.000 setrgbcolor
fill
grestore
gsave
357.1 266.1 57.6 38.02 clipbox
309.207273 38.016 m
317.323636 38.016 l
317.323636 72.035959 l
309.207273 72.035959 l
cl
0.000 0.500 0.000 setrgbcolor
fill
grestore
gsave
357.1 266.1 57.6 38.02 clipbox
317.323636 38.016 m
325.44 38.016 l
325.44 65.892661 l
317.323636 65.892661 l
cl
0.000 0.500 0.000 setrgbcolor
fill
grestore
gsave
357.1 266.1 57.6 38.02 clipbox
325.44 38.016 m
333.556364 38.016 l
333.556364 56.156114 l
325.44 56.156114 l
cl
0.000 0.500 0.000 setrgbcolor
fill
grestore
gsave
357.1 266.1 57.6 38.02 clipbox
333.556364 38.016 m
341.672727 38.016 l
341.672727 51.461708 l
333.556364 51.461708 l
cl
0.000 0.500 0.000 setrgbcolor
fill
grestore
gsave
357.1 266.1 57.6 38.02 clipbox
341.672727 38.016 m
349.789091 38.016 l
349.789091 45.782055 l
341.672727 45.782055 l
cl
0.000 0.500 0.000 setrgbcolor
fill
grestore
gsave
357.1 266.1 57.6 38.02 clipbox
349.789091 38.016 m
357.905455 38.016 l
357.905455 45.144543 l
349.789091 45.144543 l
cl
0.000 0.500 0.000 setrgbcolor
fill
grestore
gsave
357.1 266.1 57.6 38.02 clipbox
357.905455 38.016 m
366.021818 38.016 l
366.021818 43.46383 l
357.905455 43.46383 l
cl
0.000 0.500 0.000 setrgbcolor
fill
grestore
gsave
357.1 266.1 57.6 38.02 clipbox
366.021818 38.016 m
374.138182 38.016 l
374.138182 41.20356 l
366.021818 41.20356 l
cl
0.000 0.500 0.000 setrgbcolor
fill
grestore
gsave
357.1 266.1 57.6 38.02 clipbox
374.138182 38.016 m
382.254545 38.016 l
382.254545 39.406935 l
374.138182 39.406935 l
cl
0.000 0.500 0.000 setrgbcolor
fill
grestore
gsave
357.1 266.1 57.6 38.02 clipbox
382.254545 38.016 m
390.370909 38.016 l
390.370909 39.986492 l
382.254545 39.986492 l
cl
0.000 0.500 0.000 setrgbcolor
fill
grestore
gsave
357.1 266.1 57.6 38.02 clipbox
390.370909 38.016 m
398.487273 38.016 l
398.487273 40.218314 l
390.370909 40.218314 l
cl
0.000 0.500 0.000 setrgbcolor
fill
grestore
0.800 setlinewidth
1 setlinejoin
0 setlinecap
[] 0 setdash
0.000 setgray
gsave
/o {
gsave
newpath
translate
0.8 setlinewidth
1 setlinejoin
0 setlinecap
0 0 m
0 -3.5 l

gsave
0.000 setgray
fill
grestore
stroke
grestore
} bind def
74.1948 38.016 o
grestore
/DejaVuSans findfont
10.000 scalefont
setfont
gsave
66.241668 23.422250 translate
0.000000 rotate
0.000000 0.000000 m /zero glyphshow
6.362305 0.000000 m /period glyphshow
9.541016 0.000000 m /seven glyphshow
grestore
gsave
/o {
gsave
newpath
translate
0.8 setlinewidth
1 setlinejoin
0 setlinecap
0 0 m
0 -3.5 l

gsave
0.000 setgray
fill
grestore
stroke
grestore
} bind def
127.078 38.016 o
grestore
gsave
119.124624 23.422250 translate
0.000000 rotate
0.000000 0.000000 m /zero glyphshow
6.362305 0.000000 m /period glyphshow
9.541016 0.000000 m /eight glyphshow
grestore
gsave
/o {
gsave
newpath
translate
0.8 setlinewidth
1 setlinejoin
0 setlinecap
0 0 m
0 -3.5 l

gsave
0.000 setgray
fill
grestore
stroke
grestore
} bind def
179.961 38.016 o
grestore
gsave
172.007580 23.422250 translate
0.000000 rotate
0.000000 0.000000 m /zero glyphshow
6.362305 0.000000 m /period glyphshow
9.541016 0.000000 m /nine glyphshow
grestore
gsave
/o {
gsave
newpath
translate
0.8 setlinewidth
1 setlinejoin
0 setlinecap
0 0 m
0 -3.5 l

gsave
0.000 setgray
fill
grestore
stroke
grestore
} bind def
232.844 38.016 o
grestore
gsave
224.890537 23.422250 translate
0.000000 rotate
0.000000 0.000000 m /one glyphshow
6.362305 0.000000 m /period glyphshow
9.541016 0.000000 m /zero glyphshow
grestore
gsave
/o {
gsave
newpath
translate
0.8 setlinewidth
1 setlinejoin
0 setlinecap
0 0 m
0 -3.5 l

gsave
0.000 setgray
fill
grestore
stroke
grestore
} bind def
285.727 38.016 o
grestore
gsave
277.773493 23.422250 translate
0.000000 rotate
0.000000 0.000000 m /one glyphshow
6.362305 0.000000 m /period glyphshow
9.541016 0.000000 m /one glyphshow
grestore
gsave
/o {
gsave
newpath
translate
0.8 setlinewidth
1 setlinejoin
0 setlinecap
0 0 m
0 -3.5 l

gsave
0.000 setgray
fill
grestore
stroke
grestore
} bind def
338.61 38.016 o
grestore
gsave
330.656449 23.422250 translate
0.000000 rotate
0.000000 0.000000 m /one glyphshow
6.362305 0.000000 m /period glyphshow
9.541016 0.000000 m /two glyphshow
grestore
gsave
/o {
gsave
newpath
translate
0.8 setlinewidth
1 setlinejoin
0 setlinecap
0 0 m
0 -3.5 l

gsave
0.000 setgray
fill
grestore
stroke
grestore
} bind def
391.493 38.016 o
grestore
gsave
383.539405 23.422250 translate
0.000000 rotate
0.000000 0.000000 m /one glyphshow
6.362305 0.000000 m /period glyphshow
9.541016 0.000000 m /three glyphshow
grestore
gsave
/o {
gsave
newpath
translate
0.8 setlinewidth
1 setlinejoin
0 setlinecap
0 0 m
-3.5 0 l

gsave
0.000 setgray
fill
grestore
stroke
grestore
} bind def
57.6 38.016 o
grestore
gsave
44.240625 34.219125 translate
0.000000 rotate
0.000000 0.000000 m /zero glyphshow
grestore
gsave
/o {
gsave
newpath
translate
0.8 setlinewidth
1 setlinejoin
0 setlinecap
0 0 m
-3.5 0 l

gsave
0.000 setgray
fill
grestore
stroke
grestore
} bind def
57.6 95.9716 o
grestore
gsave
25.162500 92.174762 translate
0.000000 rotate
0.000000 0.000000 m /one glyphshow
6.362305 0.000000 m /zero glyphshow
12.724609 0.000000 m /zero glyphshow
19.086914 0.000000 m /zero glyphshow
grestore
gsave
/o {
gsave
newpath
translate
0.8 setlinewidth
1 setlinejoin
0 setlinecap
0 0 m
-3.5 0 l

gsave
0.000 setgray
fill
grestore
stroke
grestore
} bind def
57.6 153.927 o
grestore
gsave
25.162500 150.130399 translate
0.000000 rotate
0.000000 0.000000 m /two glyphshow
6.362305 0.000000 m /zero glyphshow
12.724609 0.000000 m /zero glyphshow
19.086914 0.000000 m /zero glyphshow
grestore
gsave
/o {
gsave
newpath
translate
0.8 setlinewidth
1 setlinejoin
0 setlinecap
0 0 m
-3.5 0 l

gsave
0.000 setgray
fill
grestore
stroke
grestore
} bind def
57.6 211.883 o
grestore
gsave
25.162500 208.086036 translate
0.000000 rotate
0.000000 0.000000 m /three glyphshow
6.362305 0.000000 m /zero glyphshow
12.724609 0.000000 m /zero glyphshow
19.086914 0.000000 m /zero glyphshow
grestore
gsave
/o {
gsave
newpath
translate
0.8 setlinewidth
1 setlinejoin
0 setlinecap
0 0 m
-3.5 0 l

gsave
0.000 setgray
fill
grestore
stroke
grestore
} bind def
57.6 269.839 o
grestore
gsave
25.162500 266.041672 translate
0.000000 rotate
0.000000 0.000000 m /four glyphshow
6.362305 0.000000 m /zero glyphshow
12.724609 0.000000 m /zero glyphshow
19.086914 0.000000 m /zero glyphshow
grestore
0 setlinejoin
2 setlinecap
[] 0 setdash
gsave
57.6 38.016 m
57.6 304.128 l
stroke
grestore
gsave
414.72 38.016 m
414.72 304.128 l
stroke
grestore
gsave
57.6 38.016 m
414.72 38.016 l
stroke
grestore
gsave
57.6 304.128 m
414.72 304.128 l
stroke
grestore
/DejaVuSans findfont
12.000 scalefont
setfont
gsave
194.378750 310.128000 translate
0.000000 rotate
0.000000 0.000000 m /F glyphshow
6.902344 0.000000 m /u glyphshow
14.507812 0.000000 m /t glyphshow
19.212891 0.000000 m /u glyphshow
26.818359 0.000000 m /r glyphshow
31.751953 0.000000 m /e glyphshow
39.134766 0.000000 m /space glyphshow
42.949219 0.000000 m /R glyphshow
51.287109 0.000000 m /e glyphshow
58.669922 0.000000 m /t glyphshow
63.375000 0.000000 m /u glyphshow
70.980469 0.000000 m /r glyphshow
75.914062 0.000000 m /n glyphshow
grestore

end
showpage
