%!PS-Adobe-3.0 EPSF-3.0
%%Title: ../../results/Figures/Idiosyncratic Risk_histogram.eps
%%Creator: matplotlib version 3.1.1, http://matplotlib.org/
%%CreationDate: Tue Feb 11 11:19:41 2020
%%Orientation: portrait
%%BoundingBox: 75.6 223.20000000000002 536.4 568.8
%%EndComments
%%BeginProlog
/mpldict 8 dict def
mpldict begin
/m { moveto } bind def
/l { lineto } bind def
/r { rlineto } bind def
/c { curveto } bind def
/cl { closepath } bind def
/box {
m
1 index 0 r
0 exch r
neg 0 r
cl
} bind def
/clipbox {
box
clip
newpath
} bind def
%!PS-Adobe-3.0 Resource-Font
%%Title: DejaVu Sans
%%Copyright: Copyright (c) 2003 by Bitstream, Inc. All Rights Reserved. Copyright (c) 2006 by Tavmjong Bah. All Rights Reserved. DejaVu changes are in public domain 
%%Creator: Converted from TrueType to type 3 by PPR
25 dict begin
/_d{bind def}bind def
/_m{moveto}_d
/_l{lineto}_d
/_cl{closepath eofill}_d
/_c{curveto}_d
/_sc{7 -1 roll{setcachedevice}{pop pop pop pop pop pop}ifelse}_d
/_e{exec}_d
/FontName /DejaVuSans def
/PaintType 0 def
/FontMatrix[.001 0 0 .001 0 0]def
/FontBBox[-1021 -463 1793 1232]def
/FontType 3 def
/Encoding [ /space /period /zero /one /two /three /four /five /six /eight /I /R /a /c /d /i /k /n /o /r /s /t /y ] def
/FontInfo 10 dict dup begin
/FamilyName (DejaVu Sans) def
/FullName (DejaVu Sans) def
/Notice (Copyright (c) 2003 by Bitstream, Inc. All Rights Reserved. Copyright (c) 2006 by Tavmjong Bah. All Rights Reserved. DejaVu changes are in public domain ) def
/Weight (Book) def
/Version (Version 2.35) def
/ItalicAngle 0.0 def
/isFixedPitch false def
/UnderlinePosition -130 def
/UnderlineThickness 90 def
end readonly def
/CharStrings 24 dict dup begin
/.notdef 0 def
/space{318 0 0 0 0 0 _sc
}_d
/period{318 0 107 0 210 124 _sc
107 124 _m
210 124 _l
210 0 _l
107 0 _l
107 124 _l
_cl}_d
/zero{636 0 66 -13 570 742 _sc
318 664 _m
267 664 229 639 203 589 _c
177 539 165 464 165 364 _c
165 264 177 189 203 139 _c
229 89 267 64 318 64 _c
369 64 407 89 433 139 _c
458 189 471 264 471 364 _c
471 464 458 539 433 589 _c
407 639 369 664 318 664 _c
318 742 _m
399 742 461 709 505 645 _c
548 580 570 486 570 364 _c
570 241 548 147 505 83 _c
461 19 399 -13 318 -13 _c
236 -13 173 19 130 83 _c
87 147 66 241 66 364 _c
66 486 87 580 130 645 _c
173 709 236 742 318 742 _c
_cl}_d
/one{636 0 110 0 544 729 _sc
124 83 _m
285 83 _l
285 639 _l
110 604 _l
110 694 _l
284 729 _l
383 729 _l
383 83 _l
544 83 _l
544 0 _l
124 0 _l
124 83 _l
_cl}_d
/two{{636 0 73 0 536 742 _sc
192 83 _m
536 83 _l
536 0 _l
73 0 _l
73 83 _l
110 121 161 173 226 239 _c
290 304 331 346 348 365 _c
380 400 402 430 414 455 _c
426 479 433 504 433 528 _c
433 566 419 598 392 622 _c
365 646 330 659 286 659 _c
255 659 222 653 188 643 _c
154 632 117 616 78 594 _c
78 694 _l
118 710 155 722 189 730 _c
223 738 255 742 284 742 _c
}_e{359 742 419 723 464 685 _c
509 647 532 597 532 534 _c
532 504 526 475 515 449 _c
504 422 484 390 454 354 _c
446 344 420 317 376 272 _c
332 227 271 164 192 83 _c
_cl}_e}_d
/three{{636 0 76 -13 556 742 _sc
406 393 _m
453 383 490 362 516 330 _c
542 298 556 258 556 212 _c
556 140 531 84 482 45 _c
432 6 362 -13 271 -13 _c
240 -13 208 -10 176 -4 _c
144 1 110 10 76 22 _c
76 117 _l
103 101 133 89 166 81 _c
198 73 232 69 268 69 _c
330 69 377 81 409 105 _c
441 129 458 165 458 212 _c
458 254 443 288 413 312 _c
383 336 341 349 287 349 _c
}_e{202 349 _l
202 430 _l
291 430 _l
339 430 376 439 402 459 _c
428 478 441 506 441 543 _c
441 580 427 609 401 629 _c
374 649 336 659 287 659 _c
260 659 231 656 200 650 _c
169 644 135 635 98 623 _c
98 711 _l
135 721 170 729 203 734 _c
235 739 266 742 296 742 _c
370 742 429 725 473 691 _c
517 657 539 611 539 553 _c
539 513 527 479 504 451 _c
481 423 448 403 406 393 _c
_cl}_e}_d
/four{636 0 49 0 580 729 _sc
378 643 _m
129 254 _l
378 254 _l
378 643 _l
352 729 _m
476 729 _l
476 254 _l
580 254 _l
580 172 _l
476 172 _l
476 0 _l
378 0 _l
378 172 _l
49 172 _l
49 267 _l
352 729 _l
_cl}_d
/five{{636 0 77 -13 549 729 _sc
108 729 _m
495 729 _l
495 646 _l
198 646 _l
198 467 _l
212 472 227 476 241 478 _c
255 480 270 482 284 482 _c
365 482 429 459 477 415 _c
525 370 549 310 549 234 _c
549 155 524 94 475 51 _c
426 8 357 -13 269 -13 _c
238 -13 207 -10 175 -6 _c
143 -1 111 6 77 17 _c
77 116 _l
106 100 136 88 168 80 _c
199 72 232 69 267 69 _c
}_e{323 69 368 83 401 113 _c
433 143 450 183 450 234 _c
450 284 433 324 401 354 _c
368 384 323 399 267 399 _c
241 399 214 396 188 390 _c
162 384 135 375 108 363 _c
108 729 _l
_cl}_e}_d
/six{{636 0 70 -13 573 742 _sc
330 404 _m
286 404 251 388 225 358 _c
199 328 186 286 186 234 _c
186 181 199 139 225 109 _c
251 79 286 64 330 64 _c
374 64 409 79 435 109 _c
461 139 474 181 474 234 _c
474 286 461 328 435 358 _c
409 388 374 404 330 404 _c
526 713 _m
526 623 _l
501 635 476 644 451 650 _c
425 656 400 659 376 659 _c
310 659 260 637 226 593 _c
}_e{192 549 172 482 168 394 _c
187 422 211 444 240 459 _c
269 474 301 482 336 482 _c
409 482 467 459 509 415 _c
551 371 573 310 573 234 _c
573 159 550 99 506 54 _c
462 9 403 -13 330 -13 _c
246 -13 181 19 137 83 _c
92 147 70 241 70 364 _c
70 479 97 571 152 639 _c
206 707 280 742 372 742 _c
396 742 421 739 447 735 _c
472 730 498 723 526 713 _c
_cl}_e}_d
/eight{{636 0 68 -13 568 742 _sc
318 346 _m
271 346 234 333 207 308 _c
180 283 167 249 167 205 _c
167 161 180 126 207 101 _c
234 76 271 64 318 64 _c
364 64 401 76 428 102 _c
455 127 469 161 469 205 _c
469 249 455 283 429 308 _c
402 333 365 346 318 346 _c
219 388 _m
177 398 144 418 120 447 _c
96 476 85 511 85 553 _c
85 611 105 657 147 691 _c
188 725 245 742 318 742 _c
}_e{390 742 447 725 489 691 _c
530 657 551 611 551 553 _c
551 511 539 476 515 447 _c
491 418 459 398 417 388 _c
464 377 501 355 528 323 _c
554 291 568 251 568 205 _c
568 134 546 80 503 43 _c
459 5 398 -13 318 -13 _c
237 -13 175 5 132 43 _c
89 80 68 134 68 205 _c
68 251 81 291 108 323 _c
134 355 171 377 219 388 _c
183 544 _m
183 506 194 476 218 455 _c
}_e{242 434 275 424 318 424 _c
360 424 393 434 417 455 _c
441 476 453 506 453 544 _c
453 582 441 611 417 632 _c
393 653 360 664 318 664 _c
275 664 242 653 218 632 _c
194 611 183 582 183 544 _c
_cl}_e}_d
/I{295 0 98 0 197 729 _sc
98 729 _m
197 729 _l
197 0 _l
98 0 _l
98 729 _l
_cl}_d
/R{{695 0 98 0 666 729 _sc
444 342 _m
465 334 486 319 506 296 _c
526 272 546 240 566 199 _c
666 0 _l
560 0 _l
467 187 _l
443 235 419 268 397 284 _c
374 300 343 308 304 308 _c
197 308 _l
197 0 _l
98 0 _l
98 729 _l
321 729 _l
404 729 466 711 507 677 _c
548 642 569 589 569 519 _c
569 473 558 434 537 404 _c
515 374 484 353 444 342 _c
197 648 _m
197 389 _l
321 389 _l
}_e{368 389 404 400 428 422 _c
452 444 465 476 465 519 _c
465 561 452 593 428 615 _c
404 637 368 648 321 648 _c
197 648 _l
_cl}_e}_d
/a{{613 0 60 -13 522 560 _sc
343 275 _m
270 275 220 266 192 250 _c
164 233 150 205 150 165 _c
150 133 160 107 181 89 _c
202 70 231 61 267 61 _c
317 61 357 78 387 114 _c
417 149 432 196 432 255 _c
432 275 _l
343 275 _l
522 312 _m
522 0 _l
432 0 _l
432 83 _l
411 49 385 25 355 10 _c
325 -5 287 -13 243 -13 _c
187 -13 142 2 109 33 _c
76 64 60 106 60 159 _c
}_e{60 220 80 266 122 298 _c
163 329 224 345 306 345 _c
432 345 _l
432 354 _l
432 395 418 427 391 450 _c
364 472 326 484 277 484 _c
245 484 215 480 185 472 _c
155 464 127 453 100 439 _c
100 522 _l
132 534 164 544 195 550 _c
226 556 256 560 286 560 _c
365 560 424 539 463 498 _c
502 457 522 395 522 312 _c
_cl}_e}_d
/c{{550 0 55 -13 488 560 _sc
488 526 _m
488 442 _l
462 456 437 466 411 473 _c
385 480 360 484 334 484 _c
276 484 230 465 198 428 _c
166 391 150 339 150 273 _c
150 206 166 154 198 117 _c
230 80 276 62 334 62 _c
360 62 385 65 411 72 _c
437 79 462 90 488 104 _c
488 21 _l
462 9 436 0 410 -5 _c
383 -10 354 -13 324 -13 _c
242 -13 176 12 128 64 _c
}_e{79 115 55 185 55 273 _c
55 362 79 432 128 483 _c
177 534 244 560 330 560 _c
358 560 385 557 411 551 _c
437 545 463 537 488 526 _c
_cl}_e}_d
/d{{635 0 55 -13 544 760 _sc
454 464 _m
454 760 _l
544 760 _l
544 0 _l
454 0 _l
454 82 _l
435 49 411 25 382 10 _c
353 -5 319 -13 279 -13 _c
213 -13 159 13 117 65 _c
75 117 55 187 55 273 _c
55 359 75 428 117 481 _c
159 533 213 560 279 560 _c
319 560 353 552 382 536 _c
411 520 435 496 454 464 _c
148 273 _m
148 207 161 155 188 117 _c
215 79 253 61 301 61 _c
}_e{348 61 385 79 413 117 _c
440 155 454 207 454 273 _c
454 339 440 390 413 428 _c
385 466 348 485 301 485 _c
253 485 215 466 188 428 _c
161 390 148 339 148 273 _c
_cl}_e}_d
/i{278 0 94 0 184 760 _sc
94 547 _m
184 547 _l
184 0 _l
94 0 _l
94 547 _l
94 760 _m
184 760 _l
184 646 _l
94 646 _l
94 760 _l
_cl}_d
/k{579 0 91 0 576 760 _sc
91 760 _m
181 760 _l
181 311 _l
449 547 _l
564 547 _l
274 291 _l
576 0 _l
459 0 _l
181 267 _l
181 0 _l
91 0 _l
91 760 _l
_cl}_d
/n{634 0 91 0 549 560 _sc
549 330 _m
549 0 _l
459 0 _l
459 327 _l
459 379 448 417 428 443 _c
408 469 378 482 338 482 _c
289 482 251 466 223 435 _c
195 404 181 362 181 309 _c
181 0 _l
91 0 _l
91 547 _l
181 547 _l
181 462 _l
202 494 227 519 257 535 _c
286 551 320 560 358 560 _c
420 560 468 540 500 501 _c
532 462 549 405 549 330 _c
_cl}_d
/o{612 0 55 -13 557 560 _sc
306 484 _m
258 484 220 465 192 427 _c
164 389 150 338 150 273 _c
150 207 163 156 191 118 _c
219 80 257 62 306 62 _c
354 62 392 80 420 118 _c
448 156 462 207 462 273 _c
462 337 448 389 420 427 _c
392 465 354 484 306 484 _c
306 560 _m
384 560 445 534 490 484 _c
534 433 557 363 557 273 _c
557 183 534 113 490 63 _c
445 12 384 -13 306 -13 _c
227 -13 165 12 121 63 _c
77 113 55 183 55 273 _c
55 363 77 433 121 484 _c
165 534 227 560 306 560 _c
_cl}_d
/r{411 0 91 0 411 560 _sc
411 463 _m
401 469 390 473 378 476 _c
366 478 353 480 339 480 _c
288 480 249 463 222 430 _c
194 397 181 350 181 288 _c
181 0 _l
91 0 _l
91 547 _l
181 547 _l
181 462 _l
199 495 224 520 254 536 _c
284 552 321 560 365 560 _c
371 560 378 559 386 559 _c
393 558 401 557 411 555 _c
411 463 _l
_cl}_d
/s{{521 0 54 -13 472 560 _sc
443 531 _m
443 446 _l
417 458 391 468 364 475 _c
336 481 308 485 279 485 _c
234 485 200 478 178 464 _c
156 450 145 430 145 403 _c
145 382 153 366 169 354 _c
185 342 217 330 265 320 _c
296 313 _l
360 299 405 279 432 255 _c
458 230 472 195 472 151 _c
472 100 452 60 412 31 _c
372 1 316 -13 246 -13 _c
216 -13 186 -10 154 -5 _c
}_e{122 0 89 8 54 20 _c
54 113 _l
87 95 120 82 152 74 _c
184 65 216 61 248 61 _c
290 61 323 68 346 82 _c
368 96 380 117 380 144 _c
380 168 371 187 355 200 _c
339 213 303 226 247 238 _c
216 245 _l
160 257 119 275 95 299 _c
70 323 58 356 58 399 _c
58 450 76 490 112 518 _c
148 546 200 560 268 560 _c
301 560 332 557 362 552 _c
391 547 418 540 443 531 _c
}_e{_cl}_e}_d
/t{392 0 27 0 368 702 _sc
183 702 _m
183 547 _l
368 547 _l
368 477 _l
183 477 _l
183 180 _l
183 135 189 106 201 94 _c
213 81 238 75 276 75 _c
368 75 _l
368 0 _l
276 0 _l
206 0 158 13 132 39 _c
106 65 93 112 93 180 _c
93 477 _l
27 477 _l
27 547 _l
93 547 _l
93 702 _l
183 702 _l
_cl}_d
/y{592 0 30 -207 562 547 _sc
322 -50 _m
296 -114 271 -157 247 -177 _c
223 -197 191 -207 151 -207 _c
79 -207 _l
79 -132 _l
132 -132 _l
156 -132 175 -126 189 -114 _c
203 -102 218 -75 235 -31 _c
251 9 _l
30 547 _l
125 547 _l
296 119 _l
467 547 _l
562 547 _l
322 -50 _l
_cl}_d
end readonly def

/BuildGlyph
 {exch begin
 CharStrings exch
 2 copy known not{pop /.notdef}if
 true 3 1 roll get exec
 end}_d

/BuildChar {
 1 index /Encoding get exch get
 1 index /BuildGlyph get exec
}_d

FontName currentdict end definefont pop
end
%%EndProlog
mpldict begin
75.6 223.2 translate
460.8 345.6 0 0 clipbox
gsave
0 0 m
460.8 0 l
460.8 345.6 l
0 345.6 l
cl
1.000 setgray
fill
grestore
gsave
57.6 38.016 m
414.72 38.016 l
414.72 304.128 l
57.6 304.128 l
cl
1.000 setgray
fill
grestore
gsave
357.1 266.1 57.6 38.02 clipbox
73.832727 38.016 m
81.949091 38.016 l
81.949091 89.980317 l
73.832727 89.980317 l
cl
0.000 0.500 0.000 setrgbcolor
fill
grestore
gsave
357.1 266.1 57.6 38.02 clipbox
81.949091 38.016 m
90.065455 38.016 l
90.065455 189.654561 l
81.949091 189.654561 l
cl
0.000 0.500 0.000 setrgbcolor
fill
grestore
gsave
357.1 266.1 57.6 38.02 clipbox
90.065455 38.016 m
98.181818 38.016 l
98.181818 274.438446 l
90.065455 274.438446 l
cl
0.000 0.500 0.000 setrgbcolor
fill
grestore
gsave
357.1 266.1 57.6 38.02 clipbox
98.181818 38.016 m
106.298182 38.016 l
106.298182 291.456 l
98.181818 291.456 l
cl
0.000 0.500 0.000 setrgbcolor
fill
grestore
gsave
357.1 266.1 57.6 38.02 clipbox
106.298182 38.016 m
114.414545 38.016 l
114.414545 258.27177 l
106.298182 258.27177 l
cl
0.000 0.500 0.000 setrgbcolor
fill
grestore
gsave
357.1 266.1 57.6 38.02 clipbox
114.414545 38.016 m
122.530909 38.016 l
122.530909 212.324374 l
114.414545 212.324374 l
cl
0.000 0.500 0.000 setrgbcolor
fill
grestore
gsave
357.1 266.1 57.6 38.02 clipbox
122.530909 38.016 m
130.647273 38.016 l
130.647273 157.442763 l
122.530909 157.442763 l
cl
0.000 0.500 0.000 setrgbcolor
fill
grestore
gsave
357.1 266.1 57.6 38.02 clipbox
130.647273 38.016 m
138.763636 38.016 l
138.763636 143.464058 l
130.647273 143.464058 l
cl
0.000 0.500 0.000 setrgbcolor
fill
grestore
gsave
357.1 266.1 57.6 38.02 clipbox
138.763636 38.016 m
146.88 38.016 l
146.88 128.209036 l
138.763636 128.209036 l
cl
0.000 0.500 0.000 setrgbcolor
fill
grestore
gsave
357.1 266.1 57.6 38.02 clipbox
146.88 38.016 m
154.996364 38.016 l
154.996364 107.666417 l
146.88 107.666417 l
cl
0.000 0.500 0.000 setrgbcolor
fill
grestore
gsave
357.1 266.1 57.6 38.02 clipbox
154.996364 38.016 m
163.112727 38.016 l
163.112727 95.754129 l
154.996364 95.754129 l
cl
0.000 0.500 0.000 setrgbcolor
fill
grestore
gsave
357.1 266.1 57.6 38.02 clipbox
163.112727 38.016 m
171.229091 38.016 l
171.229091 86.880691 l
163.112727 86.880691 l
cl
0.000 0.500 0.000 setrgbcolor
fill
grestore
gsave
357.1 266.1 57.6 38.02 clipbox
171.229091 38.016 m
179.345455 38.016 l
179.345455 79.891338 l
171.229091 79.891338 l
cl
0.000 0.500 0.000 setrgbcolor
fill
grestore
gsave
357.1 266.1 57.6 38.02 clipbox
179.345455 38.016 m
187.461818 38.016 l
187.461818 74.968403 l
179.345455 74.968403 l
cl
0.000 0.500 0.000 setrgbcolor
fill
grestore
gsave
357.1 266.1 57.6 38.02 clipbox
187.461818 38.016 m
195.578182 38.016 l
195.578182 71.261007 l
187.461818 71.261007 l
cl
0.000 0.500 0.000 setrgbcolor
fill
grestore
gsave
357.1 266.1 57.6 38.02 clipbox
195.578182 38.016 m
203.694545 38.016 l
203.694545 67.249727 l
195.578182 67.249727 l
cl
0.000 0.500 0.000 setrgbcolor
fill
grestore
gsave
357.1 266.1 57.6 38.02 clipbox
203.694545 38.016 m
211.810909 38.016 l
211.810909 66.155741 l
203.694545 66.155741 l
cl
0.000 0.500 0.000 setrgbcolor
fill
grestore
gsave
357.1 266.1 57.6 38.02 clipbox
211.810909 38.016 m
219.927273 38.016 l
219.927273 63.36 l
211.810909 63.36 l
cl
0.000 0.500 0.000 setrgbcolor
fill
grestore
gsave
357.1 266.1 57.6 38.02 clipbox
219.927273 38.016 m
228.043636 38.016 l
228.043636 58.497842 l
219.927273 58.497842 l
cl
0.000 0.500 0.000 setrgbcolor
fill
grestore
gsave
357.1 266.1 57.6 38.02 clipbox
228.043636 38.016 m
236.16 38.016 l
236.16 56.735309 l
228.043636 56.735309 l
cl
0.000 0.500 0.000 setrgbcolor
fill
grestore
gsave
357.1 266.1 57.6 38.02 clipbox
236.16 38.016 m
244.276364 38.016 l
244.276364 50.536058 l
236.16 50.536058 l
cl
0.000 0.500 0.000 setrgbcolor
fill
grestore
gsave
357.1 266.1 57.6 38.02 clipbox
244.276364 38.016 m
252.392727 38.016 l
252.392727 54.30423 l
244.276364 54.30423 l
cl
0.000 0.500 0.000 setrgbcolor
fill
grestore
gsave
357.1 266.1 57.6 38.02 clipbox
252.392727 38.016 m
260.509091 38.016 l
260.509091 50.475281 l
252.392727 50.475281 l
cl
0.000 0.500 0.000 setrgbcolor
fill
grestore
gsave
357.1 266.1 57.6 38.02 clipbox
260.509091 38.016 m
268.625455 38.016 l
268.625455 46.950216 l
260.509091 46.950216 l
cl
0.000 0.500 0.000 setrgbcolor
fill
grestore
gsave
357.1 266.1 57.6 38.02 clipbox
268.625455 38.016 m
276.741818 38.016 l
276.741818 48.044201 l
268.625455 48.044201 l
cl
0.000 0.500 0.000 setrgbcolor
fill
grestore
gsave
357.1 266.1 57.6 38.02 clipbox
276.741818 38.016 m
284.858182 38.016 l
284.858182 46.160115 l
276.741818 46.160115 l
cl
0.000 0.500 0.000 setrgbcolor
fill
grestore
gsave
357.1 266.1 57.6 38.02 clipbox
284.858182 38.016 m
292.974545 38.016 l
292.974545 45.005353 l
284.858182 45.005353 l
cl
0.000 0.500 0.000 setrgbcolor
fill
grestore
gsave
357.1 266.1 57.6 38.02 clipbox
292.974545 38.016 m
301.090909 38.016 l
301.090909 43.911367 l
292.974545 43.911367 l
cl
0.000 0.500 0.000 setrgbcolor
fill
grestore
gsave
357.1 266.1 57.6 38.02 clipbox
301.090909 38.016 m
309.207273 38.016 l
309.207273 43.485928 l
301.090909 43.485928 l
cl
0.000 0.500 0.000 setrgbcolor
fill
grestore
gsave
357.1 266.1 57.6 38.02 clipbox
309.207273 38.016 m
317.323636 38.016 l
317.323636 41.966504 l
309.207273 41.966504 l
cl
0.000 0.500 0.000 setrgbcolor
fill
grestore
gsave
357.1 266.1 57.6 38.02 clipbox
317.323636 38.016 m
325.44 38.016 l
325.44 44.154475 l
317.323636 44.154475 l
cl
0.000 0.500 0.000 setrgbcolor
fill
grestore
gsave
357.1 266.1 57.6 38.02 clipbox
325.44 38.016 m
333.556364 38.016 l
333.556364 42.63505 l
325.44 42.63505 l
cl
0.000 0.500 0.000 setrgbcolor
fill
grestore
gsave
357.1 266.1 57.6 38.02 clipbox
333.556364 38.016 m
341.672727 38.016 l
341.672727 41.601842 l
333.556364 41.601842 l
cl
0.000 0.500 0.000 setrgbcolor
fill
grestore
gsave
357.1 266.1 57.6 38.02 clipbox
341.672727 38.016 m
349.789091 38.016 l
349.789091 40.933295 l
341.672727 40.933295 l
cl
0.000 0.500 0.000 setrgbcolor
fill
grestore
gsave
357.1 266.1 57.6 38.02 clipbox
349.789091 38.016 m
357.905455 38.016 l
357.905455 41.115626 l
349.789091 41.115626 l
cl
0.000 0.500 0.000 setrgbcolor
fill
grestore
gsave
357.1 266.1 57.6 38.02 clipbox
357.905455 38.016 m
366.021818 38.016 l
366.021818 39.717755 l
357.905455 39.717755 l
cl
0.000 0.500 0.000 setrgbcolor
fill
grestore
gsave
357.1 266.1 57.6 38.02 clipbox
366.021818 38.016 m
374.138182 38.016 l
374.138182 39.413871 l
366.021818 39.413871 l
cl
0.000 0.500 0.000 setrgbcolor
fill
grestore
gsave
357.1 266.1 57.6 38.02 clipbox
374.138182 38.016 m
382.254545 38.016 l
382.254545 39.109986 l
374.138182 39.109986 l
cl
0.000 0.500 0.000 setrgbcolor
fill
grestore
gsave
357.1 266.1 57.6 38.02 clipbox
382.254545 38.016 m
390.370909 38.016 l
390.370909 38.866878 l
382.254545 38.866878 l
cl
0.000 0.500 0.000 setrgbcolor
fill
grestore
gsave
357.1 266.1 57.6 38.02 clipbox
390.370909 38.016 m
398.487273 38.016 l
398.487273 38.988432 l
390.370909 38.988432 l
cl
0.000 0.500 0.000 setrgbcolor
fill
grestore
0.800 setlinewidth
1 setlinejoin
0 setlinecap
[] 0 setdash
0.000 setgray
gsave
/o {
gsave
newpath
translate
0.8 setlinewidth
1 setlinejoin
0 setlinecap
0 0 m
0 -3.5 l

gsave
0.000 setgray
fill
grestore
stroke
grestore
} bind def
59.5614 38.016 o
grestore
/DejaVuSans findfont
10.000 scalefont
setfont
gsave
45.248945 23.422250 translate
0.000000 rotate
0.000000 0.000000 m /zero glyphshow
6.362305 0.000000 m /period glyphshow
9.541016 0.000000 m /zero glyphshow
15.903320 0.000000 m /zero glyphshow
22.265625 0.000000 m /zero glyphshow
grestore
gsave
/o {
gsave
newpath
translate
0.8 setlinewidth
1 setlinejoin
0 setlinecap
0 0 m
0 -3.5 l

gsave
0.000 setgray
fill
grestore
stroke
grestore
} bind def
105.029 38.016 o
grestore
gsave
90.716532 23.422250 translate
0.000000 rotate
0.000000 0.000000 m /zero glyphshow
6.362305 0.000000 m /period glyphshow
9.541016 0.000000 m /zero glyphshow
15.903320 0.000000 m /zero glyphshow
22.265625 0.000000 m /two glyphshow
grestore
gsave
/o {
gsave
newpath
translate
0.8 setlinewidth
1 setlinejoin
0 setlinecap
0 0 m
0 -3.5 l

gsave
0.000 setgray
fill
grestore
stroke
grestore
} bind def
150.497 38.016 o
grestore
gsave
136.184119 23.422250 translate
0.000000 rotate
0.000000 0.000000 m /zero glyphshow
6.362305 0.000000 m /period glyphshow
9.541016 0.000000 m /zero glyphshow
15.903320 0.000000 m /zero glyphshow
22.265625 0.000000 m /four glyphshow
grestore
gsave
/o {
gsave
newpath
translate
0.8 setlinewidth
1 setlinejoin
0 setlinecap
0 0 m
0 -3.5 l

gsave
0.000 setgray
fill
grestore
stroke
grestore
} bind def
195.964 38.016 o
grestore
gsave
181.651707 23.422250 translate
0.000000 rotate
0.000000 0.000000 m /zero glyphshow
6.362305 0.000000 m /period glyphshow
9.541016 0.000000 m /zero glyphshow
15.903320 0.000000 m /zero glyphshow
22.265625 0.000000 m /six glyphshow
grestore
gsave
/o {
gsave
newpath
translate
0.8 setlinewidth
1 setlinejoin
0 setlinecap
0 0 m
0 -3.5 l

gsave
0.000 setgray
fill
grestore
stroke
grestore
} bind def
241.432 38.016 o
grestore
gsave
227.119294 23.422250 translate
0.000000 rotate
0.000000 0.000000 m /zero glyphshow
6.362305 0.000000 m /period glyphshow
9.541016 0.000000 m /zero glyphshow
15.903320 0.000000 m /zero glyphshow
22.265625 0.000000 m /eight glyphshow
grestore
gsave
/o {
gsave
newpath
translate
0.8 setlinewidth
1 setlinejoin
0 setlinecap
0 0 m
0 -3.5 l

gsave
0.000 setgray
fill
grestore
stroke
grestore
} bind def
286.899 38.016 o
grestore
gsave
272.586882 23.422250 translate
0.000000 rotate
0.000000 0.000000 m /zero glyphshow
6.362305 0.000000 m /period glyphshow
9.541016 0.000000 m /zero glyphshow
15.903320 0.000000 m /one glyphshow
22.265625 0.000000 m /zero glyphshow
grestore
gsave
/o {
gsave
newpath
translate
0.8 setlinewidth
1 setlinejoin
0 setlinecap
0 0 m
0 -3.5 l

gsave
0.000 setgray
fill
grestore
stroke
grestore
} bind def
332.367 38.016 o
grestore
gsave
318.054469 23.422250 translate
0.000000 rotate
0.000000 0.000000 m /zero glyphshow
6.362305 0.000000 m /period glyphshow
9.541016 0.000000 m /zero glyphshow
15.903320 0.000000 m /one glyphshow
22.265625 0.000000 m /two glyphshow
grestore
gsave
/o {
gsave
newpath
translate
0.8 setlinewidth
1 setlinejoin
0 setlinecap
0 0 m
0 -3.5 l

gsave
0.000 setgray
fill
grestore
stroke
grestore
} bind def
377.835 38.016 o
grestore
gsave
363.522056 23.422250 translate
0.000000 rotate
0.000000 0.000000 m /zero glyphshow
6.362305 0.000000 m /period glyphshow
9.541016 0.000000 m /zero glyphshow
15.903320 0.000000 m /one glyphshow
22.265625 0.000000 m /four glyphshow
grestore
gsave
/o {
gsave
newpath
translate
0.8 setlinewidth
1 setlinejoin
0 setlinecap
0 0 m
-3.5 0 l

gsave
0.000 setgray
fill
grestore
stroke
grestore
} bind def
57.6 38.016 o
grestore
gsave
44.240625 34.219125 translate
0.000000 rotate
0.000000 0.000000 m /zero glyphshow
grestore
gsave
/o {
gsave
newpath
translate
0.8 setlinewidth
1 setlinejoin
0 setlinecap
0 0 m
-3.5 0 l

gsave
0.000 setgray
fill
grestore
stroke
grestore
} bind def
57.6 68.4045 o
grestore
gsave
31.521875 64.607614 translate
0.000000 rotate
0.000000 0.000000 m /five glyphshow
6.362305 0.000000 m /zero glyphshow
12.724609 0.000000 m /zero glyphshow
grestore
gsave
/o {
gsave
newpath
translate
0.8 setlinewidth
1 setlinejoin
0 setlinecap
0 0 m
-3.5 0 l

gsave
0.000 setgray
fill
grestore
stroke
grestore
} bind def
57.6 98.793 o
grestore
gsave
25.162500 94.996103 translate
0.000000 rotate
0.000000 0.000000 m /one glyphshow
6.362305 0.000000 m /zero glyphshow
12.724609 0.000000 m /zero glyphshow
19.086914 0.000000 m /zero glyphshow
grestore
gsave
/o {
gsave
newpath
translate
0.8 setlinewidth
1 setlinejoin
0 setlinecap
0 0 m
-3.5 0 l

gsave
0.000 setgray
fill
grestore
stroke
grestore
} bind def
57.6 129.181 o
grestore
gsave
25.162500 125.384593 translate
0.000000 rotate
0.000000 0.000000 m /one glyphshow
6.362305 0.000000 m /five glyphshow
12.724609 0.000000 m /zero glyphshow
19.086914 0.000000 m /zero glyphshow
grestore
gsave
/o {
gsave
newpath
translate
0.8 setlinewidth
1 setlinejoin
0 setlinecap
0 0 m
-3.5 0 l

gsave
0.000 setgray
fill
grestore
stroke
grestore
} bind def
57.6 159.57 o
grestore
gsave
25.162500 155.773082 translate
0.000000 rotate
0.000000 0.000000 m /two glyphshow
6.362305 0.000000 m /zero glyphshow
12.724609 0.000000 m /zero glyphshow
19.086914 0.000000 m /zero glyphshow
grestore
gsave
/o {
gsave
newpath
translate
0.8 setlinewidth
1 setlinejoin
0 setlinecap
0 0 m
-3.5 0 l

gsave
0.000 setgray
fill
grestore
stroke
grestore
} bind def
57.6 189.958 o
grestore
gsave
25.162500 186.161571 translate
0.000000 rotate
0.000000 0.000000 m /two glyphshow
6.362305 0.000000 m /five glyphshow
12.724609 0.000000 m /zero glyphshow
19.086914 0.000000 m /zero glyphshow
grestore
gsave
/o {
gsave
newpath
translate
0.8 setlinewidth
1 setlinejoin
0 setlinecap
0 0 m
-3.5 0 l

gsave
0.000 setgray
fill
grestore
stroke
grestore
} bind def
57.6 220.347 o
grestore
gsave
25.162500 216.550060 translate
0.000000 rotate
0.000000 0.000000 m /three glyphshow
6.362305 0.000000 m /zero glyphshow
12.724609 0.000000 m /zero glyphshow
19.086914 0.000000 m /zero glyphshow
grestore
gsave
/o {
gsave
newpath
translate
0.8 setlinewidth
1 setlinejoin
0 setlinecap
0 0 m
-3.5 0 l

gsave
0.000 setgray
fill
grestore
stroke
grestore
} bind def
57.6 250.735 o
grestore
gsave
25.162500 246.938549 translate
0.000000 rotate
0.000000 0.000000 m /three glyphshow
6.362305 0.000000 m /five glyphshow
12.724609 0.000000 m /zero glyphshow
19.086914 0.000000 m /zero glyphshow
grestore
gsave
/o {
gsave
newpath
translate
0.8 setlinewidth
1 setlinejoin
0 setlinecap
0 0 m
-3.5 0 l

gsave
0.000 setgray
fill
grestore
stroke
grestore
} bind def
57.6 281.124 o
grestore
gsave
25.162500 277.327039 translate
0.000000 rotate
0.000000 0.000000 m /four glyphshow
6.362305 0.000000 m /zero glyphshow
12.724609 0.000000 m /zero glyphshow
19.086914 0.000000 m /zero glyphshow
grestore
0 setlinejoin
2 setlinecap
[] 0 setdash
gsave
57.6 38.016 m
57.6 304.128 l
stroke
grestore
gsave
414.72 38.016 m
414.72 304.128 l
stroke
grestore
gsave
57.6 38.016 m
414.72 38.016 l
stroke
grestore
gsave
57.6 304.128 m
414.72 304.128 l
stroke
grestore
/DejaVuSans findfont
12.000 scalefont
setfont
gsave
183.652187 310.128000 translate
0.000000 rotate
0.000000 0.000000 m /I glyphshow
3.539062 0.000000 m /d glyphshow
11.156250 0.000000 m /i glyphshow
14.490234 0.000000 m /o glyphshow
21.832031 0.000000 m /s glyphshow
28.083984 0.000000 m /y glyphshow
35.185547 0.000000 m /n glyphshow
42.791016 0.000000 m /c glyphshow
49.388672 0.000000 m /r glyphshow
54.322266 0.000000 m /a glyphshow
61.675781 0.000000 m /t glyphshow
66.380859 0.000000 m /i glyphshow
69.714844 0.000000 m /c glyphshow
76.312500 0.000000 m /space glyphshow
80.126953 0.000000 m /R glyphshow
88.464844 0.000000 m /i glyphshow
91.798828 0.000000 m /s glyphshow
98.050781 0.000000 m /k glyphshow
grestore

end
showpage
