%!PS-Adobe-3.0 EPSF-3.0
%%Creator: (MATLAB, The Mathworks, Inc. Version 9.7.0.1216025 \(R2019b\) Update 1. Operating System: Mac OS X)
%%Title: ../../results/TF_IDF/baseline/Figures/Timeseries/Confidence_transformed.eps
%%CreationDate: 2020-03-06T15:17:16
%%Pages: (atend)
%%BoundingBox:    42    22   509   414
%%LanguageLevel: 3
%%EndComments
%%BeginProlog
%%BeginResource: procset (Apache XML Graphics Std ProcSet) 1.2 0
%%Version: 1.2 0
%%Copyright: (Copyright 2001-2003,2010 The Apache Software Foundation. License terms: http://www.apache.org/licenses/LICENSE-2.0)
/bd{bind def}bind def
/ld{load def}bd
/GR/grestore ld
/GS/gsave ld
/RM/rmoveto ld
/C/curveto ld
/t/show ld
/L/lineto ld
/ML/setmiterlimit ld
/CT/concat ld
/f/fill ld
/N/newpath ld
/S/stroke ld
/CC/setcmykcolor ld
/A/ashow ld
/cp/closepath ld
/RC/setrgbcolor ld
/LJ/setlinejoin ld
/GC/setgray ld
/LW/setlinewidth ld
/M/moveto ld
/re {4 2 roll M
1 index 0 rlineto
0 exch rlineto
neg 0 rlineto
cp } bd
/_ctm matrix def
/_tm matrix def
/BT { _ctm currentmatrix pop matrix _tm copy pop 0 0 moveto } bd
/ET { _ctm setmatrix } bd
/iTm { _ctm setmatrix _tm concat } bd
/Tm { _tm astore pop iTm 0 0 moveto } bd
/ux 0.0 def
/uy 0.0 def
/F {
  /Tp exch def
  /Tf exch def
  Tf findfont Tp scalefont setfont
  /cf Tf def  /cs Tp def
} bd
/ULS {currentpoint /uy exch def /ux exch def} bd
/ULE {
  /Tcx currentpoint pop def
  gsave
  newpath
  cf findfont cs scalefont dup
  /FontMatrix get 0 get /Ts exch def /FontInfo get dup
  /UnderlinePosition get Ts mul /To exch def
  /UnderlineThickness get Ts mul /Tt exch def
  ux uy To add moveto  Tcx uy To add lineto
  Tt setlinewidth stroke
  grestore
} bd
/OLE {
  /Tcx currentpoint pop def
  gsave
  newpath
  cf findfont cs scalefont dup
  /FontMatrix get 0 get /Ts exch def /FontInfo get dup
  /UnderlinePosition get Ts mul /To exch def
  /UnderlineThickness get Ts mul /Tt exch def
  ux uy To add cs add moveto Tcx uy To add cs add lineto
  Tt setlinewidth stroke
  grestore
} bd
/SOE {
  /Tcx currentpoint pop def
  gsave
  newpath
  cf findfont cs scalefont dup
  /FontMatrix get 0 get /Ts exch def /FontInfo get dup
  /UnderlinePosition get Ts mul /To exch def
  /UnderlineThickness get Ts mul /Tt exch def
  ux uy To add cs 10 mul 26 idiv add moveto Tcx uy To add cs 10 mul 26 idiv add lineto
  Tt setlinewidth stroke
  grestore
} bd
/QT {
/Y22 exch store
/X22 exch store
/Y21 exch store
/X21 exch store
currentpoint
/Y21 load 2 mul add 3 div exch
/X21 load 2 mul add 3 div exch
/X21 load 2 mul /X22 load add 3 div
/Y21 load 2 mul /Y22 load add 3 div
/X22 load /Y22 load curveto
} bd
/SSPD {
dup length /d exch dict def
{
/v exch def
/k exch def
currentpagedevice k known {
/cpdv currentpagedevice k get def
v cpdv ne {
/upd false def
/nullv v type /nulltype eq def
/nullcpdv cpdv type /nulltype eq def
nullv nullcpdv or
{
/upd true def
} {
/sametype v type cpdv type eq def
sametype {
v type /arraytype eq {
/vlen v length def
/cpdvlen cpdv length def
vlen cpdvlen eq {
0 1 vlen 1 sub {
/i exch def
/obj v i get def
/cpdobj cpdv i get def
obj cpdobj ne {
/upd true def
exit
} if
} for
} {
/upd true def
} ifelse
} {
v type /dicttype eq {
v {
/dv exch def
/dk exch def
/cpddv cpdv dk get def
dv cpddv ne {
/upd true def
exit
} if
} forall
} {
/upd true def
} ifelse
} ifelse
} if
} ifelse
upd true eq {
d k v put
} if
} if
} if
} forall
d length 0 gt {
d setpagedevice
} if
} bd
/RE { % /NewFontName [NewEncodingArray] /FontName RE -
  findfont dup length dict begin
  {
    1 index /FID ne
    {def} {pop pop} ifelse
  } forall
  /Encoding exch def
  /FontName 1 index def
  currentdict definefont pop
  end
} bind def
%%EndResource
%%BeginResource: procset (Apache XML Graphics EPS ProcSet) 1.0 0
%%Version: 1.0 0
%%Copyright: (Copyright 2002-2003 The Apache Software Foundation. License terms: http://www.apache.org/licenses/LICENSE-2.0)
/BeginEPSF { %def
/b4_Inc_state save def         % Save state for cleanup
/dict_count countdictstack def % Count objects on dict stack
/op_count count 1 sub def      % Count objects on operand stack
userdict begin                 % Push userdict on dict stack
/showpage { } def              % Redefine showpage, { } = null proc
0 setgray 0 setlinecap         % Prepare graphics state
1 setlinewidth 0 setlinejoin
10 setmiterlimit [ ] 0 setdash newpath
/languagelevel where           % If level not equal to 1 then
{pop languagelevel             % set strokeadjust and
1 ne                           % overprint to their defaults.
{false setstrokeadjust false setoverprint
} if
} if
} bd
/EndEPSF { %def
count op_count sub {pop} repeat            % Clean up stacks
countdictstack dict_count sub {end} repeat
b4_Inc_state restore
} bd
%%EndResource
%FOPBeginFontDict
%%IncludeResource: font Courier-Oblique
%%IncludeResource: font Courier-BoldOblique
%%IncludeResource: font Courier-Bold
%%IncludeResource: font ZapfDingbats
%%IncludeResource: font Symbol
%%IncludeResource: font Helvetica
%%IncludeResource: font Helvetica-Oblique
%%IncludeResource: font Helvetica-Bold
%%IncludeResource: font Helvetica-BoldOblique
%%IncludeResource: font Times-Roman
%%IncludeResource: font Times-Italic
%%IncludeResource: font Times-Bold
%%IncludeResource: font Times-BoldItalic
%%IncludeResource: font Courier
%FOPEndFontDict
%%BeginResource: encoding WinAnsiEncoding
/WinAnsiEncoding [
/.notdef /.notdef /.notdef /.notdef /.notdef
/.notdef /.notdef /.notdef /.notdef /.notdef
/.notdef /.notdef /.notdef /.notdef /.notdef
/.notdef /.notdef /.notdef /.notdef /.notdef
/.notdef /.notdef /.notdef /.notdef /.notdef
/.notdef /.notdef /.notdef /.notdef /.notdef
/.notdef /.notdef /space /exclam /quotedbl
/numbersign /dollar /percent /ampersand /quotesingle
/parenleft /parenright /asterisk /plus /comma
/hyphen /period /slash /zero /one
/two /three /four /five /six
/seven /eight /nine /colon /semicolon
/less /equal /greater /question /at
/A /B /C /D /E
/F /G /H /I /J
/K /L /M /N /O
/P /Q /R /S /T
/U /V /W /X /Y
/Z /bracketleft /backslash /bracketright /asciicircum
/underscore /quoteleft /a /b /c
/d /e /f /g /h
/i /j /k /l /m
/n /o /p /q /r
/s /t /u /v /w
/x /y /z /braceleft /bar
/braceright /asciitilde /bullet /Euro /bullet
/quotesinglbase /florin /quotedblbase /ellipsis /dagger
/daggerdbl /circumflex /perthousand /Scaron /guilsinglleft
/OE /bullet /Zcaron /bullet /bullet
/quoteleft /quoteright /quotedblleft /quotedblright /bullet
/endash /emdash /asciitilde /trademark /scaron
/guilsinglright /oe /bullet /zcaron /Ydieresis
/space /exclamdown /cent /sterling /currency
/yen /brokenbar /section /dieresis /copyright
/ordfeminine /guillemotleft /logicalnot /sfthyphen /registered
/macron /degree /plusminus /twosuperior /threesuperior
/acute /mu /paragraph /middot /cedilla
/onesuperior /ordmasculine /guillemotright /onequarter /onehalf
/threequarters /questiondown /Agrave /Aacute /Acircumflex
/Atilde /Adieresis /Aring /AE /Ccedilla
/Egrave /Eacute /Ecircumflex /Edieresis /Igrave
/Iacute /Icircumflex /Idieresis /Eth /Ntilde
/Ograve /Oacute /Ocircumflex /Otilde /Odieresis
/multiply /Oslash /Ugrave /Uacute /Ucircumflex
/Udieresis /Yacute /Thorn /germandbls /agrave
/aacute /acircumflex /atilde /adieresis /aring
/ae /ccedilla /egrave /eacute /ecircumflex
/edieresis /igrave /iacute /icircumflex /idieresis
/eth /ntilde /ograve /oacute /ocircumflex
/otilde /odieresis /divide /oslash /ugrave
/uacute /ucircumflex /udieresis /yacute /thorn
/ydieresis
] def
%%EndResource
%FOPBeginFontReencode
/Courier-Oblique findfont
dup length dict begin
  {1 index /FID ne {def} {pop pop} ifelse} forall
  /Encoding WinAnsiEncoding def
  currentdict
end
/Courier-Oblique exch definefont pop
/Courier-BoldOblique findfont
dup length dict begin
  {1 index /FID ne {def} {pop pop} ifelse} forall
  /Encoding WinAnsiEncoding def
  currentdict
end
/Courier-BoldOblique exch definefont pop
/Courier-Bold findfont
dup length dict begin
  {1 index /FID ne {def} {pop pop} ifelse} forall
  /Encoding WinAnsiEncoding def
  currentdict
end
/Courier-Bold exch definefont pop
/Helvetica findfont
dup length dict begin
  {1 index /FID ne {def} {pop pop} ifelse} forall
  /Encoding WinAnsiEncoding def
  currentdict
end
/Helvetica exch definefont pop
/Helvetica-Oblique findfont
dup length dict begin
  {1 index /FID ne {def} {pop pop} ifelse} forall
  /Encoding WinAnsiEncoding def
  currentdict
end
/Helvetica-Oblique exch definefont pop
/Helvetica-Bold findfont
dup length dict begin
  {1 index /FID ne {def} {pop pop} ifelse} forall
  /Encoding WinAnsiEncoding def
  currentdict
end
/Helvetica-Bold exch definefont pop
/Helvetica-BoldOblique findfont
dup length dict begin
  {1 index /FID ne {def} {pop pop} ifelse} forall
  /Encoding WinAnsiEncoding def
  currentdict
end
/Helvetica-BoldOblique exch definefont pop
/Times-Roman findfont
dup length dict begin
  {1 index /FID ne {def} {pop pop} ifelse} forall
  /Encoding WinAnsiEncoding def
  currentdict
end
/Times-Roman exch definefont pop
/Times-Italic findfont
dup length dict begin
  {1 index /FID ne {def} {pop pop} ifelse} forall
  /Encoding WinAnsiEncoding def
  currentdict
end
/Times-Italic exch definefont pop
/Times-Bold findfont
dup length dict begin
  {1 index /FID ne {def} {pop pop} ifelse} forall
  /Encoding WinAnsiEncoding def
  currentdict
end
/Times-Bold exch definefont pop
/Times-BoldItalic findfont
dup length dict begin
  {1 index /FID ne {def} {pop pop} ifelse} forall
  /Encoding WinAnsiEncoding def
  currentdict
end
/Times-BoldItalic exch definefont pop
/Courier findfont
dup length dict begin
  {1 index /FID ne {def} {pop pop} ifelse} forall
  /Encoding WinAnsiEncoding def
  currentdict
end
/Courier exch definefont pop
%FOPEndFontReencode
%%EndProlog
%%Page: 1 1
%%PageBoundingBox: 0 0 560 420
%%BeginPageSetup
[1 0 0 -1 0 420] CT
%%EndPageSetup
GS
1 GC
N
0 0 560 420 re
f
GR
GS
1 GC
N
0 0 560 420 re
f
GR
GS
1 GC
N
73 374 M
507 374 L
507 35 L
73 35 L
cp
f
GR
GS
0.149 GC
2 setlinecap
1 LJ
0.5 LW
N
73 374 M
507 374 L
S
GR
GS
0.149 GC
2 setlinecap
1 LJ
0.5 LW
N
73 35 M
507 35 L
S
GR
GS
0.149 GC
2 setlinecap
1 LJ
0.5 LW
N
73 374 M
73 369.66 L
S
GR
GS
0.149 GC
2 setlinecap
1 LJ
0.5 LW
N
151.85 374 M
151.85 369.66 L
S
GR
GS
0.149 GC
2 setlinecap
1 LJ
0.5 LW
N
230.808 374 M
230.808 369.66 L
S
GR
GS
0.149 GC
2 setlinecap
1 LJ
0.5 LW
N
309.659 374 M
309.659 369.66 L
S
GR
GS
0.149 GC
2 setlinecap
1 LJ
0.5 LW
N
388.617 374 M
388.617 369.66 L
S
GR
GS
0.149 GC
2 setlinecap
1 LJ
0.5 LW
N
467.467 374 M
467.467 369.66 L
S
GR
GS
0.149 GC
2 setlinecap
1 LJ
0.5 LW
N
73 35 M
73 39.34 L
S
GR
GS
0.149 GC
2 setlinecap
1 LJ
0.5 LW
N
151.85 35 M
151.85 39.34 L
S
GR
GS
0.149 GC
2 setlinecap
1 LJ
0.5 LW
N
230.808 35 M
230.808 39.34 L
S
GR
GS
0.149 GC
2 setlinecap
1 LJ
0.5 LW
N
309.659 35 M
309.659 39.34 L
S
GR
GS
0.149 GC
2 setlinecap
1 LJ
0.5 LW
N
388.617 35 M
388.617 39.34 L
S
GR
GS
0.149 GC
2 setlinecap
1 LJ
0.5 LW
N
467.467 35 M
467.467 39.34 L
S
GR
GS
[1 0 0 1 73 380] CT
0.149 GC
N
-19 16.8 M
-19 16.269 L
-19 16.206 -18.969 16.159 QT
-15.859 12.722 L
-15.156 11.956 -14.719 11.441 QT
-14.281 10.925 -13.852 10.245 QT
-13.422 9.566 -13.172 8.87 QT
-12.922 8.175 -12.922 7.394 QT
-12.922 6.581 -13.227 5.831 QT
-13.531 5.081 -14.125 4.628 QT
-14.719 4.175 -15.578 4.175 QT
-16.438 4.175 -17.133 4.698 QT
-17.828 5.222 -18.109 6.05 QT
-18.031 6.034 -17.906 6.034 QT
-17.453 6.034 -17.133 6.339 QT
-16.813 6.644 -16.813 7.128 QT
-16.813 7.581 -17.133 7.901 QT
-17.453 8.222 -17.906 8.222 QT
-18.375 8.222 -18.688 7.894 QT
-19 7.566 -19 7.128 QT
-19 6.362 -18.719 5.706 QT
-18.438 5.05 -17.906 4.534 QT
-17.375 4.019 -16.703 3.745 QT
-16.031 3.472 -15.281 3.472 QT
-14.141 3.472 -13.156 3.956 QT
-12.172 4.441 -11.594 5.323 QT
-11.016 6.206 -11.016 7.394 QT
-11.016 8.269 -11.398 9.05 QT
-11.781 9.831 -12.375 10.472 QT
-12.969 11.112 -13.898 11.917 QT
-14.828 12.722 -15.109 13.003 QT
-17.375 15.175 L
-15.453 15.175 L
-14.047 15.175 -13.094 15.151 QT
-12.141 15.128 -12.078 15.081 QT
-11.844 14.831 -11.594 13.237 QT
-11.016 13.237 L
-11.578 16.8 L
-19 16.8 L
cp
f
GR
GS
[1 0 0 1 73 380] CT
0.149 GC
N
-5 17.237 M
-7.453 17.237 -8.336 15.222 QT
-9.219 13.206 -9.219 10.425 QT
-9.219 8.691 -8.898 7.151 QT
-8.578 5.612 -7.641 4.542 QT
-6.703 3.472 -5 3.472 QT
-3.688 3.472 -2.844 4.12 QT
-2 4.769 -1.563 5.792 QT
-1.125 6.816 -0.961 7.98 QT
-0.797 9.144 -0.797 10.425 QT
-0.797 12.144 -1.117 13.644 QT
-1.438 15.144 -2.367 16.191 QT
-3.297 17.237 -5 17.237 QT
cp
-5 16.722 M
-3.891 16.722 -3.344 15.581 QT
-2.797 14.441 -2.664 13.05 QT
-2.531 11.659 -2.531 10.097 QT
-2.531 8.597 -2.664 7.323 QT
-2.797 6.05 -3.336 5.026 QT
-3.875 4.003 -5 4.003 QT
-6.125 4.003 -6.672 5.034 QT
-7.219 6.066 -7.352 7.331 QT
-7.484 8.597 -7.484 10.097 QT
-7.484 11.206 -7.43 12.198 QT
-7.375 13.191 -7.141 14.237 QT
-6.906 15.284 -6.383 16.003 QT
-5.859 16.722 -5 16.722 QT
cp
f
GR
GS
[1 0 0 1 73 380] CT
0.149 GC
N
5 17.237 M
2.547 17.237 1.664 15.222 QT
0.781 13.206 0.781 10.425 QT
0.781 8.691 1.102 7.151 QT
1.422 5.612 2.359 4.542 QT
3.297 3.472 5 3.472 QT
6.313 3.472 7.156 4.12 QT
8 4.769 8.438 5.792 QT
8.875 6.816 9.039 7.98 QT
9.203 9.144 9.203 10.425 QT
9.203 12.144 8.883 13.644 QT
8.563 15.144 7.633 16.191 QT
6.703 17.237 5 17.237 QT
cp
5 16.722 M
6.109 16.722 6.656 15.581 QT
7.203 14.441 7.336 13.05 QT
7.469 11.659 7.469 10.097 QT
7.469 8.597 7.336 7.323 QT
7.203 6.05 6.664 5.026 QT
6.125 4.003 5 4.003 QT
3.875 4.003 3.328 5.034 QT
2.781 6.066 2.648 7.331 QT
2.516 8.597 2.516 10.097 QT
2.516 11.206 2.57 12.198 QT
2.625 13.191 2.859 14.237 QT
3.094 15.284 3.617 16.003 QT
4.141 16.722 5 16.722 QT
cp
f
GR
GS
[1 0 0 1 73 380] CT
0.149 GC
N
15 17.237 M
13.766 17.237 12.93 16.581 QT
12.094 15.925 11.641 14.87 QT
11.188 13.816 11.016 12.667 QT
10.844 11.519 10.844 10.331 QT
10.844 8.753 11.461 7.159 QT
12.078 5.566 13.273 4.519 QT
14.469 3.472 16.109 3.472 QT
16.781 3.472 17.375 3.737 QT
17.969 4.003 18.305 4.503 QT
18.641 5.003 18.641 5.722 QT
18.641 6.128 18.367 6.401 QT
18.094 6.675 17.672 6.675 QT
17.281 6.675 17 6.394 QT
16.719 6.112 16.719 5.722 QT
16.719 5.331 17 5.042 QT
17.281 4.753 17.672 4.753 QT
17.781 4.753 L
17.531 4.394 17.07 4.222 QT
16.609 4.05 16.109 4.05 QT
15.5 4.05 14.984 4.316 QT
14.469 4.581 14.063 5.034 QT
13.656 5.487 13.383 6.026 QT
13.109 6.566 12.953 7.261 QT
12.797 7.956 12.758 8.558 QT
12.719 9.159 12.719 10.081 QT
13.078 9.253 13.719 8.737 QT
14.359 8.222 15.172 8.222 QT
16.063 8.222 16.797 8.581 QT
17.531 8.941 18.055 9.581 QT
18.578 10.222 18.859 11.042 QT
19.141 11.862 19.141 12.691 QT
19.141 13.862 18.617 14.925 QT
18.094 15.987 17.148 16.612 QT
16.203 17.237 15 17.237 QT
cp
15 16.597 M
15.766 16.597 16.234 16.245 QT
16.703 15.894 16.93 15.316 QT
17.156 14.737 17.203 14.144 QT
17.25 13.55 17.25 12.691 QT
17.25 11.566 17.148 10.761 QT
17.047 9.956 16.563 9.347 QT
16.078 8.737 15.094 8.737 QT
14.281 8.737 13.766 9.284 QT
13.25 9.831 13.008 10.667 QT
12.766 11.503 12.766 12.284 QT
12.766 12.534 12.781 12.675 QT
12.781 12.706 12.781 12.73 QT
12.781 12.753 12.766 12.769 QT
12.766 13.628 12.938 14.511 QT
13.109 15.394 13.609 15.995 QT
14.109 16.597 15 16.597 QT
cp
f
GR
GS
[1 0 0 1 151.85017 380] CT
0.149 GC
N
/f-1171549265{-19 16.8 M
-19 16.269 L
-19 16.206 -18.969 16.159 QT
-15.859 12.722 L
-15.156 11.956 -14.719 11.441 QT
-14.281 10.925 -13.852 10.245 QT
-13.422 9.566 -13.172 8.87 QT
-12.922 8.175 -12.922 7.394 QT
-12.922 6.581 -13.227 5.831 QT
-13.531 5.081 -14.125 4.628 QT
-14.719 4.175 -15.578 4.175 QT
-16.438 4.175 -17.133 4.698 QT
-17.828 5.222 -18.109 6.05 QT
-18.031 6.034 -17.906 6.034 QT
-17.453 6.034 -17.133 6.339 QT
-16.813 6.644 -16.813 7.128 QT
-16.813 7.581 -17.133 7.901 QT
-17.453 8.222 -17.906 8.222 QT
-18.375 8.222 -18.688 7.894 QT
-19 7.566 -19 7.128 QT
-19 6.362 -18.719 5.706 QT
-18.438 5.05 -17.906 4.534 QT
-17.375 4.019 -16.703 3.745 QT
-16.031 3.472 -15.281 3.472 QT
-14.141 3.472 -13.156 3.956 QT
-12.172 4.441 -11.594 5.323 QT
-11.016 6.206 -11.016 7.394 QT
-11.016 8.269 -11.398 9.05 QT
-11.781 9.831 -12.375 10.472 QT
-12.969 11.112 -13.898 11.917 QT
-14.828 12.722 -15.109 13.003 QT
-17.375 15.175 L
-15.453 15.175 L
-14.047 15.175 -13.094 15.151 QT
-12.141 15.128 -12.078 15.081 QT
-11.844 14.831 -11.594 13.237 QT
-11.016 13.237 L
-11.578 16.8 L
-19 16.8 L
cp}def
f-1171549265
f
GR
GS
[1 0 0 1 151.85017 380] CT
0.149 GC
N
/f-2084610355{-5 17.237 M
-7.453 17.237 -8.336 15.222 QT
-9.219 13.206 -9.219 10.425 QT
-9.219 8.691 -8.898 7.151 QT
-8.578 5.612 -7.641 4.542 QT
-6.703 3.472 -5 3.472 QT
-3.688 3.472 -2.844 4.12 QT
-2 4.769 -1.563 5.792 QT
-1.125 6.816 -0.961 7.98 QT
-0.797 9.144 -0.797 10.425 QT
-0.797 12.144 -1.117 13.644 QT
-1.438 15.144 -2.367 16.191 QT
-3.297 17.237 -5 17.237 QT
cp
-5 16.722 M
-3.891 16.722 -3.344 15.581 QT
-2.797 14.441 -2.664 13.05 QT
-2.531 11.659 -2.531 10.097 QT
-2.531 8.597 -2.664 7.323 QT
-2.797 6.05 -3.336 5.026 QT
-3.875 4.003 -5 4.003 QT
-6.125 4.003 -6.672 5.034 QT
-7.219 6.066 -7.352 7.331 QT
-7.484 8.597 -7.484 10.097 QT
-7.484 11.206 -7.43 12.198 QT
-7.375 13.191 -7.141 14.237 QT
-6.906 15.284 -6.383 16.003 QT
-5.859 16.722 -5 16.722 QT
cp}def
f-2084610355
f
GR
GS
[1 0 0 1 151.85017 380] CT
0.149 GC
N
/f1017945436{5 17.237 M
2.547 17.237 1.664 15.222 QT
0.781 13.206 0.781 10.425 QT
0.781 8.691 1.102 7.151 QT
1.422 5.612 2.359 4.542 QT
3.297 3.472 5 3.472 QT
6.313 3.472 7.156 4.12 QT
8 4.769 8.438 5.792 QT
8.875 6.816 9.039 7.98 QT
9.203 9.144 9.203 10.425 QT
9.203 12.144 8.883 13.644 QT
8.563 15.144 7.633 16.191 QT
6.703 17.237 5 17.237 QT
cp
5 16.722 M
6.109 16.722 6.656 15.581 QT
7.203 14.441 7.336 13.05 QT
7.469 11.659 7.469 10.097 QT
7.469 8.597 7.336 7.323 QT
7.203 6.05 6.664 5.026 QT
6.125 4.003 5 4.003 QT
3.875 4.003 3.328 5.034 QT
2.781 6.066 2.648 7.331 QT
2.516 8.597 2.516 10.097 QT
2.516 11.206 2.57 12.198 QT
2.625 13.191 2.859 14.237 QT
3.094 15.284 3.617 16.003 QT
4.141 16.722 5 16.722 QT
cp}def
f1017945436
f
GR
GS
[1 0 0 1 151.85017 380] CT
0.149 GC
N
/f1369887443{10.844 13.769 M
10.844 12.566 11.633 11.644 QT
12.422 10.722 13.656 10.097 QT
12.922 9.628 L
12.234 9.175 11.805 8.425 QT
11.375 7.675 11.375 6.862 QT
11.375 5.894 11.883 5.128 QT
12.391 4.362 13.219 3.917 QT
14.047 3.472 15 3.472 QT
15.891 3.472 16.719 3.839 QT
17.547 4.206 18.078 4.878 QT
18.609 5.55 18.609 6.472 QT
18.609 7.144 18.289 7.722 QT
17.969 8.3 17.414 8.761 QT
16.859 9.222 16.234 9.55 QT
17.391 10.269 L
18.172 10.8 18.656 11.636 QT
19.141 12.472 19.141 13.394 QT
19.141 14.487 18.563 15.378 QT
17.984 16.269 17.023 16.753 QT
16.063 17.237 15 17.237 QT
13.969 17.237 13.008 16.816 QT
12.047 16.394 11.445 15.597 QT
10.844 14.8 10.844 13.769 QT
cp
11.922 13.769 M
11.922 14.55 12.359 15.206 QT
12.797 15.862 13.508 16.23 QT
14.219 16.597 15 16.597 QT
16.156 16.597 17.109 15.925 QT
18.063 15.253 18.063 14.128 QT
18.063 13.737 17.906 13.362 QT
17.75 12.987 17.484 12.683 QT
17.219 12.378 16.891 12.175 QT
14.203 10.441 L
13.578 10.769 13.055 11.276 QT
12.531 11.784 12.227 12.425 QT
11.922 13.066 11.922 13.769 QT
cp
13.297 7.659 M
15.719 9.222 L
16.563 8.737 17.102 8.042 QT
17.641 7.347 17.641 6.472 QT
17.641 5.8 17.266 5.237 QT
16.891 4.675 16.281 4.362 QT
15.672 4.05 14.984 4.05 QT
14.375 4.05 13.758 4.284 QT
13.141 4.519 12.742 4.987 QT
12.344 5.456 12.344 6.081 QT
12.344 7.019 13.297 7.659 QT
cp}def
f1369887443
f
GR
GS
[1 0 0 1 230.80836 380] CT
0.149 GC
N
f-1171549265
f
GR
GS
[1 0 0 1 230.80836 380] CT
0.149 GC
N
f-2084610355
f
GR
GS
[1 0 0 1 230.80836 380] CT
0.149 GC
N
/f-192727431{1.859 16.8 M
1.859 16.097 L
4.359 16.097 4.359 15.456 QT
4.359 4.956 L
3.328 5.456 1.734 5.456 QT
1.734 4.753 L
4.188 4.753 5.438 3.472 QT
5.719 3.472 L
5.797 3.472 5.859 3.526 QT
5.922 3.581 5.922 3.659 QT
5.922 15.456 L
5.922 16.097 8.422 16.097 QT
8.422 16.8 L
1.859 16.8 L
cp}def
f-192727431
f
GR
GS
[1 0 0 1 230.80836 380] CT
0.149 GC
N
/f-1674586926{15 17.237 M
12.547 17.237 11.664 15.222 QT
10.781 13.206 10.781 10.425 QT
10.781 8.691 11.102 7.151 QT
11.422 5.612 12.359 4.542 QT
13.297 3.472 15 3.472 QT
16.313 3.472 17.156 4.12 QT
18 4.769 18.438 5.792 QT
18.875 6.816 19.039 7.98 QT
19.203 9.144 19.203 10.425 QT
19.203 12.144 18.883 13.644 QT
18.563 15.144 17.633 16.191 QT
16.703 17.237 15 17.237 QT
cp
15 16.722 M
16.109 16.722 16.656 15.581 QT
17.203 14.441 17.336 13.05 QT
17.469 11.659 17.469 10.097 QT
17.469 8.597 17.336 7.323 QT
17.203 6.05 16.664 5.026 QT
16.125 4.003 15 4.003 QT
13.875 4.003 13.328 5.034 QT
12.781 6.066 12.648 7.331 QT
12.516 8.597 12.516 10.097 QT
12.516 11.206 12.57 12.198 QT
12.625 13.191 12.859 14.237 QT
13.094 15.284 13.617 16.003 QT
14.141 16.722 15 16.722 QT
cp}def
f-1674586926
f
GR
GS
[1 0 0 1 309.65854 380] CT
0.149 GC
N
f-1171549265
f
GR
GS
[1 0 0 1 309.65854 380] CT
0.149 GC
N
f-2084610355
f
GR
GS
[1 0 0 1 309.65854 380] CT
0.149 GC
N
f-192727431
f
GR
GS
[1 0 0 1 309.65854 380] CT
0.149 GC
N
/f110075864{11 16.8 M
11 16.269 L
11 16.206 11.031 16.159 QT
14.141 12.722 L
14.844 11.956 15.281 11.441 QT
15.719 10.925 16.148 10.245 QT
16.578 9.566 16.828 8.87 QT
17.078 8.175 17.078 7.394 QT
17.078 6.581 16.773 5.831 QT
16.469 5.081 15.875 4.628 QT
15.281 4.175 14.422 4.175 QT
13.563 4.175 12.867 4.698 QT
12.172 5.222 11.891 6.05 QT
11.969 6.034 12.094 6.034 QT
12.547 6.034 12.867 6.339 QT
13.188 6.644 13.188 7.128 QT
13.188 7.581 12.867 7.901 QT
12.547 8.222 12.094 8.222 QT
11.625 8.222 11.313 7.894 QT
11 7.566 11 7.128 QT
11 6.362 11.281 5.706 QT
11.563 5.05 12.094 4.534 QT
12.625 4.019 13.297 3.745 QT
13.969 3.472 14.719 3.472 QT
15.859 3.472 16.844 3.956 QT
17.828 4.441 18.406 5.323 QT
18.984 6.206 18.984 7.394 QT
18.984 8.269 18.602 9.05 QT
18.219 9.831 17.625 10.472 QT
17.031 11.112 16.102 11.917 QT
15.172 12.722 14.891 13.003 QT
12.625 15.175 L
14.547 15.175 L
15.953 15.175 16.906 15.151 QT
17.859 15.128 17.922 15.081 QT
18.156 14.831 18.406 13.237 QT
18.984 13.237 L
18.422 16.8 L
11 16.8 L
cp}def
f110075864
f
GR
GS
[1 0 0 1 388.61673 380] CT
0.149 GC
N
f-1171549265
f
GR
GS
[1 0 0 1 388.61673 380] CT
0.149 GC
N
f-2084610355
f
GR
GS
[1 0 0 1 388.61673 380] CT
0.149 GC
N
f-192727431
f
GR
GS
[1 0 0 1 388.61673 380] CT
0.149 GC
N
/f194291650{10.563 13.503 M
10.563 12.8 L
16.734 3.581 L
16.813 3.472 16.938 3.472 QT
17.234 3.472 L
17.469 3.472 17.469 3.706 QT
17.469 12.8 L
19.422 12.8 L
19.422 13.503 L
17.469 13.503 L
17.469 15.456 L
17.469 15.878 18.055 15.987 QT
18.641 16.097 19.406 16.097 QT
19.406 16.8 L
13.891 16.8 L
13.891 16.097 L
14.672 16.097 15.258 15.987 QT
15.844 15.878 15.844 15.456 QT
15.844 13.503 L
10.563 13.503 L
cp
11.219 12.8 M
15.953 12.8 L
15.953 5.722 L
11.219 12.8 L
cp}def
f194291650
f
GR
GS
[1 0 0 1 467.46689 380] CT
0.149 GC
N
f-1171549265
f
GR
GS
[1 0 0 1 467.46689 380] CT
0.149 GC
N
f-2084610355
f
GR
GS
[1 0 0 1 467.46689 380] CT
0.149 GC
N
f-192727431
f
GR
GS
[1 0 0 1 467.46689 380] CT
0.149 GC
N
/f-973792135{15 17.237 M
13.766 17.237 12.93 16.581 QT
12.094 15.925 11.641 14.87 QT
11.188 13.816 11.016 12.667 QT
10.844 11.519 10.844 10.331 QT
10.844 8.753 11.461 7.159 QT
12.078 5.566 13.273 4.519 QT
14.469 3.472 16.109 3.472 QT
16.781 3.472 17.375 3.737 QT
17.969 4.003 18.305 4.503 QT
18.641 5.003 18.641 5.722 QT
18.641 6.128 18.367 6.401 QT
18.094 6.675 17.672 6.675 QT
17.281 6.675 17 6.394 QT
16.719 6.112 16.719 5.722 QT
16.719 5.331 17 5.042 QT
17.281 4.753 17.672 4.753 QT
17.781 4.753 L
17.531 4.394 17.07 4.222 QT
16.609 4.05 16.109 4.05 QT
15.5 4.05 14.984 4.316 QT
14.469 4.581 14.063 5.034 QT
13.656 5.487 13.383 6.026 QT
13.109 6.566 12.953 7.261 QT
12.797 7.956 12.758 8.558 QT
12.719 9.159 12.719 10.081 QT
13.078 9.253 13.719 8.737 QT
14.359 8.222 15.172 8.222 QT
16.063 8.222 16.797 8.581 QT
17.531 8.941 18.055 9.581 QT
18.578 10.222 18.859 11.042 QT
19.141 11.862 19.141 12.691 QT
19.141 13.862 18.617 14.925 QT
18.094 15.987 17.148 16.612 QT
16.203 17.237 15 17.237 QT
cp
15 16.597 M
15.766 16.597 16.234 16.245 QT
16.703 15.894 16.93 15.316 QT
17.156 14.737 17.203 14.144 QT
17.25 13.55 17.25 12.691 QT
17.25 11.566 17.148 10.761 QT
17.047 9.956 16.563 9.347 QT
16.078 8.737 15.094 8.737 QT
14.281 8.737 13.766 9.284 QT
13.25 9.831 13.008 10.667 QT
12.766 11.503 12.766 12.284 QT
12.766 12.534 12.781 12.675 QT
12.781 12.706 12.781 12.73 QT
12.781 12.753 12.766 12.769 QT
12.766 13.628 12.938 14.511 QT
13.109 15.394 13.609 15.995 QT
14.109 16.597 15 16.597 QT
cp}def
f-973792135
f
GR
GS
0.149 GC
2 setlinecap
1 LJ
0.5 LW
N
73 374 M
73 35 L
S
GR
GS
0.149 GC
2 setlinecap
1 LJ
0.5 LW
N
507 374 M
507 35 L
S
GR
GS
0.149 GC
2 setlinecap
1 LJ
0.5 LW
N
73 374 M
77.34 374 L
S
GR
GS
0.149 GC
2 setlinecap
1 LJ
0.5 LW
N
73 306.2 M
77.34 306.2 L
S
GR
GS
0.149 GC
2 setlinecap
1 LJ
0.5 LW
N
73 238.4 M
77.34 238.4 L
S
GR
GS
0.149 GC
2 setlinecap
1 LJ
0.5 LW
N
73 170.6 M
77.34 170.6 L
S
GR
GS
0.149 GC
2 setlinecap
1 LJ
0.5 LW
N
73 102.8 M
77.34 102.8 L
S
GR
GS
0.149 GC
2 setlinecap
1 LJ
0.5 LW
N
73 35 M
77.34 35 L
S
GR
GS
0.149 GC
2 setlinecap
1 LJ
0.5 LW
N
507 374 M
502.66 374 L
S
GR
GS
0.149 GC
2 setlinecap
1 LJ
0.5 LW
N
507 306.2 M
502.66 306.2 L
S
GR
GS
0.149 GC
2 setlinecap
1 LJ
0.5 LW
N
507 238.4 M
502.66 238.4 L
S
GR
GS
0.149 GC
2 setlinecap
1 LJ
0.5 LW
N
507 170.6 M
502.66 170.6 L
S
GR
GS
0.149 GC
2 setlinecap
1 LJ
0.5 LW
N
507 102.8 M
502.66 102.8 L
S
GR
GS
0.149 GC
2 setlinecap
1 LJ
0.5 LW
N
507 35 M
502.66 35 L
S
GR
GS
[1 0 0 1 67 374] CT
0.149 GC
N
/f-259944110{-5 5.237 M
-7.453 5.237 -8.336 3.222 QT
-9.219 1.206 -9.219 -1.575 QT
-9.219 -3.309 -8.898 -4.849 QT
-8.578 -6.388 -7.641 -7.458 QT
-6.703 -8.528 -5 -8.528 QT
-3.688 -8.528 -2.844 -7.88 QT
-2 -7.231 -1.563 -6.208 QT
-1.125 -5.184 -0.961 -4.02 QT
-0.797 -2.856 -0.797 -1.575 QT
-0.797 0.144 -1.117 1.644 QT
-1.438 3.144 -2.367 4.191 QT
-3.297 5.237 -5 5.237 QT
cp
-5 4.722 M
-3.891 4.722 -3.344 3.581 QT
-2.797 2.441 -2.664 1.05 QT
-2.531 -0.341 -2.531 -1.903 QT
-2.531 -3.403 -2.664 -4.677 QT
-2.797 -5.95 -3.336 -6.974 QT
-3.875 -7.997 -5 -7.997 QT
-6.125 -7.997 -6.672 -6.966 QT
-7.219 -5.934 -7.352 -4.669 QT
-7.484 -3.403 -7.484 -1.903 QT
-7.484 -0.794 -7.43 0.198 QT
-7.375 1.191 -7.141 2.237 QT
-6.906 3.284 -6.383 4.003 QT
-5.859 4.722 -5 4.722 QT
cp}def
f-259944110
f
GR
GS
[1 0 0 1 67 306.20001] CT
0.149 GC
N
/f208961070{-20.556 5.237 M
-23.009 5.237 -23.892 3.222 QT
-24.774 1.206 -24.774 -1.575 QT
-24.774 -3.309 -24.454 -4.849 QT
-24.134 -6.388 -23.196 -7.458 QT
-22.259 -8.528 -20.556 -8.528 QT
-19.243 -8.528 -18.399 -7.88 QT
-17.556 -7.231 -17.118 -6.208 QT
-16.681 -5.184 -16.517 -4.02 QT
-16.353 -2.856 -16.353 -1.575 QT
-16.353 0.144 -16.673 1.644 QT
-16.993 3.144 -17.923 4.191 QT
-18.853 5.237 -20.556 5.237 QT
cp
-20.556 4.722 M
-19.446 4.722 -18.899 3.581 QT
-18.353 2.441 -18.22 1.05 QT
-18.087 -0.341 -18.087 -1.903 QT
-18.087 -3.403 -18.22 -4.677 QT
-18.353 -5.95 -18.892 -6.974 QT
-19.431 -7.997 -20.556 -7.997 QT
-21.681 -7.997 -22.228 -6.966 QT
-22.774 -5.934 -22.907 -4.669 QT
-23.04 -3.403 -23.04 -1.903 QT
-23.04 -0.794 -22.985 0.198 QT
-22.931 1.191 -22.696 2.237 QT
-22.462 3.284 -21.938 4.003 QT
-21.415 4.722 -20.556 4.722 QT
cp}def
f208961070
f
GR
GS
[1 0 0 1 67 306.20001] CT
0.149 GC
N
/f-943732550{-13.868 3.691 M
-13.868 3.253 -13.54 2.925 QT
-13.212 2.597 -12.774 2.597 QT
-12.493 2.597 -12.235 2.745 QT
-11.977 2.894 -11.829 3.159 QT
-11.681 3.425 -11.681 3.691 QT
-11.681 4.128 -12.001 4.464 QT
-12.321 4.8 -12.774 4.8 QT
-13.212 4.8 -13.54 4.464 QT
-13.868 4.128 -13.868 3.691 QT
cp}def
f-943732550
f
GR
GS
[1 0 0 1 67 306.20001] CT
0.149 GC
N
/f-959722706{-9 4.8 M
-9 4.269 L
-9 4.206 -8.969 4.159 QT
-5.859 0.722 L
-5.156 -0.044 -4.719 -0.559 QT
-4.281 -1.075 -3.852 -1.755 QT
-3.422 -2.434 -3.172 -3.13 QT
-2.922 -3.825 -2.922 -4.606 QT
-2.922 -5.419 -3.227 -6.169 QT
-3.531 -6.919 -4.125 -7.372 QT
-4.719 -7.825 -5.578 -7.825 QT
-6.438 -7.825 -7.133 -7.302 QT
-7.828 -6.778 -8.109 -5.95 QT
-8.031 -5.966 -7.906 -5.966 QT
-7.453 -5.966 -7.133 -5.661 QT
-6.813 -5.356 -6.813 -4.872 QT
-6.813 -4.419 -7.133 -4.099 QT
-7.453 -3.778 -7.906 -3.778 QT
-8.375 -3.778 -8.688 -4.106 QT
-9 -4.434 -9 -4.872 QT
-9 -5.638 -8.719 -6.294 QT
-8.438 -6.95 -7.906 -7.466 QT
-7.375 -7.981 -6.703 -8.255 QT
-6.031 -8.528 -5.281 -8.528 QT
-4.141 -8.528 -3.156 -8.044 QT
-2.172 -7.559 -1.594 -6.677 QT
-1.016 -5.794 -1.016 -4.606 QT
-1.016 -3.731 -1.398 -2.95 QT
-1.781 -2.169 -2.375 -1.528 QT
-2.969 -0.888 -3.898 -0.083 QT
-4.828 0.722 -5.109 1.003 QT
-7.375 3.175 L
-5.453 3.175 L
-4.047 3.175 -3.094 3.151 QT
-2.141 3.128 -2.078 3.081 QT
-1.844 2.831 -1.594 1.237 QT
-1.016 1.237 L
-1.578 4.8 L
-9 4.8 L
cp}def
f-959722706
f
GR
GS
[1 0 0 1 67 238.39999] CT
0.149 GC
N
f208961070
f
GR
GS
[1 0 0 1 67 238.39999] CT
0.149 GC
N
f-943732550
f
GR
GS
[1 0 0 1 67 238.39999] CT
0.149 GC
N
/f-426388810{-9.438 1.503 M
-9.438 0.8 L
-3.266 -8.419 L
-3.188 -8.528 -3.063 -8.528 QT
-2.766 -8.528 L
-2.531 -8.528 -2.531 -8.294 QT
-2.531 0.8 L
-0.578 0.8 L
-0.578 1.503 L
-2.531 1.503 L
-2.531 3.456 L
-2.531 3.878 -1.945 3.987 QT
-1.359 4.097 -0.594 4.097 QT
-0.594 4.8 L
-6.109 4.8 L
-6.109 4.097 L
-5.328 4.097 -4.742 3.987 QT
-4.156 3.878 -4.156 3.456 QT
-4.156 1.503 L
-9.438 1.503 L
cp
-8.781 0.8 M
-4.047 0.8 L
-4.047 -6.278 L
-8.781 0.8 L
cp}def
f-426388810
f
GR
GS
[1 0 0 1 67 170.59999] CT
0.149 GC
N
f208961070
f
GR
GS
[1 0 0 1 67 170.59999] CT
0.149 GC
N
f-943732550
f
GR
GS
[1 0 0 1 67 170.59999] CT
0.149 GC
N
/f-1609365487{-5 5.237 M
-6.234 5.237 -7.07 4.581 QT
-7.906 3.925 -8.359 2.87 QT
-8.813 1.816 -8.984 0.667 QT
-9.156 -0.481 -9.156 -1.669 QT
-9.156 -3.247 -8.539 -4.841 QT
-7.922 -6.434 -6.727 -7.481 QT
-5.531 -8.528 -3.891 -8.528 QT
-3.219 -8.528 -2.625 -8.263 QT
-2.031 -7.997 -1.695 -7.497 QT
-1.359 -6.997 -1.359 -6.278 QT
-1.359 -5.872 -1.633 -5.599 QT
-1.906 -5.325 -2.328 -5.325 QT
-2.719 -5.325 -3 -5.606 QT
-3.281 -5.888 -3.281 -6.278 QT
-3.281 -6.669 -3 -6.958 QT
-2.719 -7.247 -2.328 -7.247 QT
-2.219 -7.247 L
-2.469 -7.606 -2.93 -7.778 QT
-3.391 -7.95 -3.891 -7.95 QT
-4.5 -7.95 -5.016 -7.684 QT
-5.531 -7.419 -5.938 -6.966 QT
-6.344 -6.513 -6.617 -5.974 QT
-6.891 -5.434 -7.047 -4.739 QT
-7.203 -4.044 -7.242 -3.442 QT
-7.281 -2.841 -7.281 -1.919 QT
-6.922 -2.747 -6.281 -3.263 QT
-5.641 -3.778 -4.828 -3.778 QT
-3.938 -3.778 -3.203 -3.419 QT
-2.469 -3.059 -1.945 -2.419 QT
-1.422 -1.778 -1.141 -0.958 QT
-0.859 -0.138 -0.859 0.691 QT
-0.859 1.862 -1.383 2.925 QT
-1.906 3.987 -2.852 4.612 QT
-3.797 5.237 -5 5.237 QT
cp
-5 4.597 M
-4.234 4.597 -3.766 4.245 QT
-3.297 3.894 -3.07 3.316 QT
-2.844 2.737 -2.797 2.144 QT
-2.75 1.55 -2.75 0.691 QT
-2.75 -0.434 -2.852 -1.239 QT
-2.953 -2.044 -3.438 -2.653 QT
-3.922 -3.263 -4.906 -3.263 QT
-5.719 -3.263 -6.234 -2.716 QT
-6.75 -2.169 -6.992 -1.333 QT
-7.234 -0.497 -7.234 0.284 QT
-7.234 0.534 -7.219 0.675 QT
-7.219 0.706 -7.219 0.73 QT
-7.219 0.753 -7.234 0.769 QT
-7.234 1.628 -7.063 2.511 QT
-6.891 3.394 -6.391 3.995 QT
-5.891 4.597 -5 4.597 QT
cp}def
f-1609365487
f
GR
GS
[1 0 0 1 67 102.8] CT
0.149 GC
N
f208961070
f
GR
GS
[1 0 0 1 67 102.8] CT
0.149 GC
N
f-943732550
f
GR
GS
[1 0 0 1 67 102.8] CT
0.149 GC
N
/f-374587059{-9.156 1.769 M
-9.156 0.566 -8.367 -0.356 QT
-7.578 -1.278 -6.344 -1.903 QT
-7.078 -2.372 L
-7.766 -2.825 -8.195 -3.575 QT
-8.625 -4.325 -8.625 -5.138 QT
-8.625 -6.106 -8.117 -6.872 QT
-7.609 -7.638 -6.781 -8.083 QT
-5.953 -8.528 -5 -8.528 QT
-4.109 -8.528 -3.281 -8.161 QT
-2.453 -7.794 -1.922 -7.122 QT
-1.391 -6.45 -1.391 -5.528 QT
-1.391 -4.856 -1.711 -4.278 QT
-2.031 -3.7 -2.586 -3.239 QT
-3.141 -2.778 -3.766 -2.45 QT
-2.609 -1.731 L
-1.828 -1.2 -1.344 -0.364 QT
-0.859 0.472 -0.859 1.394 QT
-0.859 2.487 -1.438 3.378 QT
-2.016 4.269 -2.977 4.753 QT
-3.938 5.237 -5 5.237 QT
-6.031 5.237 -6.992 4.816 QT
-7.953 4.394 -8.555 3.597 QT
-9.156 2.8 -9.156 1.769 QT
cp
-8.078 1.769 M
-8.078 2.55 -7.641 3.206 QT
-7.203 3.862 -6.492 4.23 QT
-5.781 4.597 -5 4.597 QT
-3.844 4.597 -2.891 3.925 QT
-1.938 3.253 -1.938 2.128 QT
-1.938 1.737 -2.094 1.362 QT
-2.25 0.987 -2.516 0.683 QT
-2.781 0.378 -3.109 0.175 QT
-5.797 -1.559 L
-6.422 -1.231 -6.945 -0.724 QT
-7.469 -0.216 -7.773 0.425 QT
-8.078 1.066 -8.078 1.769 QT
cp
-6.703 -4.341 M
-4.281 -2.778 L
-3.438 -3.263 -2.898 -3.958 QT
-2.359 -4.653 -2.359 -5.528 QT
-2.359 -6.2 -2.734 -6.763 QT
-3.109 -7.325 -3.719 -7.638 QT
-4.328 -7.95 -5.016 -7.95 QT
-5.625 -7.95 -6.242 -7.716 QT
-6.859 -7.481 -7.258 -7.013 QT
-7.656 -6.544 -7.656 -5.919 QT
-7.656 -4.981 -6.703 -4.341 QT
cp}def
f-374587059
f
GR
GS
[1 0 0 1 67 35] CT
0.149 GC
N
/f1667698322{-8.141 4.8 M
-8.141 4.097 L
-5.641 4.097 -5.641 3.456 QT
-5.641 -7.044 L
-6.672 -6.544 -8.266 -6.544 QT
-8.266 -7.247 L
-5.813 -7.247 -4.563 -8.528 QT
-4.281 -8.528 L
-4.203 -8.528 -4.141 -8.474 QT
-4.078 -8.419 -4.078 -8.341 QT
-4.078 3.456 L
-4.078 4.097 -1.578 4.097 QT
-1.578 4.8 L
-8.141 4.8 L
cp}def
f1667698322
f
GR
GS
[1 0 0 1 290.00027 32.00002] CT
N
/f-1342240860{-51.865 -11.203 M
-51.037 -10.171 -49.81 -9.562 QT
-48.583 -8.953 -47.255 -8.953 QT
-46.146 -8.953 -45.193 -9.398 QT
-44.24 -9.843 -43.529 -10.624 QT
-42.818 -11.406 -42.443 -12.406 QT
-42.068 -13.406 -42.068 -14.499 QT
-42.068 -14.687 -41.849 -14.687 QT
-41.552 -14.687 L
-41.365 -14.687 -41.365 -14.453 QT
-41.365 -13.203 -41.849 -12.039 QT
-42.333 -10.874 -43.208 -9.984 QT
-44.083 -9.093 -45.232 -8.601 QT
-46.38 -8.109 -47.615 -8.109 QT
-49.333 -8.109 -50.88 -8.812 QT
-52.427 -9.515 -53.568 -10.726 QT
-54.708 -11.937 -55.349 -13.531 QT
-55.99 -15.124 -55.99 -16.843 QT
-55.99 -18.562 -55.349 -20.156 QT
-54.708 -21.749 -53.568 -22.968 QT
-52.427 -24.187 -50.88 -24.874 QT
-49.333 -25.562 -47.615 -25.562 QT
-46.38 -25.562 -45.255 -25.031 QT
-44.13 -24.499 -43.287 -23.531 QT
-41.896 -25.499 L
-41.755 -25.562 -41.74 -25.562 QT
-41.552 -25.562 L
-41.49 -25.562 -41.427 -25.507 QT
-41.365 -25.453 -41.365 -25.359 QT
-41.365 -18.89 L
-41.365 -18.671 -41.552 -18.671 QT
-41.99 -18.671 L
-42.208 -18.671 -42.208 -18.89 QT
-42.208 -19.578 -42.49 -20.429 QT
-42.771 -21.281 -43.193 -22.054 QT
-43.615 -22.828 -44.177 -23.406 QT
-45.537 -24.718 -47.271 -24.718 QT
-48.599 -24.718 -49.81 -24.124 QT
-51.021 -23.531 -51.865 -22.468 QT
-52.74 -21.343 -53.076 -19.906 QT
-53.412 -18.468 -53.412 -16.843 QT
-53.412 -15.218 -53.076 -13.773 QT
-52.74 -12.328 -51.865 -11.203 QT
cp}def
f-1342240860
f
GR
GS
[1 0 0 1 290.00027 32.00002] CT
N
/f451393248{-34 -8.374 M
-35.438 -8.374 -36.672 -9.109 QT
-37.906 -9.843 -38.617 -11.07 QT
-39.328 -12.296 -39.328 -13.749 QT
-39.328 -14.859 -38.938 -15.874 QT
-38.547 -16.89 -37.813 -17.695 QT
-37.078 -18.499 -36.109 -18.953 QT
-35.141 -19.406 -34 -19.406 QT
-32.516 -19.406 -31.305 -18.624 QT
-30.094 -17.843 -29.391 -16.539 QT
-28.688 -15.234 -28.688 -13.749 QT
-28.688 -12.312 -29.406 -11.078 QT
-30.125 -9.843 -31.344 -9.109 QT
-32.563 -8.374 -34 -8.374 QT
cp
-34 -9.078 M
-32.078 -9.078 -31.43 -10.468 QT
-30.781 -11.859 -30.781 -14.015 QT
-30.781 -15.234 -30.914 -16.023 QT
-31.047 -16.812 -31.484 -17.453 QT
-31.75 -17.859 -32.164 -18.156 QT
-32.578 -18.453 -33.039 -18.609 QT
-33.5 -18.765 -34 -18.765 QT
-34.75 -18.765 -35.422 -18.429 QT
-36.094 -18.093 -36.547 -17.453 QT
-36.984 -16.781 -37.109 -15.96 QT
-37.234 -15.14 -37.234 -14.015 QT
-37.234 -12.671 -37 -11.601 QT
-36.766 -10.531 -36.055 -9.804 QT
-35.344 -9.078 -34 -9.078 QT
cp}def
f451393248
f
GR
GS
[1 0 0 1 290.00027 32.00002] CT
N
/f-465968282{-27.281 -8.64 M
-27.281 -9.484 L
-26.469 -9.484 -25.938 -9.617 QT
-25.406 -9.749 -25.406 -10.249 QT
-25.406 -16.796 L
-25.406 -17.437 -25.602 -17.726 QT
-25.797 -18.015 -26.156 -18.078 QT
-26.516 -18.14 -27.281 -18.14 QT
-27.281 -18.984 L
-23.797 -19.249 L
-23.797 -16.906 L
-23.328 -17.937 -22.383 -18.593 QT
-21.438 -19.249 -20.328 -19.249 QT
-18.656 -19.249 -17.82 -18.453 QT
-16.984 -17.656 -16.984 -16.015 QT
-16.984 -10.249 L
-16.984 -9.749 -16.453 -9.617 QT
-15.922 -9.484 -15.109 -9.484 QT
-15.109 -8.64 L
-20.609 -8.64 L
-20.609 -9.484 L
-19.781 -9.484 -19.258 -9.617 QT
-18.734 -9.749 -18.734 -10.249 QT
-18.734 -15.937 L
-18.734 -17.109 -19.07 -17.867 QT
-19.406 -18.624 -20.469 -18.624 QT
-21.859 -18.624 -22.758 -17.515 QT
-23.656 -16.406 -23.656 -14.984 QT
-23.656 -10.249 L
-23.656 -9.749 -23.125 -9.617 QT
-22.594 -9.484 -21.781 -9.484 QT
-21.781 -8.64 L
-27.281 -8.64 L
cp}def
f-465968282
f
GR
GS
[1 0 0 1 290.00027 32.00002] CT
N
/f867722803{-14.042 -8.64 M
-14.042 -9.484 L
-13.229 -9.484 -12.698 -9.617 QT
-12.167 -9.749 -12.167 -10.249 QT
-12.167 -18.14 L
-14.026 -18.14 L
-14.026 -18.984 L
-12.167 -18.984 L
-12.167 -21.859 L
-12.167 -22.781 -11.659 -23.484 QT
-11.151 -24.187 -10.339 -24.648 QT
-9.526 -25.109 -8.589 -25.335 QT
-7.651 -25.562 -6.807 -25.562 QT
-6.12 -25.562 -5.424 -25.257 QT
-4.729 -24.953 -4.292 -24.39 QT
-3.854 -23.828 -3.854 -23.093 QT
-3.854 -22.609 -4.19 -22.273 QT
-4.526 -21.937 -5.026 -21.937 QT
-5.51 -21.937 -5.839 -22.265 QT
-6.167 -22.593 -6.167 -23.093 QT
-6.167 -23.546 -5.854 -23.89 QT
-5.542 -24.234 -5.089 -24.234 QT
-5.823 -24.937 -7.01 -24.937 QT
-7.87 -24.937 -8.698 -24.539 QT
-9.526 -24.14 -10.042 -23.421 QT
-10.557 -22.703 -10.557 -21.812 QT
-10.557 -18.984 L
-7.385 -18.984 L
-3.839 -19.296 L
-3.839 -10.249 L
-3.839 -9.749 -3.307 -9.617 QT
-2.776 -9.484 -1.979 -9.484 QT
-1.979 -8.64 L
-7.385 -8.64 L
-7.385 -9.484 L
-6.573 -9.484 -6.049 -9.617 QT
-5.526 -9.749 -5.526 -10.249 QT
-5.526 -16.843 L
-5.526 -17.343 -5.581 -17.578 QT
-5.635 -17.812 -5.823 -17.953 QT
-6.01 -18.093 -6.464 -18.14 QT
-10.495 -18.14 L
-10.495 -10.249 L
-10.495 -9.749 -9.964 -9.617 QT
-9.432 -9.484 -8.62 -9.484 QT
-8.62 -8.64 L
-14.042 -8.64 L
cp}def
f867722803
f
GR
GS
[1 0 0 1 290.00027 32.00002] CT
N
/f-906694726{4.526 -8.374 M
3.104 -8.374 1.932 -9.14 QT
0.76 -9.906 0.112 -11.164 QT
-0.536 -12.421 -0.536 -13.828 QT
-0.536 -15.281 0.175 -16.523 QT
0.885 -17.765 2.104 -18.507 QT
3.323 -19.249 4.792 -19.249 QT
5.667 -19.249 6.448 -18.882 QT
7.229 -18.515 7.807 -17.859 QT
7.807 -22.843 L
7.807 -23.484 7.612 -23.773 QT
7.417 -24.062 7.065 -24.124 QT
6.714 -24.187 5.948 -24.187 QT
5.948 -25.031 L
9.495 -25.296 L
9.495 -10.828 L
9.495 -10.187 9.69 -9.898 QT
9.885 -9.609 10.245 -9.546 QT
10.604 -9.484 11.354 -9.484 QT
11.354 -8.64 L
7.745 -8.374 L
7.745 -9.89 L
7.12 -9.171 6.26 -8.773 QT
5.401 -8.374 4.526 -8.374 QT
cp
2.073 -10.734 M
2.495 -9.937 3.175 -9.468 QT
3.854 -8.999 4.667 -8.999 QT
5.667 -8.999 6.495 -9.578 QT
7.323 -10.156 7.745 -11.062 QT
7.745 -16.828 L
7.464 -17.343 7.034 -17.765 QT
6.604 -18.187 6.073 -18.406 QT
5.542 -18.624 4.932 -18.624 QT
3.682 -18.624 2.925 -17.914 QT
2.167 -17.203 1.862 -16.101 QT
1.557 -14.999 1.557 -13.796 QT
1.557 -12.843 1.651 -12.124 QT
1.745 -11.406 2.073 -10.734 QT
cp}def
f-906694726
f
GR
GS
[1 0 0 1 290.00027 32.00002] CT
N
/f373583711{17.984 -8.374 M
16.516 -8.374 15.289 -9.14 QT
14.063 -9.906 13.367 -11.187 QT
12.672 -12.468 12.672 -13.906 QT
12.672 -15.312 13.313 -16.578 QT
13.953 -17.843 15.094 -18.624 QT
16.234 -19.406 17.641 -19.406 QT
18.734 -19.406 19.555 -19.031 QT
20.375 -18.656 20.899 -17.999 QT
21.422 -17.343 21.695 -16.453 QT
21.969 -15.562 21.969 -14.499 QT
21.969 -14.187 21.719 -14.187 QT
14.766 -14.187 L
14.766 -13.921 L
14.766 -11.937 15.57 -10.507 QT
16.375 -9.078 18.188 -9.078 QT
18.922 -9.078 19.555 -9.406 QT
20.188 -9.734 20.649 -10.32 QT
21.109 -10.906 21.266 -11.578 QT
21.297 -11.656 21.359 -11.718 QT
21.422 -11.781 21.5 -11.781 QT
21.719 -11.781 L
21.969 -11.781 21.969 -11.484 QT
21.625 -10.124 20.5 -9.249 QT
19.375 -8.374 17.984 -8.374 QT
cp
14.797 -14.781 M
20.266 -14.781 L
20.266 -15.687 20.016 -16.609 QT
19.766 -17.531 19.18 -18.148 QT
18.594 -18.765 17.641 -18.765 QT
16.281 -18.765 15.539 -17.492 QT
14.797 -16.218 14.797 -14.781 QT
cp}def
f373583711
f
GR
GS
[1 0 0 1 290.00027 32.00002] CT
N
/f1293354898{23.385 -8.64 M
23.385 -9.484 L
24.198 -9.484 24.729 -9.617 QT
25.26 -9.749 25.26 -10.249 QT
25.26 -16.796 L
25.26 -17.437 25.065 -17.726 QT
24.87 -18.015 24.51 -18.078 QT
24.151 -18.14 23.385 -18.14 QT
23.385 -18.984 L
26.87 -19.249 L
26.87 -16.906 L
27.339 -17.937 28.284 -18.593 QT
29.229 -19.249 30.339 -19.249 QT
32.01 -19.249 32.846 -18.453 QT
33.682 -17.656 33.682 -16.015 QT
33.682 -10.249 L
33.682 -9.749 34.214 -9.617 QT
34.745 -9.484 35.557 -9.484 QT
35.557 -8.64 L
30.057 -8.64 L
30.057 -9.484 L
30.885 -9.484 31.409 -9.617 QT
31.932 -9.749 31.932 -10.249 QT
31.932 -15.937 L
31.932 -17.109 31.596 -17.867 QT
31.26 -18.624 30.198 -18.624 QT
28.807 -18.624 27.909 -17.515 QT
27.01 -16.406 27.01 -14.984 QT
27.01 -10.249 L
27.01 -9.749 27.542 -9.617 QT
28.073 -9.484 28.885 -9.484 QT
28.885 -8.64 L
23.385 -8.64 L
cp}def
f1293354898
f
GR
GS
[1 0 0 1 290.00027 32.00002] CT
N
/f1732600848{41.984 -8.374 M
40.531 -8.374 39.344 -9.132 QT
38.156 -9.89 37.477 -11.148 QT
36.797 -12.406 36.797 -13.828 QT
36.797 -15.234 37.469 -16.539 QT
38.141 -17.843 39.336 -18.624 QT
40.531 -19.406 41.984 -19.406 QT
43.391 -19.406 44.539 -18.851 QT
45.688 -18.296 45.688 -17.046 QT
45.688 -16.578 45.359 -16.234 QT
45.031 -15.89 44.547 -15.89 QT
44.063 -15.89 43.727 -16.234 QT
43.391 -16.578 43.391 -17.046 QT
43.391 -17.468 43.664 -17.781 QT
43.938 -18.093 44.328 -18.171 QT
43.5 -18.703 42 -18.703 QT
40.859 -18.703 40.156 -17.937 QT
39.453 -17.171 39.172 -16.046 QT
38.891 -14.921 38.891 -13.828 QT
38.891 -12.656 39.234 -11.578 QT
39.578 -10.499 40.344 -9.789 QT
41.109 -9.078 42.266 -9.078 QT
43.406 -9.078 44.203 -9.773 QT
45 -10.468 45.297 -11.593 QT
45.297 -11.734 45.484 -11.734 QT
45.781 -11.734 L
45.844 -11.734 45.906 -11.671 QT
45.969 -11.609 45.969 -11.531 QT
45.969 -11.453 L
45.594 -10.031 44.516 -9.203 QT
43.438 -8.374 41.984 -8.374 QT
cp}def
f1732600848
f
GR
GS
[1 0 0 1 290.00027 32.00002] CT
N
/f1715489654{52.651 -8.374 M
51.182 -8.374 49.956 -9.14 QT
48.729 -9.906 48.034 -11.187 QT
47.339 -12.468 47.339 -13.906 QT
47.339 -15.312 47.979 -16.578 QT
48.62 -17.843 49.761 -18.624 QT
50.901 -19.406 52.307 -19.406 QT
53.401 -19.406 54.221 -19.031 QT
55.042 -18.656 55.565 -17.999 QT
56.089 -17.343 56.362 -16.453 QT
56.636 -15.562 56.636 -14.499 QT
56.636 -14.187 56.386 -14.187 QT
49.432 -14.187 L
49.432 -13.921 L
49.432 -11.937 50.237 -10.507 QT
51.042 -9.078 52.854 -9.078 QT
53.589 -9.078 54.221 -9.406 QT
54.854 -9.734 55.315 -10.32 QT
55.776 -10.906 55.932 -11.578 QT
55.964 -11.656 56.026 -11.718 QT
56.089 -11.781 56.167 -11.781 QT
56.386 -11.781 L
56.636 -11.781 56.636 -11.484 QT
56.292 -10.124 55.167 -9.249 QT
54.042 -8.374 52.651 -8.374 QT
cp
49.464 -14.781 M
54.932 -14.781 L
54.932 -15.687 54.682 -16.609 QT
54.432 -17.531 53.846 -18.148 QT
53.261 -18.765 52.307 -18.765 QT
50.948 -18.765 50.206 -17.492 QT
49.464 -16.218 49.464 -14.781 QT
cp}def
f1715489654
f
GR
GS
0 0.447 0.741 RC
1 LJ
2.5 LW
N
82.613 231.77 M
92.443 159.72 L
102.272 194.756 L
112.101 204.637 L
121.93 202.948 L
131.76 184.495 L
141.589 159.72 L
151.742 157.312 L
161.571 189.328 L
171.401 238.291 L
181.338 147.606 L
191.275 241.708 L
200.997 202.253 L
210.826 238.109 L
220.763 235.858 L
230.7 272.665 L
240.422 159.72 L
250.251 148.938 L
260.188 192.398 L
270.125 191.388 L
279.847 185.43 L
289.676 134.291 L
299.613 159.72 L
309.443 155.235 L
319.272 159.72 L
329.101 223.594 L
338.93 209.924 L
349.084 231.356 L
358.481 189.642 L
368.418 188.451 L
378.571 235.668 L
388.509 255.362 L
398.23 214.922 L
408.059 223.222 L
417.997 207.218 L
427.934 256.918 L
437.655 159.72 L
447.484 208.501 L
457.422 243.868 L
467.359 241.568 L
477.188 209.155 L
487.017 238.68 L
496.955 279.748 L
506.784 242.503 L
S
GR
GS
0.769 0.306 0.322 RC
[1 3] 0 setdash
2 LJ
1.5 LW
N
82.613 290.241 M
92.443 293.807 L
102.272 296.894 L
112.101 286.393 L
121.93 267.708 L
131.76 250.786 L
141.589 246.144 L
151.742 265.209 L
161.571 265.838 L
171.401 315.678 L
181.338 260.435 L
191.275 326.46 L
200.997 297.275 L
210.826 300.477 L
220.763 285.557 L
230.7 353.197 L
240.422 297.407 L
250.251 235.212 L
260.188 313.642 L
270.125 311.921 L
279.847 291.656 L
289.676 239.102 L
299.613 249.958 L
309.443 257.886 L
319.272 278.929 L
329.101 319.766 L
338.93 258.606 L
349.084 271.833 L
358.481 250.312 L
368.418 278.126 L
378.571 334.181 L
388.509 332.253 L
398.23 262.735 L
408.059 275.396 L
417.997 275.76 L
427.934 327.346 L
437.655 269.686 L
447.484 289.38 L
457.422 294.867 L
467.359 340.478 L
477.188 269.396 L
487.017 303.348 L
496.955 316.646 L
506.784 291.201 L
S
GR
GS
0.333 0.659 0.408 RC
[8 8] 0 setdash
2 LJ
2.5 LW
N
82.613 112.045 M
92.443 289.25 L
102.272 181.386 L
112.101 96.636 L
121.93 212.205 L
131.76 165.977 L
141.589 235.318 L
151.742 312.364 L
161.571 343.182 L
171.401 266.136 L
181.338 350.886 L
191.275 366.295 L
200.997 335.477 L
210.826 42.705 L
220.763 35 L
230.7 142.864 L
240.422 127.455 L
250.251 320.068 L
260.188 58.114 L
270.125 73.523 L
279.847 135.159 L
289.676 250.727 L
299.613 358.591 L
309.443 65.818 L
319.272 50.409 L
329.101 281.545 L
338.93 119.75 L
349.084 227.614 L
358.481 81.227 L
368.418 304.659 L
378.571 104.341 L
388.509 88.932 L
398.23 219.909 L
408.059 158.273 L
417.997 296.955 L
427.934 196.795 L
437.655 204.5 L
447.484 273.841 L
457.422 327.773 L
467.359 189.091 L
477.188 258.432 L
487.017 173.682 L
496.955 150.568 L
506.784 243.023 L
S
GR
GS
0.769 0.306 0.322 RC
[1 3] 0 setdash
2 LJ
1.5 LW
N
82.613 145.694 M
92.443 113.314 L
102.272 127.257 L
112.101 117.236 L
121.93 108.506 L
131.76 130.485 L
141.589 111.593 L
151.742 95.101 L
161.571 95.101 L
171.401 112.238 L
181.338 108.995 L
191.275 159.72 L
200.997 102.284 L
210.826 72.676 L
220.763 159.72 L
230.7 159.72 L
240.422 98.27 L
250.251 85.328 L
260.188 103.484 L
270.125 105.709 L
279.847 105.709 L
289.676 84.542 L
299.613 106.818 L
309.443 93.032 L
319.272 123.807 L
329.101 120.331 L
338.93 136.906 L
349.084 159.72 L
358.481 77.128 L
368.418 151.867 L
378.571 110.062 L
388.509 159.72 L
398.23 145.744 L
408.059 159.72 L
417.997 150.03 L
427.934 159.72 L
437.655 90.07 L
447.484 139.024 L
457.422 196.577 L
467.359 159.72 L
477.188 133.687 L
487.017 193.97 L
496.955 209.171 L
506.784 216.18 L
S
GR
%%Trailer
%%Pages: 1
%%EOF
