%!PS-Adobe-3.0 EPSF-3.0
%%Creator: (MATLAB, The Mathworks, Inc. Version 9.7.0.1216025 \(R2019b\) Update 1. Operating System: Mac OS X)
%%Title: ../../results/TF_IDF/baseline/Figures/Timeseries/Negativity.eps
%%CreationDate: 2020-03-06T15:17:15
%%Pages: (atend)
%%BoundingBox:    32    22   509   414
%%LanguageLevel: 3
%%EndComments
%%BeginProlog
%%BeginResource: procset (Apache XML Graphics Std ProcSet) 1.2 0
%%Version: 1.2 0
%%Copyright: (Copyright 2001-2003,2010 The Apache Software Foundation. License terms: http://www.apache.org/licenses/LICENSE-2.0)
/bd{bind def}bind def
/ld{load def}bd
/GR/grestore ld
/GS/gsave ld
/RM/rmoveto ld
/C/curveto ld
/t/show ld
/L/lineto ld
/ML/setmiterlimit ld
/CT/concat ld
/f/fill ld
/N/newpath ld
/S/stroke ld
/CC/setcmykcolor ld
/A/ashow ld
/cp/closepath ld
/RC/setrgbcolor ld
/LJ/setlinejoin ld
/GC/setgray ld
/LW/setlinewidth ld
/M/moveto ld
/re {4 2 roll M
1 index 0 rlineto
0 exch rlineto
neg 0 rlineto
cp } bd
/_ctm matrix def
/_tm matrix def
/BT { _ctm currentmatrix pop matrix _tm copy pop 0 0 moveto } bd
/ET { _ctm setmatrix } bd
/iTm { _ctm setmatrix _tm concat } bd
/Tm { _tm astore pop iTm 0 0 moveto } bd
/ux 0.0 def
/uy 0.0 def
/F {
  /Tp exch def
  /Tf exch def
  Tf findfont Tp scalefont setfont
  /cf Tf def  /cs Tp def
} bd
/ULS {currentpoint /uy exch def /ux exch def} bd
/ULE {
  /Tcx currentpoint pop def
  gsave
  newpath
  cf findfont cs scalefont dup
  /FontMatrix get 0 get /Ts exch def /FontInfo get dup
  /UnderlinePosition get Ts mul /To exch def
  /UnderlineThickness get Ts mul /Tt exch def
  ux uy To add moveto  Tcx uy To add lineto
  Tt setlinewidth stroke
  grestore
} bd
/OLE {
  /Tcx currentpoint pop def
  gsave
  newpath
  cf findfont cs scalefont dup
  /FontMatrix get 0 get /Ts exch def /FontInfo get dup
  /UnderlinePosition get Ts mul /To exch def
  /UnderlineThickness get Ts mul /Tt exch def
  ux uy To add cs add moveto Tcx uy To add cs add lineto
  Tt setlinewidth stroke
  grestore
} bd
/SOE {
  /Tcx currentpoint pop def
  gsave
  newpath
  cf findfont cs scalefont dup
  /FontMatrix get 0 get /Ts exch def /FontInfo get dup
  /UnderlinePosition get Ts mul /To exch def
  /UnderlineThickness get Ts mul /Tt exch def
  ux uy To add cs 10 mul 26 idiv add moveto Tcx uy To add cs 10 mul 26 idiv add lineto
  Tt setlinewidth stroke
  grestore
} bd
/QT {
/Y22 exch store
/X22 exch store
/Y21 exch store
/X21 exch store
currentpoint
/Y21 load 2 mul add 3 div exch
/X21 load 2 mul add 3 div exch
/X21 load 2 mul /X22 load add 3 div
/Y21 load 2 mul /Y22 load add 3 div
/X22 load /Y22 load curveto
} bd
/SSPD {
dup length /d exch dict def
{
/v exch def
/k exch def
currentpagedevice k known {
/cpdv currentpagedevice k get def
v cpdv ne {
/upd false def
/nullv v type /nulltype eq def
/nullcpdv cpdv type /nulltype eq def
nullv nullcpdv or
{
/upd true def
} {
/sametype v type cpdv type eq def
sametype {
v type /arraytype eq {
/vlen v length def
/cpdvlen cpdv length def
vlen cpdvlen eq {
0 1 vlen 1 sub {
/i exch def
/obj v i get def
/cpdobj cpdv i get def
obj cpdobj ne {
/upd true def
exit
} if
} for
} {
/upd true def
} ifelse
} {
v type /dicttype eq {
v {
/dv exch def
/dk exch def
/cpddv cpdv dk get def
dv cpddv ne {
/upd true def
exit
} if
} forall
} {
/upd true def
} ifelse
} ifelse
} if
} ifelse
upd true eq {
d k v put
} if
} if
} if
} forall
d length 0 gt {
d setpagedevice
} if
} bd
/RE { % /NewFontName [NewEncodingArray] /FontName RE -
  findfont dup length dict begin
  {
    1 index /FID ne
    {def} {pop pop} ifelse
  } forall
  /Encoding exch def
  /FontName 1 index def
  currentdict definefont pop
  end
} bind def
%%EndResource
%%BeginResource: procset (Apache XML Graphics EPS ProcSet) 1.0 0
%%Version: 1.0 0
%%Copyright: (Copyright 2002-2003 The Apache Software Foundation. License terms: http://www.apache.org/licenses/LICENSE-2.0)
/BeginEPSF { %def
/b4_Inc_state save def         % Save state for cleanup
/dict_count countdictstack def % Count objects on dict stack
/op_count count 1 sub def      % Count objects on operand stack
userdict begin                 % Push userdict on dict stack
/showpage { } def              % Redefine showpage, { } = null proc
0 setgray 0 setlinecap         % Prepare graphics state
1 setlinewidth 0 setlinejoin
10 setmiterlimit [ ] 0 setdash newpath
/languagelevel where           % If level not equal to 1 then
{pop languagelevel             % set strokeadjust and
1 ne                           % overprint to their defaults.
{false setstrokeadjust false setoverprint
} if
} if
} bd
/EndEPSF { %def
count op_count sub {pop} repeat            % Clean up stacks
countdictstack dict_count sub {end} repeat
b4_Inc_state restore
} bd
%%EndResource
%FOPBeginFontDict
%%IncludeResource: font Courier-Oblique
%%IncludeResource: font Courier-BoldOblique
%%IncludeResource: font Courier-Bold
%%IncludeResource: font ZapfDingbats
%%IncludeResource: font Symbol
%%IncludeResource: font Helvetica
%%IncludeResource: font Helvetica-Oblique
%%IncludeResource: font Helvetica-Bold
%%IncludeResource: font Helvetica-BoldOblique
%%IncludeResource: font Times-Roman
%%IncludeResource: font Times-Italic
%%IncludeResource: font Times-Bold
%%IncludeResource: font Times-BoldItalic
%%IncludeResource: font Courier
%FOPEndFontDict
%%BeginResource: encoding WinAnsiEncoding
/WinAnsiEncoding [
/.notdef /.notdef /.notdef /.notdef /.notdef
/.notdef /.notdef /.notdef /.notdef /.notdef
/.notdef /.notdef /.notdef /.notdef /.notdef
/.notdef /.notdef /.notdef /.notdef /.notdef
/.notdef /.notdef /.notdef /.notdef /.notdef
/.notdef /.notdef /.notdef /.notdef /.notdef
/.notdef /.notdef /space /exclam /quotedbl
/numbersign /dollar /percent /ampersand /quotesingle
/parenleft /parenright /asterisk /plus /comma
/hyphen /period /slash /zero /one
/two /three /four /five /six
/seven /eight /nine /colon /semicolon
/less /equal /greater /question /at
/A /B /C /D /E
/F /G /H /I /J
/K /L /M /N /O
/P /Q /R /S /T
/U /V /W /X /Y
/Z /bracketleft /backslash /bracketright /asciicircum
/underscore /quoteleft /a /b /c
/d /e /f /g /h
/i /j /k /l /m
/n /o /p /q /r
/s /t /u /v /w
/x /y /z /braceleft /bar
/braceright /asciitilde /bullet /Euro /bullet
/quotesinglbase /florin /quotedblbase /ellipsis /dagger
/daggerdbl /circumflex /perthousand /Scaron /guilsinglleft
/OE /bullet /Zcaron /bullet /bullet
/quoteleft /quoteright /quotedblleft /quotedblright /bullet
/endash /emdash /asciitilde /trademark /scaron
/guilsinglright /oe /bullet /zcaron /Ydieresis
/space /exclamdown /cent /sterling /currency
/yen /brokenbar /section /dieresis /copyright
/ordfeminine /guillemotleft /logicalnot /sfthyphen /registered
/macron /degree /plusminus /twosuperior /threesuperior
/acute /mu /paragraph /middot /cedilla
/onesuperior /ordmasculine /guillemotright /onequarter /onehalf
/threequarters /questiondown /Agrave /Aacute /Acircumflex
/Atilde /Adieresis /Aring /AE /Ccedilla
/Egrave /Eacute /Ecircumflex /Edieresis /Igrave
/Iacute /Icircumflex /Idieresis /Eth /Ntilde
/Ograve /Oacute /Ocircumflex /Otilde /Odieresis
/multiply /Oslash /Ugrave /Uacute /Ucircumflex
/Udieresis /Yacute /Thorn /germandbls /agrave
/aacute /acircumflex /atilde /adieresis /aring
/ae /ccedilla /egrave /eacute /ecircumflex
/edieresis /igrave /iacute /icircumflex /idieresis
/eth /ntilde /ograve /oacute /ocircumflex
/otilde /odieresis /divide /oslash /ugrave
/uacute /ucircumflex /udieresis /yacute /thorn
/ydieresis
] def
%%EndResource
%FOPBeginFontReencode
/Courier-Oblique findfont
dup length dict begin
  {1 index /FID ne {def} {pop pop} ifelse} forall
  /Encoding WinAnsiEncoding def
  currentdict
end
/Courier-Oblique exch definefont pop
/Courier-BoldOblique findfont
dup length dict begin
  {1 index /FID ne {def} {pop pop} ifelse} forall
  /Encoding WinAnsiEncoding def
  currentdict
end
/Courier-BoldOblique exch definefont pop
/Courier-Bold findfont
dup length dict begin
  {1 index /FID ne {def} {pop pop} ifelse} forall
  /Encoding WinAnsiEncoding def
  currentdict
end
/Courier-Bold exch definefont pop
/Helvetica findfont
dup length dict begin
  {1 index /FID ne {def} {pop pop} ifelse} forall
  /Encoding WinAnsiEncoding def
  currentdict
end
/Helvetica exch definefont pop
/Helvetica-Oblique findfont
dup length dict begin
  {1 index /FID ne {def} {pop pop} ifelse} forall
  /Encoding WinAnsiEncoding def
  currentdict
end
/Helvetica-Oblique exch definefont pop
/Helvetica-Bold findfont
dup length dict begin
  {1 index /FID ne {def} {pop pop} ifelse} forall
  /Encoding WinAnsiEncoding def
  currentdict
end
/Helvetica-Bold exch definefont pop
/Helvetica-BoldOblique findfont
dup length dict begin
  {1 index /FID ne {def} {pop pop} ifelse} forall
  /Encoding WinAnsiEncoding def
  currentdict
end
/Helvetica-BoldOblique exch definefont pop
/Times-Roman findfont
dup length dict begin
  {1 index /FID ne {def} {pop pop} ifelse} forall
  /Encoding WinAnsiEncoding def
  currentdict
end
/Times-Roman exch definefont pop
/Times-Italic findfont
dup length dict begin
  {1 index /FID ne {def} {pop pop} ifelse} forall
  /Encoding WinAnsiEncoding def
  currentdict
end
/Times-Italic exch definefont pop
/Times-Bold findfont
dup length dict begin
  {1 index /FID ne {def} {pop pop} ifelse} forall
  /Encoding WinAnsiEncoding def
  currentdict
end
/Times-Bold exch definefont pop
/Times-BoldItalic findfont
dup length dict begin
  {1 index /FID ne {def} {pop pop} ifelse} forall
  /Encoding WinAnsiEncoding def
  currentdict
end
/Times-BoldItalic exch definefont pop
/Courier findfont
dup length dict begin
  {1 index /FID ne {def} {pop pop} ifelse} forall
  /Encoding WinAnsiEncoding def
  currentdict
end
/Courier exch definefont pop
%FOPEndFontReencode
%%EndProlog
%%Page: 1 1
%%PageBoundingBox: 0 0 560 420
%%BeginPageSetup
[1 0 0 -1 0 420] CT
%%EndPageSetup
GS
1 GC
N
0 0 560 420 re
f
GR
GS
1 GC
N
0 0 560 420 re
f
GR
GS
1 GC
N
73 374 M
507 374 L
507 35 L
73 35 L
cp
f
GR
GS
0.149 GC
2 setlinecap
1 LJ
0.5 LW
N
73 374 M
507 374 L
S
GR
GS
0.149 GC
2 setlinecap
1 LJ
0.5 LW
N
73 35 M
507 35 L
S
GR
GS
0.149 GC
2 setlinecap
1 LJ
0.5 LW
N
73 374 M
73 369.66 L
S
GR
GS
0.149 GC
2 setlinecap
1 LJ
0.5 LW
N
151.85 374 M
151.85 369.66 L
S
GR
GS
0.149 GC
2 setlinecap
1 LJ
0.5 LW
N
230.808 374 M
230.808 369.66 L
S
GR
GS
0.149 GC
2 setlinecap
1 LJ
0.5 LW
N
309.659 374 M
309.659 369.66 L
S
GR
GS
0.149 GC
2 setlinecap
1 LJ
0.5 LW
N
388.617 374 M
388.617 369.66 L
S
GR
GS
0.149 GC
2 setlinecap
1 LJ
0.5 LW
N
467.467 374 M
467.467 369.66 L
S
GR
GS
0.149 GC
2 setlinecap
1 LJ
0.5 LW
N
73 35 M
73 39.34 L
S
GR
GS
0.149 GC
2 setlinecap
1 LJ
0.5 LW
N
151.85 35 M
151.85 39.34 L
S
GR
GS
0.149 GC
2 setlinecap
1 LJ
0.5 LW
N
230.808 35 M
230.808 39.34 L
S
GR
GS
0.149 GC
2 setlinecap
1 LJ
0.5 LW
N
309.659 35 M
309.659 39.34 L
S
GR
GS
0.149 GC
2 setlinecap
1 LJ
0.5 LW
N
388.617 35 M
388.617 39.34 L
S
GR
GS
0.149 GC
2 setlinecap
1 LJ
0.5 LW
N
467.467 35 M
467.467 39.34 L
S
GR
GS
[1 0 0 1 73 380] CT
0.149 GC
N
-19 16.8 M
-19 16.269 L
-19 16.206 -18.969 16.159 QT
-15.859 12.722 L
-15.156 11.956 -14.719 11.441 QT
-14.281 10.925 -13.852 10.245 QT
-13.422 9.566 -13.172 8.87 QT
-12.922 8.175 -12.922 7.394 QT
-12.922 6.581 -13.227 5.831 QT
-13.531 5.081 -14.125 4.628 QT
-14.719 4.175 -15.578 4.175 QT
-16.438 4.175 -17.133 4.698 QT
-17.828 5.222 -18.109 6.05 QT
-18.031 6.034 -17.906 6.034 QT
-17.453 6.034 -17.133 6.339 QT
-16.813 6.644 -16.813 7.128 QT
-16.813 7.581 -17.133 7.901 QT
-17.453 8.222 -17.906 8.222 QT
-18.375 8.222 -18.688 7.894 QT
-19 7.566 -19 7.128 QT
-19 6.362 -18.719 5.706 QT
-18.438 5.05 -17.906 4.534 QT
-17.375 4.019 -16.703 3.745 QT
-16.031 3.472 -15.281 3.472 QT
-14.141 3.472 -13.156 3.956 QT
-12.172 4.441 -11.594 5.323 QT
-11.016 6.206 -11.016 7.394 QT
-11.016 8.269 -11.398 9.05 QT
-11.781 9.831 -12.375 10.472 QT
-12.969 11.112 -13.898 11.917 QT
-14.828 12.722 -15.109 13.003 QT
-17.375 15.175 L
-15.453 15.175 L
-14.047 15.175 -13.094 15.151 QT
-12.141 15.128 -12.078 15.081 QT
-11.844 14.831 -11.594 13.237 QT
-11.016 13.237 L
-11.578 16.8 L
-19 16.8 L
cp
f
GR
GS
[1 0 0 1 73 380] CT
0.149 GC
N
-5 17.237 M
-7.453 17.237 -8.336 15.222 QT
-9.219 13.206 -9.219 10.425 QT
-9.219 8.691 -8.898 7.151 QT
-8.578 5.612 -7.641 4.542 QT
-6.703 3.472 -5 3.472 QT
-3.688 3.472 -2.844 4.12 QT
-2 4.769 -1.563 5.792 QT
-1.125 6.816 -0.961 7.98 QT
-0.797 9.144 -0.797 10.425 QT
-0.797 12.144 -1.117 13.644 QT
-1.438 15.144 -2.367 16.191 QT
-3.297 17.237 -5 17.237 QT
cp
-5 16.722 M
-3.891 16.722 -3.344 15.581 QT
-2.797 14.441 -2.664 13.05 QT
-2.531 11.659 -2.531 10.097 QT
-2.531 8.597 -2.664 7.323 QT
-2.797 6.05 -3.336 5.026 QT
-3.875 4.003 -5 4.003 QT
-6.125 4.003 -6.672 5.034 QT
-7.219 6.066 -7.352 7.331 QT
-7.484 8.597 -7.484 10.097 QT
-7.484 11.206 -7.43 12.198 QT
-7.375 13.191 -7.141 14.237 QT
-6.906 15.284 -6.383 16.003 QT
-5.859 16.722 -5 16.722 QT
cp
f
GR
GS
[1 0 0 1 73 380] CT
0.149 GC
N
5 17.237 M
2.547 17.237 1.664 15.222 QT
0.781 13.206 0.781 10.425 QT
0.781 8.691 1.102 7.151 QT
1.422 5.612 2.359 4.542 QT
3.297 3.472 5 3.472 QT
6.313 3.472 7.156 4.12 QT
8 4.769 8.438 5.792 QT
8.875 6.816 9.039 7.98 QT
9.203 9.144 9.203 10.425 QT
9.203 12.144 8.883 13.644 QT
8.563 15.144 7.633 16.191 QT
6.703 17.237 5 17.237 QT
cp
5 16.722 M
6.109 16.722 6.656 15.581 QT
7.203 14.441 7.336 13.05 QT
7.469 11.659 7.469 10.097 QT
7.469 8.597 7.336 7.323 QT
7.203 6.05 6.664 5.026 QT
6.125 4.003 5 4.003 QT
3.875 4.003 3.328 5.034 QT
2.781 6.066 2.648 7.331 QT
2.516 8.597 2.516 10.097 QT
2.516 11.206 2.57 12.198 QT
2.625 13.191 2.859 14.237 QT
3.094 15.284 3.617 16.003 QT
4.141 16.722 5 16.722 QT
cp
f
GR
GS
[1 0 0 1 73 380] CT
0.149 GC
N
15 17.237 M
13.766 17.237 12.93 16.581 QT
12.094 15.925 11.641 14.87 QT
11.188 13.816 11.016 12.667 QT
10.844 11.519 10.844 10.331 QT
10.844 8.753 11.461 7.159 QT
12.078 5.566 13.273 4.519 QT
14.469 3.472 16.109 3.472 QT
16.781 3.472 17.375 3.737 QT
17.969 4.003 18.305 4.503 QT
18.641 5.003 18.641 5.722 QT
18.641 6.128 18.367 6.401 QT
18.094 6.675 17.672 6.675 QT
17.281 6.675 17 6.394 QT
16.719 6.112 16.719 5.722 QT
16.719 5.331 17 5.042 QT
17.281 4.753 17.672 4.753 QT
17.781 4.753 L
17.531 4.394 17.07 4.222 QT
16.609 4.05 16.109 4.05 QT
15.5 4.05 14.984 4.316 QT
14.469 4.581 14.063 5.034 QT
13.656 5.487 13.383 6.026 QT
13.109 6.566 12.953 7.261 QT
12.797 7.956 12.758 8.558 QT
12.719 9.159 12.719 10.081 QT
13.078 9.253 13.719 8.737 QT
14.359 8.222 15.172 8.222 QT
16.063 8.222 16.797 8.581 QT
17.531 8.941 18.055 9.581 QT
18.578 10.222 18.859 11.042 QT
19.141 11.862 19.141 12.691 QT
19.141 13.862 18.617 14.925 QT
18.094 15.987 17.148 16.612 QT
16.203 17.237 15 17.237 QT
cp
15 16.597 M
15.766 16.597 16.234 16.245 QT
16.703 15.894 16.93 15.316 QT
17.156 14.737 17.203 14.144 QT
17.25 13.55 17.25 12.691 QT
17.25 11.566 17.148 10.761 QT
17.047 9.956 16.563 9.347 QT
16.078 8.737 15.094 8.737 QT
14.281 8.737 13.766 9.284 QT
13.25 9.831 13.008 10.667 QT
12.766 11.503 12.766 12.284 QT
12.766 12.534 12.781 12.675 QT
12.781 12.706 12.781 12.73 QT
12.781 12.753 12.766 12.769 QT
12.766 13.628 12.938 14.511 QT
13.109 15.394 13.609 15.995 QT
14.109 16.597 15 16.597 QT
cp
f
GR
GS
[1 0 0 1 151.85017 380] CT
0.149 GC
N
/f-1171549265{-19 16.8 M
-19 16.269 L
-19 16.206 -18.969 16.159 QT
-15.859 12.722 L
-15.156 11.956 -14.719 11.441 QT
-14.281 10.925 -13.852 10.245 QT
-13.422 9.566 -13.172 8.87 QT
-12.922 8.175 -12.922 7.394 QT
-12.922 6.581 -13.227 5.831 QT
-13.531 5.081 -14.125 4.628 QT
-14.719 4.175 -15.578 4.175 QT
-16.438 4.175 -17.133 4.698 QT
-17.828 5.222 -18.109 6.05 QT
-18.031 6.034 -17.906 6.034 QT
-17.453 6.034 -17.133 6.339 QT
-16.813 6.644 -16.813 7.128 QT
-16.813 7.581 -17.133 7.901 QT
-17.453 8.222 -17.906 8.222 QT
-18.375 8.222 -18.688 7.894 QT
-19 7.566 -19 7.128 QT
-19 6.362 -18.719 5.706 QT
-18.438 5.05 -17.906 4.534 QT
-17.375 4.019 -16.703 3.745 QT
-16.031 3.472 -15.281 3.472 QT
-14.141 3.472 -13.156 3.956 QT
-12.172 4.441 -11.594 5.323 QT
-11.016 6.206 -11.016 7.394 QT
-11.016 8.269 -11.398 9.05 QT
-11.781 9.831 -12.375 10.472 QT
-12.969 11.112 -13.898 11.917 QT
-14.828 12.722 -15.109 13.003 QT
-17.375 15.175 L
-15.453 15.175 L
-14.047 15.175 -13.094 15.151 QT
-12.141 15.128 -12.078 15.081 QT
-11.844 14.831 -11.594 13.237 QT
-11.016 13.237 L
-11.578 16.8 L
-19 16.8 L
cp}def
f-1171549265
f
GR
GS
[1 0 0 1 151.85017 380] CT
0.149 GC
N
/f-2084610355{-5 17.237 M
-7.453 17.237 -8.336 15.222 QT
-9.219 13.206 -9.219 10.425 QT
-9.219 8.691 -8.898 7.151 QT
-8.578 5.612 -7.641 4.542 QT
-6.703 3.472 -5 3.472 QT
-3.688 3.472 -2.844 4.12 QT
-2 4.769 -1.563 5.792 QT
-1.125 6.816 -0.961 7.98 QT
-0.797 9.144 -0.797 10.425 QT
-0.797 12.144 -1.117 13.644 QT
-1.438 15.144 -2.367 16.191 QT
-3.297 17.237 -5 17.237 QT
cp
-5 16.722 M
-3.891 16.722 -3.344 15.581 QT
-2.797 14.441 -2.664 13.05 QT
-2.531 11.659 -2.531 10.097 QT
-2.531 8.597 -2.664 7.323 QT
-2.797 6.05 -3.336 5.026 QT
-3.875 4.003 -5 4.003 QT
-6.125 4.003 -6.672 5.034 QT
-7.219 6.066 -7.352 7.331 QT
-7.484 8.597 -7.484 10.097 QT
-7.484 11.206 -7.43 12.198 QT
-7.375 13.191 -7.141 14.237 QT
-6.906 15.284 -6.383 16.003 QT
-5.859 16.722 -5 16.722 QT
cp}def
f-2084610355
f
GR
GS
[1 0 0 1 151.85017 380] CT
0.149 GC
N
/f1017945436{5 17.237 M
2.547 17.237 1.664 15.222 QT
0.781 13.206 0.781 10.425 QT
0.781 8.691 1.102 7.151 QT
1.422 5.612 2.359 4.542 QT
3.297 3.472 5 3.472 QT
6.313 3.472 7.156 4.12 QT
8 4.769 8.438 5.792 QT
8.875 6.816 9.039 7.98 QT
9.203 9.144 9.203 10.425 QT
9.203 12.144 8.883 13.644 QT
8.563 15.144 7.633 16.191 QT
6.703 17.237 5 17.237 QT
cp
5 16.722 M
6.109 16.722 6.656 15.581 QT
7.203 14.441 7.336 13.05 QT
7.469 11.659 7.469 10.097 QT
7.469 8.597 7.336 7.323 QT
7.203 6.05 6.664 5.026 QT
6.125 4.003 5 4.003 QT
3.875 4.003 3.328 5.034 QT
2.781 6.066 2.648 7.331 QT
2.516 8.597 2.516 10.097 QT
2.516 11.206 2.57 12.198 QT
2.625 13.191 2.859 14.237 QT
3.094 15.284 3.617 16.003 QT
4.141 16.722 5 16.722 QT
cp}def
f1017945436
f
GR
GS
[1 0 0 1 151.85017 380] CT
0.149 GC
N
/f1369887443{10.844 13.769 M
10.844 12.566 11.633 11.644 QT
12.422 10.722 13.656 10.097 QT
12.922 9.628 L
12.234 9.175 11.805 8.425 QT
11.375 7.675 11.375 6.862 QT
11.375 5.894 11.883 5.128 QT
12.391 4.362 13.219 3.917 QT
14.047 3.472 15 3.472 QT
15.891 3.472 16.719 3.839 QT
17.547 4.206 18.078 4.878 QT
18.609 5.55 18.609 6.472 QT
18.609 7.144 18.289 7.722 QT
17.969 8.3 17.414 8.761 QT
16.859 9.222 16.234 9.55 QT
17.391 10.269 L
18.172 10.8 18.656 11.636 QT
19.141 12.472 19.141 13.394 QT
19.141 14.487 18.563 15.378 QT
17.984 16.269 17.023 16.753 QT
16.063 17.237 15 17.237 QT
13.969 17.237 13.008 16.816 QT
12.047 16.394 11.445 15.597 QT
10.844 14.8 10.844 13.769 QT
cp
11.922 13.769 M
11.922 14.55 12.359 15.206 QT
12.797 15.862 13.508 16.23 QT
14.219 16.597 15 16.597 QT
16.156 16.597 17.109 15.925 QT
18.063 15.253 18.063 14.128 QT
18.063 13.737 17.906 13.362 QT
17.75 12.987 17.484 12.683 QT
17.219 12.378 16.891 12.175 QT
14.203 10.441 L
13.578 10.769 13.055 11.276 QT
12.531 11.784 12.227 12.425 QT
11.922 13.066 11.922 13.769 QT
cp
13.297 7.659 M
15.719 9.222 L
16.563 8.737 17.102 8.042 QT
17.641 7.347 17.641 6.472 QT
17.641 5.8 17.266 5.237 QT
16.891 4.675 16.281 4.362 QT
15.672 4.05 14.984 4.05 QT
14.375 4.05 13.758 4.284 QT
13.141 4.519 12.742 4.987 QT
12.344 5.456 12.344 6.081 QT
12.344 7.019 13.297 7.659 QT
cp}def
f1369887443
f
GR
GS
[1 0 0 1 230.80836 380] CT
0.149 GC
N
f-1171549265
f
GR
GS
[1 0 0 1 230.80836 380] CT
0.149 GC
N
f-2084610355
f
GR
GS
[1 0 0 1 230.80836 380] CT
0.149 GC
N
/f-192727431{1.859 16.8 M
1.859 16.097 L
4.359 16.097 4.359 15.456 QT
4.359 4.956 L
3.328 5.456 1.734 5.456 QT
1.734 4.753 L
4.188 4.753 5.438 3.472 QT
5.719 3.472 L
5.797 3.472 5.859 3.526 QT
5.922 3.581 5.922 3.659 QT
5.922 15.456 L
5.922 16.097 8.422 16.097 QT
8.422 16.8 L
1.859 16.8 L
cp}def
f-192727431
f
GR
GS
[1 0 0 1 230.80836 380] CT
0.149 GC
N
/f-1674586926{15 17.237 M
12.547 17.237 11.664 15.222 QT
10.781 13.206 10.781 10.425 QT
10.781 8.691 11.102 7.151 QT
11.422 5.612 12.359 4.542 QT
13.297 3.472 15 3.472 QT
16.313 3.472 17.156 4.12 QT
18 4.769 18.438 5.792 QT
18.875 6.816 19.039 7.98 QT
19.203 9.144 19.203 10.425 QT
19.203 12.144 18.883 13.644 QT
18.563 15.144 17.633 16.191 QT
16.703 17.237 15 17.237 QT
cp
15 16.722 M
16.109 16.722 16.656 15.581 QT
17.203 14.441 17.336 13.05 QT
17.469 11.659 17.469 10.097 QT
17.469 8.597 17.336 7.323 QT
17.203 6.05 16.664 5.026 QT
16.125 4.003 15 4.003 QT
13.875 4.003 13.328 5.034 QT
12.781 6.066 12.648 7.331 QT
12.516 8.597 12.516 10.097 QT
12.516 11.206 12.57 12.198 QT
12.625 13.191 12.859 14.237 QT
13.094 15.284 13.617 16.003 QT
14.141 16.722 15 16.722 QT
cp}def
f-1674586926
f
GR
GS
[1 0 0 1 309.65854 380] CT
0.149 GC
N
f-1171549265
f
GR
GS
[1 0 0 1 309.65854 380] CT
0.149 GC
N
f-2084610355
f
GR
GS
[1 0 0 1 309.65854 380] CT
0.149 GC
N
f-192727431
f
GR
GS
[1 0 0 1 309.65854 380] CT
0.149 GC
N
/f110075864{11 16.8 M
11 16.269 L
11 16.206 11.031 16.159 QT
14.141 12.722 L
14.844 11.956 15.281 11.441 QT
15.719 10.925 16.148 10.245 QT
16.578 9.566 16.828 8.87 QT
17.078 8.175 17.078 7.394 QT
17.078 6.581 16.773 5.831 QT
16.469 5.081 15.875 4.628 QT
15.281 4.175 14.422 4.175 QT
13.563 4.175 12.867 4.698 QT
12.172 5.222 11.891 6.05 QT
11.969 6.034 12.094 6.034 QT
12.547 6.034 12.867 6.339 QT
13.188 6.644 13.188 7.128 QT
13.188 7.581 12.867 7.901 QT
12.547 8.222 12.094 8.222 QT
11.625 8.222 11.313 7.894 QT
11 7.566 11 7.128 QT
11 6.362 11.281 5.706 QT
11.563 5.05 12.094 4.534 QT
12.625 4.019 13.297 3.745 QT
13.969 3.472 14.719 3.472 QT
15.859 3.472 16.844 3.956 QT
17.828 4.441 18.406 5.323 QT
18.984 6.206 18.984 7.394 QT
18.984 8.269 18.602 9.05 QT
18.219 9.831 17.625 10.472 QT
17.031 11.112 16.102 11.917 QT
15.172 12.722 14.891 13.003 QT
12.625 15.175 L
14.547 15.175 L
15.953 15.175 16.906 15.151 QT
17.859 15.128 17.922 15.081 QT
18.156 14.831 18.406 13.237 QT
18.984 13.237 L
18.422 16.8 L
11 16.8 L
cp}def
f110075864
f
GR
GS
[1 0 0 1 388.61673 380] CT
0.149 GC
N
f-1171549265
f
GR
GS
[1 0 0 1 388.61673 380] CT
0.149 GC
N
f-2084610355
f
GR
GS
[1 0 0 1 388.61673 380] CT
0.149 GC
N
f-192727431
f
GR
GS
[1 0 0 1 388.61673 380] CT
0.149 GC
N
/f194291650{10.563 13.503 M
10.563 12.8 L
16.734 3.581 L
16.813 3.472 16.938 3.472 QT
17.234 3.472 L
17.469 3.472 17.469 3.706 QT
17.469 12.8 L
19.422 12.8 L
19.422 13.503 L
17.469 13.503 L
17.469 15.456 L
17.469 15.878 18.055 15.987 QT
18.641 16.097 19.406 16.097 QT
19.406 16.8 L
13.891 16.8 L
13.891 16.097 L
14.672 16.097 15.258 15.987 QT
15.844 15.878 15.844 15.456 QT
15.844 13.503 L
10.563 13.503 L
cp
11.219 12.8 M
15.953 12.8 L
15.953 5.722 L
11.219 12.8 L
cp}def
f194291650
f
GR
GS
[1 0 0 1 467.46689 380] CT
0.149 GC
N
f-1171549265
f
GR
GS
[1 0 0 1 467.46689 380] CT
0.149 GC
N
f-2084610355
f
GR
GS
[1 0 0 1 467.46689 380] CT
0.149 GC
N
f-192727431
f
GR
GS
[1 0 0 1 467.46689 380] CT
0.149 GC
N
/f-973792135{15 17.237 M
13.766 17.237 12.93 16.581 QT
12.094 15.925 11.641 14.87 QT
11.188 13.816 11.016 12.667 QT
10.844 11.519 10.844 10.331 QT
10.844 8.753 11.461 7.159 QT
12.078 5.566 13.273 4.519 QT
14.469 3.472 16.109 3.472 QT
16.781 3.472 17.375 3.737 QT
17.969 4.003 18.305 4.503 QT
18.641 5.003 18.641 5.722 QT
18.641 6.128 18.367 6.401 QT
18.094 6.675 17.672 6.675 QT
17.281 6.675 17 6.394 QT
16.719 6.112 16.719 5.722 QT
16.719 5.331 17 5.042 QT
17.281 4.753 17.672 4.753 QT
17.781 4.753 L
17.531 4.394 17.07 4.222 QT
16.609 4.05 16.109 4.05 QT
15.5 4.05 14.984 4.316 QT
14.469 4.581 14.063 5.034 QT
13.656 5.487 13.383 6.026 QT
13.109 6.566 12.953 7.261 QT
12.797 7.956 12.758 8.558 QT
12.719 9.159 12.719 10.081 QT
13.078 9.253 13.719 8.737 QT
14.359 8.222 15.172 8.222 QT
16.063 8.222 16.797 8.581 QT
17.531 8.941 18.055 9.581 QT
18.578 10.222 18.859 11.042 QT
19.141 11.862 19.141 12.691 QT
19.141 13.862 18.617 14.925 QT
18.094 15.987 17.148 16.612 QT
16.203 17.237 15 17.237 QT
cp
15 16.597 M
15.766 16.597 16.234 16.245 QT
16.703 15.894 16.93 15.316 QT
17.156 14.737 17.203 14.144 QT
17.25 13.55 17.25 12.691 QT
17.25 11.566 17.148 10.761 QT
17.047 9.956 16.563 9.347 QT
16.078 8.737 15.094 8.737 QT
14.281 8.737 13.766 9.284 QT
13.25 9.831 13.008 10.667 QT
12.766 11.503 12.766 12.284 QT
12.766 12.534 12.781 12.675 QT
12.781 12.706 12.781 12.73 QT
12.781 12.753 12.766 12.769 QT
12.766 13.628 12.938 14.511 QT
13.109 15.394 13.609 15.995 QT
14.109 16.597 15 16.597 QT
cp}def
f-973792135
f
GR
GS
0.149 GC
2 setlinecap
1 LJ
0.5 LW
N
73 374 M
73 35 L
S
GR
GS
0.149 GC
2 setlinecap
1 LJ
0.5 LW
N
507 374 M
507 35 L
S
GR
GS
0.149 GC
2 setlinecap
1 LJ
0.5 LW
N
73 374 M
77.34 374 L
S
GR
GS
0.149 GC
2 setlinecap
1 LJ
0.5 LW
N
73 325.571 M
77.34 325.571 L
S
GR
GS
0.149 GC
2 setlinecap
1 LJ
0.5 LW
N
73 277.143 M
77.34 277.143 L
S
GR
GS
0.149 GC
2 setlinecap
1 LJ
0.5 LW
N
73 228.714 M
77.34 228.714 L
S
GR
GS
0.149 GC
2 setlinecap
1 LJ
0.5 LW
N
73 180.286 M
77.34 180.286 L
S
GR
GS
0.149 GC
2 setlinecap
1 LJ
0.5 LW
N
73 131.857 M
77.34 131.857 L
S
GR
GS
0.149 GC
2 setlinecap
1 LJ
0.5 LW
N
73 83.429 M
77.34 83.429 L
S
GR
GS
0.149 GC
2 setlinecap
1 LJ
0.5 LW
N
73 35 M
77.34 35 L
S
GR
GS
0.149 GC
2 setlinecap
1 LJ
0.5 LW
N
507 374 M
502.66 374 L
S
GR
GS
0.149 GC
2 setlinecap
1 LJ
0.5 LW
N
507 325.571 M
502.66 325.571 L
S
GR
GS
0.149 GC
2 setlinecap
1 LJ
0.5 LW
N
507 277.143 M
502.66 277.143 L
S
GR
GS
0.149 GC
2 setlinecap
1 LJ
0.5 LW
N
507 228.714 M
502.66 228.714 L
S
GR
GS
0.149 GC
2 setlinecap
1 LJ
0.5 LW
N
507 180.286 M
502.66 180.286 L
S
GR
GS
0.149 GC
2 setlinecap
1 LJ
0.5 LW
N
507 131.857 M
502.66 131.857 L
S
GR
GS
0.149 GC
2 setlinecap
1 LJ
0.5 LW
N
507 83.429 M
502.66 83.429 L
S
GR
GS
0.149 GC
2 setlinecap
1 LJ
0.5 LW
N
507 35 M
502.66 35 L
S
GR
GS
[1 0 0 1 67 374] CT
0.149 GC
N
/f-259944110{-5 5.237 M
-7.453 5.237 -8.336 3.222 QT
-9.219 1.206 -9.219 -1.575 QT
-9.219 -3.309 -8.898 -4.849 QT
-8.578 -6.388 -7.641 -7.458 QT
-6.703 -8.528 -5 -8.528 QT
-3.688 -8.528 -2.844 -7.88 QT
-2 -7.231 -1.563 -6.208 QT
-1.125 -5.184 -0.961 -4.02 QT
-0.797 -2.856 -0.797 -1.575 QT
-0.797 0.144 -1.117 1.644 QT
-1.438 3.144 -2.367 4.191 QT
-3.297 5.237 -5 5.237 QT
cp
-5 4.722 M
-3.891 4.722 -3.344 3.581 QT
-2.797 2.441 -2.664 1.05 QT
-2.531 -0.341 -2.531 -1.903 QT
-2.531 -3.403 -2.664 -4.677 QT
-2.797 -5.95 -3.336 -6.974 QT
-3.875 -7.997 -5 -7.997 QT
-6.125 -7.997 -6.672 -6.966 QT
-7.219 -5.934 -7.352 -4.669 QT
-7.484 -3.403 -7.484 -1.903 QT
-7.484 -0.794 -7.43 0.198 QT
-7.375 1.191 -7.141 2.237 QT
-6.906 3.284 -6.383 4.003 QT
-5.859 4.722 -5 4.722 QT
cp}def
f-259944110
f
GR
GS
[1 0 0 1 67 325.57144] CT
0.149 GC
N
/f573311018{-30.556 5.237 M
-33.009 5.237 -33.892 3.222 QT
-34.774 1.206 -34.774 -1.575 QT
-34.774 -3.309 -34.454 -4.849 QT
-34.134 -6.388 -33.196 -7.458 QT
-32.259 -8.528 -30.556 -8.528 QT
-29.243 -8.528 -28.399 -7.88 QT
-27.556 -7.231 -27.118 -6.208 QT
-26.681 -5.184 -26.517 -4.02 QT
-26.353 -2.856 -26.353 -1.575 QT
-26.353 0.144 -26.673 1.644 QT
-26.993 3.144 -27.923 4.191 QT
-28.853 5.237 -30.556 5.237 QT
cp
-30.556 4.722 M
-29.446 4.722 -28.899 3.581 QT
-28.353 2.441 -28.22 1.05 QT
-28.087 -0.341 -28.087 -1.903 QT
-28.087 -3.403 -28.22 -4.677 QT
-28.353 -5.95 -28.892 -6.974 QT
-29.431 -7.997 -30.556 -7.997 QT
-31.681 -7.997 -32.228 -6.966 QT
-32.774 -5.934 -32.907 -4.669 QT
-33.04 -3.403 -33.04 -1.903 QT
-33.04 -0.794 -32.985 0.198 QT
-32.931 1.191 -32.696 2.237 QT
-32.462 3.284 -31.938 4.003 QT
-31.415 4.722 -30.556 4.722 QT
cp}def
f573311018
f
GR
GS
[1 0 0 1 67 325.57144] CT
0.149 GC
N
/f-325359852{-23.868 3.691 M
-23.868 3.253 -23.54 2.925 QT
-23.212 2.597 -22.774 2.597 QT
-22.493 2.597 -22.235 2.745 QT
-21.978 2.894 -21.829 3.159 QT
-21.681 3.425 -21.681 3.691 QT
-21.681 4.128 -22.001 4.464 QT
-22.321 4.8 -22.774 4.8 QT
-23.212 4.8 -23.54 4.464 QT
-23.868 4.128 -23.868 3.691 QT
cp}def
f-325359852
f
GR
GS
[1 0 0 1 67 325.57144] CT
0.149 GC
N
/f-1560039422{-15 5.237 M
-17.453 5.237 -18.336 3.222 QT
-19.219 1.206 -19.219 -1.575 QT
-19.219 -3.309 -18.898 -4.849 QT
-18.578 -6.388 -17.641 -7.458 QT
-16.703 -8.528 -15 -8.528 QT
-13.688 -8.528 -12.844 -7.88 QT
-12 -7.231 -11.563 -6.208 QT
-11.125 -5.184 -10.961 -4.02 QT
-10.797 -2.856 -10.797 -1.575 QT
-10.797 0.144 -11.117 1.644 QT
-11.438 3.144 -12.367 4.191 QT
-13.297 5.237 -15 5.237 QT
cp
-15 4.722 M
-13.891 4.722 -13.344 3.581 QT
-12.797 2.441 -12.664 1.05 QT
-12.531 -0.341 -12.531 -1.903 QT
-12.531 -3.403 -12.664 -4.677 QT
-12.797 -5.95 -13.336 -6.974 QT
-13.875 -7.997 -15 -7.997 QT
-16.125 -7.997 -16.672 -6.966 QT
-17.219 -5.934 -17.352 -4.669 QT
-17.484 -3.403 -17.484 -1.903 QT
-17.484 -0.794 -17.43 0.198 QT
-17.375 1.191 -17.141 2.237 QT
-16.906 3.284 -16.383 4.003 QT
-15.859 4.722 -15 4.722 QT
cp}def
f-1560039422
f
GR
GS
[1 0 0 1 67 325.57144] CT
0.149 GC
N
/f2128899210{-8.266 2.519 M
-8.063 3.112 -7.633 3.589 QT
-7.203 4.066 -6.625 4.331 QT
-6.047 4.597 -5.422 4.597 QT
-3.969 4.597 -3.422 3.48 QT
-2.875 2.362 -2.875 0.753 QT
-2.875 0.066 -2.898 -0.411 QT
-2.922 -0.888 -3.031 -1.325 QT
-3.219 -2.028 -3.688 -2.552 QT
-4.156 -3.075 -4.828 -3.075 QT
-5.5 -3.075 -5.984 -2.872 QT
-6.469 -2.669 -6.766 -2.395 QT
-7.063 -2.122 -7.297 -1.817 QT
-7.531 -1.513 -7.594 -1.497 QT
-7.828 -1.497 L
-7.875 -1.497 -7.945 -1.559 QT
-8.016 -1.622 -8.016 -1.684 QT
-8.016 -8.372 L
-8.016 -8.419 -7.953 -8.474 QT
-7.891 -8.528 -7.828 -8.528 QT
-7.766 -8.528 L
-6.422 -7.872 -4.906 -7.872 QT
-3.422 -7.872 -2.047 -8.528 QT
-1.984 -8.528 L
-1.906 -8.528 -1.852 -8.474 QT
-1.797 -8.419 -1.797 -8.372 QT
-1.797 -8.184 L
-1.797 -8.075 -1.828 -8.075 QT
-2.516 -7.169 -3.547 -6.661 QT
-4.578 -6.153 -5.688 -6.153 QT
-6.484 -6.153 -7.328 -6.388 QT
-7.328 -2.606 L
-6.656 -3.138 -6.133 -3.372 QT
-5.609 -3.606 -4.797 -3.606 QT
-3.703 -3.606 -2.828 -2.966 QT
-1.953 -2.325 -1.484 -1.309 QT
-1.016 -0.294 -1.016 0.769 QT
-1.016 1.972 -1.609 3.003 QT
-2.203 4.034 -3.219 4.636 QT
-4.234 5.237 -5.422 5.237 QT
-6.406 5.237 -7.234 4.73 QT
-8.063 4.222 -8.531 3.362 QT
-9 2.503 -9 1.534 QT
-9 1.081 -8.711 0.8 QT
-8.422 0.519 -7.984 0.519 QT
-7.531 0.519 -7.234 0.808 QT
-6.938 1.097 -6.938 1.534 QT
-6.938 1.972 -7.234 2.269 QT
-7.531 2.566 -7.984 2.566 QT
-8.047 2.566 -8.133 2.55 QT
-8.219 2.534 -8.266 2.519 QT
cp}def
f2128899210
f
GR
GS
[1 0 0 1 67 277.14285] CT
0.149 GC
N
/f208961070{-20.556 5.237 M
-23.009 5.237 -23.892 3.222 QT
-24.774 1.206 -24.774 -1.575 QT
-24.774 -3.309 -24.454 -4.849 QT
-24.134 -6.388 -23.196 -7.458 QT
-22.259 -8.528 -20.556 -8.528 QT
-19.243 -8.528 -18.399 -7.88 QT
-17.556 -7.231 -17.118 -6.208 QT
-16.681 -5.184 -16.517 -4.02 QT
-16.353 -2.856 -16.353 -1.575 QT
-16.353 0.144 -16.673 1.644 QT
-16.993 3.144 -17.923 4.191 QT
-18.853 5.237 -20.556 5.237 QT
cp
-20.556 4.722 M
-19.446 4.722 -18.899 3.581 QT
-18.353 2.441 -18.22 1.05 QT
-18.087 -0.341 -18.087 -1.903 QT
-18.087 -3.403 -18.22 -4.677 QT
-18.353 -5.95 -18.892 -6.974 QT
-19.431 -7.997 -20.556 -7.997 QT
-21.681 -7.997 -22.228 -6.966 QT
-22.774 -5.934 -22.907 -4.669 QT
-23.04 -3.403 -23.04 -1.903 QT
-23.04 -0.794 -22.985 0.198 QT
-22.931 1.191 -22.696 2.237 QT
-22.462 3.284 -21.938 4.003 QT
-21.415 4.722 -20.556 4.722 QT
cp}def
f208961070
f
GR
GS
[1 0 0 1 67 277.14285] CT
0.149 GC
N
/f-943732550{-13.868 3.691 M
-13.868 3.253 -13.54 2.925 QT
-13.212 2.597 -12.774 2.597 QT
-12.493 2.597 -12.235 2.745 QT
-11.977 2.894 -11.829 3.159 QT
-11.681 3.425 -11.681 3.691 QT
-11.681 4.128 -12.001 4.464 QT
-12.321 4.8 -12.774 4.8 QT
-13.212 4.8 -13.54 4.464 QT
-13.868 4.128 -13.868 3.691 QT
cp}def
f-943732550
f
GR
GS
[1 0 0 1 67 277.14285] CT
0.149 GC
N
/f1667698322{-8.141 4.8 M
-8.141 4.097 L
-5.641 4.097 -5.641 3.456 QT
-5.641 -7.044 L
-6.672 -6.544 -8.266 -6.544 QT
-8.266 -7.247 L
-5.813 -7.247 -4.563 -8.528 QT
-4.281 -8.528 L
-4.203 -8.528 -4.141 -8.474 QT
-4.078 -8.419 -4.078 -8.341 QT
-4.078 3.456 L
-4.078 4.097 -1.578 4.097 QT
-1.578 4.8 L
-8.141 4.8 L
cp}def
f1667698322
f
GR
GS
[1 0 0 1 67 228.71428] CT
0.149 GC
N
f573311018
f
GR
GS
[1 0 0 1 67 228.71428] CT
0.149 GC
N
f-325359852
f
GR
GS
[1 0 0 1 67 228.71428] CT
0.149 GC
N
/f902764462{-18.141 4.8 M
-18.141 4.097 L
-15.641 4.097 -15.641 3.456 QT
-15.641 -7.044 L
-16.672 -6.544 -18.266 -6.544 QT
-18.266 -7.247 L
-15.813 -7.247 -14.563 -8.528 QT
-14.281 -8.528 L
-14.203 -8.528 -14.141 -8.474 QT
-14.078 -8.419 -14.078 -8.341 QT
-14.078 3.456 L
-14.078 4.097 -11.578 4.097 QT
-11.578 4.8 L
-18.141 4.8 L
cp}def
f902764462
f
GR
GS
[1 0 0 1 67 228.71428] CT
0.149 GC
N
f2128899210
f
GR
GS
[1 0 0 1 67 180.28571] CT
0.149 GC
N
f208961070
f
GR
GS
[1 0 0 1 67 180.28571] CT
0.149 GC
N
f-943732550
f
GR
GS
[1 0 0 1 67 180.28571] CT
0.149 GC
N
/f-959722706{-9 4.8 M
-9 4.269 L
-9 4.206 -8.969 4.159 QT
-5.859 0.722 L
-5.156 -0.044 -4.719 -0.559 QT
-4.281 -1.075 -3.852 -1.755 QT
-3.422 -2.434 -3.172 -3.13 QT
-2.922 -3.825 -2.922 -4.606 QT
-2.922 -5.419 -3.227 -6.169 QT
-3.531 -6.919 -4.125 -7.372 QT
-4.719 -7.825 -5.578 -7.825 QT
-6.438 -7.825 -7.133 -7.302 QT
-7.828 -6.778 -8.109 -5.95 QT
-8.031 -5.966 -7.906 -5.966 QT
-7.453 -5.966 -7.133 -5.661 QT
-6.813 -5.356 -6.813 -4.872 QT
-6.813 -4.419 -7.133 -4.099 QT
-7.453 -3.778 -7.906 -3.778 QT
-8.375 -3.778 -8.688 -4.106 QT
-9 -4.434 -9 -4.872 QT
-9 -5.638 -8.719 -6.294 QT
-8.438 -6.95 -7.906 -7.466 QT
-7.375 -7.981 -6.703 -8.255 QT
-6.031 -8.528 -5.281 -8.528 QT
-4.141 -8.528 -3.156 -8.044 QT
-2.172 -7.559 -1.594 -6.677 QT
-1.016 -5.794 -1.016 -4.606 QT
-1.016 -3.731 -1.398 -2.95 QT
-1.781 -2.169 -2.375 -1.528 QT
-2.969 -0.888 -3.898 -0.083 QT
-4.828 0.722 -5.109 1.003 QT
-7.375 3.175 L
-5.453 3.175 L
-4.047 3.175 -3.094 3.151 QT
-2.141 3.128 -2.078 3.081 QT
-1.844 2.831 -1.594 1.237 QT
-1.016 1.237 L
-1.578 4.8 L
-9 4.8 L
cp}def
f-959722706
f
GR
GS
[1 0 0 1 67 131.85715] CT
0.149 GC
N
f573311018
f
GR
GS
[1 0 0 1 67 131.85715] CT
0.149 GC
N
f-325359852
f
GR
GS
[1 0 0 1 67 131.85715] CT
0.149 GC
N
/f-1760610010{-19 4.8 M
-19 4.269 L
-19 4.206 -18.969 4.159 QT
-15.859 0.722 L
-15.156 -0.044 -14.719 -0.559 QT
-14.281 -1.075 -13.852 -1.755 QT
-13.422 -2.434 -13.172 -3.13 QT
-12.922 -3.825 -12.922 -4.606 QT
-12.922 -5.419 -13.227 -6.169 QT
-13.531 -6.919 -14.125 -7.372 QT
-14.719 -7.825 -15.578 -7.825 QT
-16.438 -7.825 -17.133 -7.302 QT
-17.828 -6.778 -18.109 -5.95 QT
-18.031 -5.966 -17.906 -5.966 QT
-17.453 -5.966 -17.133 -5.661 QT
-16.813 -5.356 -16.813 -4.872 QT
-16.813 -4.419 -17.133 -4.099 QT
-17.453 -3.778 -17.906 -3.778 QT
-18.375 -3.778 -18.688 -4.106 QT
-19 -4.434 -19 -4.872 QT
-19 -5.638 -18.719 -6.294 QT
-18.438 -6.95 -17.906 -7.466 QT
-17.375 -7.981 -16.703 -8.255 QT
-16.031 -8.528 -15.281 -8.528 QT
-14.141 -8.528 -13.156 -8.044 QT
-12.172 -7.559 -11.594 -6.677 QT
-11.016 -5.794 -11.016 -4.606 QT
-11.016 -3.731 -11.398 -2.95 QT
-11.781 -2.169 -12.375 -1.528 QT
-12.969 -0.888 -13.898 -0.083 QT
-14.828 0.722 -15.109 1.003 QT
-17.375 3.175 L
-15.453 3.175 L
-14.047 3.175 -13.094 3.151 QT
-12.141 3.128 -12.078 3.081 QT
-11.844 2.831 -11.594 1.237 QT
-11.016 1.237 L
-11.578 4.8 L
-19 4.8 L
cp}def
f-1760610010
f
GR
GS
[1 0 0 1 67 131.85715] CT
0.149 GC
N
f2128899210
f
GR
GS
[1 0 0 1 67 83.42856] CT
0.149 GC
N
f208961070
f
GR
GS
[1 0 0 1 67 83.42856] CT
0.149 GC
N
f-943732550
f
GR
GS
[1 0 0 1 67 83.42856] CT
0.149 GC
N
/f-1136742856{-8.094 3.253 M
-7.625 3.941 -6.836 4.269 QT
-6.047 4.597 -5.141 4.597 QT
-3.969 4.597 -3.484 3.612 QT
-3 2.628 -3 1.362 QT
-3 0.8 -3.102 0.23 QT
-3.203 -0.341 -3.445 -0.825 QT
-3.688 -1.309 -4.117 -1.606 QT
-4.547 -1.903 -5.156 -1.903 QT
-6.484 -1.903 L
-6.656 -1.903 -6.656 -2.091 QT
-6.656 -2.263 L
-6.656 -2.419 -6.484 -2.419 QT
-5.375 -2.513 L
-4.672 -2.513 -4.211 -3.036 QT
-3.75 -3.559 -3.531 -4.317 QT
-3.313 -5.075 -3.313 -5.763 QT
-3.313 -6.716 -3.766 -7.333 QT
-4.219 -7.95 -5.141 -7.95 QT
-5.891 -7.95 -6.586 -7.661 QT
-7.281 -7.372 -7.688 -6.778 QT
-7.656 -6.794 -7.625 -6.802 QT
-7.594 -6.809 -7.563 -6.809 QT
-7.109 -6.809 -6.805 -6.497 QT
-6.5 -6.184 -6.5 -5.731 QT
-6.5 -5.309 -6.805 -4.997 QT
-7.109 -4.684 -7.563 -4.684 QT
-8 -4.684 -8.313 -4.997 QT
-8.625 -5.309 -8.625 -5.731 QT
-8.625 -6.591 -8.109 -7.231 QT
-7.594 -7.872 -6.773 -8.2 QT
-5.953 -8.528 -5.141 -8.528 QT
-4.531 -8.528 -3.859 -8.341 QT
-3.188 -8.153 -2.641 -7.817 QT
-2.094 -7.481 -1.742 -6.958 QT
-1.391 -6.434 -1.391 -5.763 QT
-1.391 -4.919 -1.766 -4.208 QT
-2.141 -3.497 -2.797 -2.974 QT
-3.453 -2.45 -4.234 -2.2 QT
-3.375 -2.044 -2.594 -1.552 QT
-1.813 -1.059 -1.336 -0.302 QT
-0.859 0.456 -0.859 1.347 QT
-0.859 2.441 -1.461 3.339 QT
-2.063 4.237 -3.055 4.737 QT
-4.047 5.237 -5.141 5.237 QT
-6.078 5.237 -7.016 4.878 QT
-7.953 4.519 -8.555 3.808 QT
-9.156 3.097 -9.156 2.097 QT
-9.156 1.612 -8.828 1.276 QT
-8.5 0.941 -8 0.941 QT
-7.672 0.941 -7.406 1.089 QT
-7.141 1.237 -6.984 1.511 QT
-6.828 1.784 -6.828 2.097 QT
-6.828 2.597 -7.172 2.925 QT
-7.516 3.253 -8 3.253 QT
-8.094 3.253 L
cp}def
f-1136742856
f
GR
GS
[1 0 0 1 67 35.00001] CT
0.149 GC
N
f573311018
f
GR
GS
[1 0 0 1 67 35.00001] CT
0.149 GC
N
f-325359852
f
GR
GS
[1 0 0 1 67 35.00001] CT
0.149 GC
N
/f-1899396851{-18.094 3.253 M
-17.625 3.941 -16.836 4.269 QT
-16.047 4.597 -15.141 4.597 QT
-13.969 4.597 -13.484 3.612 QT
-13 2.628 -13 1.362 QT
-13 0.8 -13.102 0.23 QT
-13.203 -0.341 -13.445 -0.825 QT
-13.688 -1.309 -14.117 -1.606 QT
-14.547 -1.903 -15.156 -1.903 QT
-16.484 -1.903 L
-16.656 -1.903 -16.656 -2.091 QT
-16.656 -2.263 L
-16.656 -2.419 -16.484 -2.419 QT
-15.375 -2.513 L
-14.672 -2.513 -14.211 -3.036 QT
-13.75 -3.559 -13.531 -4.317 QT
-13.313 -5.075 -13.313 -5.763 QT
-13.313 -6.716 -13.766 -7.333 QT
-14.219 -7.95 -15.141 -7.95 QT
-15.891 -7.95 -16.586 -7.661 QT
-17.281 -7.372 -17.688 -6.778 QT
-17.656 -6.794 -17.625 -6.802 QT
-17.594 -6.809 -17.563 -6.809 QT
-17.109 -6.809 -16.805 -6.497 QT
-16.5 -6.184 -16.5 -5.731 QT
-16.5 -5.309 -16.805 -4.997 QT
-17.109 -4.684 -17.563 -4.684 QT
-18 -4.684 -18.313 -4.997 QT
-18.625 -5.309 -18.625 -5.731 QT
-18.625 -6.591 -18.109 -7.231 QT
-17.594 -7.872 -16.773 -8.2 QT
-15.953 -8.528 -15.141 -8.528 QT
-14.531 -8.528 -13.859 -8.341 QT
-13.188 -8.153 -12.641 -7.817 QT
-12.094 -7.481 -11.742 -6.958 QT
-11.391 -6.434 -11.391 -5.763 QT
-11.391 -4.919 -11.766 -4.208 QT
-12.141 -3.497 -12.797 -2.974 QT
-13.453 -2.45 -14.234 -2.2 QT
-13.375 -2.044 -12.594 -1.552 QT
-11.813 -1.059 -11.336 -0.302 QT
-10.859 0.456 -10.859 1.347 QT
-10.859 2.441 -11.461 3.339 QT
-12.063 4.237 -13.055 4.737 QT
-14.047 5.237 -15.141 5.237 QT
-16.078 5.237 -17.016 4.878 QT
-17.953 4.519 -18.555 3.808 QT
-19.156 3.097 -19.156 2.097 QT
-19.156 1.612 -18.828 1.276 QT
-18.5 0.941 -18 0.941 QT
-17.672 0.941 -17.406 1.089 QT
-17.141 1.237 -16.984 1.511 QT
-16.828 1.784 -16.828 2.097 QT
-16.828 2.597 -17.172 2.925 QT
-17.516 3.253 -18 3.253 QT
-18.094 3.253 L
cp}def
f-1899396851
f
GR
GS
[1 0 0 1 67 35.00001] CT
0.149 GC
N
f2128899210
f
GR
GS
[1 0 0 1 290.00027 32] CT
N
/f1840934395{-53.932 -8.64 M
-53.932 -9.484 L
-51.448 -9.484 -51.448 -10.906 QT
-51.448 -24.046 L
-52.245 -24.187 -53.932 -24.187 QT
-53.932 -25.031 L
-49.339 -25.031 L
-49.214 -25.031 -49.167 -24.937 QT
-40.667 -12.437 L
-40.667 -22.781 L
-40.667 -24.187 -43.151 -24.187 QT
-43.151 -25.031 L
-37.432 -25.031 L
-37.432 -24.187 L
-39.901 -24.187 -39.901 -22.781 QT
-39.901 -8.859 L
-39.901 -8.781 -39.995 -8.71 QT
-40.089 -8.64 -40.151 -8.64 QT
-40.432 -8.64 L
-40.557 -8.64 -40.604 -8.734 QT
-50.682 -23.578 L
-50.682 -10.906 L
-50.682 -9.484 -48.214 -9.484 QT
-48.214 -8.64 L
-53.932 -8.64 L
cp}def
f1840934395
f
GR
GS
[1 0 0 1 290.00027 32] CT
N
/f-1931832260{-30.682 -8.374 M
-32.151 -8.374 -33.378 -9.14 QT
-34.604 -9.906 -35.3 -11.187 QT
-35.995 -12.468 -35.995 -13.906 QT
-35.995 -15.312 -35.354 -16.578 QT
-34.714 -17.843 -33.573 -18.624 QT
-32.432 -19.406 -31.026 -19.406 QT
-29.932 -19.406 -29.112 -19.031 QT
-28.292 -18.656 -27.768 -17.999 QT
-27.245 -17.343 -26.971 -16.453 QT
-26.698 -15.562 -26.698 -14.499 QT
-26.698 -14.187 -26.948 -14.187 QT
-33.901 -14.187 L
-33.901 -13.921 L
-33.901 -11.937 -33.096 -10.507 QT
-32.292 -9.078 -30.479 -9.078 QT
-29.745 -9.078 -29.112 -9.406 QT
-28.479 -9.734 -28.018 -10.32 QT
-27.557 -10.906 -27.401 -11.578 QT
-27.37 -11.656 -27.307 -11.718 QT
-27.245 -11.781 -27.167 -11.781 QT
-26.948 -11.781 L
-26.698 -11.781 -26.698 -11.484 QT
-27.042 -10.124 -28.167 -9.249 QT
-29.292 -8.374 -30.682 -8.374 QT
cp
-33.87 -14.781 M
-28.401 -14.781 L
-28.401 -15.687 -28.651 -16.609 QT
-28.901 -17.531 -29.487 -18.148 QT
-30.073 -18.765 -31.026 -18.765 QT
-32.386 -18.765 -33.128 -17.492 QT
-33.87 -16.218 -33.87 -14.781 QT
cp}def
f-1931832260
f
GR
GS
[1 0 0 1 290.00027 32] CT
N
/f-2122900015{-25.328 -6.765 M
-25.328 -7.624 -24.711 -8.265 QT
-24.094 -8.906 -23.234 -9.171 QT
-23.719 -9.531 -23.969 -10.085 QT
-24.219 -10.64 -24.219 -11.249 QT
-24.219 -12.374 -23.5 -13.249 QT
-24.609 -14.328 -24.609 -15.718 QT
-24.609 -16.468 -24.281 -17.124 QT
-23.953 -17.781 -23.383 -18.265 QT
-22.813 -18.749 -22.109 -18.999 QT
-21.406 -19.249 -20.672 -19.249 QT
-19.234 -19.249 -18.094 -18.421 QT
-17.609 -18.937 -16.938 -19.226 QT
-16.266 -19.515 -15.531 -19.515 QT
-15.016 -19.515 -14.688 -19.148 QT
-14.359 -18.781 -14.359 -18.265 QT
-14.359 -17.968 -14.586 -17.749 QT
-14.813 -17.531 -15.094 -17.531 QT
-15.406 -17.531 -15.625 -17.749 QT
-15.844 -17.968 -15.844 -18.265 QT
-15.844 -18.703 -15.563 -18.89 QT
-16.797 -18.89 -17.688 -18.031 QT
-17.25 -17.593 -16.992 -16.968 QT
-16.734 -16.343 -16.734 -15.718 QT
-16.734 -14.703 -17.297 -13.89 QT
-17.859 -13.078 -18.774 -12.624 QT
-19.688 -12.171 -20.672 -12.171 QT
-21.984 -12.171 -23.063 -12.89 QT
-23.406 -12.421 -23.406 -11.828 QT
-23.406 -11.203 -22.992 -10.726 QT
-22.578 -10.249 -21.938 -10.249 QT
-19.969 -10.249 L
-18.547 -10.249 -17.399 -9.992 QT
-16.25 -9.734 -15.469 -8.96 QT
-14.688 -8.187 -14.688 -6.765 QT
-14.688 -5.703 -15.578 -5.007 QT
-16.469 -4.312 -17.703 -3.999 QT
-18.938 -3.687 -20 -3.687 QT
-21.063 -3.687 -22.305 -3.999 QT
-23.547 -4.312 -24.438 -5.007 QT
-25.328 -5.703 -25.328 -6.765 QT
cp
-23.984 -6.765 M
-23.984 -5.953 -23.328 -5.406 QT
-22.672 -4.859 -21.742 -4.601 QT
-20.813 -4.343 -20 -4.343 QT
-19.188 -4.343 -18.266 -4.601 QT
-17.344 -4.859 -16.688 -5.406 QT
-16.031 -5.953 -16.031 -6.765 QT
-16.031 -8.015 -17.18 -8.39 QT
-18.328 -8.765 -19.969 -8.765 QT
-21.938 -8.765 L
-22.5 -8.765 -22.961 -8.499 QT
-23.422 -8.234 -23.703 -7.757 QT
-23.984 -7.281 -23.984 -6.765 QT
cp
-20.672 -12.812 M
-18.625 -12.812 -18.625 -15.718 QT
-18.625 -16.968 -19.063 -17.789 QT
-19.5 -18.609 -20.672 -18.609 QT
-21.844 -18.609 -22.274 -17.789 QT
-22.703 -16.968 -22.703 -15.718 QT
-22.703 -14.921 -22.539 -14.281 QT
-22.375 -13.64 -21.93 -13.226 QT
-21.484 -12.812 -20.672 -12.812 QT
cp}def
f-2122900015
f
GR
GS
[1 0 0 1 290.00027 32] CT
N
/f2103137411{-13.031 -10.999 M
-13.031 -12.421 -11.906 -13.32 QT
-10.781 -14.218 -9.211 -14.585 QT
-7.641 -14.953 -6.219 -14.953 QT
-6.219 -15.937 L
-6.219 -16.64 -6.523 -17.289 QT
-6.828 -17.937 -7.398 -18.351 QT
-7.969 -18.765 -8.672 -18.765 QT
-10.266 -18.765 -11.094 -18.046 QT
-10.641 -18.046 -10.336 -17.703 QT
-10.031 -17.359 -10.031 -16.906 QT
-10.031 -16.421 -10.375 -16.085 QT
-10.719 -15.749 -11.188 -15.749 QT
-11.672 -15.749 -12.008 -16.085 QT
-12.344 -16.421 -12.344 -16.906 QT
-12.344 -18.171 -11.195 -18.789 QT
-10.047 -19.406 -8.672 -19.406 QT
-7.688 -19.406 -6.703 -18.984 QT
-5.719 -18.562 -5.094 -17.789 QT
-4.469 -17.015 -4.469 -15.984 QT
-4.469 -10.593 L
-4.469 -10.124 -4.273 -9.726 QT
-4.078 -9.328 -3.656 -9.328 QT
-3.25 -9.328 -3.055 -9.726 QT
-2.859 -10.124 -2.859 -10.593 QT
-2.859 -12.124 L
-2.156 -12.124 L
-2.156 -10.593 L
-2.156 -10.046 -2.438 -9.562 QT
-2.719 -9.078 -3.195 -8.789 QT
-3.672 -8.499 -4.219 -8.499 QT
-4.922 -8.499 -5.438 -9.046 QT
-5.953 -9.593 -6 -10.343 QT
-6.453 -9.437 -7.32 -8.906 QT
-8.188 -8.374 -9.172 -8.374 QT
-10.078 -8.374 -10.969 -8.64 QT
-11.859 -8.906 -12.445 -9.492 QT
-13.031 -10.078 -13.031 -10.999 QT
cp
-11.094 -10.999 M
-11.094 -10.156 -10.469 -9.578 QT
-9.844 -8.999 -9 -8.999 QT
-8.234 -8.999 -7.602 -9.39 QT
-6.969 -9.781 -6.594 -10.445 QT
-6.219 -11.109 -6.219 -11.859 QT
-6.219 -14.343 L
-7.313 -14.343 -8.453 -13.992 QT
-9.594 -13.64 -10.344 -12.874 QT
-11.094 -12.109 -11.094 -10.999 QT
cp}def
f2103137411
f
GR
GS
[1 0 0 1 290.00027 32] CT
N
/f-45030359{0.453 -11.531 M
0.453 -18.14 L
-1.547 -18.14 L
-1.547 -18.765 L
0.031 -18.765 0.766 -20.234 QT
1.5 -21.703 1.5 -23.406 QT
2.203 -23.406 L
2.203 -18.984 L
5.578 -18.984 L
5.578 -18.14 L
2.203 -18.14 L
2.203 -11.578 L
2.203 -10.578 2.531 -9.828 QT
2.859 -9.078 3.734 -9.078 QT
4.547 -9.078 4.914 -9.867 QT
5.281 -10.656 5.281 -11.578 QT
5.281 -12.984 L
5.969 -12.984 L
5.969 -11.531 L
5.969 -10.781 5.695 -10.046 QT
5.422 -9.312 4.883 -8.843 QT
4.344 -8.374 3.562 -8.374 QT
2.125 -8.374 1.289 -9.234 QT
0.453 -10.093 0.453 -11.531 QT
cp}def
f-45030359
f
GR
GS
[1 0 0 1 290.00027 32] CT
N
/f411828865{8.068 -8.64 M
8.068 -9.484 L
8.896 -9.484 9.419 -9.617 QT
9.943 -9.749 9.943 -10.249 QT
9.943 -16.796 L
9.943 -17.718 9.591 -17.929 QT
9.24 -18.14 8.177 -18.14 QT
8.177 -18.984 L
11.63 -19.249 L
11.63 -10.249 L
11.63 -9.749 12.091 -9.617 QT
12.552 -9.484 13.318 -9.484 QT
13.318 -8.64 L
8.068 -8.64 L
cp
9.099 -23.374 M
9.099 -23.906 9.497 -24.304 QT
9.896 -24.703 10.411 -24.703 QT
10.74 -24.703 11.06 -24.523 QT
11.38 -24.343 11.552 -24.031 QT
11.724 -23.718 11.724 -23.374 QT
11.724 -22.859 11.326 -22.46 QT
10.927 -22.062 10.411 -22.062 QT
9.896 -22.062 9.497 -22.46 QT
9.099 -22.859 9.099 -23.374 QT
cp}def
f411828865
f
GR
GS
[1 0 0 1 290.00027 32] CT
N
/f-1923340858{19.859 -8.64 M
16.359 -17.453 L
16.141 -17.906 15.672 -18.023 QT
15.203 -18.14 14.453 -18.14 QT
14.453 -18.984 L
19.5 -18.984 L
19.5 -18.14 L
18.156 -18.14 18.156 -17.578 QT
18.156 -17.484 18.172 -17.437 QT
20.875 -10.656 L
23.297 -16.781 L
23.359 -16.968 23.359 -17.156 QT
23.359 -17.624 23.016 -17.882 QT
22.672 -18.14 22.203 -18.14 QT
22.203 -18.984 L
26.188 -18.984 L
26.188 -18.14 L
25.453 -18.14 24.898 -17.804 QT
24.344 -17.468 24.031 -16.796 QT
20.797 -8.64 L
20.703 -8.374 20.406 -8.374 QT
20.234 -8.374 L
19.938 -8.374 19.859 -8.64 QT
cp}def
f-1923340858
f
GR
GS
[1 0 0 1 290.00027 32] CT
N
/f-1443618816{27.401 -8.64 M
27.401 -9.484 L
28.229 -9.484 28.753 -9.617 QT
29.276 -9.749 29.276 -10.249 QT
29.276 -16.796 L
29.276 -17.718 28.925 -17.929 QT
28.573 -18.14 27.51 -18.14 QT
27.51 -18.984 L
30.964 -19.249 L
30.964 -10.249 L
30.964 -9.749 31.425 -9.617 QT
31.885 -9.484 32.651 -9.484 QT
32.651 -8.64 L
27.401 -8.64 L
cp
28.432 -23.374 M
28.432 -23.906 28.831 -24.304 QT
29.229 -24.703 29.745 -24.703 QT
30.073 -24.703 30.393 -24.523 QT
30.714 -24.343 30.885 -24.031 QT
31.057 -23.718 31.057 -23.374 QT
31.057 -22.859 30.659 -22.46 QT
30.26 -22.062 29.745 -22.062 QT
29.229 -22.062 28.831 -22.46 QT
28.432 -22.859 28.432 -23.374 QT
cp}def
f-1443618816
f
GR
GS
[1 0 0 1 290.00027 32] CT
N
/f1067843866{35.787 -11.531 M
35.787 -18.14 L
33.787 -18.14 L
33.787 -18.765 L
35.365 -18.765 36.099 -20.234 QT
36.833 -21.703 36.833 -23.406 QT
37.537 -23.406 L
37.537 -18.984 L
40.912 -18.984 L
40.912 -18.14 L
37.537 -18.14 L
37.537 -11.578 L
37.537 -10.578 37.865 -9.828 QT
38.193 -9.078 39.068 -9.078 QT
39.88 -9.078 40.247 -9.867 QT
40.615 -10.656 40.615 -11.578 QT
40.615 -12.984 L
41.302 -12.984 L
41.302 -11.531 L
41.302 -10.781 41.029 -10.046 QT
40.755 -9.312 40.216 -8.843 QT
39.677 -8.374 38.896 -8.374 QT
37.458 -8.374 36.622 -9.234 QT
35.787 -10.093 35.787 -11.531 QT
cp}def
f1067843866
f
GR
GS
[1 0 0 1 290.00027 32] CT
N
/f-584627858{43.656 -4.703 M
44.109 -4.343 44.656 -4.343 QT
46.172 -4.343 47.141 -6.624 QT
47.953 -8.64 L
44.359 -17.453 L
44.141 -17.906 43.68 -18.023 QT
43.219 -18.14 42.453 -18.14 QT
42.453 -18.984 L
47.5 -18.984 L
47.5 -18.14 L
46.172 -18.14 46.172 -17.578 QT
46.172 -17.484 46.203 -17.437 QT
48.875 -10.874 L
51.266 -16.781 L
51.344 -16.968 51.344 -17.187 QT
51.344 -17.484 51.188 -17.695 QT
51.031 -17.906 50.774 -18.023 QT
50.516 -18.14 50.203 -18.14 QT
50.203 -18.984 L
54.188 -18.984 L
54.188 -18.14 L
53.453 -18.14 52.899 -17.804 QT
52.344 -17.468 52.031 -16.796 QT
47.891 -6.624 L
47.563 -5.843 47.117 -5.195 QT
46.672 -4.546 46.039 -4.132 QT
45.406 -3.718 44.656 -3.718 QT
43.781 -3.718 43.117 -4.296 QT
42.453 -4.874 42.453 -5.734 QT
42.453 -6.171 42.758 -6.476 QT
43.063 -6.781 43.516 -6.781 QT
43.813 -6.781 44.055 -6.648 QT
44.297 -6.515 44.43 -6.281 QT
44.563 -6.046 44.563 -5.734 QT
44.563 -5.343 44.305 -5.039 QT
44.047 -4.734 43.656 -4.703 QT
cp}def
f-584627858
f
GR
GS
0 0.447 0.741 RC
1 LJ
2.5 LW
N
82.613 271.415 M
92.443 285.28 L
102.272 303.788 L
112.101 296.386 L
121.93 305.278 L
131.76 302.105 L
141.589 310.576 L
151.742 275.025 L
161.571 262.907 L
171.401 233.343 L
181.338 257.772 L
191.275 165.273 L
200.997 191.437 L
210.826 223.111 L
220.763 264.035 L
230.7 196.737 L
240.422 247.274 L
250.251 283.384 L
260.188 278.95 L
270.125 266.18 L
279.847 268.37 L
289.676 270.14 L
299.613 236.77 L
309.443 217.662 L
319.272 251.801 L
329.101 248.458 L
338.93 263.99 L
349.084 253.455 L
358.481 268.197 L
368.418 284.997 L
378.571 265.348 L
388.509 241.066 L
398.23 288.503 L
408.059 283.347 L
417.997 296.251 L
427.934 220.502 L
437.655 286.414 L
447.484 277.246 L
457.422 287.058 L
467.359 280.434 L
477.188 284.828 L
487.017 282.815 L
496.955 256.452 L
506.784 306.877 L
S
GR
GS
0.769 0.306 0.322 RC
[1 3] 0 setdash
2 LJ
N
82.613 345.062 M
92.443 355.822 L
102.272 358.764 L
112.101 360.235 L
121.93 353.758 L
131.76 340.069 L
141.589 363.4 L
151.742 365.638 L
161.571 324.842 L
171.401 321.831 L
181.338 329.934 L
191.275 278.156 L
200.997 307.907 L
210.826 299.942 L
220.763 320.941 L
230.7 316.96 L
240.422 316.96 L
250.251 330.796 L
260.188 337.008 L
270.125 328.815 L
279.847 337.669 L
289.676 344.52 L
299.613 316.102 L
309.443 295.574 L
319.272 305.7 L
329.101 321.375 L
338.93 315.519 L
349.084 345.376 L
358.481 328.193 L
368.418 344.651 L
378.571 332.591 L
388.509 330.858 L
398.23 332.543 L
408.059 318.571 L
417.997 339.555 L
427.934 312.446 L
437.655 336.741 L
447.484 349.629 L
457.422 334.604 L
467.359 342.757 L
477.188 331.218 L
487.017 326.506 L
496.955 318.875 L
506.784 333.489 L
S
GR
GS
0.333 0.659 0.408 RC
[8 8] 0 setdash
2 LJ
2.5 LW
N
82.613 302.171 M
92.443 297.862 L
102.272 316.677 L
112.101 330.133 L
121.93 331.048 L
131.76 313.8 L
141.589 331.122 L
151.742 312.858 L
161.571 284.617 L
171.401 261.336 L
181.338 286.283 L
191.275 190.401 L
200.997 239.614 L
210.826 267.653 L
220.763 292.888 L
230.7 224.902 L
240.422 282.402 L
250.251 289.87 L
260.188 293.17 L
270.125 279.47 L
279.847 299.183 L
289.676 297.77 L
299.613 272.662 L
309.443 271.633 L
319.272 256.062 L
329.101 255.829 L
338.93 275.956 L
349.084 300.273 L
358.481 291.544 L
368.418 291.87 L
378.571 302.022 L
388.509 244.169 L
398.23 301.675 L
408.059 300.134 L
417.997 292.387 L
427.934 279.227 L
437.655 307.214 L
447.484 301.61 L
457.422 299.284 L
467.359 296.811 L
477.188 302.426 L
487.017 312.386 L
496.955 299.061 L
506.784 325.002 L
S
GR
GS
0.769 0.306 0.322 RC
[1 3] 0 setdash
2 LJ
N
82.613 235.126 M
92.443 247.509 L
102.272 276.55 L
112.101 219.613 L
121.93 278.203 L
131.76 282.885 L
141.589 277.254 L
151.742 179.443 L
161.571 228.461 L
171.401 177.074 L
181.338 213.585 L
191.275 106.075 L
200.997 108.047 L
210.826 133.879 L
220.763 238.904 L
230.7 64.657 L
240.422 212.627 L
250.251 271.136 L
260.188 256.61 L
270.125 212.394 L
279.847 259.696 L
289.676 220.934 L
299.613 201.997 L
309.443 167.449 L
319.272 222.308 L
329.101 168.915 L
338.93 239.996 L
349.084 209.438 L
358.481 235.154 L
368.418 248.236 L
378.571 254.556 L
388.509 175.661 L
398.23 268.184 L
408.059 256.954 L
417.997 273.157 L
427.934 143.712 L
437.655 244.474 L
447.484 230.155 L
457.422 269.298 L
467.359 252.772 L
477.188 274.329 L
487.017 256.055 L
496.955 242.708 L
506.784 283.108 L
S
GR
%%Trailer
%%Pages: 1
%%EOF
