%!PS-Adobe-3.0 EPSF-3.0
%%Creator: (MATLAB, The Mathworks, Inc. Version 9.7.0.1216025 \(R2019b\) Update 1. Operating System: Mac OS X)
%%Title: ../../results/TF_IDF/baseline/Figures/Timeseries/Personalness.eps
%%CreationDate: 2020-03-06T15:17:17
%%Pages: (atend)
%%BoundingBox:    32    22   509   414
%%LanguageLevel: 3
%%EndComments
%%BeginProlog
%%BeginResource: procset (Apache XML Graphics Std ProcSet) 1.2 0
%%Version: 1.2 0
%%Copyright: (Copyright 2001-2003,2010 The Apache Software Foundation. License terms: http://www.apache.org/licenses/LICENSE-2.0)
/bd{bind def}bind def
/ld{load def}bd
/GR/grestore ld
/GS/gsave ld
/RM/rmoveto ld
/C/curveto ld
/t/show ld
/L/lineto ld
/ML/setmiterlimit ld
/CT/concat ld
/f/fill ld
/N/newpath ld
/S/stroke ld
/CC/setcmykcolor ld
/A/ashow ld
/cp/closepath ld
/RC/setrgbcolor ld
/LJ/setlinejoin ld
/GC/setgray ld
/LW/setlinewidth ld
/M/moveto ld
/re {4 2 roll M
1 index 0 rlineto
0 exch rlineto
neg 0 rlineto
cp } bd
/_ctm matrix def
/_tm matrix def
/BT { _ctm currentmatrix pop matrix _tm copy pop 0 0 moveto } bd
/ET { _ctm setmatrix } bd
/iTm { _ctm setmatrix _tm concat } bd
/Tm { _tm astore pop iTm 0 0 moveto } bd
/ux 0.0 def
/uy 0.0 def
/F {
  /Tp exch def
  /Tf exch def
  Tf findfont Tp scalefont setfont
  /cf Tf def  /cs Tp def
} bd
/ULS {currentpoint /uy exch def /ux exch def} bd
/ULE {
  /Tcx currentpoint pop def
  gsave
  newpath
  cf findfont cs scalefont dup
  /FontMatrix get 0 get /Ts exch def /FontInfo get dup
  /UnderlinePosition get Ts mul /To exch def
  /UnderlineThickness get Ts mul /Tt exch def
  ux uy To add moveto  Tcx uy To add lineto
  Tt setlinewidth stroke
  grestore
} bd
/OLE {
  /Tcx currentpoint pop def
  gsave
  newpath
  cf findfont cs scalefont dup
  /FontMatrix get 0 get /Ts exch def /FontInfo get dup
  /UnderlinePosition get Ts mul /To exch def
  /UnderlineThickness get Ts mul /Tt exch def
  ux uy To add cs add moveto Tcx uy To add cs add lineto
  Tt setlinewidth stroke
  grestore
} bd
/SOE {
  /Tcx currentpoint pop def
  gsave
  newpath
  cf findfont cs scalefont dup
  /FontMatrix get 0 get /Ts exch def /FontInfo get dup
  /UnderlinePosition get Ts mul /To exch def
  /UnderlineThickness get Ts mul /Tt exch def
  ux uy To add cs 10 mul 26 idiv add moveto Tcx uy To add cs 10 mul 26 idiv add lineto
  Tt setlinewidth stroke
  grestore
} bd
/QT {
/Y22 exch store
/X22 exch store
/Y21 exch store
/X21 exch store
currentpoint
/Y21 load 2 mul add 3 div exch
/X21 load 2 mul add 3 div exch
/X21 load 2 mul /X22 load add 3 div
/Y21 load 2 mul /Y22 load add 3 div
/X22 load /Y22 load curveto
} bd
/SSPD {
dup length /d exch dict def
{
/v exch def
/k exch def
currentpagedevice k known {
/cpdv currentpagedevice k get def
v cpdv ne {
/upd false def
/nullv v type /nulltype eq def
/nullcpdv cpdv type /nulltype eq def
nullv nullcpdv or
{
/upd true def
} {
/sametype v type cpdv type eq def
sametype {
v type /arraytype eq {
/vlen v length def
/cpdvlen cpdv length def
vlen cpdvlen eq {
0 1 vlen 1 sub {
/i exch def
/obj v i get def
/cpdobj cpdv i get def
obj cpdobj ne {
/upd true def
exit
} if
} for
} {
/upd true def
} ifelse
} {
v type /dicttype eq {
v {
/dv exch def
/dk exch def
/cpddv cpdv dk get def
dv cpddv ne {
/upd true def
exit
} if
} forall
} {
/upd true def
} ifelse
} ifelse
} if
} ifelse
upd true eq {
d k v put
} if
} if
} if
} forall
d length 0 gt {
d setpagedevice
} if
} bd
/RE { % /NewFontName [NewEncodingArray] /FontName RE -
  findfont dup length dict begin
  {
    1 index /FID ne
    {def} {pop pop} ifelse
  } forall
  /Encoding exch def
  /FontName 1 index def
  currentdict definefont pop
  end
} bind def
%%EndResource
%%BeginResource: procset (Apache XML Graphics EPS ProcSet) 1.0 0
%%Version: 1.0 0
%%Copyright: (Copyright 2002-2003 The Apache Software Foundation. License terms: http://www.apache.org/licenses/LICENSE-2.0)
/BeginEPSF { %def
/b4_Inc_state save def         % Save state for cleanup
/dict_count countdictstack def % Count objects on dict stack
/op_count count 1 sub def      % Count objects on operand stack
userdict begin                 % Push userdict on dict stack
/showpage { } def              % Redefine showpage, { } = null proc
0 setgray 0 setlinecap         % Prepare graphics state
1 setlinewidth 0 setlinejoin
10 setmiterlimit [ ] 0 setdash newpath
/languagelevel where           % If level not equal to 1 then
{pop languagelevel             % set strokeadjust and
1 ne                           % overprint to their defaults.
{false setstrokeadjust false setoverprint
} if
} if
} bd
/EndEPSF { %def
count op_count sub {pop} repeat            % Clean up stacks
countdictstack dict_count sub {end} repeat
b4_Inc_state restore
} bd
%%EndResource
%FOPBeginFontDict
%%IncludeResource: font Courier-Oblique
%%IncludeResource: font Courier-BoldOblique
%%IncludeResource: font Courier-Bold
%%IncludeResource: font ZapfDingbats
%%IncludeResource: font Symbol
%%IncludeResource: font Helvetica
%%IncludeResource: font Helvetica-Oblique
%%IncludeResource: font Helvetica-Bold
%%IncludeResource: font Helvetica-BoldOblique
%%IncludeResource: font Times-Roman
%%IncludeResource: font Times-Italic
%%IncludeResource: font Times-Bold
%%IncludeResource: font Times-BoldItalic
%%IncludeResource: font Courier
%FOPEndFontDict
%%BeginResource: encoding WinAnsiEncoding
/WinAnsiEncoding [
/.notdef /.notdef /.notdef /.notdef /.notdef
/.notdef /.notdef /.notdef /.notdef /.notdef
/.notdef /.notdef /.notdef /.notdef /.notdef
/.notdef /.notdef /.notdef /.notdef /.notdef
/.notdef /.notdef /.notdef /.notdef /.notdef
/.notdef /.notdef /.notdef /.notdef /.notdef
/.notdef /.notdef /space /exclam /quotedbl
/numbersign /dollar /percent /ampersand /quotesingle
/parenleft /parenright /asterisk /plus /comma
/hyphen /period /slash /zero /one
/two /three /four /five /six
/seven /eight /nine /colon /semicolon
/less /equal /greater /question /at
/A /B /C /D /E
/F /G /H /I /J
/K /L /M /N /O
/P /Q /R /S /T
/U /V /W /X /Y
/Z /bracketleft /backslash /bracketright /asciicircum
/underscore /quoteleft /a /b /c
/d /e /f /g /h
/i /j /k /l /m
/n /o /p /q /r
/s /t /u /v /w
/x /y /z /braceleft /bar
/braceright /asciitilde /bullet /Euro /bullet
/quotesinglbase /florin /quotedblbase /ellipsis /dagger
/daggerdbl /circumflex /perthousand /Scaron /guilsinglleft
/OE /bullet /Zcaron /bullet /bullet
/quoteleft /quoteright /quotedblleft /quotedblright /bullet
/endash /emdash /asciitilde /trademark /scaron
/guilsinglright /oe /bullet /zcaron /Ydieresis
/space /exclamdown /cent /sterling /currency
/yen /brokenbar /section /dieresis /copyright
/ordfeminine /guillemotleft /logicalnot /sfthyphen /registered
/macron /degree /plusminus /twosuperior /threesuperior
/acute /mu /paragraph /middot /cedilla
/onesuperior /ordmasculine /guillemotright /onequarter /onehalf
/threequarters /questiondown /Agrave /Aacute /Acircumflex
/Atilde /Adieresis /Aring /AE /Ccedilla
/Egrave /Eacute /Ecircumflex /Edieresis /Igrave
/Iacute /Icircumflex /Idieresis /Eth /Ntilde
/Ograve /Oacute /Ocircumflex /Otilde /Odieresis
/multiply /Oslash /Ugrave /Uacute /Ucircumflex
/Udieresis /Yacute /Thorn /germandbls /agrave
/aacute /acircumflex /atilde /adieresis /aring
/ae /ccedilla /egrave /eacute /ecircumflex
/edieresis /igrave /iacute /icircumflex /idieresis
/eth /ntilde /ograve /oacute /ocircumflex
/otilde /odieresis /divide /oslash /ugrave
/uacute /ucircumflex /udieresis /yacute /thorn
/ydieresis
] def
%%EndResource
%FOPBeginFontReencode
/Courier-Oblique findfont
dup length dict begin
  {1 index /FID ne {def} {pop pop} ifelse} forall
  /Encoding WinAnsiEncoding def
  currentdict
end
/Courier-Oblique exch definefont pop
/Courier-BoldOblique findfont
dup length dict begin
  {1 index /FID ne {def} {pop pop} ifelse} forall
  /Encoding WinAnsiEncoding def
  currentdict
end
/Courier-BoldOblique exch definefont pop
/Courier-Bold findfont
dup length dict begin
  {1 index /FID ne {def} {pop pop} ifelse} forall
  /Encoding WinAnsiEncoding def
  currentdict
end
/Courier-Bold exch definefont pop
/Helvetica findfont
dup length dict begin
  {1 index /FID ne {def} {pop pop} ifelse} forall
  /Encoding WinAnsiEncoding def
  currentdict
end
/Helvetica exch definefont pop
/Helvetica-Oblique findfont
dup length dict begin
  {1 index /FID ne {def} {pop pop} ifelse} forall
  /Encoding WinAnsiEncoding def
  currentdict
end
/Helvetica-Oblique exch definefont pop
/Helvetica-Bold findfont
dup length dict begin
  {1 index /FID ne {def} {pop pop} ifelse} forall
  /Encoding WinAnsiEncoding def
  currentdict
end
/Helvetica-Bold exch definefont pop
/Helvetica-BoldOblique findfont
dup length dict begin
  {1 index /FID ne {def} {pop pop} ifelse} forall
  /Encoding WinAnsiEncoding def
  currentdict
end
/Helvetica-BoldOblique exch definefont pop
/Times-Roman findfont
dup length dict begin
  {1 index /FID ne {def} {pop pop} ifelse} forall
  /Encoding WinAnsiEncoding def
  currentdict
end
/Times-Roman exch definefont pop
/Times-Italic findfont
dup length dict begin
  {1 index /FID ne {def} {pop pop} ifelse} forall
  /Encoding WinAnsiEncoding def
  currentdict
end
/Times-Italic exch definefont pop
/Times-Bold findfont
dup length dict begin
  {1 index /FID ne {def} {pop pop} ifelse} forall
  /Encoding WinAnsiEncoding def
  currentdict
end
/Times-Bold exch definefont pop
/Times-BoldItalic findfont
dup length dict begin
  {1 index /FID ne {def} {pop pop} ifelse} forall
  /Encoding WinAnsiEncoding def
  currentdict
end
/Times-BoldItalic exch definefont pop
/Courier findfont
dup length dict begin
  {1 index /FID ne {def} {pop pop} ifelse} forall
  /Encoding WinAnsiEncoding def
  currentdict
end
/Courier exch definefont pop
%FOPEndFontReencode
%%EndProlog
%%Page: 1 1
%%PageBoundingBox: 0 0 560 420
%%BeginPageSetup
[1 0 0 -1 0 420] CT
%%EndPageSetup
GS
1 GC
N
0 0 560 420 re
f
GR
GS
1 GC
N
0 0 560 420 re
f
GR
GS
1 GC
N
73 374 M
507 374 L
507 35 L
73 35 L
cp
f
GR
GS
0.149 GC
2 setlinecap
1 LJ
0.5 LW
N
73 374 M
507 374 L
S
GR
GS
0.149 GC
2 setlinecap
1 LJ
0.5 LW
N
73 35 M
507 35 L
S
GR
GS
0.149 GC
2 setlinecap
1 LJ
0.5 LW
N
73 374 M
73 369.66 L
S
GR
GS
0.149 GC
2 setlinecap
1 LJ
0.5 LW
N
151.85 374 M
151.85 369.66 L
S
GR
GS
0.149 GC
2 setlinecap
1 LJ
0.5 LW
N
230.808 374 M
230.808 369.66 L
S
GR
GS
0.149 GC
2 setlinecap
1 LJ
0.5 LW
N
309.659 374 M
309.659 369.66 L
S
GR
GS
0.149 GC
2 setlinecap
1 LJ
0.5 LW
N
388.617 374 M
388.617 369.66 L
S
GR
GS
0.149 GC
2 setlinecap
1 LJ
0.5 LW
N
467.467 374 M
467.467 369.66 L
S
GR
GS
0.149 GC
2 setlinecap
1 LJ
0.5 LW
N
73 35 M
73 39.34 L
S
GR
GS
0.149 GC
2 setlinecap
1 LJ
0.5 LW
N
151.85 35 M
151.85 39.34 L
S
GR
GS
0.149 GC
2 setlinecap
1 LJ
0.5 LW
N
230.808 35 M
230.808 39.34 L
S
GR
GS
0.149 GC
2 setlinecap
1 LJ
0.5 LW
N
309.659 35 M
309.659 39.34 L
S
GR
GS
0.149 GC
2 setlinecap
1 LJ
0.5 LW
N
388.617 35 M
388.617 39.34 L
S
GR
GS
0.149 GC
2 setlinecap
1 LJ
0.5 LW
N
467.467 35 M
467.467 39.34 L
S
GR
GS
[1 0 0 1 73 380] CT
0.149 GC
N
-19 16.8 M
-19 16.269 L
-19 16.206 -18.969 16.159 QT
-15.859 12.722 L
-15.156 11.956 -14.719 11.441 QT
-14.281 10.925 -13.852 10.245 QT
-13.422 9.566 -13.172 8.87 QT
-12.922 8.175 -12.922 7.394 QT
-12.922 6.581 -13.227 5.831 QT
-13.531 5.081 -14.125 4.628 QT
-14.719 4.175 -15.578 4.175 QT
-16.438 4.175 -17.133 4.698 QT
-17.828 5.222 -18.109 6.05 QT
-18.031 6.034 -17.906 6.034 QT
-17.453 6.034 -17.133 6.339 QT
-16.813 6.644 -16.813 7.128 QT
-16.813 7.581 -17.133 7.901 QT
-17.453 8.222 -17.906 8.222 QT
-18.375 8.222 -18.688 7.894 QT
-19 7.566 -19 7.128 QT
-19 6.362 -18.719 5.706 QT
-18.438 5.05 -17.906 4.534 QT
-17.375 4.019 -16.703 3.745 QT
-16.031 3.472 -15.281 3.472 QT
-14.141 3.472 -13.156 3.956 QT
-12.172 4.441 -11.594 5.323 QT
-11.016 6.206 -11.016 7.394 QT
-11.016 8.269 -11.398 9.05 QT
-11.781 9.831 -12.375 10.472 QT
-12.969 11.112 -13.898 11.917 QT
-14.828 12.722 -15.109 13.003 QT
-17.375 15.175 L
-15.453 15.175 L
-14.047 15.175 -13.094 15.151 QT
-12.141 15.128 -12.078 15.081 QT
-11.844 14.831 -11.594 13.237 QT
-11.016 13.237 L
-11.578 16.8 L
-19 16.8 L
cp
f
GR
GS
[1 0 0 1 73 380] CT
0.149 GC
N
-5 17.237 M
-7.453 17.237 -8.336 15.222 QT
-9.219 13.206 -9.219 10.425 QT
-9.219 8.691 -8.898 7.151 QT
-8.578 5.612 -7.641 4.542 QT
-6.703 3.472 -5 3.472 QT
-3.688 3.472 -2.844 4.12 QT
-2 4.769 -1.563 5.792 QT
-1.125 6.816 -0.961 7.98 QT
-0.797 9.144 -0.797 10.425 QT
-0.797 12.144 -1.117 13.644 QT
-1.438 15.144 -2.367 16.191 QT
-3.297 17.237 -5 17.237 QT
cp
-5 16.722 M
-3.891 16.722 -3.344 15.581 QT
-2.797 14.441 -2.664 13.05 QT
-2.531 11.659 -2.531 10.097 QT
-2.531 8.597 -2.664 7.323 QT
-2.797 6.05 -3.336 5.026 QT
-3.875 4.003 -5 4.003 QT
-6.125 4.003 -6.672 5.034 QT
-7.219 6.066 -7.352 7.331 QT
-7.484 8.597 -7.484 10.097 QT
-7.484 11.206 -7.43 12.198 QT
-7.375 13.191 -7.141 14.237 QT
-6.906 15.284 -6.383 16.003 QT
-5.859 16.722 -5 16.722 QT
cp
f
GR
GS
[1 0 0 1 73 380] CT
0.149 GC
N
5 17.237 M
2.547 17.237 1.664 15.222 QT
0.781 13.206 0.781 10.425 QT
0.781 8.691 1.102 7.151 QT
1.422 5.612 2.359 4.542 QT
3.297 3.472 5 3.472 QT
6.313 3.472 7.156 4.12 QT
8 4.769 8.438 5.792 QT
8.875 6.816 9.039 7.98 QT
9.203 9.144 9.203 10.425 QT
9.203 12.144 8.883 13.644 QT
8.563 15.144 7.633 16.191 QT
6.703 17.237 5 17.237 QT
cp
5 16.722 M
6.109 16.722 6.656 15.581 QT
7.203 14.441 7.336 13.05 QT
7.469 11.659 7.469 10.097 QT
7.469 8.597 7.336 7.323 QT
7.203 6.05 6.664 5.026 QT
6.125 4.003 5 4.003 QT
3.875 4.003 3.328 5.034 QT
2.781 6.066 2.648 7.331 QT
2.516 8.597 2.516 10.097 QT
2.516 11.206 2.57 12.198 QT
2.625 13.191 2.859 14.237 QT
3.094 15.284 3.617 16.003 QT
4.141 16.722 5 16.722 QT
cp
f
GR
GS
[1 0 0 1 73 380] CT
0.149 GC
N
15 17.237 M
13.766 17.237 12.93 16.581 QT
12.094 15.925 11.641 14.87 QT
11.188 13.816 11.016 12.667 QT
10.844 11.519 10.844 10.331 QT
10.844 8.753 11.461 7.159 QT
12.078 5.566 13.273 4.519 QT
14.469 3.472 16.109 3.472 QT
16.781 3.472 17.375 3.737 QT
17.969 4.003 18.305 4.503 QT
18.641 5.003 18.641 5.722 QT
18.641 6.128 18.367 6.401 QT
18.094 6.675 17.672 6.675 QT
17.281 6.675 17 6.394 QT
16.719 6.112 16.719 5.722 QT
16.719 5.331 17 5.042 QT
17.281 4.753 17.672 4.753 QT
17.781 4.753 L
17.531 4.394 17.07 4.222 QT
16.609 4.05 16.109 4.05 QT
15.5 4.05 14.984 4.316 QT
14.469 4.581 14.063 5.034 QT
13.656 5.487 13.383 6.026 QT
13.109 6.566 12.953 7.261 QT
12.797 7.956 12.758 8.558 QT
12.719 9.159 12.719 10.081 QT
13.078 9.253 13.719 8.737 QT
14.359 8.222 15.172 8.222 QT
16.063 8.222 16.797 8.581 QT
17.531 8.941 18.055 9.581 QT
18.578 10.222 18.859 11.042 QT
19.141 11.862 19.141 12.691 QT
19.141 13.862 18.617 14.925 QT
18.094 15.987 17.148 16.612 QT
16.203 17.237 15 17.237 QT
cp
15 16.597 M
15.766 16.597 16.234 16.245 QT
16.703 15.894 16.93 15.316 QT
17.156 14.737 17.203 14.144 QT
17.25 13.55 17.25 12.691 QT
17.25 11.566 17.148 10.761 QT
17.047 9.956 16.563 9.347 QT
16.078 8.737 15.094 8.737 QT
14.281 8.737 13.766 9.284 QT
13.25 9.831 13.008 10.667 QT
12.766 11.503 12.766 12.284 QT
12.766 12.534 12.781 12.675 QT
12.781 12.706 12.781 12.73 QT
12.781 12.753 12.766 12.769 QT
12.766 13.628 12.938 14.511 QT
13.109 15.394 13.609 15.995 QT
14.109 16.597 15 16.597 QT
cp
f
GR
GS
[1 0 0 1 151.85017 380] CT
0.149 GC
N
/f-1171549265{-19 16.8 M
-19 16.269 L
-19 16.206 -18.969 16.159 QT
-15.859 12.722 L
-15.156 11.956 -14.719 11.441 QT
-14.281 10.925 -13.852 10.245 QT
-13.422 9.566 -13.172 8.87 QT
-12.922 8.175 -12.922 7.394 QT
-12.922 6.581 -13.227 5.831 QT
-13.531 5.081 -14.125 4.628 QT
-14.719 4.175 -15.578 4.175 QT
-16.438 4.175 -17.133 4.698 QT
-17.828 5.222 -18.109 6.05 QT
-18.031 6.034 -17.906 6.034 QT
-17.453 6.034 -17.133 6.339 QT
-16.813 6.644 -16.813 7.128 QT
-16.813 7.581 -17.133 7.901 QT
-17.453 8.222 -17.906 8.222 QT
-18.375 8.222 -18.688 7.894 QT
-19 7.566 -19 7.128 QT
-19 6.362 -18.719 5.706 QT
-18.438 5.05 -17.906 4.534 QT
-17.375 4.019 -16.703 3.745 QT
-16.031 3.472 -15.281 3.472 QT
-14.141 3.472 -13.156 3.956 QT
-12.172 4.441 -11.594 5.323 QT
-11.016 6.206 -11.016 7.394 QT
-11.016 8.269 -11.398 9.05 QT
-11.781 9.831 -12.375 10.472 QT
-12.969 11.112 -13.898 11.917 QT
-14.828 12.722 -15.109 13.003 QT
-17.375 15.175 L
-15.453 15.175 L
-14.047 15.175 -13.094 15.151 QT
-12.141 15.128 -12.078 15.081 QT
-11.844 14.831 -11.594 13.237 QT
-11.016 13.237 L
-11.578 16.8 L
-19 16.8 L
cp}def
f-1171549265
f
GR
GS
[1 0 0 1 151.85017 380] CT
0.149 GC
N
/f-2084610355{-5 17.237 M
-7.453 17.237 -8.336 15.222 QT
-9.219 13.206 -9.219 10.425 QT
-9.219 8.691 -8.898 7.151 QT
-8.578 5.612 -7.641 4.542 QT
-6.703 3.472 -5 3.472 QT
-3.688 3.472 -2.844 4.12 QT
-2 4.769 -1.563 5.792 QT
-1.125 6.816 -0.961 7.98 QT
-0.797 9.144 -0.797 10.425 QT
-0.797 12.144 -1.117 13.644 QT
-1.438 15.144 -2.367 16.191 QT
-3.297 17.237 -5 17.237 QT
cp
-5 16.722 M
-3.891 16.722 -3.344 15.581 QT
-2.797 14.441 -2.664 13.05 QT
-2.531 11.659 -2.531 10.097 QT
-2.531 8.597 -2.664 7.323 QT
-2.797 6.05 -3.336 5.026 QT
-3.875 4.003 -5 4.003 QT
-6.125 4.003 -6.672 5.034 QT
-7.219 6.066 -7.352 7.331 QT
-7.484 8.597 -7.484 10.097 QT
-7.484 11.206 -7.43 12.198 QT
-7.375 13.191 -7.141 14.237 QT
-6.906 15.284 -6.383 16.003 QT
-5.859 16.722 -5 16.722 QT
cp}def
f-2084610355
f
GR
GS
[1 0 0 1 151.85017 380] CT
0.149 GC
N
/f1017945436{5 17.237 M
2.547 17.237 1.664 15.222 QT
0.781 13.206 0.781 10.425 QT
0.781 8.691 1.102 7.151 QT
1.422 5.612 2.359 4.542 QT
3.297 3.472 5 3.472 QT
6.313 3.472 7.156 4.12 QT
8 4.769 8.438 5.792 QT
8.875 6.816 9.039 7.98 QT
9.203 9.144 9.203 10.425 QT
9.203 12.144 8.883 13.644 QT
8.563 15.144 7.633 16.191 QT
6.703 17.237 5 17.237 QT
cp
5 16.722 M
6.109 16.722 6.656 15.581 QT
7.203 14.441 7.336 13.05 QT
7.469 11.659 7.469 10.097 QT
7.469 8.597 7.336 7.323 QT
7.203 6.05 6.664 5.026 QT
6.125 4.003 5 4.003 QT
3.875 4.003 3.328 5.034 QT
2.781 6.066 2.648 7.331 QT
2.516 8.597 2.516 10.097 QT
2.516 11.206 2.57 12.198 QT
2.625 13.191 2.859 14.237 QT
3.094 15.284 3.617 16.003 QT
4.141 16.722 5 16.722 QT
cp}def
f1017945436
f
GR
GS
[1 0 0 1 151.85017 380] CT
0.149 GC
N
/f1369887443{10.844 13.769 M
10.844 12.566 11.633 11.644 QT
12.422 10.722 13.656 10.097 QT
12.922 9.628 L
12.234 9.175 11.805 8.425 QT
11.375 7.675 11.375 6.862 QT
11.375 5.894 11.883 5.128 QT
12.391 4.362 13.219 3.917 QT
14.047 3.472 15 3.472 QT
15.891 3.472 16.719 3.839 QT
17.547 4.206 18.078 4.878 QT
18.609 5.55 18.609 6.472 QT
18.609 7.144 18.289 7.722 QT
17.969 8.3 17.414 8.761 QT
16.859 9.222 16.234 9.55 QT
17.391 10.269 L
18.172 10.8 18.656 11.636 QT
19.141 12.472 19.141 13.394 QT
19.141 14.487 18.563 15.378 QT
17.984 16.269 17.023 16.753 QT
16.063 17.237 15 17.237 QT
13.969 17.237 13.008 16.816 QT
12.047 16.394 11.445 15.597 QT
10.844 14.8 10.844 13.769 QT
cp
11.922 13.769 M
11.922 14.55 12.359 15.206 QT
12.797 15.862 13.508 16.23 QT
14.219 16.597 15 16.597 QT
16.156 16.597 17.109 15.925 QT
18.063 15.253 18.063 14.128 QT
18.063 13.737 17.906 13.362 QT
17.75 12.987 17.484 12.683 QT
17.219 12.378 16.891 12.175 QT
14.203 10.441 L
13.578 10.769 13.055 11.276 QT
12.531 11.784 12.227 12.425 QT
11.922 13.066 11.922 13.769 QT
cp
13.297 7.659 M
15.719 9.222 L
16.563 8.737 17.102 8.042 QT
17.641 7.347 17.641 6.472 QT
17.641 5.8 17.266 5.237 QT
16.891 4.675 16.281 4.362 QT
15.672 4.05 14.984 4.05 QT
14.375 4.05 13.758 4.284 QT
13.141 4.519 12.742 4.987 QT
12.344 5.456 12.344 6.081 QT
12.344 7.019 13.297 7.659 QT
cp}def
f1369887443
f
GR
GS
[1 0 0 1 230.80836 380] CT
0.149 GC
N
f-1171549265
f
GR
GS
[1 0 0 1 230.80836 380] CT
0.149 GC
N
f-2084610355
f
GR
GS
[1 0 0 1 230.80836 380] CT
0.149 GC
N
/f-192727431{1.859 16.8 M
1.859 16.097 L
4.359 16.097 4.359 15.456 QT
4.359 4.956 L
3.328 5.456 1.734 5.456 QT
1.734 4.753 L
4.188 4.753 5.438 3.472 QT
5.719 3.472 L
5.797 3.472 5.859 3.526 QT
5.922 3.581 5.922 3.659 QT
5.922 15.456 L
5.922 16.097 8.422 16.097 QT
8.422 16.8 L
1.859 16.8 L
cp}def
f-192727431
f
GR
GS
[1 0 0 1 230.80836 380] CT
0.149 GC
N
/f-1674586926{15 17.237 M
12.547 17.237 11.664 15.222 QT
10.781 13.206 10.781 10.425 QT
10.781 8.691 11.102 7.151 QT
11.422 5.612 12.359 4.542 QT
13.297 3.472 15 3.472 QT
16.313 3.472 17.156 4.12 QT
18 4.769 18.438 5.792 QT
18.875 6.816 19.039 7.98 QT
19.203 9.144 19.203 10.425 QT
19.203 12.144 18.883 13.644 QT
18.563 15.144 17.633 16.191 QT
16.703 17.237 15 17.237 QT
cp
15 16.722 M
16.109 16.722 16.656 15.581 QT
17.203 14.441 17.336 13.05 QT
17.469 11.659 17.469 10.097 QT
17.469 8.597 17.336 7.323 QT
17.203 6.05 16.664 5.026 QT
16.125 4.003 15 4.003 QT
13.875 4.003 13.328 5.034 QT
12.781 6.066 12.648 7.331 QT
12.516 8.597 12.516 10.097 QT
12.516 11.206 12.57 12.198 QT
12.625 13.191 12.859 14.237 QT
13.094 15.284 13.617 16.003 QT
14.141 16.722 15 16.722 QT
cp}def
f-1674586926
f
GR
GS
[1 0 0 1 309.65854 380] CT
0.149 GC
N
f-1171549265
f
GR
GS
[1 0 0 1 309.65854 380] CT
0.149 GC
N
f-2084610355
f
GR
GS
[1 0 0 1 309.65854 380] CT
0.149 GC
N
f-192727431
f
GR
GS
[1 0 0 1 309.65854 380] CT
0.149 GC
N
/f110075864{11 16.8 M
11 16.269 L
11 16.206 11.031 16.159 QT
14.141 12.722 L
14.844 11.956 15.281 11.441 QT
15.719 10.925 16.148 10.245 QT
16.578 9.566 16.828 8.87 QT
17.078 8.175 17.078 7.394 QT
17.078 6.581 16.773 5.831 QT
16.469 5.081 15.875 4.628 QT
15.281 4.175 14.422 4.175 QT
13.563 4.175 12.867 4.698 QT
12.172 5.222 11.891 6.05 QT
11.969 6.034 12.094 6.034 QT
12.547 6.034 12.867 6.339 QT
13.188 6.644 13.188 7.128 QT
13.188 7.581 12.867 7.901 QT
12.547 8.222 12.094 8.222 QT
11.625 8.222 11.313 7.894 QT
11 7.566 11 7.128 QT
11 6.362 11.281 5.706 QT
11.563 5.05 12.094 4.534 QT
12.625 4.019 13.297 3.745 QT
13.969 3.472 14.719 3.472 QT
15.859 3.472 16.844 3.956 QT
17.828 4.441 18.406 5.323 QT
18.984 6.206 18.984 7.394 QT
18.984 8.269 18.602 9.05 QT
18.219 9.831 17.625 10.472 QT
17.031 11.112 16.102 11.917 QT
15.172 12.722 14.891 13.003 QT
12.625 15.175 L
14.547 15.175 L
15.953 15.175 16.906 15.151 QT
17.859 15.128 17.922 15.081 QT
18.156 14.831 18.406 13.237 QT
18.984 13.237 L
18.422 16.8 L
11 16.8 L
cp}def
f110075864
f
GR
GS
[1 0 0 1 388.61673 380] CT
0.149 GC
N
f-1171549265
f
GR
GS
[1 0 0 1 388.61673 380] CT
0.149 GC
N
f-2084610355
f
GR
GS
[1 0 0 1 388.61673 380] CT
0.149 GC
N
f-192727431
f
GR
GS
[1 0 0 1 388.61673 380] CT
0.149 GC
N
/f194291650{10.563 13.503 M
10.563 12.8 L
16.734 3.581 L
16.813 3.472 16.938 3.472 QT
17.234 3.472 L
17.469 3.472 17.469 3.706 QT
17.469 12.8 L
19.422 12.8 L
19.422 13.503 L
17.469 13.503 L
17.469 15.456 L
17.469 15.878 18.055 15.987 QT
18.641 16.097 19.406 16.097 QT
19.406 16.8 L
13.891 16.8 L
13.891 16.097 L
14.672 16.097 15.258 15.987 QT
15.844 15.878 15.844 15.456 QT
15.844 13.503 L
10.563 13.503 L
cp
11.219 12.8 M
15.953 12.8 L
15.953 5.722 L
11.219 12.8 L
cp}def
f194291650
f
GR
GS
[1 0 0 1 467.46689 380] CT
0.149 GC
N
f-1171549265
f
GR
GS
[1 0 0 1 467.46689 380] CT
0.149 GC
N
f-2084610355
f
GR
GS
[1 0 0 1 467.46689 380] CT
0.149 GC
N
f-192727431
f
GR
GS
[1 0 0 1 467.46689 380] CT
0.149 GC
N
/f-973792135{15 17.237 M
13.766 17.237 12.93 16.581 QT
12.094 15.925 11.641 14.87 QT
11.188 13.816 11.016 12.667 QT
10.844 11.519 10.844 10.331 QT
10.844 8.753 11.461 7.159 QT
12.078 5.566 13.273 4.519 QT
14.469 3.472 16.109 3.472 QT
16.781 3.472 17.375 3.737 QT
17.969 4.003 18.305 4.503 QT
18.641 5.003 18.641 5.722 QT
18.641 6.128 18.367 6.401 QT
18.094 6.675 17.672 6.675 QT
17.281 6.675 17 6.394 QT
16.719 6.112 16.719 5.722 QT
16.719 5.331 17 5.042 QT
17.281 4.753 17.672 4.753 QT
17.781 4.753 L
17.531 4.394 17.07 4.222 QT
16.609 4.05 16.109 4.05 QT
15.5 4.05 14.984 4.316 QT
14.469 4.581 14.063 5.034 QT
13.656 5.487 13.383 6.026 QT
13.109 6.566 12.953 7.261 QT
12.797 7.956 12.758 8.558 QT
12.719 9.159 12.719 10.081 QT
13.078 9.253 13.719 8.737 QT
14.359 8.222 15.172 8.222 QT
16.063 8.222 16.797 8.581 QT
17.531 8.941 18.055 9.581 QT
18.578 10.222 18.859 11.042 QT
19.141 11.862 19.141 12.691 QT
19.141 13.862 18.617 14.925 QT
18.094 15.987 17.148 16.612 QT
16.203 17.237 15 17.237 QT
cp
15 16.597 M
15.766 16.597 16.234 16.245 QT
16.703 15.894 16.93 15.316 QT
17.156 14.737 17.203 14.144 QT
17.25 13.55 17.25 12.691 QT
17.25 11.566 17.148 10.761 QT
17.047 9.956 16.563 9.347 QT
16.078 8.737 15.094 8.737 QT
14.281 8.737 13.766 9.284 QT
13.25 9.831 13.008 10.667 QT
12.766 11.503 12.766 12.284 QT
12.766 12.534 12.781 12.675 QT
12.781 12.706 12.781 12.73 QT
12.781 12.753 12.766 12.769 QT
12.766 13.628 12.938 14.511 QT
13.109 15.394 13.609 15.995 QT
14.109 16.597 15 16.597 QT
cp}def
f-973792135
f
GR
GS
0.149 GC
2 setlinecap
1 LJ
0.5 LW
N
73 374 M
73 35 L
S
GR
GS
0.149 GC
2 setlinecap
1 LJ
0.5 LW
N
507 374 M
507 35 L
S
GR
GS
0.149 GC
2 setlinecap
1 LJ
0.5 LW
N
73 374 M
77.34 374 L
S
GR
GS
0.149 GC
2 setlinecap
1 LJ
0.5 LW
N
73 317.5 M
77.34 317.5 L
S
GR
GS
0.149 GC
2 setlinecap
1 LJ
0.5 LW
N
73 261 M
77.34 261 L
S
GR
GS
0.149 GC
2 setlinecap
1 LJ
0.5 LW
N
73 204.5 M
77.34 204.5 L
S
GR
GS
0.149 GC
2 setlinecap
1 LJ
0.5 LW
N
73 148 M
77.34 148 L
S
GR
GS
0.149 GC
2 setlinecap
1 LJ
0.5 LW
N
73 91.5 M
77.34 91.5 L
S
GR
GS
0.149 GC
2 setlinecap
1 LJ
0.5 LW
N
73 35 M
77.34 35 L
S
GR
GS
0.149 GC
2 setlinecap
1 LJ
0.5 LW
N
507 374 M
502.66 374 L
S
GR
GS
0.149 GC
2 setlinecap
1 LJ
0.5 LW
N
507 317.5 M
502.66 317.5 L
S
GR
GS
0.149 GC
2 setlinecap
1 LJ
0.5 LW
N
507 261 M
502.66 261 L
S
GR
GS
0.149 GC
2 setlinecap
1 LJ
0.5 LW
N
507 204.5 M
502.66 204.5 L
S
GR
GS
0.149 GC
2 setlinecap
1 LJ
0.5 LW
N
507 148 M
502.66 148 L
S
GR
GS
0.149 GC
2 setlinecap
1 LJ
0.5 LW
N
507 91.5 M
502.66 91.5 L
S
GR
GS
0.149 GC
2 setlinecap
1 LJ
0.5 LW
N
507 35 M
502.66 35 L
S
GR
GS
[1 0 0 1 67 374] CT
0.149 GC
N
/f-259944110{-5 5.237 M
-7.453 5.237 -8.336 3.222 QT
-9.219 1.206 -9.219 -1.575 QT
-9.219 -3.309 -8.898 -4.849 QT
-8.578 -6.388 -7.641 -7.458 QT
-6.703 -8.528 -5 -8.528 QT
-3.688 -8.528 -2.844 -7.88 QT
-2 -7.231 -1.563 -6.208 QT
-1.125 -5.184 -0.961 -4.02 QT
-0.797 -2.856 -0.797 -1.575 QT
-0.797 0.144 -1.117 1.644 QT
-1.438 3.144 -2.367 4.191 QT
-3.297 5.237 -5 5.237 QT
cp
-5 4.722 M
-3.891 4.722 -3.344 3.581 QT
-2.797 2.441 -2.664 1.05 QT
-2.531 -0.341 -2.531 -1.903 QT
-2.531 -3.403 -2.664 -4.677 QT
-2.797 -5.95 -3.336 -6.974 QT
-3.875 -7.997 -5 -7.997 QT
-6.125 -7.997 -6.672 -6.966 QT
-7.219 -5.934 -7.352 -4.669 QT
-7.484 -3.403 -7.484 -1.903 QT
-7.484 -0.794 -7.43 0.198 QT
-7.375 1.191 -7.141 2.237 QT
-6.906 3.284 -6.383 4.003 QT
-5.859 4.722 -5 4.722 QT
cp}def
f-259944110
f
GR
GS
[1 0 0 1 67 317.5] CT
0.149 GC
N
/f573311018{-30.556 5.237 M
-33.009 5.237 -33.892 3.222 QT
-34.774 1.206 -34.774 -1.575 QT
-34.774 -3.309 -34.454 -4.849 QT
-34.134 -6.388 -33.196 -7.458 QT
-32.259 -8.528 -30.556 -8.528 QT
-29.243 -8.528 -28.399 -7.88 QT
-27.556 -7.231 -27.118 -6.208 QT
-26.681 -5.184 -26.517 -4.02 QT
-26.353 -2.856 -26.353 -1.575 QT
-26.353 0.144 -26.673 1.644 QT
-26.993 3.144 -27.923 4.191 QT
-28.853 5.237 -30.556 5.237 QT
cp
-30.556 4.722 M
-29.446 4.722 -28.899 3.581 QT
-28.353 2.441 -28.22 1.05 QT
-28.087 -0.341 -28.087 -1.903 QT
-28.087 -3.403 -28.22 -4.677 QT
-28.353 -5.95 -28.892 -6.974 QT
-29.431 -7.997 -30.556 -7.997 QT
-31.681 -7.997 -32.228 -6.966 QT
-32.774 -5.934 -32.907 -4.669 QT
-33.04 -3.403 -33.04 -1.903 QT
-33.04 -0.794 -32.985 0.198 QT
-32.931 1.191 -32.696 2.237 QT
-32.462 3.284 -31.938 4.003 QT
-31.415 4.722 -30.556 4.722 QT
cp}def
f573311018
f
GR
GS
[1 0 0 1 67 317.5] CT
0.149 GC
N
/f-325359852{-23.868 3.691 M
-23.868 3.253 -23.54 2.925 QT
-23.212 2.597 -22.774 2.597 QT
-22.493 2.597 -22.235 2.745 QT
-21.978 2.894 -21.829 3.159 QT
-21.681 3.425 -21.681 3.691 QT
-21.681 4.128 -22.001 4.464 QT
-22.321 4.8 -22.774 4.8 QT
-23.212 4.8 -23.54 4.464 QT
-23.868 4.128 -23.868 3.691 QT
cp}def
f-325359852
f
GR
GS
[1 0 0 1 67 317.5] CT
0.149 GC
N
/f-1560039422{-15 5.237 M
-17.453 5.237 -18.336 3.222 QT
-19.219 1.206 -19.219 -1.575 QT
-19.219 -3.309 -18.898 -4.849 QT
-18.578 -6.388 -17.641 -7.458 QT
-16.703 -8.528 -15 -8.528 QT
-13.688 -8.528 -12.844 -7.88 QT
-12 -7.231 -11.563 -6.208 QT
-11.125 -5.184 -10.961 -4.02 QT
-10.797 -2.856 -10.797 -1.575 QT
-10.797 0.144 -11.117 1.644 QT
-11.438 3.144 -12.367 4.191 QT
-13.297 5.237 -15 5.237 QT
cp
-15 4.722 M
-13.891 4.722 -13.344 3.581 QT
-12.797 2.441 -12.664 1.05 QT
-12.531 -0.341 -12.531 -1.903 QT
-12.531 -3.403 -12.664 -4.677 QT
-12.797 -5.95 -13.336 -6.974 QT
-13.875 -7.997 -15 -7.997 QT
-16.125 -7.997 -16.672 -6.966 QT
-17.219 -5.934 -17.352 -4.669 QT
-17.484 -3.403 -17.484 -1.903 QT
-17.484 -0.794 -17.43 0.198 QT
-17.375 1.191 -17.141 2.237 QT
-16.906 3.284 -16.383 4.003 QT
-15.859 4.722 -15 4.722 QT
cp}def
f-1560039422
f
GR
GS
[1 0 0 1 67 317.5] CT
0.149 GC
N
/f1667698322{-8.141 4.8 M
-8.141 4.097 L
-5.641 4.097 -5.641 3.456 QT
-5.641 -7.044 L
-6.672 -6.544 -8.266 -6.544 QT
-8.266 -7.247 L
-5.813 -7.247 -4.563 -8.528 QT
-4.281 -8.528 L
-4.203 -8.528 -4.141 -8.474 QT
-4.078 -8.419 -4.078 -8.341 QT
-4.078 3.456 L
-4.078 4.097 -1.578 4.097 QT
-1.578 4.8 L
-8.141 4.8 L
cp}def
f1667698322
f
GR
GS
[1 0 0 1 67 261] CT
0.149 GC
N
f573311018
f
GR
GS
[1 0 0 1 67 261] CT
0.149 GC
N
f-325359852
f
GR
GS
[1 0 0 1 67 261] CT
0.149 GC
N
f-1560039422
f
GR
GS
[1 0 0 1 67 261] CT
0.149 GC
N
/f-959722706{-9 4.8 M
-9 4.269 L
-9 4.206 -8.969 4.159 QT
-5.859 0.722 L
-5.156 -0.044 -4.719 -0.559 QT
-4.281 -1.075 -3.852 -1.755 QT
-3.422 -2.434 -3.172 -3.13 QT
-2.922 -3.825 -2.922 -4.606 QT
-2.922 -5.419 -3.227 -6.169 QT
-3.531 -6.919 -4.125 -7.372 QT
-4.719 -7.825 -5.578 -7.825 QT
-6.438 -7.825 -7.133 -7.302 QT
-7.828 -6.778 -8.109 -5.95 QT
-8.031 -5.966 -7.906 -5.966 QT
-7.453 -5.966 -7.133 -5.661 QT
-6.813 -5.356 -6.813 -4.872 QT
-6.813 -4.419 -7.133 -4.099 QT
-7.453 -3.778 -7.906 -3.778 QT
-8.375 -3.778 -8.688 -4.106 QT
-9 -4.434 -9 -4.872 QT
-9 -5.638 -8.719 -6.294 QT
-8.438 -6.95 -7.906 -7.466 QT
-7.375 -7.981 -6.703 -8.255 QT
-6.031 -8.528 -5.281 -8.528 QT
-4.141 -8.528 -3.156 -8.044 QT
-2.172 -7.559 -1.594 -6.677 QT
-1.016 -5.794 -1.016 -4.606 QT
-1.016 -3.731 -1.398 -2.95 QT
-1.781 -2.169 -2.375 -1.528 QT
-2.969 -0.888 -3.898 -0.083 QT
-4.828 0.722 -5.109 1.003 QT
-7.375 3.175 L
-5.453 3.175 L
-4.047 3.175 -3.094 3.151 QT
-2.141 3.128 -2.078 3.081 QT
-1.844 2.831 -1.594 1.237 QT
-1.016 1.237 L
-1.578 4.8 L
-9 4.8 L
cp}def
f-959722706
f
GR
GS
[1 0 0 1 67 204.5] CT
0.149 GC
N
f573311018
f
GR
GS
[1 0 0 1 67 204.5] CT
0.149 GC
N
f-325359852
f
GR
GS
[1 0 0 1 67 204.5] CT
0.149 GC
N
f-1560039422
f
GR
GS
[1 0 0 1 67 204.5] CT
0.149 GC
N
/f-1136742856{-8.094 3.253 M
-7.625 3.941 -6.836 4.269 QT
-6.047 4.597 -5.141 4.597 QT
-3.969 4.597 -3.484 3.612 QT
-3 2.628 -3 1.362 QT
-3 0.8 -3.102 0.23 QT
-3.203 -0.341 -3.445 -0.825 QT
-3.688 -1.309 -4.117 -1.606 QT
-4.547 -1.903 -5.156 -1.903 QT
-6.484 -1.903 L
-6.656 -1.903 -6.656 -2.091 QT
-6.656 -2.263 L
-6.656 -2.419 -6.484 -2.419 QT
-5.375 -2.513 L
-4.672 -2.513 -4.211 -3.036 QT
-3.75 -3.559 -3.531 -4.317 QT
-3.313 -5.075 -3.313 -5.763 QT
-3.313 -6.716 -3.766 -7.333 QT
-4.219 -7.95 -5.141 -7.95 QT
-5.891 -7.95 -6.586 -7.661 QT
-7.281 -7.372 -7.688 -6.778 QT
-7.656 -6.794 -7.625 -6.802 QT
-7.594 -6.809 -7.563 -6.809 QT
-7.109 -6.809 -6.805 -6.497 QT
-6.5 -6.184 -6.5 -5.731 QT
-6.5 -5.309 -6.805 -4.997 QT
-7.109 -4.684 -7.563 -4.684 QT
-8 -4.684 -8.313 -4.997 QT
-8.625 -5.309 -8.625 -5.731 QT
-8.625 -6.591 -8.109 -7.231 QT
-7.594 -7.872 -6.773 -8.2 QT
-5.953 -8.528 -5.141 -8.528 QT
-4.531 -8.528 -3.859 -8.341 QT
-3.188 -8.153 -2.641 -7.817 QT
-2.094 -7.481 -1.742 -6.958 QT
-1.391 -6.434 -1.391 -5.763 QT
-1.391 -4.919 -1.766 -4.208 QT
-2.141 -3.497 -2.797 -2.974 QT
-3.453 -2.45 -4.234 -2.2 QT
-3.375 -2.044 -2.594 -1.552 QT
-1.813 -1.059 -1.336 -0.302 QT
-0.859 0.456 -0.859 1.347 QT
-0.859 2.441 -1.461 3.339 QT
-2.063 4.237 -3.055 4.737 QT
-4.047 5.237 -5.141 5.237 QT
-6.078 5.237 -7.016 4.878 QT
-7.953 4.519 -8.555 3.808 QT
-9.156 3.097 -9.156 2.097 QT
-9.156 1.612 -8.828 1.276 QT
-8.5 0.941 -8 0.941 QT
-7.672 0.941 -7.406 1.089 QT
-7.141 1.237 -6.984 1.511 QT
-6.828 1.784 -6.828 2.097 QT
-6.828 2.597 -7.172 2.925 QT
-7.516 3.253 -8 3.253 QT
-8.094 3.253 L
cp}def
f-1136742856
f
GR
GS
[1 0 0 1 67 148] CT
0.149 GC
N
f573311018
f
GR
GS
[1 0 0 1 67 148] CT
0.149 GC
N
f-325359852
f
GR
GS
[1 0 0 1 67 148] CT
0.149 GC
N
f-1560039422
f
GR
GS
[1 0 0 1 67 148] CT
0.149 GC
N
/f-426388810{-9.438 1.503 M
-9.438 0.8 L
-3.266 -8.419 L
-3.188 -8.528 -3.063 -8.528 QT
-2.766 -8.528 L
-2.531 -8.528 -2.531 -8.294 QT
-2.531 0.8 L
-0.578 0.8 L
-0.578 1.503 L
-2.531 1.503 L
-2.531 3.456 L
-2.531 3.878 -1.945 3.987 QT
-1.359 4.097 -0.594 4.097 QT
-0.594 4.8 L
-6.109 4.8 L
-6.109 4.097 L
-5.328 4.097 -4.742 3.987 QT
-4.156 3.878 -4.156 3.456 QT
-4.156 1.503 L
-9.438 1.503 L
cp
-8.781 0.8 M
-4.047 0.8 L
-4.047 -6.278 L
-8.781 0.8 L
cp}def
f-426388810
f
GR
GS
[1 0 0 1 67 91.49999] CT
0.149 GC
N
f573311018
f
GR
GS
[1 0 0 1 67 91.49999] CT
0.149 GC
N
f-325359852
f
GR
GS
[1 0 0 1 67 91.49999] CT
0.149 GC
N
f-1560039422
f
GR
GS
[1 0 0 1 67 91.49999] CT
0.149 GC
N
/f2128899210{-8.266 2.519 M
-8.063 3.112 -7.633 3.589 QT
-7.203 4.066 -6.625 4.331 QT
-6.047 4.597 -5.422 4.597 QT
-3.969 4.597 -3.422 3.48 QT
-2.875 2.362 -2.875 0.753 QT
-2.875 0.066 -2.898 -0.411 QT
-2.922 -0.888 -3.031 -1.325 QT
-3.219 -2.028 -3.688 -2.552 QT
-4.156 -3.075 -4.828 -3.075 QT
-5.5 -3.075 -5.984 -2.872 QT
-6.469 -2.669 -6.766 -2.395 QT
-7.063 -2.122 -7.297 -1.817 QT
-7.531 -1.513 -7.594 -1.497 QT
-7.828 -1.497 L
-7.875 -1.497 -7.945 -1.559 QT
-8.016 -1.622 -8.016 -1.684 QT
-8.016 -8.372 L
-8.016 -8.419 -7.953 -8.474 QT
-7.891 -8.528 -7.828 -8.528 QT
-7.766 -8.528 L
-6.422 -7.872 -4.906 -7.872 QT
-3.422 -7.872 -2.047 -8.528 QT
-1.984 -8.528 L
-1.906 -8.528 -1.852 -8.474 QT
-1.797 -8.419 -1.797 -8.372 QT
-1.797 -8.184 L
-1.797 -8.075 -1.828 -8.075 QT
-2.516 -7.169 -3.547 -6.661 QT
-4.578 -6.153 -5.688 -6.153 QT
-6.484 -6.153 -7.328 -6.388 QT
-7.328 -2.606 L
-6.656 -3.138 -6.133 -3.372 QT
-5.609 -3.606 -4.797 -3.606 QT
-3.703 -3.606 -2.828 -2.966 QT
-1.953 -2.325 -1.484 -1.309 QT
-1.016 -0.294 -1.016 0.769 QT
-1.016 1.972 -1.609 3.003 QT
-2.203 4.034 -3.219 4.636 QT
-4.234 5.237 -5.422 5.237 QT
-6.406 5.237 -7.234 4.73 QT
-8.063 4.222 -8.531 3.362 QT
-9 2.503 -9 1.534 QT
-9 1.081 -8.711 0.8 QT
-8.422 0.519 -7.984 0.519 QT
-7.531 0.519 -7.234 0.808 QT
-6.938 1.097 -6.938 1.534 QT
-6.938 1.972 -7.234 2.269 QT
-7.531 2.566 -7.984 2.566 QT
-8.047 2.566 -8.133 2.55 QT
-8.219 2.534 -8.266 2.519 QT
cp}def
f2128899210
f
GR
GS
[1 0 0 1 67 35.00001] CT
0.149 GC
N
f573311018
f
GR
GS
[1 0 0 1 67 35.00001] CT
0.149 GC
N
f-325359852
f
GR
GS
[1 0 0 1 67 35.00001] CT
0.149 GC
N
f-1560039422
f
GR
GS
[1 0 0 1 67 35.00001] CT
0.149 GC
N
/f-1609365487{-5 5.237 M
-6.234 5.237 -7.07 4.581 QT
-7.906 3.925 -8.359 2.87 QT
-8.813 1.816 -8.984 0.667 QT
-9.156 -0.481 -9.156 -1.669 QT
-9.156 -3.247 -8.539 -4.841 QT
-7.922 -6.434 -6.727 -7.481 QT
-5.531 -8.528 -3.891 -8.528 QT
-3.219 -8.528 -2.625 -8.263 QT
-2.031 -7.997 -1.695 -7.497 QT
-1.359 -6.997 -1.359 -6.278 QT
-1.359 -5.872 -1.633 -5.599 QT
-1.906 -5.325 -2.328 -5.325 QT
-2.719 -5.325 -3 -5.606 QT
-3.281 -5.888 -3.281 -6.278 QT
-3.281 -6.669 -3 -6.958 QT
-2.719 -7.247 -2.328 -7.247 QT
-2.219 -7.247 L
-2.469 -7.606 -2.93 -7.778 QT
-3.391 -7.95 -3.891 -7.95 QT
-4.5 -7.95 -5.016 -7.684 QT
-5.531 -7.419 -5.938 -6.966 QT
-6.344 -6.513 -6.617 -5.974 QT
-6.891 -5.434 -7.047 -4.739 QT
-7.203 -4.044 -7.242 -3.442 QT
-7.281 -2.841 -7.281 -1.919 QT
-6.922 -2.747 -6.281 -3.263 QT
-5.641 -3.778 -4.828 -3.778 QT
-3.938 -3.778 -3.203 -3.419 QT
-2.469 -3.059 -1.945 -2.419 QT
-1.422 -1.778 -1.141 -0.958 QT
-0.859 -0.138 -0.859 0.691 QT
-0.859 1.862 -1.383 2.925 QT
-1.906 3.987 -2.852 4.612 QT
-3.797 5.237 -5 5.237 QT
cp
-5 4.597 M
-4.234 4.597 -3.766 4.245 QT
-3.297 3.894 -3.07 3.316 QT
-2.844 2.737 -2.797 2.144 QT
-2.75 1.55 -2.75 0.691 QT
-2.75 -0.434 -2.852 -1.239 QT
-2.953 -2.044 -3.438 -2.653 QT
-3.922 -3.263 -4.906 -3.263 QT
-5.719 -3.263 -6.234 -2.716 QT
-6.75 -2.169 -6.992 -1.333 QT
-7.234 -0.497 -7.234 0.284 QT
-7.234 0.534 -7.219 0.675 QT
-7.219 0.706 -7.219 0.73 QT
-7.219 0.753 -7.234 0.769 QT
-7.234 1.628 -7.063 2.511 QT
-6.891 3.394 -6.391 3.995 QT
-5.891 4.597 -5 4.597 QT
cp}def
f-1609365487
f
GR
GS
[1 0 0 1 290.00027 32.00001] CT
N
/f426300547{-65.27 -8.64 M
-65.27 -9.484 L
-62.801 -9.484 -62.801 -10.249 QT
-62.801 -23.437 L
-62.801 -24.187 -65.27 -24.187 QT
-65.27 -25.031 L
-56.723 -25.031 L
-55.411 -25.031 -54.098 -24.492 QT
-52.786 -23.953 -51.934 -22.921 QT
-51.082 -21.89 -51.082 -20.531 QT
-51.082 -19.187 -51.942 -18.179 QT
-52.801 -17.171 -54.098 -16.648 QT
-55.395 -16.124 -56.723 -16.124 QT
-60.567 -16.124 L
-60.567 -10.249 L
-60.567 -9.484 -58.098 -9.484 QT
-58.098 -8.64 L
-65.27 -8.64 L
cp
-60.645 -16.843 M
-57.379 -16.843 L
-56.051 -16.843 -55.231 -17.226 QT
-54.411 -17.609 -54.036 -18.414 QT
-53.661 -19.218 -53.661 -20.531 QT
-53.661 -22.484 -54.52 -23.335 QT
-55.379 -24.187 -57.379 -24.187 QT
-59.426 -24.187 L
-59.848 -24.187 -60.09 -24.156 QT
-60.332 -24.124 -60.489 -23.953 QT
-60.645 -23.781 -60.645 -23.437 QT
-60.645 -16.843 L
cp}def
f426300547
f
GR
GS
[1 0 0 1 290.00027 32.00001] CT
N
/f-1512752639{-44.416 -8.374 M
-45.884 -8.374 -47.111 -9.14 QT
-48.338 -9.906 -49.033 -11.187 QT
-49.728 -12.468 -49.728 -13.906 QT
-49.728 -15.312 -49.088 -16.578 QT
-48.447 -17.843 -47.306 -18.624 QT
-46.166 -19.406 -44.759 -19.406 QT
-43.666 -19.406 -42.845 -19.031 QT
-42.025 -18.656 -41.502 -17.999 QT
-40.978 -17.343 -40.705 -16.453 QT
-40.431 -15.562 -40.431 -14.499 QT
-40.431 -14.187 -40.681 -14.187 QT
-47.634 -14.187 L
-47.634 -13.921 L
-47.634 -11.937 -46.83 -10.507 QT
-46.025 -9.078 -44.213 -9.078 QT
-43.478 -9.078 -42.845 -9.406 QT
-42.213 -9.734 -41.752 -10.32 QT
-41.291 -10.906 -41.134 -11.578 QT
-41.103 -11.656 -41.041 -11.718 QT
-40.978 -11.781 -40.9 -11.781 QT
-40.681 -11.781 L
-40.431 -11.781 -40.431 -11.484 QT
-40.775 -10.124 -41.9 -9.249 QT
-43.025 -8.374 -44.416 -8.374 QT
cp
-47.603 -14.781 M
-42.134 -14.781 L
-42.134 -15.687 -42.384 -16.609 QT
-42.634 -17.531 -43.22 -18.148 QT
-43.806 -18.765 -44.759 -18.765 QT
-46.119 -18.765 -46.861 -17.492 QT
-47.603 -16.218 -47.603 -14.781 QT
cp}def
f-1512752639
f
GR
GS
[1 0 0 1 290.00027 32.00001] CT
N
/f-1350001986{-39.108 -8.64 M
-39.108 -9.484 L
-38.296 -9.484 -37.765 -9.617 QT
-37.233 -9.749 -37.233 -10.249 QT
-37.233 -16.796 L
-37.233 -17.437 -37.429 -17.726 QT
-37.624 -18.015 -37.983 -18.078 QT
-38.343 -18.14 -39.108 -18.14 QT
-39.108 -18.984 L
-35.671 -19.249 L
-35.671 -16.906 L
-35.296 -17.953 -34.577 -18.601 QT
-33.858 -19.249 -32.843 -19.249 QT
-32.124 -19.249 -31.562 -18.828 QT
-30.999 -18.406 -30.999 -17.718 QT
-30.999 -17.281 -31.312 -16.96 QT
-31.624 -16.64 -32.077 -16.64 QT
-32.53 -16.64 -32.843 -16.953 QT
-33.155 -17.265 -33.155 -17.718 QT
-33.155 -18.359 -32.702 -18.624 QT
-32.843 -18.624 L
-33.812 -18.624 -34.429 -17.921 QT
-35.046 -17.218 -35.304 -16.179 QT
-35.562 -15.14 -35.562 -14.187 QT
-35.562 -10.249 L
-35.562 -9.484 -33.233 -9.484 QT
-33.233 -8.64 L
-39.108 -8.64 L
cp}def
f-1350001986
f
GR
GS
[1 0 0 1 290.00027 32.00001] CT
N
/f1177888852{-29.537 -8.562 M
-29.537 -12.484 L
-29.537 -12.671 -29.318 -12.671 QT
-29.037 -12.671 L
-28.896 -12.671 -28.849 -12.484 QT
-28.177 -8.999 -25.615 -8.999 QT
-24.474 -8.999 -23.708 -9.515 QT
-22.943 -10.031 -22.943 -11.109 QT
-22.943 -11.89 -23.537 -12.437 QT
-24.13 -12.984 -24.958 -13.171 QT
-26.552 -13.499 L
-27.365 -13.671 -28.029 -14.031 QT
-28.693 -14.39 -29.115 -14.999 QT
-29.537 -15.609 -29.537 -16.406 QT
-29.537 -17.453 -28.982 -18.124 QT
-28.427 -18.796 -27.537 -19.101 QT
-26.646 -19.406 -25.615 -19.406 QT
-24.38 -19.406 -23.458 -18.749 QT
-22.771 -19.343 L
-22.771 -19.406 -22.662 -19.406 QT
-22.474 -19.406 L
-22.412 -19.406 -22.349 -19.335 QT
-22.287 -19.265 -22.287 -19.203 QT
-22.287 -16.062 L
-22.287 -15.843 -22.474 -15.843 QT
-22.771 -15.843 L
-22.99 -15.843 -22.99 -16.062 QT
-22.99 -17.312 -23.685 -18.078 QT
-24.38 -18.843 -25.63 -18.843 QT
-26.708 -18.843 -27.497 -18.445 QT
-28.287 -18.046 -28.287 -17.062 QT
-28.287 -16.406 -27.724 -15.976 QT
-27.162 -15.546 -26.396 -15.359 QT
-24.771 -15.046 L
-23.943 -14.859 -23.232 -14.414 QT
-22.521 -13.968 -22.107 -13.289 QT
-21.693 -12.609 -21.693 -11.765 QT
-21.693 -10.89 -21.99 -10.249 QT
-22.287 -9.609 -22.826 -9.187 QT
-23.365 -8.765 -24.091 -8.57 QT
-24.818 -8.374 -25.615 -8.374 QT
-27.115 -8.374 -28.177 -9.374 QT
-29.052 -8.421 L
-29.052 -8.374 -29.177 -8.374 QT
-29.318 -8.374 L
-29.537 -8.374 -29.537 -8.562 QT
cp}def
f1177888852
f
GR
GS
[1 0 0 1 290.00027 32.00001] CT
N
/f1337297847{-14.867 -8.374 M
-16.304 -8.374 -17.539 -9.109 QT
-18.773 -9.843 -19.484 -11.07 QT
-20.195 -12.296 -20.195 -13.749 QT
-20.195 -14.859 -19.804 -15.874 QT
-19.414 -16.89 -18.679 -17.695 QT
-17.945 -18.499 -16.976 -18.953 QT
-16.007 -19.406 -14.867 -19.406 QT
-13.382 -19.406 -12.171 -18.624 QT
-10.96 -17.843 -10.257 -16.539 QT
-9.554 -15.234 -9.554 -13.749 QT
-9.554 -12.312 -10.273 -11.078 QT
-10.992 -9.843 -12.21 -9.109 QT
-13.429 -8.374 -14.867 -8.374 QT
cp
-14.867 -9.078 M
-12.945 -9.078 -12.296 -10.468 QT
-11.648 -11.859 -11.648 -14.015 QT
-11.648 -15.234 -11.781 -16.023 QT
-11.914 -16.812 -12.351 -17.453 QT
-12.617 -17.859 -13.031 -18.156 QT
-13.445 -18.453 -13.906 -18.609 QT
-14.367 -18.765 -14.867 -18.765 QT
-15.617 -18.765 -16.289 -18.429 QT
-16.96 -18.093 -17.414 -17.453 QT
-17.851 -16.781 -17.976 -15.96 QT
-18.101 -15.14 -18.101 -14.015 QT
-18.101 -12.671 -17.867 -11.601 QT
-17.632 -10.531 -16.921 -9.804 QT
-16.21 -9.078 -14.867 -9.078 QT
cp}def
f1337297847
f
GR
GS
[1 0 0 1 290.00027 32.00001] CT
N
/f519427986{-8.148 -8.64 M
-8.148 -9.484 L
-7.335 -9.484 -6.804 -9.617 QT
-6.273 -9.749 -6.273 -10.249 QT
-6.273 -16.796 L
-6.273 -17.437 -6.468 -17.726 QT
-6.664 -18.015 -7.023 -18.078 QT
-7.382 -18.14 -8.148 -18.14 QT
-8.148 -18.984 L
-4.664 -19.249 L
-4.664 -16.906 L
-4.195 -17.937 -3.25 -18.593 QT
-2.304 -19.249 -1.195 -19.249 QT
0.477 -19.249 1.313 -18.453 QT
2.149 -17.656 2.149 -16.015 QT
2.149 -10.249 L
2.149 -9.749 2.68 -9.617 QT
3.211 -9.484 4.024 -9.484 QT
4.024 -8.64 L
-1.476 -8.64 L
-1.476 -9.484 L
-0.648 -9.484 -0.125 -9.617 QT
0.399 -9.749 0.399 -10.249 QT
0.399 -15.937 L
0.399 -17.109 0.063 -17.867 QT
-0.273 -18.624 -1.335 -18.624 QT
-2.726 -18.624 -3.625 -17.515 QT
-4.523 -16.406 -4.523 -14.984 QT
-4.523 -10.249 L
-4.523 -9.749 -3.992 -9.617 QT
-3.46 -9.484 -2.648 -9.484 QT
-2.648 -8.64 L
-8.148 -8.64 L
cp}def
f519427986
f
GR
GS
[1 0 0 1 290.00027 32.00001] CT
N
/f57629707{5.435 -10.999 M
5.435 -12.421 6.56 -13.32 QT
7.685 -14.218 9.256 -14.585 QT
10.826 -14.953 12.248 -14.953 QT
12.248 -15.937 L
12.248 -16.64 11.943 -17.289 QT
11.639 -17.937 11.068 -18.351 QT
10.498 -18.765 9.795 -18.765 QT
8.201 -18.765 7.373 -18.046 QT
7.826 -18.046 8.131 -17.703 QT
8.435 -17.359 8.435 -16.906 QT
8.435 -16.421 8.092 -16.085 QT
7.748 -15.749 7.279 -15.749 QT
6.795 -15.749 6.459 -16.085 QT
6.123 -16.421 6.123 -16.906 QT
6.123 -18.171 7.271 -18.789 QT
8.42 -19.406 9.795 -19.406 QT
10.779 -19.406 11.764 -18.984 QT
12.748 -18.562 13.373 -17.789 QT
13.998 -17.015 13.998 -15.984 QT
13.998 -10.593 L
13.998 -10.124 14.193 -9.726 QT
14.389 -9.328 14.81 -9.328 QT
15.217 -9.328 15.412 -9.726 QT
15.607 -10.124 15.607 -10.593 QT
15.607 -12.124 L
16.31 -12.124 L
16.31 -10.593 L
16.31 -10.046 16.029 -9.562 QT
15.748 -9.078 15.271 -8.789 QT
14.795 -8.499 14.248 -8.499 QT
13.545 -8.499 13.029 -9.046 QT
12.514 -9.593 12.467 -10.343 QT
12.014 -9.437 11.146 -8.906 QT
10.279 -8.374 9.295 -8.374 QT
8.389 -8.374 7.498 -8.64 QT
6.607 -8.906 6.021 -9.492 QT
5.435 -10.078 5.435 -10.999 QT
cp
7.373 -10.999 M
7.373 -10.156 7.998 -9.578 QT
8.623 -8.999 9.467 -8.999 QT
10.232 -8.999 10.865 -9.39 QT
11.498 -9.781 11.873 -10.445 QT
12.248 -11.109 12.248 -11.859 QT
12.248 -14.343 L
11.154 -14.343 10.014 -13.992 QT
8.873 -13.64 8.123 -12.874 QT
7.373 -12.109 7.373 -10.999 QT
cp}def
f57629707
f
GR
GS
[1 0 0 1 290.00027 32.00001] CT
N
/f-888476869{17.201 -8.64 M
17.201 -9.484 L
18.029 -9.484 18.553 -9.617 QT
19.076 -9.749 19.076 -10.249 QT
19.076 -22.843 L
19.076 -23.484 18.889 -23.773 QT
18.701 -24.062 18.334 -24.124 QT
17.967 -24.187 17.201 -24.187 QT
17.201 -25.031 L
20.764 -25.296 L
20.764 -10.249 L
20.764 -9.749 21.295 -9.617 QT
21.826 -9.484 22.639 -9.484 QT
22.639 -8.64 L
17.201 -8.64 L
cp}def
f-888476869
f
GR
GS
[1 0 0 1 290.00027 32.00001] CT
N
/f250623981{23.852 -8.64 M
23.852 -9.484 L
24.665 -9.484 25.196 -9.617 QT
25.727 -9.749 25.727 -10.249 QT
25.727 -16.796 L
25.727 -17.437 25.532 -17.726 QT
25.337 -18.015 24.977 -18.078 QT
24.618 -18.14 23.852 -18.14 QT
23.852 -18.984 L
27.337 -19.249 L
27.337 -16.906 L
27.805 -17.937 28.751 -18.593 QT
29.696 -19.249 30.805 -19.249 QT
32.477 -19.249 33.313 -18.453 QT
34.149 -17.656 34.149 -16.015 QT
34.149 -10.249 L
34.149 -9.749 34.68 -9.617 QT
35.212 -9.484 36.024 -9.484 QT
36.024 -8.64 L
30.524 -8.64 L
30.524 -9.484 L
31.352 -9.484 31.876 -9.617 QT
32.399 -9.749 32.399 -10.249 QT
32.399 -15.937 L
32.399 -17.109 32.063 -17.867 QT
31.727 -18.624 30.665 -18.624 QT
29.274 -18.624 28.376 -17.515 QT
27.477 -16.406 27.477 -14.984 QT
27.477 -10.249 L
27.477 -9.749 28.008 -9.617 QT
28.54 -9.484 29.352 -9.484 QT
29.352 -8.64 L
23.852 -8.64 L
cp}def
f250623981
f
GR
GS
[1 0 0 1 290.00027 32.00001] CT
N
/f1623572166{42.451 -8.374 M
40.982 -8.374 39.756 -9.14 QT
38.529 -9.906 37.834 -11.187 QT
37.139 -12.468 37.139 -13.906 QT
37.139 -15.312 37.779 -16.578 QT
38.42 -17.843 39.561 -18.624 QT
40.701 -19.406 42.107 -19.406 QT
43.201 -19.406 44.021 -19.031 QT
44.842 -18.656 45.365 -17.999 QT
45.889 -17.343 46.162 -16.453 QT
46.436 -15.562 46.436 -14.499 QT
46.436 -14.187 46.186 -14.187 QT
39.232 -14.187 L
39.232 -13.921 L
39.232 -11.937 40.037 -10.507 QT
40.842 -9.078 42.654 -9.078 QT
43.389 -9.078 44.021 -9.406 QT
44.654 -9.734 45.115 -10.32 QT
45.576 -10.906 45.732 -11.578 QT
45.764 -11.656 45.826 -11.718 QT
45.889 -11.781 45.967 -11.781 QT
46.186 -11.781 L
46.436 -11.781 46.436 -11.484 QT
46.092 -10.124 44.967 -9.249 QT
43.842 -8.374 42.451 -8.374 QT
cp
39.264 -14.781 M
44.732 -14.781 L
44.732 -15.687 44.482 -16.609 QT
44.232 -17.531 43.646 -18.148 QT
43.061 -18.765 42.107 -18.765 QT
40.748 -18.765 40.006 -17.492 QT
39.264 -16.218 39.264 -14.781 QT
cp}def
f1623572166
f
GR
GS
[1 0 0 1 290.00027 32.00001] CT
N
/f1603238035{47.93 -8.562 M
47.93 -12.484 L
47.93 -12.671 48.149 -12.671 QT
48.43 -12.671 L
48.571 -12.671 48.618 -12.484 QT
49.29 -8.999 51.852 -8.999 QT
52.993 -8.999 53.758 -9.515 QT
54.524 -10.031 54.524 -11.109 QT
54.524 -11.89 53.93 -12.437 QT
53.337 -12.984 52.508 -13.171 QT
50.915 -13.499 L
50.102 -13.671 49.438 -14.031 QT
48.774 -14.39 48.352 -14.999 QT
47.93 -15.609 47.93 -16.406 QT
47.93 -17.453 48.485 -18.124 QT
49.04 -18.796 49.93 -19.101 QT
50.821 -19.406 51.852 -19.406 QT
53.087 -19.406 54.008 -18.749 QT
54.696 -19.343 L
54.696 -19.406 54.805 -19.406 QT
54.993 -19.406 L
55.055 -19.406 55.118 -19.335 QT
55.18 -19.265 55.18 -19.203 QT
55.18 -16.062 L
55.18 -15.843 54.993 -15.843 QT
54.696 -15.843 L
54.477 -15.843 54.477 -16.062 QT
54.477 -17.312 53.782 -18.078 QT
53.087 -18.843 51.837 -18.843 QT
50.758 -18.843 49.969 -18.445 QT
49.18 -18.046 49.18 -17.062 QT
49.18 -16.406 49.743 -15.976 QT
50.305 -15.546 51.071 -15.359 QT
52.696 -15.046 L
53.524 -14.859 54.235 -14.414 QT
54.946 -13.968 55.36 -13.289 QT
55.774 -12.609 55.774 -11.765 QT
55.774 -10.89 55.477 -10.249 QT
55.18 -9.609 54.641 -9.187 QT
54.102 -8.765 53.376 -8.57 QT
52.649 -8.374 51.852 -8.374 QT
50.352 -8.374 49.29 -9.374 QT
48.415 -8.421 L
48.415 -8.374 48.29 -8.374 QT
48.149 -8.374 L
47.93 -8.374 47.93 -8.562 QT
cp}def
f1603238035
f
GR
GS
[1 0 0 1 290.00027 32.00001] CT
N
/f-77691136{57.397 -8.562 M
57.397 -12.484 L
57.397 -12.671 57.616 -12.671 QT
57.897 -12.671 L
58.038 -12.671 58.084 -12.484 QT
58.756 -8.999 61.319 -8.999 QT
62.459 -8.999 63.225 -9.515 QT
63.991 -10.031 63.991 -11.109 QT
63.991 -11.89 63.397 -12.437 QT
62.803 -12.984 61.975 -13.171 QT
60.381 -13.499 L
59.569 -13.671 58.905 -14.031 QT
58.241 -14.39 57.819 -14.999 QT
57.397 -15.609 57.397 -16.406 QT
57.397 -17.453 57.952 -18.124 QT
58.506 -18.796 59.397 -19.101 QT
60.288 -19.406 61.319 -19.406 QT
62.553 -19.406 63.475 -18.749 QT
64.163 -19.343 L
64.163 -19.406 64.272 -19.406 QT
64.459 -19.406 L
64.522 -19.406 64.584 -19.335 QT
64.647 -19.265 64.647 -19.203 QT
64.647 -16.062 L
64.647 -15.843 64.459 -15.843 QT
64.163 -15.843 L
63.944 -15.843 63.944 -16.062 QT
63.944 -17.312 63.249 -18.078 QT
62.553 -18.843 61.303 -18.843 QT
60.225 -18.843 59.436 -18.445 QT
58.647 -18.046 58.647 -17.062 QT
58.647 -16.406 59.209 -15.976 QT
59.772 -15.546 60.538 -15.359 QT
62.163 -15.046 L
62.991 -14.859 63.702 -14.414 QT
64.413 -13.968 64.827 -13.289 QT
65.241 -12.609 65.241 -11.765 QT
65.241 -10.89 64.944 -10.249 QT
64.647 -9.609 64.108 -9.187 QT
63.569 -8.765 62.842 -8.57 QT
62.116 -8.374 61.319 -8.374 QT
59.819 -8.374 58.756 -9.374 QT
57.881 -8.421 L
57.881 -8.374 57.756 -8.374 QT
57.616 -8.374 L
57.397 -8.374 57.397 -8.562 QT
cp}def
f-77691136
f
GR
GS
0 0.447 0.741 RC
1 LJ
2.5 LW
N
82.613 279.382 M
92.443 248.753 L
102.272 248.389 L
112.101 240.743 L
121.93 258.507 L
131.76 279.719 L
141.589 273.623 L
151.742 257.328 L
161.571 267.561 L
171.401 265.972 L
181.338 261.328 L
191.275 270.581 L
200.997 263.415 L
210.826 271.663 L
220.763 267.869 L
230.7 290.364 L
240.422 255.188 L
250.251 261.185 L
260.188 260.078 L
270.125 269.419 L
279.847 255.156 L
289.676 276.138 L
299.613 284.509 L
309.443 272.264 L
319.272 243.156 L
329.101 269.36 L
338.93 285.379 L
349.084 298.743 L
358.481 242.712 L
368.418 281.158 L
378.571 279.234 L
388.509 286.799 L
398.23 218.068 L
408.059 223.041 L
417.997 238.174 L
427.934 267.167 L
437.655 244.465 L
447.484 218.969 L
457.422 213.01 L
467.359 227.09 L
477.188 122.364 L
487.017 250.525 L
496.955 225.036 L
506.784 264.456 L
S
GR
GS
0.769 0.306 0.322 RC
[1 3] 0 setdash
2 LJ
N
82.613 345.252 M
92.443 312.561 L
102.272 317.73 L
112.101 298.59 L
121.93 328.441 L
131.76 329.013 L
141.589 327.455 L
151.742 327.455 L
161.571 327.555 L
171.401 329.201 L
181.338 338.319 L
191.275 336.667 L
200.997 329.935 L
210.826 317.648 L
220.763 324.223 L
230.7 316.657 L
240.422 325.731 L
250.251 317.781 L
260.188 329.571 L
270.125 331.164 L
279.847 331.164 L
289.676 331.67 L
299.613 332.962 L
309.443 333.579 L
319.272 333.427 L
329.101 342 L
338.93 342 L
349.084 357.33 L
358.481 337.707 L
368.418 338.429 L
378.571 329.294 L
388.509 348.937 L
398.23 319.073 L
408.059 344.663 L
417.997 341.896 L
427.934 344.169 L
437.655 334.507 L
447.484 352.066 L
457.422 339.137 L
467.359 317.411 L
477.188 347.254 L
487.017 351.148 L
496.955 351.956 L
506.784 322.678 L
S
GR
GS
0.333 0.659 0.408 RC
[8 8] 0 setdash
2 LJ
2.5 LW
N
82.613 303.726 M
92.443 272.087 L
102.272 277.786 L
112.101 269.359 L
121.93 276.145 L
131.76 275.132 L
141.589 297.338 L
151.742 283.542 L
161.571 280.737 L
171.401 315.819 L
181.338 308.058 L
191.275 313.982 L
200.997 294.001 L
210.826 306.058 L
220.763 292.546 L
230.7 314.267 L
240.422 270.97 L
250.251 279.53 L
260.188 296.088 L
270.125 306.378 L
279.847 291.925 L
289.676 326.593 L
299.613 327.455 L
309.443 302.854 L
319.272 259.554 L
329.101 294.577 L
338.93 309.898 L
349.084 323.262 L
358.481 268.59 L
368.418 291.373 L
378.571 286.373 L
388.509 319.789 L
398.23 262.001 L
408.059 298.015 L
417.997 303.726 L
427.934 340.189 L
437.655 293.28 L
447.484 293.28 L
457.422 297.565 L
467.359 308.639 L
477.188 296.76 L
487.017 312.91 L
496.955 298.943 L
506.784 291.293 L
S
GR
GS
0.769 0.306 0.322 RC
[1 3] 0 setdash
2 LJ
N
82.613 265.095 M
92.443 211.093 L
102.272 192.073 L
112.101 147.562 L
121.93 227.384 L
131.76 243.335 L
141.589 236.156 L
151.742 172.087 L
161.571 226.588 L
171.401 204.345 L
181.338 184.261 L
191.275 229.849 L
200.997 245.818 L
210.826 211.763 L
220.763 232.262 L
230.7 275.132 L
240.422 191.905 L
250.251 207.444 L
260.188 232.899 L
270.125 250.887 L
279.847 170.142 L
289.676 237.468 L
299.613 250.887 L
309.443 198.1 L
319.272 181.738 L
329.101 185.989 L
338.93 238.115 L
349.084 254.535 L
358.481 200.196 L
368.418 258.389 L
378.571 241.261 L
388.509 256.936 L
398.23 146.447 L
408.059 203.335 L
417.997 237.9 L
427.934 225.723 L
437.655 218.176 L
447.484 119.303 L
457.422 223.097 L
467.359 216.809 L
477.188 82.283 L
487.017 176.124 L
496.955 231.696 L
506.784 264.566 L
S
GR
%%Trailer
%%Pages: 1
%%EOF
