%!PS-Adobe-3.0 EPSF-3.0
%%Creator: (MATLAB, The Mathworks, Inc. Version 9.7.0.1216025 \(R2019b\) Update 1. Operating System: Mac OS X)
%%Title: ../../results/TF_IDF/baseline/Figures/Timeseries/Similarity.eps
%%CreationDate: 2020-03-06T15:17:17
%%Pages: (atend)
%%BoundingBox:    42    22   509   414
%%LanguageLevel: 3
%%EndComments
%%BeginProlog
%%BeginResource: procset (Apache XML Graphics Std ProcSet) 1.2 0
%%Version: 1.2 0
%%Copyright: (Copyright 2001-2003,2010 The Apache Software Foundation. License terms: http://www.apache.org/licenses/LICENSE-2.0)
/bd{bind def}bind def
/ld{load def}bd
/GR/grestore ld
/GS/gsave ld
/RM/rmoveto ld
/C/curveto ld
/t/show ld
/L/lineto ld
/ML/setmiterlimit ld
/CT/concat ld
/f/fill ld
/N/newpath ld
/S/stroke ld
/CC/setcmykcolor ld
/A/ashow ld
/cp/closepath ld
/RC/setrgbcolor ld
/LJ/setlinejoin ld
/GC/setgray ld
/LW/setlinewidth ld
/M/moveto ld
/re {4 2 roll M
1 index 0 rlineto
0 exch rlineto
neg 0 rlineto
cp } bd
/_ctm matrix def
/_tm matrix def
/BT { _ctm currentmatrix pop matrix _tm copy pop 0 0 moveto } bd
/ET { _ctm setmatrix } bd
/iTm { _ctm setmatrix _tm concat } bd
/Tm { _tm astore pop iTm 0 0 moveto } bd
/ux 0.0 def
/uy 0.0 def
/F {
  /Tp exch def
  /Tf exch def
  Tf findfont Tp scalefont setfont
  /cf Tf def  /cs Tp def
} bd
/ULS {currentpoint /uy exch def /ux exch def} bd
/ULE {
  /Tcx currentpoint pop def
  gsave
  newpath
  cf findfont cs scalefont dup
  /FontMatrix get 0 get /Ts exch def /FontInfo get dup
  /UnderlinePosition get Ts mul /To exch def
  /UnderlineThickness get Ts mul /Tt exch def
  ux uy To add moveto  Tcx uy To add lineto
  Tt setlinewidth stroke
  grestore
} bd
/OLE {
  /Tcx currentpoint pop def
  gsave
  newpath
  cf findfont cs scalefont dup
  /FontMatrix get 0 get /Ts exch def /FontInfo get dup
  /UnderlinePosition get Ts mul /To exch def
  /UnderlineThickness get Ts mul /Tt exch def
  ux uy To add cs add moveto Tcx uy To add cs add lineto
  Tt setlinewidth stroke
  grestore
} bd
/SOE {
  /Tcx currentpoint pop def
  gsave
  newpath
  cf findfont cs scalefont dup
  /FontMatrix get 0 get /Ts exch def /FontInfo get dup
  /UnderlinePosition get Ts mul /To exch def
  /UnderlineThickness get Ts mul /Tt exch def
  ux uy To add cs 10 mul 26 idiv add moveto Tcx uy To add cs 10 mul 26 idiv add lineto
  Tt setlinewidth stroke
  grestore
} bd
/QT {
/Y22 exch store
/X22 exch store
/Y21 exch store
/X21 exch store
currentpoint
/Y21 load 2 mul add 3 div exch
/X21 load 2 mul add 3 div exch
/X21 load 2 mul /X22 load add 3 div
/Y21 load 2 mul /Y22 load add 3 div
/X22 load /Y22 load curveto
} bd
/SSPD {
dup length /d exch dict def
{
/v exch def
/k exch def
currentpagedevice k known {
/cpdv currentpagedevice k get def
v cpdv ne {
/upd false def
/nullv v type /nulltype eq def
/nullcpdv cpdv type /nulltype eq def
nullv nullcpdv or
{
/upd true def
} {
/sametype v type cpdv type eq def
sametype {
v type /arraytype eq {
/vlen v length def
/cpdvlen cpdv length def
vlen cpdvlen eq {
0 1 vlen 1 sub {
/i exch def
/obj v i get def
/cpdobj cpdv i get def
obj cpdobj ne {
/upd true def
exit
} if
} for
} {
/upd true def
} ifelse
} {
v type /dicttype eq {
v {
/dv exch def
/dk exch def
/cpddv cpdv dk get def
dv cpddv ne {
/upd true def
exit
} if
} forall
} {
/upd true def
} ifelse
} ifelse
} if
} ifelse
upd true eq {
d k v put
} if
} if
} if
} forall
d length 0 gt {
d setpagedevice
} if
} bd
/RE { % /NewFontName [NewEncodingArray] /FontName RE -
  findfont dup length dict begin
  {
    1 index /FID ne
    {def} {pop pop} ifelse
  } forall
  /Encoding exch def
  /FontName 1 index def
  currentdict definefont pop
  end
} bind def
%%EndResource
%%BeginResource: procset (Apache XML Graphics EPS ProcSet) 1.0 0
%%Version: 1.0 0
%%Copyright: (Copyright 2002-2003 The Apache Software Foundation. License terms: http://www.apache.org/licenses/LICENSE-2.0)
/BeginEPSF { %def
/b4_Inc_state save def         % Save state for cleanup
/dict_count countdictstack def % Count objects on dict stack
/op_count count 1 sub def      % Count objects on operand stack
userdict begin                 % Push userdict on dict stack
/showpage { } def              % Redefine showpage, { } = null proc
0 setgray 0 setlinecap         % Prepare graphics state
1 setlinewidth 0 setlinejoin
10 setmiterlimit [ ] 0 setdash newpath
/languagelevel where           % If level not equal to 1 then
{pop languagelevel             % set strokeadjust and
1 ne                           % overprint to their defaults.
{false setstrokeadjust false setoverprint
} if
} if
} bd
/EndEPSF { %def
count op_count sub {pop} repeat            % Clean up stacks
countdictstack dict_count sub {end} repeat
b4_Inc_state restore
} bd
%%EndResource
%FOPBeginFontDict
%%IncludeResource: font Courier-Oblique
%%IncludeResource: font Courier-BoldOblique
%%IncludeResource: font Courier-Bold
%%IncludeResource: font ZapfDingbats
%%IncludeResource: font Symbol
%%IncludeResource: font Helvetica
%%IncludeResource: font Helvetica-Oblique
%%IncludeResource: font Helvetica-Bold
%%IncludeResource: font Helvetica-BoldOblique
%%IncludeResource: font Times-Roman
%%IncludeResource: font Times-Italic
%%IncludeResource: font Times-Bold
%%IncludeResource: font Times-BoldItalic
%%IncludeResource: font Courier
%FOPEndFontDict
%%BeginResource: encoding WinAnsiEncoding
/WinAnsiEncoding [
/.notdef /.notdef /.notdef /.notdef /.notdef
/.notdef /.notdef /.notdef /.notdef /.notdef
/.notdef /.notdef /.notdef /.notdef /.notdef
/.notdef /.notdef /.notdef /.notdef /.notdef
/.notdef /.notdef /.notdef /.notdef /.notdef
/.notdef /.notdef /.notdef /.notdef /.notdef
/.notdef /.notdef /space /exclam /quotedbl
/numbersign /dollar /percent /ampersand /quotesingle
/parenleft /parenright /asterisk /plus /comma
/hyphen /period /slash /zero /one
/two /three /four /five /six
/seven /eight /nine /colon /semicolon
/less /equal /greater /question /at
/A /B /C /D /E
/F /G /H /I /J
/K /L /M /N /O
/P /Q /R /S /T
/U /V /W /X /Y
/Z /bracketleft /backslash /bracketright /asciicircum
/underscore /quoteleft /a /b /c
/d /e /f /g /h
/i /j /k /l /m
/n /o /p /q /r
/s /t /u /v /w
/x /y /z /braceleft /bar
/braceright /asciitilde /bullet /Euro /bullet
/quotesinglbase /florin /quotedblbase /ellipsis /dagger
/daggerdbl /circumflex /perthousand /Scaron /guilsinglleft
/OE /bullet /Zcaron /bullet /bullet
/quoteleft /quoteright /quotedblleft /quotedblright /bullet
/endash /emdash /asciitilde /trademark /scaron
/guilsinglright /oe /bullet /zcaron /Ydieresis
/space /exclamdown /cent /sterling /currency
/yen /brokenbar /section /dieresis /copyright
/ordfeminine /guillemotleft /logicalnot /sfthyphen /registered
/macron /degree /plusminus /twosuperior /threesuperior
/acute /mu /paragraph /middot /cedilla
/onesuperior /ordmasculine /guillemotright /onequarter /onehalf
/threequarters /questiondown /Agrave /Aacute /Acircumflex
/Atilde /Adieresis /Aring /AE /Ccedilla
/Egrave /Eacute /Ecircumflex /Edieresis /Igrave
/Iacute /Icircumflex /Idieresis /Eth /Ntilde
/Ograve /Oacute /Ocircumflex /Otilde /Odieresis
/multiply /Oslash /Ugrave /Uacute /Ucircumflex
/Udieresis /Yacute /Thorn /germandbls /agrave
/aacute /acircumflex /atilde /adieresis /aring
/ae /ccedilla /egrave /eacute /ecircumflex
/edieresis /igrave /iacute /icircumflex /idieresis
/eth /ntilde /ograve /oacute /ocircumflex
/otilde /odieresis /divide /oslash /ugrave
/uacute /ucircumflex /udieresis /yacute /thorn
/ydieresis
] def
%%EndResource
%FOPBeginFontReencode
/Courier-Oblique findfont
dup length dict begin
  {1 index /FID ne {def} {pop pop} ifelse} forall
  /Encoding WinAnsiEncoding def
  currentdict
end
/Courier-Oblique exch definefont pop
/Courier-BoldOblique findfont
dup length dict begin
  {1 index /FID ne {def} {pop pop} ifelse} forall
  /Encoding WinAnsiEncoding def
  currentdict
end
/Courier-BoldOblique exch definefont pop
/Courier-Bold findfont
dup length dict begin
  {1 index /FID ne {def} {pop pop} ifelse} forall
  /Encoding WinAnsiEncoding def
  currentdict
end
/Courier-Bold exch definefont pop
/Helvetica findfont
dup length dict begin
  {1 index /FID ne {def} {pop pop} ifelse} forall
  /Encoding WinAnsiEncoding def
  currentdict
end
/Helvetica exch definefont pop
/Helvetica-Oblique findfont
dup length dict begin
  {1 index /FID ne {def} {pop pop} ifelse} forall
  /Encoding WinAnsiEncoding def
  currentdict
end
/Helvetica-Oblique exch definefont pop
/Helvetica-Bold findfont
dup length dict begin
  {1 index /FID ne {def} {pop pop} ifelse} forall
  /Encoding WinAnsiEncoding def
  currentdict
end
/Helvetica-Bold exch definefont pop
/Helvetica-BoldOblique findfont
dup length dict begin
  {1 index /FID ne {def} {pop pop} ifelse} forall
  /Encoding WinAnsiEncoding def
  currentdict
end
/Helvetica-BoldOblique exch definefont pop
/Times-Roman findfont
dup length dict begin
  {1 index /FID ne {def} {pop pop} ifelse} forall
  /Encoding WinAnsiEncoding def
  currentdict
end
/Times-Roman exch definefont pop
/Times-Italic findfont
dup length dict begin
  {1 index /FID ne {def} {pop pop} ifelse} forall
  /Encoding WinAnsiEncoding def
  currentdict
end
/Times-Italic exch definefont pop
/Times-Bold findfont
dup length dict begin
  {1 index /FID ne {def} {pop pop} ifelse} forall
  /Encoding WinAnsiEncoding def
  currentdict
end
/Times-Bold exch definefont pop
/Times-BoldItalic findfont
dup length dict begin
  {1 index /FID ne {def} {pop pop} ifelse} forall
  /Encoding WinAnsiEncoding def
  currentdict
end
/Times-BoldItalic exch definefont pop
/Courier findfont
dup length dict begin
  {1 index /FID ne {def} {pop pop} ifelse} forall
  /Encoding WinAnsiEncoding def
  currentdict
end
/Courier exch definefont pop
%FOPEndFontReencode
%%EndProlog
%%Page: 1 1
%%PageBoundingBox: 0 0 560 420
%%BeginPageSetup
[1 0 0 -1 0 420] CT
%%EndPageSetup
GS
1 GC
N
0 0 560 420 re
f
GR
GS
1 GC
N
0 0 560 420 re
f
GR
GS
1 GC
N
73 374 M
507 374 L
507 35 L
73 35 L
cp
f
GR
GS
0.149 GC
2 setlinecap
1 LJ
0.5 LW
N
73 374 M
507 374 L
S
GR
GS
0.149 GC
2 setlinecap
1 LJ
0.5 LW
N
73 35 M
507 35 L
S
GR
GS
0.149 GC
2 setlinecap
1 LJ
0.5 LW
N
73 374 M
73 369.66 L
S
GR
GS
0.149 GC
2 setlinecap
1 LJ
0.5 LW
N
151.85 374 M
151.85 369.66 L
S
GR
GS
0.149 GC
2 setlinecap
1 LJ
0.5 LW
N
230.808 374 M
230.808 369.66 L
S
GR
GS
0.149 GC
2 setlinecap
1 LJ
0.5 LW
N
309.659 374 M
309.659 369.66 L
S
GR
GS
0.149 GC
2 setlinecap
1 LJ
0.5 LW
N
388.617 374 M
388.617 369.66 L
S
GR
GS
0.149 GC
2 setlinecap
1 LJ
0.5 LW
N
467.467 374 M
467.467 369.66 L
S
GR
GS
0.149 GC
2 setlinecap
1 LJ
0.5 LW
N
73 35 M
73 39.34 L
S
GR
GS
0.149 GC
2 setlinecap
1 LJ
0.5 LW
N
151.85 35 M
151.85 39.34 L
S
GR
GS
0.149 GC
2 setlinecap
1 LJ
0.5 LW
N
230.808 35 M
230.808 39.34 L
S
GR
GS
0.149 GC
2 setlinecap
1 LJ
0.5 LW
N
309.659 35 M
309.659 39.34 L
S
GR
GS
0.149 GC
2 setlinecap
1 LJ
0.5 LW
N
388.617 35 M
388.617 39.34 L
S
GR
GS
0.149 GC
2 setlinecap
1 LJ
0.5 LW
N
467.467 35 M
467.467 39.34 L
S
GR
GS
[1 0 0 1 73 380] CT
0.149 GC
N
-19 16.8 M
-19 16.269 L
-19 16.206 -18.969 16.159 QT
-15.859 12.722 L
-15.156 11.956 -14.719 11.441 QT
-14.281 10.925 -13.852 10.245 QT
-13.422 9.566 -13.172 8.87 QT
-12.922 8.175 -12.922 7.394 QT
-12.922 6.581 -13.227 5.831 QT
-13.531 5.081 -14.125 4.628 QT
-14.719 4.175 -15.578 4.175 QT
-16.438 4.175 -17.133 4.698 QT
-17.828 5.222 -18.109 6.05 QT
-18.031 6.034 -17.906 6.034 QT
-17.453 6.034 -17.133 6.339 QT
-16.813 6.644 -16.813 7.128 QT
-16.813 7.581 -17.133 7.901 QT
-17.453 8.222 -17.906 8.222 QT
-18.375 8.222 -18.688 7.894 QT
-19 7.566 -19 7.128 QT
-19 6.362 -18.719 5.706 QT
-18.438 5.05 -17.906 4.534 QT
-17.375 4.019 -16.703 3.745 QT
-16.031 3.472 -15.281 3.472 QT
-14.141 3.472 -13.156 3.956 QT
-12.172 4.441 -11.594 5.323 QT
-11.016 6.206 -11.016 7.394 QT
-11.016 8.269 -11.398 9.05 QT
-11.781 9.831 -12.375 10.472 QT
-12.969 11.112 -13.898 11.917 QT
-14.828 12.722 -15.109 13.003 QT
-17.375 15.175 L
-15.453 15.175 L
-14.047 15.175 -13.094 15.151 QT
-12.141 15.128 -12.078 15.081 QT
-11.844 14.831 -11.594 13.237 QT
-11.016 13.237 L
-11.578 16.8 L
-19 16.8 L
cp
f
GR
GS
[1 0 0 1 73 380] CT
0.149 GC
N
-5 17.237 M
-7.453 17.237 -8.336 15.222 QT
-9.219 13.206 -9.219 10.425 QT
-9.219 8.691 -8.898 7.151 QT
-8.578 5.612 -7.641 4.542 QT
-6.703 3.472 -5 3.472 QT
-3.688 3.472 -2.844 4.12 QT
-2 4.769 -1.563 5.792 QT
-1.125 6.816 -0.961 7.98 QT
-0.797 9.144 -0.797 10.425 QT
-0.797 12.144 -1.117 13.644 QT
-1.438 15.144 -2.367 16.191 QT
-3.297 17.237 -5 17.237 QT
cp
-5 16.722 M
-3.891 16.722 -3.344 15.581 QT
-2.797 14.441 -2.664 13.05 QT
-2.531 11.659 -2.531 10.097 QT
-2.531 8.597 -2.664 7.323 QT
-2.797 6.05 -3.336 5.026 QT
-3.875 4.003 -5 4.003 QT
-6.125 4.003 -6.672 5.034 QT
-7.219 6.066 -7.352 7.331 QT
-7.484 8.597 -7.484 10.097 QT
-7.484 11.206 -7.43 12.198 QT
-7.375 13.191 -7.141 14.237 QT
-6.906 15.284 -6.383 16.003 QT
-5.859 16.722 -5 16.722 QT
cp
f
GR
GS
[1 0 0 1 73 380] CT
0.149 GC
N
5 17.237 M
2.547 17.237 1.664 15.222 QT
0.781 13.206 0.781 10.425 QT
0.781 8.691 1.102 7.151 QT
1.422 5.612 2.359 4.542 QT
3.297 3.472 5 3.472 QT
6.313 3.472 7.156 4.12 QT
8 4.769 8.438 5.792 QT
8.875 6.816 9.039 7.98 QT
9.203 9.144 9.203 10.425 QT
9.203 12.144 8.883 13.644 QT
8.563 15.144 7.633 16.191 QT
6.703 17.237 5 17.237 QT
cp
5 16.722 M
6.109 16.722 6.656 15.581 QT
7.203 14.441 7.336 13.05 QT
7.469 11.659 7.469 10.097 QT
7.469 8.597 7.336 7.323 QT
7.203 6.05 6.664 5.026 QT
6.125 4.003 5 4.003 QT
3.875 4.003 3.328 5.034 QT
2.781 6.066 2.648 7.331 QT
2.516 8.597 2.516 10.097 QT
2.516 11.206 2.57 12.198 QT
2.625 13.191 2.859 14.237 QT
3.094 15.284 3.617 16.003 QT
4.141 16.722 5 16.722 QT
cp
f
GR
GS
[1 0 0 1 73 380] CT
0.149 GC
N
15 17.237 M
13.766 17.237 12.93 16.581 QT
12.094 15.925 11.641 14.87 QT
11.188 13.816 11.016 12.667 QT
10.844 11.519 10.844 10.331 QT
10.844 8.753 11.461 7.159 QT
12.078 5.566 13.273 4.519 QT
14.469 3.472 16.109 3.472 QT
16.781 3.472 17.375 3.737 QT
17.969 4.003 18.305 4.503 QT
18.641 5.003 18.641 5.722 QT
18.641 6.128 18.367 6.401 QT
18.094 6.675 17.672 6.675 QT
17.281 6.675 17 6.394 QT
16.719 6.112 16.719 5.722 QT
16.719 5.331 17 5.042 QT
17.281 4.753 17.672 4.753 QT
17.781 4.753 L
17.531 4.394 17.07 4.222 QT
16.609 4.05 16.109 4.05 QT
15.5 4.05 14.984 4.316 QT
14.469 4.581 14.063 5.034 QT
13.656 5.487 13.383 6.026 QT
13.109 6.566 12.953 7.261 QT
12.797 7.956 12.758 8.558 QT
12.719 9.159 12.719 10.081 QT
13.078 9.253 13.719 8.737 QT
14.359 8.222 15.172 8.222 QT
16.063 8.222 16.797 8.581 QT
17.531 8.941 18.055 9.581 QT
18.578 10.222 18.859 11.042 QT
19.141 11.862 19.141 12.691 QT
19.141 13.862 18.617 14.925 QT
18.094 15.987 17.148 16.612 QT
16.203 17.237 15 17.237 QT
cp
15 16.597 M
15.766 16.597 16.234 16.245 QT
16.703 15.894 16.93 15.316 QT
17.156 14.737 17.203 14.144 QT
17.25 13.55 17.25 12.691 QT
17.25 11.566 17.148 10.761 QT
17.047 9.956 16.563 9.347 QT
16.078 8.737 15.094 8.737 QT
14.281 8.737 13.766 9.284 QT
13.25 9.831 13.008 10.667 QT
12.766 11.503 12.766 12.284 QT
12.766 12.534 12.781 12.675 QT
12.781 12.706 12.781 12.73 QT
12.781 12.753 12.766 12.769 QT
12.766 13.628 12.938 14.511 QT
13.109 15.394 13.609 15.995 QT
14.109 16.597 15 16.597 QT
cp
f
GR
GS
[1 0 0 1 151.85017 380] CT
0.149 GC
N
/f-1171549265{-19 16.8 M
-19 16.269 L
-19 16.206 -18.969 16.159 QT
-15.859 12.722 L
-15.156 11.956 -14.719 11.441 QT
-14.281 10.925 -13.852 10.245 QT
-13.422 9.566 -13.172 8.87 QT
-12.922 8.175 -12.922 7.394 QT
-12.922 6.581 -13.227 5.831 QT
-13.531 5.081 -14.125 4.628 QT
-14.719 4.175 -15.578 4.175 QT
-16.438 4.175 -17.133 4.698 QT
-17.828 5.222 -18.109 6.05 QT
-18.031 6.034 -17.906 6.034 QT
-17.453 6.034 -17.133 6.339 QT
-16.813 6.644 -16.813 7.128 QT
-16.813 7.581 -17.133 7.901 QT
-17.453 8.222 -17.906 8.222 QT
-18.375 8.222 -18.688 7.894 QT
-19 7.566 -19 7.128 QT
-19 6.362 -18.719 5.706 QT
-18.438 5.05 -17.906 4.534 QT
-17.375 4.019 -16.703 3.745 QT
-16.031 3.472 -15.281 3.472 QT
-14.141 3.472 -13.156 3.956 QT
-12.172 4.441 -11.594 5.323 QT
-11.016 6.206 -11.016 7.394 QT
-11.016 8.269 -11.398 9.05 QT
-11.781 9.831 -12.375 10.472 QT
-12.969 11.112 -13.898 11.917 QT
-14.828 12.722 -15.109 13.003 QT
-17.375 15.175 L
-15.453 15.175 L
-14.047 15.175 -13.094 15.151 QT
-12.141 15.128 -12.078 15.081 QT
-11.844 14.831 -11.594 13.237 QT
-11.016 13.237 L
-11.578 16.8 L
-19 16.8 L
cp}def
f-1171549265
f
GR
GS
[1 0 0 1 151.85017 380] CT
0.149 GC
N
/f-2084610355{-5 17.237 M
-7.453 17.237 -8.336 15.222 QT
-9.219 13.206 -9.219 10.425 QT
-9.219 8.691 -8.898 7.151 QT
-8.578 5.612 -7.641 4.542 QT
-6.703 3.472 -5 3.472 QT
-3.688 3.472 -2.844 4.12 QT
-2 4.769 -1.563 5.792 QT
-1.125 6.816 -0.961 7.98 QT
-0.797 9.144 -0.797 10.425 QT
-0.797 12.144 -1.117 13.644 QT
-1.438 15.144 -2.367 16.191 QT
-3.297 17.237 -5 17.237 QT
cp
-5 16.722 M
-3.891 16.722 -3.344 15.581 QT
-2.797 14.441 -2.664 13.05 QT
-2.531 11.659 -2.531 10.097 QT
-2.531 8.597 -2.664 7.323 QT
-2.797 6.05 -3.336 5.026 QT
-3.875 4.003 -5 4.003 QT
-6.125 4.003 -6.672 5.034 QT
-7.219 6.066 -7.352 7.331 QT
-7.484 8.597 -7.484 10.097 QT
-7.484 11.206 -7.43 12.198 QT
-7.375 13.191 -7.141 14.237 QT
-6.906 15.284 -6.383 16.003 QT
-5.859 16.722 -5 16.722 QT
cp}def
f-2084610355
f
GR
GS
[1 0 0 1 151.85017 380] CT
0.149 GC
N
/f1017945436{5 17.237 M
2.547 17.237 1.664 15.222 QT
0.781 13.206 0.781 10.425 QT
0.781 8.691 1.102 7.151 QT
1.422 5.612 2.359 4.542 QT
3.297 3.472 5 3.472 QT
6.313 3.472 7.156 4.12 QT
8 4.769 8.438 5.792 QT
8.875 6.816 9.039 7.98 QT
9.203 9.144 9.203 10.425 QT
9.203 12.144 8.883 13.644 QT
8.563 15.144 7.633 16.191 QT
6.703 17.237 5 17.237 QT
cp
5 16.722 M
6.109 16.722 6.656 15.581 QT
7.203 14.441 7.336 13.05 QT
7.469 11.659 7.469 10.097 QT
7.469 8.597 7.336 7.323 QT
7.203 6.05 6.664 5.026 QT
6.125 4.003 5 4.003 QT
3.875 4.003 3.328 5.034 QT
2.781 6.066 2.648 7.331 QT
2.516 8.597 2.516 10.097 QT
2.516 11.206 2.57 12.198 QT
2.625 13.191 2.859 14.237 QT
3.094 15.284 3.617 16.003 QT
4.141 16.722 5 16.722 QT
cp}def
f1017945436
f
GR
GS
[1 0 0 1 151.85017 380] CT
0.149 GC
N
/f1369887443{10.844 13.769 M
10.844 12.566 11.633 11.644 QT
12.422 10.722 13.656 10.097 QT
12.922 9.628 L
12.234 9.175 11.805 8.425 QT
11.375 7.675 11.375 6.862 QT
11.375 5.894 11.883 5.128 QT
12.391 4.362 13.219 3.917 QT
14.047 3.472 15 3.472 QT
15.891 3.472 16.719 3.839 QT
17.547 4.206 18.078 4.878 QT
18.609 5.55 18.609 6.472 QT
18.609 7.144 18.289 7.722 QT
17.969 8.3 17.414 8.761 QT
16.859 9.222 16.234 9.55 QT
17.391 10.269 L
18.172 10.8 18.656 11.636 QT
19.141 12.472 19.141 13.394 QT
19.141 14.487 18.563 15.378 QT
17.984 16.269 17.023 16.753 QT
16.063 17.237 15 17.237 QT
13.969 17.237 13.008 16.816 QT
12.047 16.394 11.445 15.597 QT
10.844 14.8 10.844 13.769 QT
cp
11.922 13.769 M
11.922 14.55 12.359 15.206 QT
12.797 15.862 13.508 16.23 QT
14.219 16.597 15 16.597 QT
16.156 16.597 17.109 15.925 QT
18.063 15.253 18.063 14.128 QT
18.063 13.737 17.906 13.362 QT
17.75 12.987 17.484 12.683 QT
17.219 12.378 16.891 12.175 QT
14.203 10.441 L
13.578 10.769 13.055 11.276 QT
12.531 11.784 12.227 12.425 QT
11.922 13.066 11.922 13.769 QT
cp
13.297 7.659 M
15.719 9.222 L
16.563 8.737 17.102 8.042 QT
17.641 7.347 17.641 6.472 QT
17.641 5.8 17.266 5.237 QT
16.891 4.675 16.281 4.362 QT
15.672 4.05 14.984 4.05 QT
14.375 4.05 13.758 4.284 QT
13.141 4.519 12.742 4.987 QT
12.344 5.456 12.344 6.081 QT
12.344 7.019 13.297 7.659 QT
cp}def
f1369887443
f
GR
GS
[1 0 0 1 230.80836 380] CT
0.149 GC
N
f-1171549265
f
GR
GS
[1 0 0 1 230.80836 380] CT
0.149 GC
N
f-2084610355
f
GR
GS
[1 0 0 1 230.80836 380] CT
0.149 GC
N
/f-192727431{1.859 16.8 M
1.859 16.097 L
4.359 16.097 4.359 15.456 QT
4.359 4.956 L
3.328 5.456 1.734 5.456 QT
1.734 4.753 L
4.188 4.753 5.438 3.472 QT
5.719 3.472 L
5.797 3.472 5.859 3.526 QT
5.922 3.581 5.922 3.659 QT
5.922 15.456 L
5.922 16.097 8.422 16.097 QT
8.422 16.8 L
1.859 16.8 L
cp}def
f-192727431
f
GR
GS
[1 0 0 1 230.80836 380] CT
0.149 GC
N
/f-1674586926{15 17.237 M
12.547 17.237 11.664 15.222 QT
10.781 13.206 10.781 10.425 QT
10.781 8.691 11.102 7.151 QT
11.422 5.612 12.359 4.542 QT
13.297 3.472 15 3.472 QT
16.313 3.472 17.156 4.12 QT
18 4.769 18.438 5.792 QT
18.875 6.816 19.039 7.98 QT
19.203 9.144 19.203 10.425 QT
19.203 12.144 18.883 13.644 QT
18.563 15.144 17.633 16.191 QT
16.703 17.237 15 17.237 QT
cp
15 16.722 M
16.109 16.722 16.656 15.581 QT
17.203 14.441 17.336 13.05 QT
17.469 11.659 17.469 10.097 QT
17.469 8.597 17.336 7.323 QT
17.203 6.05 16.664 5.026 QT
16.125 4.003 15 4.003 QT
13.875 4.003 13.328 5.034 QT
12.781 6.066 12.648 7.331 QT
12.516 8.597 12.516 10.097 QT
12.516 11.206 12.57 12.198 QT
12.625 13.191 12.859 14.237 QT
13.094 15.284 13.617 16.003 QT
14.141 16.722 15 16.722 QT
cp}def
f-1674586926
f
GR
GS
[1 0 0 1 309.65854 380] CT
0.149 GC
N
f-1171549265
f
GR
GS
[1 0 0 1 309.65854 380] CT
0.149 GC
N
f-2084610355
f
GR
GS
[1 0 0 1 309.65854 380] CT
0.149 GC
N
f-192727431
f
GR
GS
[1 0 0 1 309.65854 380] CT
0.149 GC
N
/f110075864{11 16.8 M
11 16.269 L
11 16.206 11.031 16.159 QT
14.141 12.722 L
14.844 11.956 15.281 11.441 QT
15.719 10.925 16.148 10.245 QT
16.578 9.566 16.828 8.87 QT
17.078 8.175 17.078 7.394 QT
17.078 6.581 16.773 5.831 QT
16.469 5.081 15.875 4.628 QT
15.281 4.175 14.422 4.175 QT
13.563 4.175 12.867 4.698 QT
12.172 5.222 11.891 6.05 QT
11.969 6.034 12.094 6.034 QT
12.547 6.034 12.867 6.339 QT
13.188 6.644 13.188 7.128 QT
13.188 7.581 12.867 7.901 QT
12.547 8.222 12.094 8.222 QT
11.625 8.222 11.313 7.894 QT
11 7.566 11 7.128 QT
11 6.362 11.281 5.706 QT
11.563 5.05 12.094 4.534 QT
12.625 4.019 13.297 3.745 QT
13.969 3.472 14.719 3.472 QT
15.859 3.472 16.844 3.956 QT
17.828 4.441 18.406 5.323 QT
18.984 6.206 18.984 7.394 QT
18.984 8.269 18.602 9.05 QT
18.219 9.831 17.625 10.472 QT
17.031 11.112 16.102 11.917 QT
15.172 12.722 14.891 13.003 QT
12.625 15.175 L
14.547 15.175 L
15.953 15.175 16.906 15.151 QT
17.859 15.128 17.922 15.081 QT
18.156 14.831 18.406 13.237 QT
18.984 13.237 L
18.422 16.8 L
11 16.8 L
cp}def
f110075864
f
GR
GS
[1 0 0 1 388.61673 380] CT
0.149 GC
N
f-1171549265
f
GR
GS
[1 0 0 1 388.61673 380] CT
0.149 GC
N
f-2084610355
f
GR
GS
[1 0 0 1 388.61673 380] CT
0.149 GC
N
f-192727431
f
GR
GS
[1 0 0 1 388.61673 380] CT
0.149 GC
N
/f194291650{10.563 13.503 M
10.563 12.8 L
16.734 3.581 L
16.813 3.472 16.938 3.472 QT
17.234 3.472 L
17.469 3.472 17.469 3.706 QT
17.469 12.8 L
19.422 12.8 L
19.422 13.503 L
17.469 13.503 L
17.469 15.456 L
17.469 15.878 18.055 15.987 QT
18.641 16.097 19.406 16.097 QT
19.406 16.8 L
13.891 16.8 L
13.891 16.097 L
14.672 16.097 15.258 15.987 QT
15.844 15.878 15.844 15.456 QT
15.844 13.503 L
10.563 13.503 L
cp
11.219 12.8 M
15.953 12.8 L
15.953 5.722 L
11.219 12.8 L
cp}def
f194291650
f
GR
GS
[1 0 0 1 467.46689 380] CT
0.149 GC
N
f-1171549265
f
GR
GS
[1 0 0 1 467.46689 380] CT
0.149 GC
N
f-2084610355
f
GR
GS
[1 0 0 1 467.46689 380] CT
0.149 GC
N
f-192727431
f
GR
GS
[1 0 0 1 467.46689 380] CT
0.149 GC
N
/f-973792135{15 17.237 M
13.766 17.237 12.93 16.581 QT
12.094 15.925 11.641 14.87 QT
11.188 13.816 11.016 12.667 QT
10.844 11.519 10.844 10.331 QT
10.844 8.753 11.461 7.159 QT
12.078 5.566 13.273 4.519 QT
14.469 3.472 16.109 3.472 QT
16.781 3.472 17.375 3.737 QT
17.969 4.003 18.305 4.503 QT
18.641 5.003 18.641 5.722 QT
18.641 6.128 18.367 6.401 QT
18.094 6.675 17.672 6.675 QT
17.281 6.675 17 6.394 QT
16.719 6.112 16.719 5.722 QT
16.719 5.331 17 5.042 QT
17.281 4.753 17.672 4.753 QT
17.781 4.753 L
17.531 4.394 17.07 4.222 QT
16.609 4.05 16.109 4.05 QT
15.5 4.05 14.984 4.316 QT
14.469 4.581 14.063 5.034 QT
13.656 5.487 13.383 6.026 QT
13.109 6.566 12.953 7.261 QT
12.797 7.956 12.758 8.558 QT
12.719 9.159 12.719 10.081 QT
13.078 9.253 13.719 8.737 QT
14.359 8.222 15.172 8.222 QT
16.063 8.222 16.797 8.581 QT
17.531 8.941 18.055 9.581 QT
18.578 10.222 18.859 11.042 QT
19.141 11.862 19.141 12.691 QT
19.141 13.862 18.617 14.925 QT
18.094 15.987 17.148 16.612 QT
16.203 17.237 15 17.237 QT
cp
15 16.597 M
15.766 16.597 16.234 16.245 QT
16.703 15.894 16.93 15.316 QT
17.156 14.737 17.203 14.144 QT
17.25 13.55 17.25 12.691 QT
17.25 11.566 17.148 10.761 QT
17.047 9.956 16.563 9.347 QT
16.078 8.737 15.094 8.737 QT
14.281 8.737 13.766 9.284 QT
13.25 9.831 13.008 10.667 QT
12.766 11.503 12.766 12.284 QT
12.766 12.534 12.781 12.675 QT
12.781 12.706 12.781 12.73 QT
12.781 12.753 12.766 12.769 QT
12.766 13.628 12.938 14.511 QT
13.109 15.394 13.609 15.995 QT
14.109 16.597 15 16.597 QT
cp}def
f-973792135
f
GR
GS
0.149 GC
2 setlinecap
1 LJ
0.5 LW
N
73 374 M
73 35 L
S
GR
GS
0.149 GC
2 setlinecap
1 LJ
0.5 LW
N
507 374 M
507 35 L
S
GR
GS
0.149 GC
2 setlinecap
1 LJ
0.5 LW
N
73 374 M
77.34 374 L
S
GR
GS
0.149 GC
2 setlinecap
1 LJ
0.5 LW
N
73 317.5 M
77.34 317.5 L
S
GR
GS
0.149 GC
2 setlinecap
1 LJ
0.5 LW
N
73 261 M
77.34 261 L
S
GR
GS
0.149 GC
2 setlinecap
1 LJ
0.5 LW
N
73 204.5 M
77.34 204.5 L
S
GR
GS
0.149 GC
2 setlinecap
1 LJ
0.5 LW
N
73 148 M
77.34 148 L
S
GR
GS
0.149 GC
2 setlinecap
1 LJ
0.5 LW
N
73 91.5 M
77.34 91.5 L
S
GR
GS
0.149 GC
2 setlinecap
1 LJ
0.5 LW
N
73 35 M
77.34 35 L
S
GR
GS
0.149 GC
2 setlinecap
1 LJ
0.5 LW
N
507 374 M
502.66 374 L
S
GR
GS
0.149 GC
2 setlinecap
1 LJ
0.5 LW
N
507 317.5 M
502.66 317.5 L
S
GR
GS
0.149 GC
2 setlinecap
1 LJ
0.5 LW
N
507 261 M
502.66 261 L
S
GR
GS
0.149 GC
2 setlinecap
1 LJ
0.5 LW
N
507 204.5 M
502.66 204.5 L
S
GR
GS
0.149 GC
2 setlinecap
1 LJ
0.5 LW
N
507 148 M
502.66 148 L
S
GR
GS
0.149 GC
2 setlinecap
1 LJ
0.5 LW
N
507 91.5 M
502.66 91.5 L
S
GR
GS
0.149 GC
2 setlinecap
1 LJ
0.5 LW
N
507 35 M
502.66 35 L
S
GR
GS
[1 0 0 1 67 374] CT
0.149 GC
N
/f-259944110{-5 5.237 M
-7.453 5.237 -8.336 3.222 QT
-9.219 1.206 -9.219 -1.575 QT
-9.219 -3.309 -8.898 -4.849 QT
-8.578 -6.388 -7.641 -7.458 QT
-6.703 -8.528 -5 -8.528 QT
-3.688 -8.528 -2.844 -7.88 QT
-2 -7.231 -1.563 -6.208 QT
-1.125 -5.184 -0.961 -4.02 QT
-0.797 -2.856 -0.797 -1.575 QT
-0.797 0.144 -1.117 1.644 QT
-1.438 3.144 -2.367 4.191 QT
-3.297 5.237 -5 5.237 QT
cp
-5 4.722 M
-3.891 4.722 -3.344 3.581 QT
-2.797 2.441 -2.664 1.05 QT
-2.531 -0.341 -2.531 -1.903 QT
-2.531 -3.403 -2.664 -4.677 QT
-2.797 -5.95 -3.336 -6.974 QT
-3.875 -7.997 -5 -7.997 QT
-6.125 -7.997 -6.672 -6.966 QT
-7.219 -5.934 -7.352 -4.669 QT
-7.484 -3.403 -7.484 -1.903 QT
-7.484 -0.794 -7.43 0.198 QT
-7.375 1.191 -7.141 2.237 QT
-6.906 3.284 -6.383 4.003 QT
-5.859 4.722 -5 4.722 QT
cp}def
f-259944110
f
GR
GS
[1 0 0 1 67 317.5] CT
0.149 GC
N
/f208961070{-20.556 5.237 M
-23.009 5.237 -23.892 3.222 QT
-24.774 1.206 -24.774 -1.575 QT
-24.774 -3.309 -24.454 -4.849 QT
-24.134 -6.388 -23.196 -7.458 QT
-22.259 -8.528 -20.556 -8.528 QT
-19.243 -8.528 -18.399 -7.88 QT
-17.556 -7.231 -17.118 -6.208 QT
-16.681 -5.184 -16.517 -4.02 QT
-16.353 -2.856 -16.353 -1.575 QT
-16.353 0.144 -16.673 1.644 QT
-16.993 3.144 -17.923 4.191 QT
-18.853 5.237 -20.556 5.237 QT
cp
-20.556 4.722 M
-19.446 4.722 -18.899 3.581 QT
-18.353 2.441 -18.22 1.05 QT
-18.087 -0.341 -18.087 -1.903 QT
-18.087 -3.403 -18.22 -4.677 QT
-18.353 -5.95 -18.892 -6.974 QT
-19.431 -7.997 -20.556 -7.997 QT
-21.681 -7.997 -22.228 -6.966 QT
-22.774 -5.934 -22.907 -4.669 QT
-23.04 -3.403 -23.04 -1.903 QT
-23.04 -0.794 -22.985 0.198 QT
-22.931 1.191 -22.696 2.237 QT
-22.462 3.284 -21.938 4.003 QT
-21.415 4.722 -20.556 4.722 QT
cp}def
f208961070
f
GR
GS
[1 0 0 1 67 317.5] CT
0.149 GC
N
/f-943732550{-13.868 3.691 M
-13.868 3.253 -13.54 2.925 QT
-13.212 2.597 -12.774 2.597 QT
-12.493 2.597 -12.235 2.745 QT
-11.977 2.894 -11.829 3.159 QT
-11.681 3.425 -11.681 3.691 QT
-11.681 4.128 -12.001 4.464 QT
-12.321 4.8 -12.774 4.8 QT
-13.212 4.8 -13.54 4.464 QT
-13.868 4.128 -13.868 3.691 QT
cp}def
f-943732550
f
GR
GS
[1 0 0 1 67 317.5] CT
0.149 GC
N
/f1667698322{-8.141 4.8 M
-8.141 4.097 L
-5.641 4.097 -5.641 3.456 QT
-5.641 -7.044 L
-6.672 -6.544 -8.266 -6.544 QT
-8.266 -7.247 L
-5.813 -7.247 -4.563 -8.528 QT
-4.281 -8.528 L
-4.203 -8.528 -4.141 -8.474 QT
-4.078 -8.419 -4.078 -8.341 QT
-4.078 3.456 L
-4.078 4.097 -1.578 4.097 QT
-1.578 4.8 L
-8.141 4.8 L
cp}def
f1667698322
f
GR
GS
[1 0 0 1 67 261] CT
0.149 GC
N
f208961070
f
GR
GS
[1 0 0 1 67 261] CT
0.149 GC
N
f-943732550
f
GR
GS
[1 0 0 1 67 261] CT
0.149 GC
N
/f-959722706{-9 4.8 M
-9 4.269 L
-9 4.206 -8.969 4.159 QT
-5.859 0.722 L
-5.156 -0.044 -4.719 -0.559 QT
-4.281 -1.075 -3.852 -1.755 QT
-3.422 -2.434 -3.172 -3.13 QT
-2.922 -3.825 -2.922 -4.606 QT
-2.922 -5.419 -3.227 -6.169 QT
-3.531 -6.919 -4.125 -7.372 QT
-4.719 -7.825 -5.578 -7.825 QT
-6.438 -7.825 -7.133 -7.302 QT
-7.828 -6.778 -8.109 -5.95 QT
-8.031 -5.966 -7.906 -5.966 QT
-7.453 -5.966 -7.133 -5.661 QT
-6.813 -5.356 -6.813 -4.872 QT
-6.813 -4.419 -7.133 -4.099 QT
-7.453 -3.778 -7.906 -3.778 QT
-8.375 -3.778 -8.688 -4.106 QT
-9 -4.434 -9 -4.872 QT
-9 -5.638 -8.719 -6.294 QT
-8.438 -6.95 -7.906 -7.466 QT
-7.375 -7.981 -6.703 -8.255 QT
-6.031 -8.528 -5.281 -8.528 QT
-4.141 -8.528 -3.156 -8.044 QT
-2.172 -7.559 -1.594 -6.677 QT
-1.016 -5.794 -1.016 -4.606 QT
-1.016 -3.731 -1.398 -2.95 QT
-1.781 -2.169 -2.375 -1.528 QT
-2.969 -0.888 -3.898 -0.083 QT
-4.828 0.722 -5.109 1.003 QT
-7.375 3.175 L
-5.453 3.175 L
-4.047 3.175 -3.094 3.151 QT
-2.141 3.128 -2.078 3.081 QT
-1.844 2.831 -1.594 1.237 QT
-1.016 1.237 L
-1.578 4.8 L
-9 4.8 L
cp}def
f-959722706
f
GR
GS
[1 0 0 1 67 204.5] CT
0.149 GC
N
f208961070
f
GR
GS
[1 0 0 1 67 204.5] CT
0.149 GC
N
f-943732550
f
GR
GS
[1 0 0 1 67 204.5] CT
0.149 GC
N
/f-1136742856{-8.094 3.253 M
-7.625 3.941 -6.836 4.269 QT
-6.047 4.597 -5.141 4.597 QT
-3.969 4.597 -3.484 3.612 QT
-3 2.628 -3 1.362 QT
-3 0.8 -3.102 0.23 QT
-3.203 -0.341 -3.445 -0.825 QT
-3.688 -1.309 -4.117 -1.606 QT
-4.547 -1.903 -5.156 -1.903 QT
-6.484 -1.903 L
-6.656 -1.903 -6.656 -2.091 QT
-6.656 -2.263 L
-6.656 -2.419 -6.484 -2.419 QT
-5.375 -2.513 L
-4.672 -2.513 -4.211 -3.036 QT
-3.75 -3.559 -3.531 -4.317 QT
-3.313 -5.075 -3.313 -5.763 QT
-3.313 -6.716 -3.766 -7.333 QT
-4.219 -7.95 -5.141 -7.95 QT
-5.891 -7.95 -6.586 -7.661 QT
-7.281 -7.372 -7.688 -6.778 QT
-7.656 -6.794 -7.625 -6.802 QT
-7.594 -6.809 -7.563 -6.809 QT
-7.109 -6.809 -6.805 -6.497 QT
-6.5 -6.184 -6.5 -5.731 QT
-6.5 -5.309 -6.805 -4.997 QT
-7.109 -4.684 -7.563 -4.684 QT
-8 -4.684 -8.313 -4.997 QT
-8.625 -5.309 -8.625 -5.731 QT
-8.625 -6.591 -8.109 -7.231 QT
-7.594 -7.872 -6.773 -8.2 QT
-5.953 -8.528 -5.141 -8.528 QT
-4.531 -8.528 -3.859 -8.341 QT
-3.188 -8.153 -2.641 -7.817 QT
-2.094 -7.481 -1.742 -6.958 QT
-1.391 -6.434 -1.391 -5.763 QT
-1.391 -4.919 -1.766 -4.208 QT
-2.141 -3.497 -2.797 -2.974 QT
-3.453 -2.45 -4.234 -2.2 QT
-3.375 -2.044 -2.594 -1.552 QT
-1.813 -1.059 -1.336 -0.302 QT
-0.859 0.456 -0.859 1.347 QT
-0.859 2.441 -1.461 3.339 QT
-2.063 4.237 -3.055 4.737 QT
-4.047 5.237 -5.141 5.237 QT
-6.078 5.237 -7.016 4.878 QT
-7.953 4.519 -8.555 3.808 QT
-9.156 3.097 -9.156 2.097 QT
-9.156 1.612 -8.828 1.276 QT
-8.5 0.941 -8 0.941 QT
-7.672 0.941 -7.406 1.089 QT
-7.141 1.237 -6.984 1.511 QT
-6.828 1.784 -6.828 2.097 QT
-6.828 2.597 -7.172 2.925 QT
-7.516 3.253 -8 3.253 QT
-8.094 3.253 L
cp}def
f-1136742856
f
GR
GS
[1 0 0 1 67 148] CT
0.149 GC
N
f208961070
f
GR
GS
[1 0 0 1 67 148] CT
0.149 GC
N
f-943732550
f
GR
GS
[1 0 0 1 67 148] CT
0.149 GC
N
/f-426388810{-9.438 1.503 M
-9.438 0.8 L
-3.266 -8.419 L
-3.188 -8.528 -3.063 -8.528 QT
-2.766 -8.528 L
-2.531 -8.528 -2.531 -8.294 QT
-2.531 0.8 L
-0.578 0.8 L
-0.578 1.503 L
-2.531 1.503 L
-2.531 3.456 L
-2.531 3.878 -1.945 3.987 QT
-1.359 4.097 -0.594 4.097 QT
-0.594 4.8 L
-6.109 4.8 L
-6.109 4.097 L
-5.328 4.097 -4.742 3.987 QT
-4.156 3.878 -4.156 3.456 QT
-4.156 1.503 L
-9.438 1.503 L
cp
-8.781 0.8 M
-4.047 0.8 L
-4.047 -6.278 L
-8.781 0.8 L
cp}def
f-426388810
f
GR
GS
[1 0 0 1 67 91.5] CT
0.149 GC
N
f208961070
f
GR
GS
[1 0 0 1 67 91.5] CT
0.149 GC
N
f-943732550
f
GR
GS
[1 0 0 1 67 91.5] CT
0.149 GC
N
/f2128899210{-8.266 2.519 M
-8.063 3.112 -7.633 3.589 QT
-7.203 4.066 -6.625 4.331 QT
-6.047 4.597 -5.422 4.597 QT
-3.969 4.597 -3.422 3.48 QT
-2.875 2.362 -2.875 0.753 QT
-2.875 0.066 -2.898 -0.411 QT
-2.922 -0.888 -3.031 -1.325 QT
-3.219 -2.028 -3.688 -2.552 QT
-4.156 -3.075 -4.828 -3.075 QT
-5.5 -3.075 -5.984 -2.872 QT
-6.469 -2.669 -6.766 -2.395 QT
-7.063 -2.122 -7.297 -1.817 QT
-7.531 -1.513 -7.594 -1.497 QT
-7.828 -1.497 L
-7.875 -1.497 -7.945 -1.559 QT
-8.016 -1.622 -8.016 -1.684 QT
-8.016 -8.372 L
-8.016 -8.419 -7.953 -8.474 QT
-7.891 -8.528 -7.828 -8.528 QT
-7.766 -8.528 L
-6.422 -7.872 -4.906 -7.872 QT
-3.422 -7.872 -2.047 -8.528 QT
-1.984 -8.528 L
-1.906 -8.528 -1.852 -8.474 QT
-1.797 -8.419 -1.797 -8.372 QT
-1.797 -8.184 L
-1.797 -8.075 -1.828 -8.075 QT
-2.516 -7.169 -3.547 -6.661 QT
-4.578 -6.153 -5.688 -6.153 QT
-6.484 -6.153 -7.328 -6.388 QT
-7.328 -2.606 L
-6.656 -3.138 -6.133 -3.372 QT
-5.609 -3.606 -4.797 -3.606 QT
-3.703 -3.606 -2.828 -2.966 QT
-1.953 -2.325 -1.484 -1.309 QT
-1.016 -0.294 -1.016 0.769 QT
-1.016 1.972 -1.609 3.003 QT
-2.203 4.034 -3.219 4.636 QT
-4.234 5.237 -5.422 5.237 QT
-6.406 5.237 -7.234 4.73 QT
-8.063 4.222 -8.531 3.362 QT
-9 2.503 -9 1.534 QT
-9 1.081 -8.711 0.8 QT
-8.422 0.519 -7.984 0.519 QT
-7.531 0.519 -7.234 0.808 QT
-6.938 1.097 -6.938 1.534 QT
-6.938 1.972 -7.234 2.269 QT
-7.531 2.566 -7.984 2.566 QT
-8.047 2.566 -8.133 2.55 QT
-8.219 2.534 -8.266 2.519 QT
cp}def
f2128899210
f
GR
GS
[1 0 0 1 67 34.99998] CT
0.149 GC
N
f208961070
f
GR
GS
[1 0 0 1 67 34.99998] CT
0.149 GC
N
f-943732550
f
GR
GS
[1 0 0 1 67 34.99998] CT
0.149 GC
N
/f-1609365487{-5 5.237 M
-6.234 5.237 -7.07 4.581 QT
-7.906 3.925 -8.359 2.87 QT
-8.813 1.816 -8.984 0.667 QT
-9.156 -0.481 -9.156 -1.669 QT
-9.156 -3.247 -8.539 -4.841 QT
-7.922 -6.434 -6.727 -7.481 QT
-5.531 -8.528 -3.891 -8.528 QT
-3.219 -8.528 -2.625 -8.263 QT
-2.031 -7.997 -1.695 -7.497 QT
-1.359 -6.997 -1.359 -6.278 QT
-1.359 -5.872 -1.633 -5.599 QT
-1.906 -5.325 -2.328 -5.325 QT
-2.719 -5.325 -3 -5.606 QT
-3.281 -5.888 -3.281 -6.278 QT
-3.281 -6.669 -3 -6.958 QT
-2.719 -7.247 -2.328 -7.247 QT
-2.219 -7.247 L
-2.469 -7.606 -2.93 -7.778 QT
-3.391 -7.95 -3.891 -7.95 QT
-4.5 -7.95 -5.016 -7.684 QT
-5.531 -7.419 -5.938 -6.966 QT
-6.344 -6.513 -6.617 -5.974 QT
-6.891 -5.434 -7.047 -4.739 QT
-7.203 -4.044 -7.242 -3.442 QT
-7.281 -2.841 -7.281 -1.919 QT
-6.922 -2.747 -6.281 -3.263 QT
-5.641 -3.778 -4.828 -3.778 QT
-3.938 -3.778 -3.203 -3.419 QT
-2.469 -3.059 -1.945 -2.419 QT
-1.422 -1.778 -1.141 -0.958 QT
-0.859 -0.138 -0.859 0.691 QT
-0.859 1.862 -1.383 2.925 QT
-1.906 3.987 -2.852 4.612 QT
-3.797 5.237 -5 5.237 QT
cp
-5 4.597 M
-4.234 4.597 -3.766 4.245 QT
-3.297 3.894 -3.07 3.316 QT
-2.844 2.737 -2.797 2.144 QT
-2.75 1.55 -2.75 0.691 QT
-2.75 -0.434 -2.852 -1.239 QT
-2.953 -2.044 -3.438 -2.653 QT
-3.922 -3.263 -4.906 -3.263 QT
-5.719 -3.263 -6.234 -2.716 QT
-6.75 -2.169 -6.992 -1.333 QT
-7.234 -0.497 -7.234 0.284 QT
-7.234 0.534 -7.219 0.675 QT
-7.219 0.706 -7.219 0.73 QT
-7.219 0.753 -7.234 0.769 QT
-7.234 1.628 -7.063 2.511 QT
-6.891 3.394 -6.391 3.995 QT
-5.891 4.597 -5 4.597 QT
cp}def
f-1609365487
f
GR
GS
[1 0 0 1 290.00027 31.99997] CT
N
/f1853185887{-50.023 -8.296 M
-50.023 -13.906 L
-50.023 -14.093 -49.804 -14.093 QT
-49.507 -14.093 L
-49.445 -14.093 -49.382 -14.031 QT
-49.32 -13.968 -49.32 -13.906 QT
-49.32 -11.546 -47.867 -10.249 QT
-46.414 -8.953 -44.039 -8.953 QT
-43.211 -8.953 -42.507 -9.437 QT
-41.804 -9.921 -41.414 -10.703 QT
-41.023 -11.484 -41.023 -12.312 QT
-41.023 -13.031 -41.312 -13.718 QT
-41.601 -14.406 -42.156 -14.914 QT
-42.711 -15.421 -43.398 -15.578 QT
-46.507 -16.343 L
-48.054 -16.749 -49.039 -18.023 QT
-50.023 -19.296 -50.023 -20.874 QT
-50.023 -22.124 -49.39 -23.21 QT
-48.757 -24.296 -47.679 -24.929 QT
-46.601 -25.562 -45.367 -25.562 QT
-42.961 -25.562 -41.539 -23.937 QT
-40.554 -25.499 L
-40.492 -25.562 -40.398 -25.562 QT
-40.226 -25.562 L
-40.164 -25.562 -40.101 -25.507 QT
-40.039 -25.453 -40.039 -25.359 QT
-40.039 -19.796 L
-40.039 -19.593 -40.226 -19.593 QT
-40.507 -19.593 L
-40.742 -19.593 -40.742 -19.796 QT
-40.742 -20.406 -40.945 -21.132 QT
-41.148 -21.859 -41.507 -22.531 QT
-41.867 -23.203 -42.289 -23.624 QT
-43.461 -24.796 -45.367 -24.796 QT
-46.179 -24.796 -46.875 -24.374 QT
-47.57 -23.953 -47.976 -23.242 QT
-48.382 -22.531 -48.382 -21.749 QT
-48.382 -20.718 -47.75 -19.874 QT
-47.117 -19.031 -46.086 -18.765 QT
-42.961 -17.999 L
-42.195 -17.812 -41.507 -17.328 QT
-40.82 -16.843 -40.359 -16.203 QT
-39.898 -15.562 -39.64 -14.765 QT
-39.382 -13.968 -39.382 -13.124 QT
-39.382 -11.828 -39.984 -10.671 QT
-40.586 -9.515 -41.671 -8.812 QT
-42.757 -8.109 -44.039 -8.109 QT
-44.836 -8.109 -45.671 -8.289 QT
-46.507 -8.468 -47.211 -8.828 QT
-47.914 -9.187 -48.476 -9.765 QT
-49.492 -8.187 L
-49.554 -8.109 -49.664 -8.109 QT
-49.804 -8.109 L
-50.023 -8.109 -50.023 -8.296 QT
cp}def
f1853185887
f
GR
GS
[1 0 0 1 290.00027 31.99997] CT
N
/f2086361310{-37.299 -8.64 M
-37.299 -9.484 L
-36.471 -9.484 -35.947 -9.617 QT
-35.424 -9.749 -35.424 -10.249 QT
-35.424 -16.796 L
-35.424 -17.718 -35.776 -17.929 QT
-36.127 -18.14 -37.19 -18.14 QT
-37.19 -18.984 L
-33.737 -19.249 L
-33.737 -10.249 L
-33.737 -9.749 -33.276 -9.617 QT
-32.815 -9.484 -32.049 -9.484 QT
-32.049 -8.64 L
-37.299 -8.64 L
cp
-36.268 -23.374 M
-36.268 -23.906 -35.869 -24.304 QT
-35.471 -24.703 -34.955 -24.703 QT
-34.627 -24.703 -34.307 -24.523 QT
-33.987 -24.343 -33.815 -24.031 QT
-33.643 -23.718 -33.643 -23.374 QT
-33.643 -22.859 -34.041 -22.46 QT
-34.44 -22.062 -34.955 -22.062 QT
-35.471 -22.062 -35.869 -22.46 QT
-36.268 -22.859 -36.268 -23.374 QT
cp}def
f2086361310
f
GR
GS
[1 0 0 1 290.00027 31.99997] CT
N
/f-756046916{-30.648 -8.64 M
-30.648 -9.484 L
-29.835 -9.484 -29.304 -9.617 QT
-28.773 -9.749 -28.773 -10.249 QT
-28.773 -16.796 L
-28.773 -17.437 -28.968 -17.726 QT
-29.164 -18.015 -29.523 -18.078 QT
-29.882 -18.14 -30.648 -18.14 QT
-30.648 -18.984 L
-27.164 -19.249 L
-27.164 -16.906 L
-26.695 -17.937 -25.75 -18.593 QT
-24.804 -19.249 -23.695 -19.249 QT
-20.929 -19.249 -20.445 -16.999 QT
-19.96 -17.999 -19.039 -18.624 QT
-18.117 -19.249 -17.007 -19.249 QT
-15.914 -19.249 -15.171 -18.898 QT
-14.429 -18.546 -14.054 -17.828 QT
-13.679 -17.109 -13.679 -16.015 QT
-13.679 -10.249 L
-13.679 -9.749 -13.148 -9.617 QT
-12.617 -9.484 -11.804 -9.484 QT
-11.804 -8.64 L
-17.304 -8.64 L
-17.304 -9.484 L
-16.476 -9.484 -15.953 -9.617 QT
-15.429 -9.749 -15.429 -10.249 QT
-15.429 -15.937 L
-15.429 -17.156 -15.765 -17.89 QT
-16.101 -18.624 -17.164 -18.624 QT
-18.539 -18.624 -19.445 -17.515 QT
-20.351 -16.406 -20.351 -14.984 QT
-20.351 -10.249 L
-20.351 -9.749 -19.82 -9.617 QT
-19.289 -9.484 -18.476 -9.484 QT
-18.476 -8.64 L
-23.976 -8.64 L
-23.976 -9.484 L
-23.148 -9.484 -22.625 -9.617 QT
-22.101 -9.749 -22.101 -10.249 QT
-22.101 -15.937 L
-22.101 -17.109 -22.437 -17.867 QT
-22.773 -18.624 -23.835 -18.624 QT
-25.226 -18.624 -26.125 -17.515 QT
-27.023 -16.406 -27.023 -14.984 QT
-27.023 -10.249 L
-27.023 -9.749 -26.492 -9.617 QT
-25.96 -9.484 -25.148 -9.484 QT
-25.148 -8.64 L
-30.648 -8.64 L
cp}def
f-756046916
f
GR
GS
[1 0 0 1 290.00027 31.99997] CT
N
/f859066785{-10.632 -8.64 M
-10.632 -9.484 L
-9.804 -9.484 -9.281 -9.617 QT
-8.757 -9.749 -8.757 -10.249 QT
-8.757 -16.796 L
-8.757 -17.718 -9.109 -17.929 QT
-9.46 -18.14 -10.523 -18.14 QT
-10.523 -18.984 L
-7.07 -19.249 L
-7.07 -10.249 L
-7.07 -9.749 -6.609 -9.617 QT
-6.148 -9.484 -5.382 -9.484 QT
-5.382 -8.64 L
-10.632 -8.64 L
cp
-9.601 -23.374 M
-9.601 -23.906 -9.203 -24.304 QT
-8.804 -24.703 -8.289 -24.703 QT
-7.96 -24.703 -7.64 -24.523 QT
-7.32 -24.343 -7.148 -24.031 QT
-6.976 -23.718 -6.976 -23.374 QT
-6.976 -22.859 -7.374 -22.46 QT
-7.773 -22.062 -8.289 -22.062 QT
-8.804 -22.062 -9.203 -22.46 QT
-9.601 -22.859 -9.601 -23.374 QT
cp}def
f859066785
f
GR
GS
[1 0 0 1 290.00027 31.99997] CT
N
/f-1074857502{-3.966 -8.64 M
-3.966 -9.484 L
-3.137 -9.484 -2.614 -9.617 QT
-2.091 -9.749 -2.091 -10.249 QT
-2.091 -22.843 L
-2.091 -23.484 -2.278 -23.773 QT
-2.466 -24.062 -2.833 -24.124 QT
-3.2 -24.187 -3.966 -24.187 QT
-3.966 -25.031 L
-0.403 -25.296 L
-0.403 -10.249 L
-0.403 -9.749 0.128 -9.617 QT
0.659 -9.484 1.472 -9.484 QT
1.472 -8.64 L
-3.966 -8.64 L
cp}def
f-1074857502
f
GR
GS
[1 0 0 1 290.00027 31.99997] CT
N
/f-2132264269{2.935 -10.999 M
2.935 -12.421 4.06 -13.32 QT
5.185 -14.218 6.756 -14.585 QT
8.326 -14.953 9.748 -14.953 QT
9.748 -15.937 L
9.748 -16.64 9.443 -17.289 QT
9.139 -17.937 8.568 -18.351 QT
7.998 -18.765 7.295 -18.765 QT
5.701 -18.765 4.873 -18.046 QT
5.326 -18.046 5.631 -17.703 QT
5.935 -17.359 5.935 -16.906 QT
5.935 -16.421 5.592 -16.085 QT
5.248 -15.749 4.779 -15.749 QT
4.295 -15.749 3.959 -16.085 QT
3.623 -16.421 3.623 -16.906 QT
3.623 -18.171 4.771 -18.789 QT
5.92 -19.406 7.295 -19.406 QT
8.279 -19.406 9.264 -18.984 QT
10.248 -18.562 10.873 -17.789 QT
11.498 -17.015 11.498 -15.984 QT
11.498 -10.593 L
11.498 -10.124 11.693 -9.726 QT
11.889 -9.328 12.31 -9.328 QT
12.717 -9.328 12.912 -9.726 QT
13.107 -10.124 13.107 -10.593 QT
13.107 -12.124 L
13.81 -12.124 L
13.81 -10.593 L
13.81 -10.046 13.529 -9.562 QT
13.248 -9.078 12.771 -8.789 QT
12.295 -8.499 11.748 -8.499 QT
11.045 -8.499 10.529 -9.046 QT
10.014 -9.593 9.967 -10.343 QT
9.514 -9.437 8.646 -8.906 QT
7.779 -8.374 6.795 -8.374 QT
5.889 -8.374 4.998 -8.64 QT
4.107 -8.906 3.521 -9.492 QT
2.935 -10.078 2.935 -10.999 QT
cp
4.873 -10.999 M
4.873 -10.156 5.498 -9.578 QT
6.123 -8.999 6.967 -8.999 QT
7.732 -8.999 8.365 -9.39 QT
8.998 -9.781 9.373 -10.445 QT
9.748 -11.109 9.748 -11.859 QT
9.748 -14.343 L
8.654 -14.343 7.514 -13.992 QT
6.373 -13.64 5.623 -12.874 QT
4.873 -12.109 4.873 -10.999 QT
cp}def
f-2132264269
f
GR
GS
[1 0 0 1 290.00027 31.99997] CT
N
/f-806799125{14.592 -8.64 M
14.592 -9.484 L
15.404 -9.484 15.935 -9.617 QT
16.467 -9.749 16.467 -10.249 QT
16.467 -16.796 L
16.467 -17.437 16.271 -17.726 QT
16.076 -18.015 15.717 -18.078 QT
15.357 -18.14 14.592 -18.14 QT
14.592 -18.984 L
18.029 -19.249 L
18.029 -16.906 L
18.404 -17.953 19.123 -18.601 QT
19.842 -19.249 20.857 -19.249 QT
21.576 -19.249 22.139 -18.828 QT
22.701 -18.406 22.701 -17.718 QT
22.701 -17.281 22.389 -16.96 QT
22.076 -16.64 21.623 -16.64 QT
21.17 -16.64 20.857 -16.953 QT
20.545 -17.265 20.545 -17.718 QT
20.545 -18.359 20.998 -18.624 QT
20.857 -18.624 L
19.889 -18.624 19.271 -17.921 QT
18.654 -17.218 18.396 -16.179 QT
18.139 -15.14 18.139 -14.187 QT
18.139 -10.249 L
18.139 -9.484 20.467 -9.484 QT
20.467 -8.64 L
14.592 -8.64 L
cp}def
f-806799125
f
GR
GS
[1 0 0 1 290.00027 31.99997] CT
N
/f-901905976{24.101 -8.64 M
24.101 -9.484 L
24.929 -9.484 25.453 -9.617 QT
25.976 -9.749 25.976 -10.249 QT
25.976 -16.796 L
25.976 -17.718 25.625 -17.929 QT
25.273 -18.14 24.21 -18.14 QT
24.21 -18.984 L
27.664 -19.249 L
27.664 -10.249 L
27.664 -9.749 28.125 -9.617 QT
28.585 -9.484 29.351 -9.484 QT
29.351 -8.64 L
24.101 -8.64 L
cp
25.132 -23.374 M
25.132 -23.906 25.531 -24.304 QT
25.929 -24.703 26.445 -24.703 QT
26.773 -24.703 27.093 -24.523 QT
27.414 -24.343 27.585 -24.031 QT
27.757 -23.718 27.757 -23.374 QT
27.757 -22.859 27.359 -22.46 QT
26.96 -22.062 26.445 -22.062 QT
25.929 -22.062 25.531 -22.46 QT
25.132 -22.859 25.132 -23.374 QT
cp}def
f-901905976
f
GR
GS
[1 0 0 1 290.00027 31.99997] CT
N
/f1953041732{32.487 -11.531 M
32.487 -18.14 L
30.487 -18.14 L
30.487 -18.765 L
32.065 -18.765 32.799 -20.234 QT
33.533 -21.703 33.533 -23.406 QT
34.237 -23.406 L
34.237 -18.984 L
37.612 -18.984 L
37.612 -18.14 L
34.237 -18.14 L
34.237 -11.578 L
34.237 -10.578 34.565 -9.828 QT
34.893 -9.078 35.768 -9.078 QT
36.58 -9.078 36.947 -9.867 QT
37.315 -10.656 37.315 -11.578 QT
37.315 -12.984 L
38.002 -12.984 L
38.002 -11.531 L
38.002 -10.781 37.729 -10.046 QT
37.455 -9.312 36.916 -8.843 QT
36.377 -8.374 35.596 -8.374 QT
34.158 -8.374 33.322 -9.234 QT
32.487 -10.093 32.487 -11.531 QT
cp}def
f1953041732
f
GR
GS
[1 0 0 1 290.00027 31.99997] CT
N
/f109042420{40.356 -4.703 M
40.809 -4.343 41.356 -4.343 QT
42.872 -4.343 43.841 -6.624 QT
44.653 -8.64 L
41.059 -17.453 L
40.841 -17.906 40.38 -18.023 QT
39.919 -18.14 39.153 -18.14 QT
39.153 -18.984 L
44.2 -18.984 L
44.2 -18.14 L
42.872 -18.14 42.872 -17.578 QT
42.872 -17.484 42.903 -17.437 QT
45.575 -10.874 L
47.966 -16.781 L
48.044 -16.968 48.044 -17.187 QT
48.044 -17.484 47.888 -17.695 QT
47.731 -17.906 47.474 -18.023 QT
47.216 -18.14 46.903 -18.14 QT
46.903 -18.984 L
50.888 -18.984 L
50.888 -18.14 L
50.153 -18.14 49.599 -17.804 QT
49.044 -17.468 48.731 -16.796 QT
44.591 -6.624 L
44.263 -5.843 43.817 -5.195 QT
43.372 -4.546 42.739 -4.132 QT
42.106 -3.718 41.356 -3.718 QT
40.481 -3.718 39.817 -4.296 QT
39.153 -4.874 39.153 -5.734 QT
39.153 -6.171 39.458 -6.476 QT
39.763 -6.781 40.216 -6.781 QT
40.513 -6.781 40.755 -6.648 QT
40.997 -6.515 41.13 -6.281 QT
41.263 -6.046 41.263 -5.734 QT
41.263 -5.343 41.005 -5.039 QT
40.747 -4.734 40.356 -4.703 QT
cp}def
f109042420
f
GR
GS
0 0.447 0.741 RC
1 LJ
2.5 LW
N
102.272 224.012 M
112.101 237.157 L
121.93 170.647 L
131.76 219.829 L
141.589 145.673 L
151.742 199.078 L
161.571 129.578 L
171.401 194.439 L
181.338 199.462 L
191.275 227.716 L
200.997 173.935 L
210.826 228.242 L
220.763 186.329 L
230.7 195.257 L
240.422 185.826 L
250.251 201.215 L
260.188 157.76 L
270.125 168.347 L
279.847 178.722 L
289.676 168.064 L
299.613 158.829 L
309.443 187.534 L
319.272 181.851 L
329.101 192.057 L
338.93 219.418 L
349.084 209.193 L
358.481 188.335 L
368.418 216.423 L
378.571 218.777 L
388.509 182.465 L
398.23 174.67 L
408.059 158.434 L
417.997 218.337 L
427.934 231.064 L
437.655 185.954 L
447.484 219.877 L
457.422 227.922 L
467.359 250.466 L
477.188 175.666 L
487.017 188.653 L
496.955 227.414 L
506.784 216.43 L
S
GR
GS
0.769 0.306 0.322 RC
[1 3] 0 setdash
2 LJ
N
102.272 288.884 M
112.101 242.683 L
121.93 268.996 L
131.76 293.412 L
141.589 247.888 L
151.742 272.506 L
161.571 244.853 L
171.401 302.974 L
181.338 307.807 L
191.275 265.379 L
200.997 307.149 L
210.826 320.382 L
220.763 296.147 L
230.7 270.605 L
240.422 286.384 L
250.251 318.079 L
260.188 288.376 L
270.125 269.935 L
279.847 288.653 L
289.676 272.9 L
299.613 282.949 L
309.443 258.46 L
319.272 268.468 L
329.101 275.743 L
338.93 287.87 L
349.084 292.461 L
358.481 275.733 L
368.418 312.172 L
378.571 288.629 L
388.509 265.799 L
398.23 274.976 L
408.059 228.318 L
417.997 291.229 L
427.934 304.811 L
437.655 274.389 L
447.484 303.922 L
457.422 327.153 L
467.359 315.417 L
477.188 277.288 L
487.017 279.6 L
496.955 299.602 L
506.784 295.876 L
S
GR
GS
0.333 0.659 0.408 RC
[8 8] 0 setdash
2 LJ
2.5 LW
N
102.272 226.397 M
112.101 242.683 L
121.93 222.344 L
131.76 235.231 L
141.589 187.835 L
151.742 217.648 L
161.571 170.595 L
171.401 218.659 L
181.338 231.142 L
191.275 231.955 L
200.997 213.138 L
210.826 289.522 L
220.763 218.782 L
230.7 252.384 L
240.422 196.314 L
250.251 230.461 L
260.188 191.734 L
270.125 204.102 L
279.847 204.341 L
289.676 223.952 L
299.613 206.272 L
309.443 201.12 L
319.272 207.9 L
329.101 184.658 L
338.93 263.243 L
349.084 232.711 L
358.481 216.381 L
368.418 222.141 L
378.571 244.086 L
388.509 216.322 L
398.23 199.533 L
408.059 160.77 L
417.997 233.951 L
427.934 261.252 L
437.655 236.753 L
447.484 229.706 L
457.422 264.441 L
467.359 299.492 L
477.188 214.286 L
487.017 178.538 L
496.955 247.5 L
506.784 247.494 L
S
GR
GS
0.769 0.306 0.322 RC
[1 3] 0 setdash
2 LJ
N
102.272 218.669 M
112.101 238.565 L
121.93 137.579 L
131.76 152.349 L
141.589 119.744 L
151.742 179.2 L
161.571 45.554 L
171.401 144.475 L
181.338 138.932 L
191.275 210.67 L
200.997 112.543 L
210.826 176.25 L
220.763 138.899 L
230.7 143.142 L
240.422 119.573 L
250.251 158.992 L
260.188 93.717 L
270.125 84.734 L
279.847 112.828 L
289.676 83.242 L
299.613 90.848 L
309.443 117.45 L
319.272 106.95 L
329.101 144.122 L
338.93 170.156 L
349.084 189.368 L
358.481 127.893 L
368.418 182.277 L
378.571 189.835 L
388.509 132.643 L
398.23 133.324 L
408.059 129.918 L
417.997 163.248 L
427.934 217.038 L
437.655 121.143 L
447.484 167.334 L
457.422 169.734 L
467.359 210.428 L
477.188 118.97 L
487.017 142.216 L
496.955 182.484 L
506.784 203.81 L
S
GR
%%Trailer
%%Pages: 1
%%EOF
