%!PS-Adobe-3.0 EPSF-3.0
%%Creator: (MATLAB, The Mathworks, Inc. Version 9.7.0.1216025 \(R2019b\) Update 1. Operating System: Mac OS X)
%%Title: (../../results/TF_IDF/summarization/baseline/Figures/Copula/Over Time/Alpha.eps)
%%CreationDate: 2020-03-05T13:56:57
%%Pages: (atend)
%%BoundingBox:    86     6   870   244
%%LanguageLevel: 3
%%EndComments
%%BeginProlog
%%BeginResource: procset (Apache XML Graphics Std ProcSet) 1.2 0
%%Version: 1.2 0
%%Copyright: (Copyright 2001-2003,2010 The Apache Software Foundation. License terms: http://www.apache.org/licenses/LICENSE-2.0)
/bd{bind def}bind def
/ld{load def}bd
/GR/grestore ld
/GS/gsave ld
/RM/rmoveto ld
/C/curveto ld
/t/show ld
/L/lineto ld
/ML/setmiterlimit ld
/CT/concat ld
/f/fill ld
/N/newpath ld
/S/stroke ld
/CC/setcmykcolor ld
/A/ashow ld
/cp/closepath ld
/RC/setrgbcolor ld
/LJ/setlinejoin ld
/GC/setgray ld
/LW/setlinewidth ld
/M/moveto ld
/re {4 2 roll M
1 index 0 rlineto
0 exch rlineto
neg 0 rlineto
cp } bd
/_ctm matrix def
/_tm matrix def
/BT { _ctm currentmatrix pop matrix _tm copy pop 0 0 moveto } bd
/ET { _ctm setmatrix } bd
/iTm { _ctm setmatrix _tm concat } bd
/Tm { _tm astore pop iTm 0 0 moveto } bd
/ux 0.0 def
/uy 0.0 def
/F {
  /Tp exch def
  /Tf exch def
  Tf findfont Tp scalefont setfont
  /cf Tf def  /cs Tp def
} bd
/ULS {currentpoint /uy exch def /ux exch def} bd
/ULE {
  /Tcx currentpoint pop def
  gsave
  newpath
  cf findfont cs scalefont dup
  /FontMatrix get 0 get /Ts exch def /FontInfo get dup
  /UnderlinePosition get Ts mul /To exch def
  /UnderlineThickness get Ts mul /Tt exch def
  ux uy To add moveto  Tcx uy To add lineto
  Tt setlinewidth stroke
  grestore
} bd
/OLE {
  /Tcx currentpoint pop def
  gsave
  newpath
  cf findfont cs scalefont dup
  /FontMatrix get 0 get /Ts exch def /FontInfo get dup
  /UnderlinePosition get Ts mul /To exch def
  /UnderlineThickness get Ts mul /Tt exch def
  ux uy To add cs add moveto Tcx uy To add cs add lineto
  Tt setlinewidth stroke
  grestore
} bd
/SOE {
  /Tcx currentpoint pop def
  gsave
  newpath
  cf findfont cs scalefont dup
  /FontMatrix get 0 get /Ts exch def /FontInfo get dup
  /UnderlinePosition get Ts mul /To exch def
  /UnderlineThickness get Ts mul /Tt exch def
  ux uy To add cs 10 mul 26 idiv add moveto Tcx uy To add cs 10 mul 26 idiv add lineto
  Tt setlinewidth stroke
  grestore
} bd
/QT {
/Y22 exch store
/X22 exch store
/Y21 exch store
/X21 exch store
currentpoint
/Y21 load 2 mul add 3 div exch
/X21 load 2 mul add 3 div exch
/X21 load 2 mul /X22 load add 3 div
/Y21 load 2 mul /Y22 load add 3 div
/X22 load /Y22 load curveto
} bd
/SSPD {
dup length /d exch dict def
{
/v exch def
/k exch def
currentpagedevice k known {
/cpdv currentpagedevice k get def
v cpdv ne {
/upd false def
/nullv v type /nulltype eq def
/nullcpdv cpdv type /nulltype eq def
nullv nullcpdv or
{
/upd true def
} {
/sametype v type cpdv type eq def
sametype {
v type /arraytype eq {
/vlen v length def
/cpdvlen cpdv length def
vlen cpdvlen eq {
0 1 vlen 1 sub {
/i exch def
/obj v i get def
/cpdobj cpdv i get def
obj cpdobj ne {
/upd true def
exit
} if
} for
} {
/upd true def
} ifelse
} {
v type /dicttype eq {
v {
/dv exch def
/dk exch def
/cpddv cpdv dk get def
dv cpddv ne {
/upd true def
exit
} if
} forall
} {
/upd true def
} ifelse
} ifelse
} if
} ifelse
upd true eq {
d k v put
} if
} if
} if
} forall
d length 0 gt {
d setpagedevice
} if
} bd
/RE { % /NewFontName [NewEncodingArray] /FontName RE -
  findfont dup length dict begin
  {
    1 index /FID ne
    {def} {pop pop} ifelse
  } forall
  /Encoding exch def
  /FontName 1 index def
  currentdict definefont pop
  end
} bind def
%%EndResource
%%BeginResource: procset (Apache XML Graphics EPS ProcSet) 1.0 0
%%Version: 1.0 0
%%Copyright: (Copyright 2002-2003 The Apache Software Foundation. License terms: http://www.apache.org/licenses/LICENSE-2.0)
/BeginEPSF { %def
/b4_Inc_state save def         % Save state for cleanup
/dict_count countdictstack def % Count objects on dict stack
/op_count count 1 sub def      % Count objects on operand stack
userdict begin                 % Push userdict on dict stack
/showpage { } def              % Redefine showpage, { } = null proc
0 setgray 0 setlinecap         % Prepare graphics state
1 setlinewidth 0 setlinejoin
10 setmiterlimit [ ] 0 setdash newpath
/languagelevel where           % If level not equal to 1 then
{pop languagelevel             % set strokeadjust and
1 ne                           % overprint to their defaults.
{false setstrokeadjust false setoverprint
} if
} if
} bd
/EndEPSF { %def
count op_count sub {pop} repeat            % Clean up stacks
countdictstack dict_count sub {end} repeat
b4_Inc_state restore
} bd
%%EndResource
%FOPBeginFontDict
%%IncludeResource: font Courier-Oblique
%%IncludeResource: font Courier-BoldOblique
%%IncludeResource: font Courier-Bold
%%IncludeResource: font ZapfDingbats
%%IncludeResource: font Symbol
%%IncludeResource: font Helvetica
%%IncludeResource: font Helvetica-Oblique
%%IncludeResource: font Helvetica-Bold
%%IncludeResource: font Helvetica-BoldOblique
%%IncludeResource: font Times-Roman
%%IncludeResource: font Times-Italic
%%IncludeResource: font Times-Bold
%%IncludeResource: font Times-BoldItalic
%%IncludeResource: font Courier
%FOPEndFontDict
%%BeginResource: encoding WinAnsiEncoding
/WinAnsiEncoding [
/.notdef /.notdef /.notdef /.notdef /.notdef
/.notdef /.notdef /.notdef /.notdef /.notdef
/.notdef /.notdef /.notdef /.notdef /.notdef
/.notdef /.notdef /.notdef /.notdef /.notdef
/.notdef /.notdef /.notdef /.notdef /.notdef
/.notdef /.notdef /.notdef /.notdef /.notdef
/.notdef /.notdef /space /exclam /quotedbl
/numbersign /dollar /percent /ampersand /quotesingle
/parenleft /parenright /asterisk /plus /comma
/hyphen /period /slash /zero /one
/two /three /four /five /six
/seven /eight /nine /colon /semicolon
/less /equal /greater /question /at
/A /B /C /D /E
/F /G /H /I /J
/K /L /M /N /O
/P /Q /R /S /T
/U /V /W /X /Y
/Z /bracketleft /backslash /bracketright /asciicircum
/underscore /quoteleft /a /b /c
/d /e /f /g /h
/i /j /k /l /m
/n /o /p /q /r
/s /t /u /v /w
/x /y /z /braceleft /bar
/braceright /asciitilde /bullet /Euro /bullet
/quotesinglbase /florin /quotedblbase /ellipsis /dagger
/daggerdbl /circumflex /perthousand /Scaron /guilsinglleft
/OE /bullet /Zcaron /bullet /bullet
/quoteleft /quoteright /quotedblleft /quotedblright /bullet
/endash /emdash /asciitilde /trademark /scaron
/guilsinglright /oe /bullet /zcaron /Ydieresis
/space /exclamdown /cent /sterling /currency
/yen /brokenbar /section /dieresis /copyright
/ordfeminine /guillemotleft /logicalnot /sfthyphen /registered
/macron /degree /plusminus /twosuperior /threesuperior
/acute /mu /paragraph /middot /cedilla
/onesuperior /ordmasculine /guillemotright /onequarter /onehalf
/threequarters /questiondown /Agrave /Aacute /Acircumflex
/Atilde /Adieresis /Aring /AE /Ccedilla
/Egrave /Eacute /Ecircumflex /Edieresis /Igrave
/Iacute /Icircumflex /Idieresis /Eth /Ntilde
/Ograve /Oacute /Ocircumflex /Otilde /Odieresis
/multiply /Oslash /Ugrave /Uacute /Ucircumflex
/Udieresis /Yacute /Thorn /germandbls /agrave
/aacute /acircumflex /atilde /adieresis /aring
/ae /ccedilla /egrave /eacute /ecircumflex
/edieresis /igrave /iacute /icircumflex /idieresis
/eth /ntilde /ograve /oacute /ocircumflex
/otilde /odieresis /divide /oslash /ugrave
/uacute /ucircumflex /udieresis /yacute /thorn
/ydieresis
] def
%%EndResource
%FOPBeginFontReencode
/Courier-Oblique findfont
dup length dict begin
  {1 index /FID ne {def} {pop pop} ifelse} forall
  /Encoding WinAnsiEncoding def
  currentdict
end
/Courier-Oblique exch definefont pop
/Courier-BoldOblique findfont
dup length dict begin
  {1 index /FID ne {def} {pop pop} ifelse} forall
  /Encoding WinAnsiEncoding def
  currentdict
end
/Courier-BoldOblique exch definefont pop
/Courier-Bold findfont
dup length dict begin
  {1 index /FID ne {def} {pop pop} ifelse} forall
  /Encoding WinAnsiEncoding def
  currentdict
end
/Courier-Bold exch definefont pop
/Helvetica findfont
dup length dict begin
  {1 index /FID ne {def} {pop pop} ifelse} forall
  /Encoding WinAnsiEncoding def
  currentdict
end
/Helvetica exch definefont pop
/Helvetica-Oblique findfont
dup length dict begin
  {1 index /FID ne {def} {pop pop} ifelse} forall
  /Encoding WinAnsiEncoding def
  currentdict
end
/Helvetica-Oblique exch definefont pop
/Helvetica-Bold findfont
dup length dict begin
  {1 index /FID ne {def} {pop pop} ifelse} forall
  /Encoding WinAnsiEncoding def
  currentdict
end
/Helvetica-Bold exch definefont pop
/Helvetica-BoldOblique findfont
dup length dict begin
  {1 index /FID ne {def} {pop pop} ifelse} forall
  /Encoding WinAnsiEncoding def
  currentdict
end
/Helvetica-BoldOblique exch definefont pop
/Times-Roman findfont
dup length dict begin
  {1 index /FID ne {def} {pop pop} ifelse} forall
  /Encoding WinAnsiEncoding def
  currentdict
end
/Times-Roman exch definefont pop
/Times-Italic findfont
dup length dict begin
  {1 index /FID ne {def} {pop pop} ifelse} forall
  /Encoding WinAnsiEncoding def
  currentdict
end
/Times-Italic exch definefont pop
/Times-Bold findfont
dup length dict begin
  {1 index /FID ne {def} {pop pop} ifelse} forall
  /Encoding WinAnsiEncoding def
  currentdict
end
/Times-Bold exch definefont pop
/Times-BoldItalic findfont
dup length dict begin
  {1 index /FID ne {def} {pop pop} ifelse} forall
  /Encoding WinAnsiEncoding def
  currentdict
end
/Times-BoldItalic exch definefont pop
/Courier findfont
dup length dict begin
  {1 index /FID ne {def} {pop pop} ifelse} forall
  /Encoding WinAnsiEncoding def
  currentdict
end
/Courier exch definefont pop
%FOPEndFontReencode
%%EndProlog
%%Page: 1 1
%%PageBoundingBox: 0 0 960 250
%%BeginPageSetup
[1 0 0 -1 0 250] CT
%%EndPageSetup
GS
1 GC
N
0 0 960 250 re
f
GR
GS
1 GC
N
0 0 960 250 re
f
GR
GS
1 GC
N
125 220 M
329.5 220 L
329.5 35 L
125 35 L
cp
f
GR
GS
0.149 GC
2 setlinecap
1 LJ
0.5 LW
N
125 220 M
329.5 220 L
S
GR
GS
0.149 GC
2 setlinecap
1 LJ
0.5 LW
N
125 35 M
329.5 35 L
S
GR
GS
0.149 GC
2 setlinecap
1 LJ
0.5 LW
N
125 220 M
125 217.955 L
S
GR
GS
0.149 GC
2 setlinecap
1 LJ
0.5 LW
N
180.782 220 M
180.782 217.955 L
S
GR
GS
0.149 GC
2 setlinecap
1 LJ
0.5 LW
N
236.513 220 M
236.513 217.955 L
S
GR
GS
0.149 GC
2 setlinecap
1 LJ
0.5 LW
N
292.295 220 M
292.295 217.955 L
S
GR
GS
0.149 GC
2 setlinecap
1 LJ
0.5 LW
N
125 35 M
125 37.045 L
S
GR
GS
0.149 GC
2 setlinecap
1 LJ
0.5 LW
N
180.782 35 M
180.782 37.045 L
S
GR
GS
0.149 GC
2 setlinecap
1 LJ
0.5 LW
N
236.513 35 M
236.513 37.045 L
S
GR
GS
0.149 GC
2 setlinecap
1 LJ
0.5 LW
N
292.295 35 M
292.295 37.045 L
S
GR
GS
[1 0 0 1 125 226] CT
0.149 GC
N
-19 16.8 M
-19 16.269 L
-19 16.206 -18.969 16.159 QT
-15.859 12.722 L
-15.156 11.956 -14.719 11.441 QT
-14.281 10.925 -13.852 10.245 QT
-13.422 9.566 -13.172 8.87 QT
-12.922 8.175 -12.922 7.394 QT
-12.922 6.581 -13.227 5.831 QT
-13.531 5.081 -14.125 4.628 QT
-14.719 4.175 -15.578 4.175 QT
-16.438 4.175 -17.133 4.698 QT
-17.828 5.222 -18.109 6.05 QT
-18.031 6.034 -17.906 6.034 QT
-17.453 6.034 -17.133 6.339 QT
-16.813 6.644 -16.813 7.128 QT
-16.813 7.581 -17.133 7.901 QT
-17.453 8.222 -17.906 8.222 QT
-18.375 8.222 -18.688 7.894 QT
-19 7.566 -19 7.128 QT
-19 6.362 -18.719 5.706 QT
-18.438 5.05 -17.906 4.534 QT
-17.375 4.019 -16.703 3.745 QT
-16.031 3.472 -15.281 3.472 QT
-14.141 3.472 -13.156 3.956 QT
-12.172 4.441 -11.594 5.323 QT
-11.016 6.206 -11.016 7.394 QT
-11.016 8.269 -11.398 9.05 QT
-11.781 9.831 -12.375 10.472 QT
-12.969 11.112 -13.898 11.917 QT
-14.828 12.722 -15.109 13.003 QT
-17.375 15.175 L
-15.453 15.175 L
-14.047 15.175 -13.094 15.151 QT
-12.141 15.128 -12.078 15.081 QT
-11.844 14.831 -11.594 13.237 QT
-11.016 13.237 L
-11.578 16.8 L
-19 16.8 L
cp
f
GR
GS
[1 0 0 1 125 226] CT
0.149 GC
N
-5 17.237 M
-7.453 17.237 -8.336 15.222 QT
-9.219 13.206 -9.219 10.425 QT
-9.219 8.691 -8.898 7.151 QT
-8.578 5.612 -7.641 4.542 QT
-6.703 3.472 -5 3.472 QT
-3.688 3.472 -2.844 4.12 QT
-2 4.769 -1.563 5.792 QT
-1.125 6.816 -0.961 7.98 QT
-0.797 9.144 -0.797 10.425 QT
-0.797 12.144 -1.117 13.644 QT
-1.438 15.144 -2.367 16.191 QT
-3.297 17.237 -5 17.237 QT
cp
-5 16.722 M
-3.891 16.722 -3.344 15.581 QT
-2.797 14.441 -2.664 13.05 QT
-2.531 11.659 -2.531 10.097 QT
-2.531 8.597 -2.664 7.323 QT
-2.797 6.05 -3.336 5.026 QT
-3.875 4.003 -5 4.003 QT
-6.125 4.003 -6.672 5.034 QT
-7.219 6.066 -7.352 7.331 QT
-7.484 8.597 -7.484 10.097 QT
-7.484 11.206 -7.43 12.198 QT
-7.375 13.191 -7.141 14.237 QT
-6.906 15.284 -6.383 16.003 QT
-5.859 16.722 -5 16.722 QT
cp
f
GR
GS
[1 0 0 1 125 226] CT
0.149 GC
N
5 17.237 M
2.547 17.237 1.664 15.222 QT
0.781 13.206 0.781 10.425 QT
0.781 8.691 1.102 7.151 QT
1.422 5.612 2.359 4.542 QT
3.297 3.472 5 3.472 QT
6.313 3.472 7.156 4.12 QT
8 4.769 8.438 5.792 QT
8.875 6.816 9.039 7.98 QT
9.203 9.144 9.203 10.425 QT
9.203 12.144 8.883 13.644 QT
8.563 15.144 7.633 16.191 QT
6.703 17.237 5 17.237 QT
cp
5 16.722 M
6.109 16.722 6.656 15.581 QT
7.203 14.441 7.336 13.05 QT
7.469 11.659 7.469 10.097 QT
7.469 8.597 7.336 7.323 QT
7.203 6.05 6.664 5.026 QT
6.125 4.003 5 4.003 QT
3.875 4.003 3.328 5.034 QT
2.781 6.066 2.648 7.331 QT
2.516 8.597 2.516 10.097 QT
2.516 11.206 2.57 12.198 QT
2.625 13.191 2.859 14.237 QT
3.094 15.284 3.617 16.003 QT
4.141 16.722 5 16.722 QT
cp
f
GR
GS
[1 0 0 1 125 226] CT
0.149 GC
N
15 17.237 M
13.766 17.237 12.93 16.581 QT
12.094 15.925 11.641 14.87 QT
11.188 13.816 11.016 12.667 QT
10.844 11.519 10.844 10.331 QT
10.844 8.753 11.461 7.159 QT
12.078 5.566 13.273 4.519 QT
14.469 3.472 16.109 3.472 QT
16.781 3.472 17.375 3.737 QT
17.969 4.003 18.305 4.503 QT
18.641 5.003 18.641 5.722 QT
18.641 6.128 18.367 6.401 QT
18.094 6.675 17.672 6.675 QT
17.281 6.675 17 6.394 QT
16.719 6.112 16.719 5.722 QT
16.719 5.331 17 5.042 QT
17.281 4.753 17.672 4.753 QT
17.781 4.753 L
17.531 4.394 17.07 4.222 QT
16.609 4.05 16.109 4.05 QT
15.5 4.05 14.984 4.316 QT
14.469 4.581 14.063 5.034 QT
13.656 5.487 13.383 6.026 QT
13.109 6.566 12.953 7.261 QT
12.797 7.956 12.758 8.558 QT
12.719 9.159 12.719 10.081 QT
13.078 9.253 13.719 8.737 QT
14.359 8.222 15.172 8.222 QT
16.063 8.222 16.797 8.581 QT
17.531 8.941 18.055 9.581 QT
18.578 10.222 18.859 11.042 QT
19.141 11.862 19.141 12.691 QT
19.141 13.862 18.617 14.925 QT
18.094 15.987 17.148 16.612 QT
16.203 17.237 15 17.237 QT
cp
15 16.597 M
15.766 16.597 16.234 16.245 QT
16.703 15.894 16.93 15.316 QT
17.156 14.737 17.203 14.144 QT
17.25 13.55 17.25 12.691 QT
17.25 11.566 17.148 10.761 QT
17.047 9.956 16.563 9.347 QT
16.078 8.737 15.094 8.737 QT
14.281 8.737 13.766 9.284 QT
13.25 9.831 13.008 10.667 QT
12.766 11.503 12.766 12.284 QT
12.766 12.534 12.781 12.675 QT
12.781 12.706 12.781 12.73 QT
12.781 12.753 12.766 12.769 QT
12.766 13.628 12.938 14.511 QT
13.109 15.394 13.609 15.995 QT
14.109 16.597 15 16.597 QT
cp
f
GR
GS
[1 0 0 1 180.78198 226] CT
0.149 GC
N
/f-1171549265{-19 16.8 M
-19 16.269 L
-19 16.206 -18.969 16.159 QT
-15.859 12.722 L
-15.156 11.956 -14.719 11.441 QT
-14.281 10.925 -13.852 10.245 QT
-13.422 9.566 -13.172 8.87 QT
-12.922 8.175 -12.922 7.394 QT
-12.922 6.581 -13.227 5.831 QT
-13.531 5.081 -14.125 4.628 QT
-14.719 4.175 -15.578 4.175 QT
-16.438 4.175 -17.133 4.698 QT
-17.828 5.222 -18.109 6.05 QT
-18.031 6.034 -17.906 6.034 QT
-17.453 6.034 -17.133 6.339 QT
-16.813 6.644 -16.813 7.128 QT
-16.813 7.581 -17.133 7.901 QT
-17.453 8.222 -17.906 8.222 QT
-18.375 8.222 -18.688 7.894 QT
-19 7.566 -19 7.128 QT
-19 6.362 -18.719 5.706 QT
-18.438 5.05 -17.906 4.534 QT
-17.375 4.019 -16.703 3.745 QT
-16.031 3.472 -15.281 3.472 QT
-14.141 3.472 -13.156 3.956 QT
-12.172 4.441 -11.594 5.323 QT
-11.016 6.206 -11.016 7.394 QT
-11.016 8.269 -11.398 9.05 QT
-11.781 9.831 -12.375 10.472 QT
-12.969 11.112 -13.898 11.917 QT
-14.828 12.722 -15.109 13.003 QT
-17.375 15.175 L
-15.453 15.175 L
-14.047 15.175 -13.094 15.151 QT
-12.141 15.128 -12.078 15.081 QT
-11.844 14.831 -11.594 13.237 QT
-11.016 13.237 L
-11.578 16.8 L
-19 16.8 L
cp}def
f-1171549265
f
GR
GS
[1 0 0 1 180.78198 226] CT
0.149 GC
N
/f-2084610355{-5 17.237 M
-7.453 17.237 -8.336 15.222 QT
-9.219 13.206 -9.219 10.425 QT
-9.219 8.691 -8.898 7.151 QT
-8.578 5.612 -7.641 4.542 QT
-6.703 3.472 -5 3.472 QT
-3.688 3.472 -2.844 4.12 QT
-2 4.769 -1.563 5.792 QT
-1.125 6.816 -0.961 7.98 QT
-0.797 9.144 -0.797 10.425 QT
-0.797 12.144 -1.117 13.644 QT
-1.438 15.144 -2.367 16.191 QT
-3.297 17.237 -5 17.237 QT
cp
-5 16.722 M
-3.891 16.722 -3.344 15.581 QT
-2.797 14.441 -2.664 13.05 QT
-2.531 11.659 -2.531 10.097 QT
-2.531 8.597 -2.664 7.323 QT
-2.797 6.05 -3.336 5.026 QT
-3.875 4.003 -5 4.003 QT
-6.125 4.003 -6.672 5.034 QT
-7.219 6.066 -7.352 7.331 QT
-7.484 8.597 -7.484 10.097 QT
-7.484 11.206 -7.43 12.198 QT
-7.375 13.191 -7.141 14.237 QT
-6.906 15.284 -6.383 16.003 QT
-5.859 16.722 -5 16.722 QT
cp}def
f-2084610355
f
GR
GS
[1 0 0 1 180.78198 226] CT
0.149 GC
N
/f1017945436{5 17.237 M
2.547 17.237 1.664 15.222 QT
0.781 13.206 0.781 10.425 QT
0.781 8.691 1.102 7.151 QT
1.422 5.612 2.359 4.542 QT
3.297 3.472 5 3.472 QT
6.313 3.472 7.156 4.12 QT
8 4.769 8.438 5.792 QT
8.875 6.816 9.039 7.98 QT
9.203 9.144 9.203 10.425 QT
9.203 12.144 8.883 13.644 QT
8.563 15.144 7.633 16.191 QT
6.703 17.237 5 17.237 QT
cp
5 16.722 M
6.109 16.722 6.656 15.581 QT
7.203 14.441 7.336 13.05 QT
7.469 11.659 7.469 10.097 QT
7.469 8.597 7.336 7.323 QT
7.203 6.05 6.664 5.026 QT
6.125 4.003 5 4.003 QT
3.875 4.003 3.328 5.034 QT
2.781 6.066 2.648 7.331 QT
2.516 8.597 2.516 10.097 QT
2.516 11.206 2.57 12.198 QT
2.625 13.191 2.859 14.237 QT
3.094 15.284 3.617 16.003 QT
4.141 16.722 5 16.722 QT
cp}def
f1017945436
f
GR
GS
[1 0 0 1 180.78198 226] CT
0.149 GC
N
/f1350078856{12.25 15.956 M
12.797 16.597 14.156 16.597 QT
14.922 16.597 15.578 16.081 QT
16.234 15.566 16.609 14.816 QT
17.016 13.972 17.133 13.011 QT
17.25 12.05 17.25 10.612 QT
16.922 11.425 16.281 11.941 QT
15.641 12.456 14.813 12.456 QT
13.641 12.456 12.727 11.831 QT
11.813 11.206 11.328 10.175 QT
10.844 9.144 10.844 7.987 QT
10.844 6.784 11.391 5.745 QT
11.938 4.706 12.906 4.089 QT
13.875 3.472 15.094 3.472 QT
16.313 3.472 17.125 4.136 QT
17.938 4.8 18.367 5.839 QT
18.797 6.878 18.969 8.042 QT
19.141 9.206 19.141 10.331 QT
19.141 11.878 18.578 13.487 QT
18.016 15.097 16.883 16.167 QT
15.75 17.237 14.156 17.237 QT
12.984 17.237 12.164 16.683 QT
11.344 16.128 11.344 15.003 QT
11.344 14.597 11.617 14.316 QT
11.891 14.034 12.313 14.034 QT
12.703 14.034 12.984 14.316 QT
13.266 14.597 13.266 15.003 QT
13.266 15.394 12.984 15.675 QT
12.703 15.956 12.313 15.956 QT
12.25 15.956 L
cp
14.891 11.941 M
15.703 11.941 16.227 11.386 QT
16.75 10.831 16.984 10.011 QT
17.219 9.191 17.219 8.378 QT
17.219 8.003 L
17.219 7.925 L
17.219 6.425 16.781 5.237 QT
16.344 4.05 15.094 4.05 QT
14.313 4.05 13.82 4.401 QT
13.328 4.753 13.094 5.323 QT
12.859 5.894 12.789 6.55 QT
12.719 7.206 12.719 7.987 QT
12.719 9.112 12.828 9.917 QT
12.938 10.722 13.414 11.331 QT
13.891 11.941 14.891 11.941 QT
cp}def
f1350078856
f
GR
GS
[1 0 0 1 236.51306 226] CT
0.149 GC
N
f-1171549265
f
GR
GS
[1 0 0 1 236.51306 226] CT
0.149 GC
N
f-2084610355
f
GR
GS
[1 0 0 1 236.51306 226] CT
0.149 GC
N
/f-192727431{1.859 16.8 M
1.859 16.097 L
4.359 16.097 4.359 15.456 QT
4.359 4.956 L
3.328 5.456 1.734 5.456 QT
1.734 4.753 L
4.188 4.753 5.438 3.472 QT
5.719 3.472 L
5.797 3.472 5.859 3.526 QT
5.922 3.581 5.922 3.659 QT
5.922 15.456 L
5.922 16.097 8.422 16.097 QT
8.422 16.8 L
1.859 16.8 L
cp}def
f-192727431
f
GR
GS
[1 0 0 1 236.51306 226] CT
0.149 GC
N
/f110075864{11 16.8 M
11 16.269 L
11 16.206 11.031 16.159 QT
14.141 12.722 L
14.844 11.956 15.281 11.441 QT
15.719 10.925 16.148 10.245 QT
16.578 9.566 16.828 8.87 QT
17.078 8.175 17.078 7.394 QT
17.078 6.581 16.773 5.831 QT
16.469 5.081 15.875 4.628 QT
15.281 4.175 14.422 4.175 QT
13.563 4.175 12.867 4.698 QT
12.172 5.222 11.891 6.05 QT
11.969 6.034 12.094 6.034 QT
12.547 6.034 12.867 6.339 QT
13.188 6.644 13.188 7.128 QT
13.188 7.581 12.867 7.901 QT
12.547 8.222 12.094 8.222 QT
11.625 8.222 11.313 7.894 QT
11 7.566 11 7.128 QT
11 6.362 11.281 5.706 QT
11.563 5.05 12.094 4.534 QT
12.625 4.019 13.297 3.745 QT
13.969 3.472 14.719 3.472 QT
15.859 3.472 16.844 3.956 QT
17.828 4.441 18.406 5.323 QT
18.984 6.206 18.984 7.394 QT
18.984 8.269 18.602 9.05 QT
18.219 9.831 17.625 10.472 QT
17.031 11.112 16.102 11.917 QT
15.172 12.722 14.891 13.003 QT
12.625 15.175 L
14.547 15.175 L
15.953 15.175 16.906 15.151 QT
17.859 15.128 17.922 15.081 QT
18.156 14.831 18.406 13.237 QT
18.984 13.237 L
18.422 16.8 L
11 16.8 L
cp}def
f110075864
f
GR
GS
[1 0 0 1 292.29504 226] CT
0.149 GC
N
f-1171549265
f
GR
GS
[1 0 0 1 292.29504 226] CT
0.149 GC
N
f-2084610355
f
GR
GS
[1 0 0 1 292.29504 226] CT
0.149 GC
N
f-192727431
f
GR
GS
[1 0 0 1 292.29504 226] CT
0.149 GC
N
/f1622268850{11.734 14.519 M
11.938 15.112 12.367 15.589 QT
12.797 16.066 13.375 16.331 QT
13.953 16.597 14.578 16.597 QT
16.031 16.597 16.578 15.48 QT
17.125 14.362 17.125 12.753 QT
17.125 12.066 17.102 11.589 QT
17.078 11.112 16.969 10.675 QT
16.781 9.972 16.313 9.448 QT
15.844 8.925 15.172 8.925 QT
14.5 8.925 14.016 9.128 QT
13.531 9.331 13.234 9.605 QT
12.938 9.878 12.703 10.183 QT
12.469 10.487 12.406 10.503 QT
12.172 10.503 L
12.125 10.503 12.055 10.441 QT
11.984 10.378 11.984 10.316 QT
11.984 3.628 L
11.984 3.581 12.047 3.526 QT
12.109 3.472 12.172 3.472 QT
12.234 3.472 L
13.578 4.128 15.094 4.128 QT
16.578 4.128 17.953 3.472 QT
18.016 3.472 L
18.094 3.472 18.148 3.526 QT
18.203 3.581 18.203 3.628 QT
18.203 3.816 L
18.203 3.925 18.172 3.925 QT
17.484 4.831 16.453 5.339 QT
15.422 5.847 14.313 5.847 QT
13.516 5.847 12.672 5.612 QT
12.672 9.394 L
13.344 8.862 13.867 8.628 QT
14.391 8.394 15.203 8.394 QT
16.297 8.394 17.172 9.034 QT
18.047 9.675 18.516 10.691 QT
18.984 11.706 18.984 12.769 QT
18.984 13.972 18.391 15.003 QT
17.797 16.034 16.781 16.636 QT
15.766 17.237 14.578 17.237 QT
13.594 17.237 12.766 16.73 QT
11.938 16.222 11.469 15.362 QT
11 14.503 11 13.534 QT
11 13.081 11.289 12.8 QT
11.578 12.519 12.016 12.519 QT
12.469 12.519 12.766 12.808 QT
13.063 13.097 13.063 13.534 QT
13.063 13.972 12.766 14.269 QT
12.469 14.566 12.016 14.566 QT
11.953 14.566 11.867 14.55 QT
11.781 14.534 11.734 14.519 QT
cp}def
f1622268850
f
GR
GS
0.149 GC
2 setlinecap
1 LJ
0.5 LW
N
125 220 M
125 35 L
S
GR
GS
0.149 GC
2 setlinecap
1 LJ
0.5 LW
N
329.5 220 M
329.5 35 L
S
GR
GS
0.149 GC
2 setlinecap
1 LJ
0.5 LW
N
125 205.011 M
127.045 205.011 L
S
GR
GS
0.149 GC
2 setlinecap
1 LJ
0.5 LW
N
125 148.341 M
127.045 148.341 L
S
GR
GS
0.149 GC
2 setlinecap
1 LJ
0.5 LW
N
125 91.67 M
127.045 91.67 L
S
GR
GS
0.149 GC
2 setlinecap
1 LJ
0.5 LW
N
125 35 M
127.045 35 L
S
GR
GS
0.149 GC
2 setlinecap
1 LJ
0.5 LW
N
329.5 205.011 M
327.455 205.011 L
S
GR
GS
0.149 GC
2 setlinecap
1 LJ
0.5 LW
N
329.5 148.341 M
327.455 148.341 L
S
GR
GS
0.149 GC
2 setlinecap
1 LJ
0.5 LW
N
329.5 91.67 M
327.455 91.67 L
S
GR
GS
0.149 GC
2 setlinecap
1 LJ
0.5 LW
N
329.5 35 M
327.455 35 L
S
GR
GS
[1 0 0 1 119 205.01146] CT
0.149 GC
N
/f1082904893{-32.004 1.097 M
-32.004 -0.138 L
-26.707 -0.138 L
-26.707 1.097 L
-32.004 1.097 L
cp}def
f1082904893
f
GR
GS
[1 0 0 1 119 205.01146] CT
0.149 GC
N
/f208961070{-20.556 5.237 M
-23.009 5.237 -23.892 3.222 QT
-24.774 1.206 -24.774 -1.575 QT
-24.774 -3.309 -24.454 -4.849 QT
-24.134 -6.388 -23.196 -7.458 QT
-22.259 -8.528 -20.556 -8.528 QT
-19.243 -8.528 -18.399 -7.88 QT
-17.556 -7.231 -17.118 -6.208 QT
-16.681 -5.184 -16.517 -4.02 QT
-16.353 -2.856 -16.353 -1.575 QT
-16.353 0.144 -16.673 1.644 QT
-16.993 3.144 -17.923 4.191 QT
-18.853 5.237 -20.556 5.237 QT
cp
-20.556 4.722 M
-19.446 4.722 -18.899 3.581 QT
-18.353 2.441 -18.22 1.05 QT
-18.087 -0.341 -18.087 -1.903 QT
-18.087 -3.403 -18.22 -4.677 QT
-18.353 -5.95 -18.892 -6.974 QT
-19.431 -7.997 -20.556 -7.997 QT
-21.681 -7.997 -22.228 -6.966 QT
-22.774 -5.934 -22.907 -4.669 QT
-23.04 -3.403 -23.04 -1.903 QT
-23.04 -0.794 -22.985 0.198 QT
-22.931 1.191 -22.696 2.237 QT
-22.462 3.284 -21.938 4.003 QT
-21.415 4.722 -20.556 4.722 QT
cp}def
f208961070
f
GR
GS
[1 0 0 1 119 205.01146] CT
0.149 GC
N
/f-943732550{-13.868 3.691 M
-13.868 3.253 -13.54 2.925 QT
-13.212 2.597 -12.774 2.597 QT
-12.493 2.597 -12.235 2.745 QT
-11.977 2.894 -11.829 3.159 QT
-11.681 3.425 -11.681 3.691 QT
-11.681 4.128 -12.001 4.464 QT
-12.321 4.8 -12.774 4.8 QT
-13.212 4.8 -13.54 4.464 QT
-13.868 4.128 -13.868 3.691 QT
cp}def
f-943732550
f
GR
GS
[1 0 0 1 119 205.01146] CT
0.149 GC
N
/f1667698322{-8.141 4.8 M
-8.141 4.097 L
-5.641 4.097 -5.641 3.456 QT
-5.641 -7.044 L
-6.672 -6.544 -8.266 -6.544 QT
-8.266 -7.247 L
-5.813 -7.247 -4.563 -8.528 QT
-4.281 -8.528 L
-4.203 -8.528 -4.141 -8.474 QT
-4.078 -8.419 -4.078 -8.341 QT
-4.078 3.456 L
-4.078 4.097 -1.578 4.097 QT
-1.578 4.8 L
-8.141 4.8 L
cp}def
f1667698322
f
GR
GS
[1 0 0 1 119 148.34097] CT
0.149 GC
N
/f-259944110{-5 5.237 M
-7.453 5.237 -8.336 3.222 QT
-9.219 1.206 -9.219 -1.575 QT
-9.219 -3.309 -8.898 -4.849 QT
-8.578 -6.388 -7.641 -7.458 QT
-6.703 -8.528 -5 -8.528 QT
-3.688 -8.528 -2.844 -7.88 QT
-2 -7.231 -1.563 -6.208 QT
-1.125 -5.184 -0.961 -4.02 QT
-0.797 -2.856 -0.797 -1.575 QT
-0.797 0.144 -1.117 1.644 QT
-1.438 3.144 -2.367 4.191 QT
-3.297 5.237 -5 5.237 QT
cp
-5 4.722 M
-3.891 4.722 -3.344 3.581 QT
-2.797 2.441 -2.664 1.05 QT
-2.531 -0.341 -2.531 -1.903 QT
-2.531 -3.403 -2.664 -4.677 QT
-2.797 -5.95 -3.336 -6.974 QT
-3.875 -7.997 -5 -7.997 QT
-6.125 -7.997 -6.672 -6.966 QT
-7.219 -5.934 -7.352 -4.669 QT
-7.484 -3.403 -7.484 -1.903 QT
-7.484 -0.794 -7.43 0.198 QT
-7.375 1.191 -7.141 2.237 QT
-6.906 3.284 -6.383 4.003 QT
-5.859 4.722 -5 4.722 QT
cp}def
f-259944110
f
GR
GS
[1 0 0 1 119 91.67049] CT
0.149 GC
N
f208961070
f
GR
GS
[1 0 0 1 119 91.67049] CT
0.149 GC
N
f-943732550
f
GR
GS
[1 0 0 1 119 91.67049] CT
0.149 GC
N
f1667698322
f
GR
GS
[1 0 0 1 119 35] CT
0.149 GC
N
f208961070
f
GR
GS
[1 0 0 1 119 35] CT
0.149 GC
N
f-943732550
f
GR
GS
[1 0 0 1 119 35] CT
0.149 GC
N
/f-959722706{-9 4.8 M
-9 4.269 L
-9 4.206 -8.969 4.159 QT
-5.859 0.722 L
-5.156 -0.044 -4.719 -0.559 QT
-4.281 -1.075 -3.852 -1.755 QT
-3.422 -2.434 -3.172 -3.13 QT
-2.922 -3.825 -2.922 -4.606 QT
-2.922 -5.419 -3.227 -6.169 QT
-3.531 -6.919 -4.125 -7.372 QT
-4.719 -7.825 -5.578 -7.825 QT
-6.438 -7.825 -7.133 -7.302 QT
-7.828 -6.778 -8.109 -5.95 QT
-8.031 -5.966 -7.906 -5.966 QT
-7.453 -5.966 -7.133 -5.661 QT
-6.813 -5.356 -6.813 -4.872 QT
-6.813 -4.419 -7.133 -4.099 QT
-7.453 -3.778 -7.906 -3.778 QT
-8.375 -3.778 -8.688 -4.106 QT
-9 -4.434 -9 -4.872 QT
-9 -5.638 -8.719 -6.294 QT
-8.438 -6.95 -7.906 -7.466 QT
-7.375 -7.981 -6.703 -8.255 QT
-6.031 -8.528 -5.281 -8.528 QT
-4.141 -8.528 -3.156 -8.044 QT
-2.172 -7.559 -1.594 -6.677 QT
-1.016 -5.794 -1.016 -4.606 QT
-1.016 -3.731 -1.398 -2.95 QT
-1.781 -2.169 -2.375 -1.528 QT
-2.969 -0.888 -3.898 -0.083 QT
-4.828 0.722 -5.109 1.003 QT
-7.375 3.175 L
-5.453 3.175 L
-4.047 3.175 -3.094 3.151 QT
-2.141 3.128 -2.078 3.081 QT
-1.844 2.831 -1.594 1.237 QT
-1.016 1.237 L
-1.578 4.8 L
-9 4.8 L
cp}def
f-959722706
f
GR
GS
[1 0 0 1 227.25021 32] CT
N
/f1840934395{-53.932 -8.64 M
-53.932 -9.484 L
-51.448 -9.484 -51.448 -10.906 QT
-51.448 -24.046 L
-52.245 -24.187 -53.932 -24.187 QT
-53.932 -25.031 L
-49.339 -25.031 L
-49.214 -25.031 -49.167 -24.937 QT
-40.667 -12.437 L
-40.667 -22.781 L
-40.667 -24.187 -43.151 -24.187 QT
-43.151 -25.031 L
-37.432 -25.031 L
-37.432 -24.187 L
-39.901 -24.187 -39.901 -22.781 QT
-39.901 -8.859 L
-39.901 -8.781 -39.995 -8.71 QT
-40.089 -8.64 -40.151 -8.64 QT
-40.432 -8.64 L
-40.557 -8.64 -40.604 -8.734 QT
-50.682 -23.578 L
-50.682 -10.906 L
-50.682 -9.484 -48.214 -9.484 QT
-48.214 -8.64 L
-53.932 -8.64 L
cp}def
f1840934395
f
GR
GS
[1 0 0 1 227.25021 32] CT
N
/f-1931832260{-30.682 -8.374 M
-32.151 -8.374 -33.378 -9.14 QT
-34.604 -9.906 -35.3 -11.187 QT
-35.995 -12.468 -35.995 -13.906 QT
-35.995 -15.312 -35.354 -16.578 QT
-34.714 -17.843 -33.573 -18.624 QT
-32.432 -19.406 -31.026 -19.406 QT
-29.932 -19.406 -29.112 -19.031 QT
-28.292 -18.656 -27.768 -17.999 QT
-27.245 -17.343 -26.971 -16.453 QT
-26.698 -15.562 -26.698 -14.499 QT
-26.698 -14.187 -26.948 -14.187 QT
-33.901 -14.187 L
-33.901 -13.921 L
-33.901 -11.937 -33.096 -10.507 QT
-32.292 -9.078 -30.479 -9.078 QT
-29.745 -9.078 -29.112 -9.406 QT
-28.479 -9.734 -28.018 -10.32 QT
-27.557 -10.906 -27.401 -11.578 QT
-27.37 -11.656 -27.307 -11.718 QT
-27.245 -11.781 -27.167 -11.781 QT
-26.948 -11.781 L
-26.698 -11.781 -26.698 -11.484 QT
-27.042 -10.124 -28.167 -9.249 QT
-29.292 -8.374 -30.682 -8.374 QT
cp
-33.87 -14.781 M
-28.401 -14.781 L
-28.401 -15.687 -28.651 -16.609 QT
-28.901 -17.531 -29.487 -18.148 QT
-30.073 -18.765 -31.026 -18.765 QT
-32.386 -18.765 -33.128 -17.492 QT
-33.87 -16.218 -33.87 -14.781 QT
cp}def
f-1931832260
f
GR
GS
[1 0 0 1 227.25021 32] CT
N
/f-2122900015{-25.328 -6.765 M
-25.328 -7.624 -24.711 -8.265 QT
-24.094 -8.906 -23.234 -9.171 QT
-23.719 -9.531 -23.969 -10.085 QT
-24.219 -10.64 -24.219 -11.249 QT
-24.219 -12.374 -23.5 -13.249 QT
-24.609 -14.328 -24.609 -15.718 QT
-24.609 -16.468 -24.281 -17.124 QT
-23.953 -17.781 -23.383 -18.265 QT
-22.813 -18.749 -22.109 -18.999 QT
-21.406 -19.249 -20.672 -19.249 QT
-19.234 -19.249 -18.094 -18.421 QT
-17.609 -18.937 -16.938 -19.226 QT
-16.266 -19.515 -15.531 -19.515 QT
-15.016 -19.515 -14.688 -19.148 QT
-14.359 -18.781 -14.359 -18.265 QT
-14.359 -17.968 -14.586 -17.749 QT
-14.813 -17.531 -15.094 -17.531 QT
-15.406 -17.531 -15.625 -17.749 QT
-15.844 -17.968 -15.844 -18.265 QT
-15.844 -18.703 -15.563 -18.89 QT
-16.797 -18.89 -17.688 -18.031 QT
-17.25 -17.593 -16.992 -16.968 QT
-16.734 -16.343 -16.734 -15.718 QT
-16.734 -14.703 -17.297 -13.89 QT
-17.859 -13.078 -18.774 -12.624 QT
-19.688 -12.171 -20.672 -12.171 QT
-21.984 -12.171 -23.063 -12.89 QT
-23.406 -12.421 -23.406 -11.828 QT
-23.406 -11.203 -22.992 -10.726 QT
-22.578 -10.249 -21.938 -10.249 QT
-19.969 -10.249 L
-18.547 -10.249 -17.399 -9.992 QT
-16.25 -9.734 -15.469 -8.96 QT
-14.688 -8.187 -14.688 -6.765 QT
-14.688 -5.703 -15.578 -5.007 QT
-16.469 -4.312 -17.703 -3.999 QT
-18.938 -3.687 -20 -3.687 QT
-21.063 -3.687 -22.305 -3.999 QT
-23.547 -4.312 -24.438 -5.007 QT
-25.328 -5.703 -25.328 -6.765 QT
cp
-23.984 -6.765 M
-23.984 -5.953 -23.328 -5.406 QT
-22.672 -4.859 -21.742 -4.601 QT
-20.813 -4.343 -20 -4.343 QT
-19.188 -4.343 -18.266 -4.601 QT
-17.344 -4.859 -16.688 -5.406 QT
-16.031 -5.953 -16.031 -6.765 QT
-16.031 -8.015 -17.18 -8.39 QT
-18.328 -8.765 -19.969 -8.765 QT
-21.938 -8.765 L
-22.5 -8.765 -22.961 -8.499 QT
-23.422 -8.234 -23.703 -7.757 QT
-23.984 -7.281 -23.984 -6.765 QT
cp
-20.672 -12.812 M
-18.625 -12.812 -18.625 -15.718 QT
-18.625 -16.968 -19.063 -17.789 QT
-19.5 -18.609 -20.672 -18.609 QT
-21.844 -18.609 -22.274 -17.789 QT
-22.703 -16.968 -22.703 -15.718 QT
-22.703 -14.921 -22.539 -14.281 QT
-22.375 -13.64 -21.93 -13.226 QT
-21.484 -12.812 -20.672 -12.812 QT
cp}def
f-2122900015
f
GR
GS
[1 0 0 1 227.25021 32] CT
N
/f2103137411{-13.031 -10.999 M
-13.031 -12.421 -11.906 -13.32 QT
-10.781 -14.218 -9.211 -14.585 QT
-7.641 -14.953 -6.219 -14.953 QT
-6.219 -15.937 L
-6.219 -16.64 -6.523 -17.289 QT
-6.828 -17.937 -7.398 -18.351 QT
-7.969 -18.765 -8.672 -18.765 QT
-10.266 -18.765 -11.094 -18.046 QT
-10.641 -18.046 -10.336 -17.703 QT
-10.031 -17.359 -10.031 -16.906 QT
-10.031 -16.421 -10.375 -16.085 QT
-10.719 -15.749 -11.188 -15.749 QT
-11.672 -15.749 -12.008 -16.085 QT
-12.344 -16.421 -12.344 -16.906 QT
-12.344 -18.171 -11.195 -18.789 QT
-10.047 -19.406 -8.672 -19.406 QT
-7.688 -19.406 -6.703 -18.984 QT
-5.719 -18.562 -5.094 -17.789 QT
-4.469 -17.015 -4.469 -15.984 QT
-4.469 -10.593 L
-4.469 -10.124 -4.273 -9.726 QT
-4.078 -9.328 -3.656 -9.328 QT
-3.25 -9.328 -3.055 -9.726 QT
-2.859 -10.124 -2.859 -10.593 QT
-2.859 -12.124 L
-2.156 -12.124 L
-2.156 -10.593 L
-2.156 -10.046 -2.438 -9.562 QT
-2.719 -9.078 -3.195 -8.789 QT
-3.672 -8.499 -4.219 -8.499 QT
-4.922 -8.499 -5.438 -9.046 QT
-5.953 -9.593 -6 -10.343 QT
-6.453 -9.437 -7.32 -8.906 QT
-8.188 -8.374 -9.172 -8.374 QT
-10.078 -8.374 -10.969 -8.64 QT
-11.859 -8.906 -12.445 -9.492 QT
-13.031 -10.078 -13.031 -10.999 QT
cp
-11.094 -10.999 M
-11.094 -10.156 -10.469 -9.578 QT
-9.844 -8.999 -9 -8.999 QT
-8.234 -8.999 -7.602 -9.39 QT
-6.969 -9.781 -6.594 -10.445 QT
-6.219 -11.109 -6.219 -11.859 QT
-6.219 -14.343 L
-7.313 -14.343 -8.453 -13.992 QT
-9.594 -13.64 -10.344 -12.874 QT
-11.094 -12.109 -11.094 -10.999 QT
cp}def
f2103137411
f
GR
GS
[1 0 0 1 227.25021 32] CT
N
/f-45030359{0.453 -11.531 M
0.453 -18.14 L
-1.547 -18.14 L
-1.547 -18.765 L
0.031 -18.765 0.766 -20.234 QT
1.5 -21.703 1.5 -23.406 QT
2.203 -23.406 L
2.203 -18.984 L
5.578 -18.984 L
5.578 -18.14 L
2.203 -18.14 L
2.203 -11.578 L
2.203 -10.578 2.531 -9.828 QT
2.859 -9.078 3.734 -9.078 QT
4.547 -9.078 4.914 -9.867 QT
5.281 -10.656 5.281 -11.578 QT
5.281 -12.984 L
5.969 -12.984 L
5.969 -11.531 L
5.969 -10.781 5.695 -10.046 QT
5.422 -9.312 4.883 -8.843 QT
4.344 -8.374 3.562 -8.374 QT
2.125 -8.374 1.289 -9.234 QT
0.453 -10.093 0.453 -11.531 QT
cp}def
f-45030359
f
GR
GS
[1 0 0 1 227.25021 32] CT
N
/f411828865{8.068 -8.64 M
8.068 -9.484 L
8.896 -9.484 9.419 -9.617 QT
9.943 -9.749 9.943 -10.249 QT
9.943 -16.796 L
9.943 -17.718 9.591 -17.929 QT
9.24 -18.14 8.177 -18.14 QT
8.177 -18.984 L
11.63 -19.249 L
11.63 -10.249 L
11.63 -9.749 12.091 -9.617 QT
12.552 -9.484 13.318 -9.484 QT
13.318 -8.64 L
8.068 -8.64 L
cp
9.099 -23.374 M
9.099 -23.906 9.497 -24.304 QT
9.896 -24.703 10.411 -24.703 QT
10.74 -24.703 11.06 -24.523 QT
11.38 -24.343 11.552 -24.031 QT
11.724 -23.718 11.724 -23.374 QT
11.724 -22.859 11.326 -22.46 QT
10.927 -22.062 10.411 -22.062 QT
9.896 -22.062 9.497 -22.46 QT
9.099 -22.859 9.099 -23.374 QT
cp}def
f411828865
f
GR
GS
[1 0 0 1 227.25021 32] CT
N
/f-1923340858{19.859 -8.64 M
16.359 -17.453 L
16.141 -17.906 15.672 -18.023 QT
15.203 -18.14 14.453 -18.14 QT
14.453 -18.984 L
19.5 -18.984 L
19.5 -18.14 L
18.156 -18.14 18.156 -17.578 QT
18.156 -17.484 18.172 -17.437 QT
20.875 -10.656 L
23.297 -16.781 L
23.359 -16.968 23.359 -17.156 QT
23.359 -17.624 23.016 -17.882 QT
22.672 -18.14 22.203 -18.14 QT
22.203 -18.984 L
26.188 -18.984 L
26.188 -18.14 L
25.453 -18.14 24.898 -17.804 QT
24.344 -17.468 24.031 -16.796 QT
20.797 -8.64 L
20.703 -8.374 20.406 -8.374 QT
20.234 -8.374 L
19.938 -8.374 19.859 -8.64 QT
cp}def
f-1923340858
f
GR
GS
[1 0 0 1 227.25021 32] CT
N
/f-1443618816{27.401 -8.64 M
27.401 -9.484 L
28.229 -9.484 28.753 -9.617 QT
29.276 -9.749 29.276 -10.249 QT
29.276 -16.796 L
29.276 -17.718 28.925 -17.929 QT
28.573 -18.14 27.51 -18.14 QT
27.51 -18.984 L
30.964 -19.249 L
30.964 -10.249 L
30.964 -9.749 31.425 -9.617 QT
31.885 -9.484 32.651 -9.484 QT
32.651 -8.64 L
27.401 -8.64 L
cp
28.432 -23.374 M
28.432 -23.906 28.831 -24.304 QT
29.229 -24.703 29.745 -24.703 QT
30.073 -24.703 30.393 -24.523 QT
30.714 -24.343 30.885 -24.031 QT
31.057 -23.718 31.057 -23.374 QT
31.057 -22.859 30.659 -22.46 QT
30.26 -22.062 29.745 -22.062 QT
29.229 -22.062 28.831 -22.46 QT
28.432 -22.859 28.432 -23.374 QT
cp}def
f-1443618816
f
GR
GS
[1 0 0 1 227.25021 32] CT
N
/f1067843866{35.787 -11.531 M
35.787 -18.14 L
33.787 -18.14 L
33.787 -18.765 L
35.365 -18.765 36.099 -20.234 QT
36.833 -21.703 36.833 -23.406 QT
37.537 -23.406 L
37.537 -18.984 L
40.912 -18.984 L
40.912 -18.14 L
37.537 -18.14 L
37.537 -11.578 L
37.537 -10.578 37.865 -9.828 QT
38.193 -9.078 39.068 -9.078 QT
39.88 -9.078 40.247 -9.867 QT
40.615 -10.656 40.615 -11.578 QT
40.615 -12.984 L
41.302 -12.984 L
41.302 -11.531 L
41.302 -10.781 41.029 -10.046 QT
40.755 -9.312 40.216 -8.843 QT
39.677 -8.374 38.896 -8.374 QT
37.458 -8.374 36.622 -9.234 QT
35.787 -10.093 35.787 -11.531 QT
cp}def
f1067843866
f
GR
GS
[1 0 0 1 227.25021 32] CT
N
/f-584627858{43.656 -4.703 M
44.109 -4.343 44.656 -4.343 QT
46.172 -4.343 47.141 -6.624 QT
47.953 -8.64 L
44.359 -17.453 L
44.141 -17.906 43.68 -18.023 QT
43.219 -18.14 42.453 -18.14 QT
42.453 -18.984 L
47.5 -18.984 L
47.5 -18.14 L
46.172 -18.14 46.172 -17.578 QT
46.172 -17.484 46.203 -17.437 QT
48.875 -10.874 L
51.266 -16.781 L
51.344 -16.968 51.344 -17.187 QT
51.344 -17.484 51.188 -17.695 QT
51.031 -17.906 50.774 -18.023 QT
50.516 -18.14 50.203 -18.14 QT
50.203 -18.984 L
54.188 -18.984 L
54.188 -18.14 L
53.453 -18.14 52.899 -17.804 QT
52.344 -17.468 52.031 -16.796 QT
47.891 -6.624 L
47.563 -5.843 47.117 -5.195 QT
46.672 -4.546 46.039 -4.132 QT
45.406 -3.718 44.656 -3.718 QT
43.781 -3.718 43.117 -4.296 QT
42.453 -4.874 42.453 -5.734 QT
42.453 -6.171 42.758 -6.476 QT
43.063 -6.781 43.516 -6.781 QT
43.813 -6.781 44.055 -6.648 QT
44.297 -6.515 44.43 -6.281 QT
44.563 -6.046 44.563 -5.734 QT
44.563 -5.343 44.305 -5.039 QT
44.047 -4.734 43.656 -4.703 QT
cp}def
f-584627858
f
GR
GS
0 0.447 0.741 RC
1 LJ
1.5 LW
N
129.53 201.289 M
134.161 153.42 L
138.793 113.921 L
143.424 146.695 L
148.056 124.472 L
152.687 115.539 L
157.319 150.468 L
162.103 111.805 L
166.735 153.58 L
171.366 156.225 L
176.049 147.737 L
180.731 169.261 L
185.312 204.624 L
189.943 71.201 L
194.626 105.049 L
199.308 119.197 L
203.889 169.015 L
208.52 148.83 L
213.203 122.833 L
217.885 178.723 L
222.466 177.938 L
227.097 184.546 L
231.78 220 L
236.411 110.481 L
241.043 157.318 L
245.674 92.356 L
250.306 143.659 L
255.09 186.6 L
259.518 186.444 L
264.2 104.669 L
268.985 187.78 L
273.667 64.948 L
278.248 194.72 L
282.879 161.343 L
287.562 107.304 L
292.244 139.423 L
296.825 159.313 L
301.456 197.134 L
306.139 99.101 L
310.821 123.653 L
315.453 170.392 L
320.084 77.77 L
324.767 187.958 L
329.398 190.055 L
S
GR
GS
1 GC
N
394.5 220 M
599 220 L
599 35 L
394.5 35 L
cp
f
GR
GS
0.149 GC
2 setlinecap
1 LJ
0.5 LW
N
394.5 220 M
599 220 L
S
GR
GS
0.149 GC
2 setlinecap
1 LJ
0.5 LW
N
394.5 35 M
599 35 L
S
GR
GS
0.149 GC
2 setlinecap
1 LJ
0.5 LW
N
394.5 220 M
394.5 217.955 L
S
GR
GS
0.149 GC
2 setlinecap
1 LJ
0.5 LW
N
450.282 220 M
450.282 217.955 L
S
GR
GS
0.149 GC
2 setlinecap
1 LJ
0.5 LW
N
506.013 220 M
506.013 217.955 L
S
GR
GS
0.149 GC
2 setlinecap
1 LJ
0.5 LW
N
561.795 220 M
561.795 217.955 L
S
GR
GS
0.149 GC
2 setlinecap
1 LJ
0.5 LW
N
394.5 35 M
394.5 37.045 L
S
GR
GS
0.149 GC
2 setlinecap
1 LJ
0.5 LW
N
450.282 35 M
450.282 37.045 L
S
GR
GS
0.149 GC
2 setlinecap
1 LJ
0.5 LW
N
506.013 35 M
506.013 37.045 L
S
GR
GS
0.149 GC
2 setlinecap
1 LJ
0.5 LW
N
561.795 35 M
561.795 37.045 L
S
GR
GS
[1 0 0 1 394.5 226] CT
0.149 GC
N
f-1171549265
f
GR
GS
[1 0 0 1 394.5 226] CT
0.149 GC
N
f-2084610355
f
GR
GS
[1 0 0 1 394.5 226] CT
0.149 GC
N
f1017945436
f
GR
GS
[1 0 0 1 394.5 226] CT
0.149 GC
N
/f-973792135{15 17.237 M
13.766 17.237 12.93 16.581 QT
12.094 15.925 11.641 14.87 QT
11.188 13.816 11.016 12.667 QT
10.844 11.519 10.844 10.331 QT
10.844 8.753 11.461 7.159 QT
12.078 5.566 13.273 4.519 QT
14.469 3.472 16.109 3.472 QT
16.781 3.472 17.375 3.737 QT
17.969 4.003 18.305 4.503 QT
18.641 5.003 18.641 5.722 QT
18.641 6.128 18.367 6.401 QT
18.094 6.675 17.672 6.675 QT
17.281 6.675 17 6.394 QT
16.719 6.112 16.719 5.722 QT
16.719 5.331 17 5.042 QT
17.281 4.753 17.672 4.753 QT
17.781 4.753 L
17.531 4.394 17.07 4.222 QT
16.609 4.05 16.109 4.05 QT
15.5 4.05 14.984 4.316 QT
14.469 4.581 14.063 5.034 QT
13.656 5.487 13.383 6.026 QT
13.109 6.566 12.953 7.261 QT
12.797 7.956 12.758 8.558 QT
12.719 9.159 12.719 10.081 QT
13.078 9.253 13.719 8.737 QT
14.359 8.222 15.172 8.222 QT
16.063 8.222 16.797 8.581 QT
17.531 8.941 18.055 9.581 QT
18.578 10.222 18.859 11.042 QT
19.141 11.862 19.141 12.691 QT
19.141 13.862 18.617 14.925 QT
18.094 15.987 17.148 16.612 QT
16.203 17.237 15 17.237 QT
cp
15 16.597 M
15.766 16.597 16.234 16.245 QT
16.703 15.894 16.93 15.316 QT
17.156 14.737 17.203 14.144 QT
17.25 13.55 17.25 12.691 QT
17.25 11.566 17.148 10.761 QT
17.047 9.956 16.563 9.347 QT
16.078 8.737 15.094 8.737 QT
14.281 8.737 13.766 9.284 QT
13.25 9.831 13.008 10.667 QT
12.766 11.503 12.766 12.284 QT
12.766 12.534 12.781 12.675 QT
12.781 12.706 12.781 12.73 QT
12.781 12.753 12.766 12.769 QT
12.766 13.628 12.938 14.511 QT
13.109 15.394 13.609 15.995 QT
14.109 16.597 15 16.597 QT
cp}def
f-973792135
f
GR
GS
[1 0 0 1 450.28198 226] CT
0.149 GC
N
f-1171549265
f
GR
GS
[1 0 0 1 450.28198 226] CT
0.149 GC
N
f-2084610355
f
GR
GS
[1 0 0 1 450.28198 226] CT
0.149 GC
N
f1017945436
f
GR
GS
[1 0 0 1 450.28198 226] CT
0.149 GC
N
f1350078856
f
GR
GS
[1 0 0 1 506.01306 226] CT
0.149 GC
N
f-1171549265
f
GR
GS
[1 0 0 1 506.01306 226] CT
0.149 GC
N
f-2084610355
f
GR
GS
[1 0 0 1 506.01306 226] CT
0.149 GC
N
f-192727431
f
GR
GS
[1 0 0 1 506.01306 226] CT
0.149 GC
N
f110075864
f
GR
GS
[1 0 0 1 561.79504 226] CT
0.149 GC
N
f-1171549265
f
GR
GS
[1 0 0 1 561.79504 226] CT
0.149 GC
N
f-2084610355
f
GR
GS
[1 0 0 1 561.79504 226] CT
0.149 GC
N
f-192727431
f
GR
GS
[1 0 0 1 561.79504 226] CT
0.149 GC
N
f1622268850
f
GR
GS
0.149 GC
2 setlinecap
1 LJ
0.5 LW
N
394.5 220 M
394.5 35 L
S
GR
GS
0.149 GC
2 setlinecap
1 LJ
0.5 LW
N
599 220 M
599 35 L
S
GR
GS
0.149 GC
2 setlinecap
1 LJ
0.5 LW
N
394.5 220 M
396.545 220 L
S
GR
GS
0.149 GC
2 setlinecap
1 LJ
0.5 LW
N
394.5 173.75 M
396.545 173.75 L
S
GR
GS
0.149 GC
2 setlinecap
1 LJ
0.5 LW
N
394.5 127.5 M
396.545 127.5 L
S
GR
GS
0.149 GC
2 setlinecap
1 LJ
0.5 LW
N
394.5 81.25 M
396.545 81.25 L
S
GR
GS
0.149 GC
2 setlinecap
1 LJ
0.5 LW
N
394.5 35 M
396.545 35 L
S
GR
GS
0.149 GC
2 setlinecap
1 LJ
0.5 LW
N
599 220 M
596.955 220 L
S
GR
GS
0.149 GC
2 setlinecap
1 LJ
0.5 LW
N
599 173.75 M
596.955 173.75 L
S
GR
GS
0.149 GC
2 setlinecap
1 LJ
0.5 LW
N
599 127.5 M
596.955 127.5 L
S
GR
GS
0.149 GC
2 setlinecap
1 LJ
0.5 LW
N
599 81.25 M
596.955 81.25 L
S
GR
GS
0.149 GC
2 setlinecap
1 LJ
0.5 LW
N
599 35 M
596.955 35 L
S
GR
GS
[1 0 0 1 388.5 220] CT
0.149 GC
N
f1082904893
f
GR
GS
[1 0 0 1 388.5 220] CT
0.149 GC
N
f208961070
f
GR
GS
[1 0 0 1 388.5 220] CT
0.149 GC
N
f-943732550
f
GR
GS
[1 0 0 1 388.5 220] CT
0.149 GC
N
f-959722706
f
GR
GS
[1 0 0 1 388.5 173.75] CT
0.149 GC
N
f1082904893
f
GR
GS
[1 0 0 1 388.5 173.75] CT
0.149 GC
N
f208961070
f
GR
GS
[1 0 0 1 388.5 173.75] CT
0.149 GC
N
f-943732550
f
GR
GS
[1 0 0 1 388.5 173.75] CT
0.149 GC
N
f1667698322
f
GR
GS
[1 0 0 1 388.5 127.5] CT
0.149 GC
N
f-259944110
f
GR
GS
[1 0 0 1 388.5 81.25] CT
0.149 GC
N
f208961070
f
GR
GS
[1 0 0 1 388.5 81.25] CT
0.149 GC
N
f-943732550
f
GR
GS
[1 0 0 1 388.5 81.25] CT
0.149 GC
N
f1667698322
f
GR
GS
[1 0 0 1 388.5 35] CT
0.149 GC
N
f208961070
f
GR
GS
[1 0 0 1 388.5 35] CT
0.149 GC
N
f-943732550
f
GR
GS
[1 0 0 1 388.5 35] CT
0.149 GC
N
f-959722706
f
GR
GS
[1 0 0 1 496.75046 32] CT
N
/f-1342240860{-51.865 -11.203 M
-51.037 -10.171 -49.81 -9.562 QT
-48.583 -8.953 -47.255 -8.953 QT
-46.146 -8.953 -45.193 -9.398 QT
-44.24 -9.843 -43.529 -10.624 QT
-42.818 -11.406 -42.443 -12.406 QT
-42.068 -13.406 -42.068 -14.499 QT
-42.068 -14.687 -41.849 -14.687 QT
-41.552 -14.687 L
-41.365 -14.687 -41.365 -14.453 QT
-41.365 -13.203 -41.849 -12.039 QT
-42.333 -10.874 -43.208 -9.984 QT
-44.083 -9.093 -45.232 -8.601 QT
-46.38 -8.109 -47.615 -8.109 QT
-49.333 -8.109 -50.88 -8.812 QT
-52.427 -9.515 -53.568 -10.726 QT
-54.708 -11.937 -55.349 -13.531 QT
-55.99 -15.124 -55.99 -16.843 QT
-55.99 -18.562 -55.349 -20.156 QT
-54.708 -21.749 -53.568 -22.968 QT
-52.427 -24.187 -50.88 -24.874 QT
-49.333 -25.562 -47.615 -25.562 QT
-46.38 -25.562 -45.255 -25.031 QT
-44.13 -24.499 -43.287 -23.531 QT
-41.896 -25.499 L
-41.755 -25.562 -41.74 -25.562 QT
-41.552 -25.562 L
-41.49 -25.562 -41.427 -25.507 QT
-41.365 -25.453 -41.365 -25.359 QT
-41.365 -18.89 L
-41.365 -18.671 -41.552 -18.671 QT
-41.99 -18.671 L
-42.208 -18.671 -42.208 -18.89 QT
-42.208 -19.578 -42.49 -20.429 QT
-42.771 -21.281 -43.193 -22.054 QT
-43.615 -22.828 -44.177 -23.406 QT
-45.537 -24.718 -47.271 -24.718 QT
-48.599 -24.718 -49.81 -24.124 QT
-51.021 -23.531 -51.865 -22.468 QT
-52.74 -21.343 -53.076 -19.906 QT
-53.412 -18.468 -53.412 -16.843 QT
-53.412 -15.218 -53.076 -13.773 QT
-52.74 -12.328 -51.865 -11.203 QT
cp}def
f-1342240860
f
GR
GS
[1 0 0 1 496.75046 32] CT
N
/f451393248{-34 -8.374 M
-35.438 -8.374 -36.672 -9.109 QT
-37.906 -9.843 -38.617 -11.07 QT
-39.328 -12.296 -39.328 -13.749 QT
-39.328 -14.859 -38.938 -15.874 QT
-38.547 -16.89 -37.813 -17.695 QT
-37.078 -18.499 -36.109 -18.953 QT
-35.141 -19.406 -34 -19.406 QT
-32.516 -19.406 -31.305 -18.624 QT
-30.094 -17.843 -29.391 -16.539 QT
-28.688 -15.234 -28.688 -13.749 QT
-28.688 -12.312 -29.406 -11.078 QT
-30.125 -9.843 -31.344 -9.109 QT
-32.563 -8.374 -34 -8.374 QT
cp
-34 -9.078 M
-32.078 -9.078 -31.43 -10.468 QT
-30.781 -11.859 -30.781 -14.015 QT
-30.781 -15.234 -30.914 -16.023 QT
-31.047 -16.812 -31.484 -17.453 QT
-31.75 -17.859 -32.164 -18.156 QT
-32.578 -18.453 -33.039 -18.609 QT
-33.5 -18.765 -34 -18.765 QT
-34.75 -18.765 -35.422 -18.429 QT
-36.094 -18.093 -36.547 -17.453 QT
-36.984 -16.781 -37.109 -15.96 QT
-37.234 -15.14 -37.234 -14.015 QT
-37.234 -12.671 -37 -11.601 QT
-36.766 -10.531 -36.055 -9.804 QT
-35.344 -9.078 -34 -9.078 QT
cp}def
f451393248
f
GR
GS
[1 0 0 1 496.75046 32] CT
N
/f-465968282{-27.281 -8.64 M
-27.281 -9.484 L
-26.469 -9.484 -25.938 -9.617 QT
-25.406 -9.749 -25.406 -10.249 QT
-25.406 -16.796 L
-25.406 -17.437 -25.602 -17.726 QT
-25.797 -18.015 -26.156 -18.078 QT
-26.516 -18.14 -27.281 -18.14 QT
-27.281 -18.984 L
-23.797 -19.249 L
-23.797 -16.906 L
-23.328 -17.937 -22.383 -18.593 QT
-21.438 -19.249 -20.328 -19.249 QT
-18.656 -19.249 -17.82 -18.453 QT
-16.984 -17.656 -16.984 -16.015 QT
-16.984 -10.249 L
-16.984 -9.749 -16.453 -9.617 QT
-15.922 -9.484 -15.109 -9.484 QT
-15.109 -8.64 L
-20.609 -8.64 L
-20.609 -9.484 L
-19.781 -9.484 -19.258 -9.617 QT
-18.734 -9.749 -18.734 -10.249 QT
-18.734 -15.937 L
-18.734 -17.109 -19.07 -17.867 QT
-19.406 -18.624 -20.469 -18.624 QT
-21.859 -18.624 -22.758 -17.515 QT
-23.656 -16.406 -23.656 -14.984 QT
-23.656 -10.249 L
-23.656 -9.749 -23.125 -9.617 QT
-22.594 -9.484 -21.781 -9.484 QT
-21.781 -8.64 L
-27.281 -8.64 L
cp}def
f-465968282
f
GR
GS
[1 0 0 1 496.75046 32] CT
N
/f867722803{-14.042 -8.64 M
-14.042 -9.484 L
-13.229 -9.484 -12.698 -9.617 QT
-12.167 -9.749 -12.167 -10.249 QT
-12.167 -18.14 L
-14.026 -18.14 L
-14.026 -18.984 L
-12.167 -18.984 L
-12.167 -21.859 L
-12.167 -22.781 -11.659 -23.484 QT
-11.151 -24.187 -10.339 -24.648 QT
-9.526 -25.109 -8.589 -25.335 QT
-7.651 -25.562 -6.807 -25.562 QT
-6.12 -25.562 -5.424 -25.257 QT
-4.729 -24.953 -4.292 -24.39 QT
-3.854 -23.828 -3.854 -23.093 QT
-3.854 -22.609 -4.19 -22.273 QT
-4.526 -21.937 -5.026 -21.937 QT
-5.51 -21.937 -5.839 -22.265 QT
-6.167 -22.593 -6.167 -23.093 QT
-6.167 -23.546 -5.854 -23.89 QT
-5.542 -24.234 -5.089 -24.234 QT
-5.823 -24.937 -7.01 -24.937 QT
-7.87 -24.937 -8.698 -24.539 QT
-9.526 -24.14 -10.042 -23.421 QT
-10.557 -22.703 -10.557 -21.812 QT
-10.557 -18.984 L
-7.385 -18.984 L
-3.839 -19.296 L
-3.839 -10.249 L
-3.839 -9.749 -3.307 -9.617 QT
-2.776 -9.484 -1.979 -9.484 QT
-1.979 -8.64 L
-7.385 -8.64 L
-7.385 -9.484 L
-6.573 -9.484 -6.049 -9.617 QT
-5.526 -9.749 -5.526 -10.249 QT
-5.526 -16.843 L
-5.526 -17.343 -5.581 -17.578 QT
-5.635 -17.812 -5.823 -17.953 QT
-6.01 -18.093 -6.464 -18.14 QT
-10.495 -18.14 L
-10.495 -10.249 L
-10.495 -9.749 -9.964 -9.617 QT
-9.432 -9.484 -8.62 -9.484 QT
-8.62 -8.64 L
-14.042 -8.64 L
cp}def
f867722803
f
GR
GS
[1 0 0 1 496.75046 32] CT
N
/f-906694726{4.526 -8.374 M
3.104 -8.374 1.932 -9.14 QT
0.76 -9.906 0.112 -11.164 QT
-0.536 -12.421 -0.536 -13.828 QT
-0.536 -15.281 0.175 -16.523 QT
0.885 -17.765 2.104 -18.507 QT
3.323 -19.249 4.792 -19.249 QT
5.667 -19.249 6.448 -18.882 QT
7.229 -18.515 7.807 -17.859 QT
7.807 -22.843 L
7.807 -23.484 7.612 -23.773 QT
7.417 -24.062 7.065 -24.124 QT
6.714 -24.187 5.948 -24.187 QT
5.948 -25.031 L
9.495 -25.296 L
9.495 -10.828 L
9.495 -10.187 9.69 -9.898 QT
9.885 -9.609 10.245 -9.546 QT
10.604 -9.484 11.354 -9.484 QT
11.354 -8.64 L
7.745 -8.374 L
7.745 -9.89 L
7.12 -9.171 6.26 -8.773 QT
5.401 -8.374 4.526 -8.374 QT
cp
2.073 -10.734 M
2.495 -9.937 3.175 -9.468 QT
3.854 -8.999 4.667 -8.999 QT
5.667 -8.999 6.495 -9.578 QT
7.323 -10.156 7.745 -11.062 QT
7.745 -16.828 L
7.464 -17.343 7.034 -17.765 QT
6.604 -18.187 6.073 -18.406 QT
5.542 -18.624 4.932 -18.624 QT
3.682 -18.624 2.925 -17.914 QT
2.167 -17.203 1.862 -16.101 QT
1.557 -14.999 1.557 -13.796 QT
1.557 -12.843 1.651 -12.124 QT
1.745 -11.406 2.073 -10.734 QT
cp}def
f-906694726
f
GR
GS
[1 0 0 1 496.75046 32] CT
N
/f373583711{17.984 -8.374 M
16.516 -8.374 15.289 -9.14 QT
14.063 -9.906 13.367 -11.187 QT
12.672 -12.468 12.672 -13.906 QT
12.672 -15.312 13.313 -16.578 QT
13.953 -17.843 15.094 -18.624 QT
16.234 -19.406 17.641 -19.406 QT
18.734 -19.406 19.555 -19.031 QT
20.375 -18.656 20.899 -17.999 QT
21.422 -17.343 21.695 -16.453 QT
21.969 -15.562 21.969 -14.499 QT
21.969 -14.187 21.719 -14.187 QT
14.766 -14.187 L
14.766 -13.921 L
14.766 -11.937 15.57 -10.507 QT
16.375 -9.078 18.188 -9.078 QT
18.922 -9.078 19.555 -9.406 QT
20.188 -9.734 20.649 -10.32 QT
21.109 -10.906 21.266 -11.578 QT
21.297 -11.656 21.359 -11.718 QT
21.422 -11.781 21.5 -11.781 QT
21.719 -11.781 L
21.969 -11.781 21.969 -11.484 QT
21.625 -10.124 20.5 -9.249 QT
19.375 -8.374 17.984 -8.374 QT
cp
14.797 -14.781 M
20.266 -14.781 L
20.266 -15.687 20.016 -16.609 QT
19.766 -17.531 19.18 -18.148 QT
18.594 -18.765 17.641 -18.765 QT
16.281 -18.765 15.539 -17.492 QT
14.797 -16.218 14.797 -14.781 QT
cp}def
f373583711
f
GR
GS
[1 0 0 1 496.75046 32] CT
N
/f1293354898{23.385 -8.64 M
23.385 -9.484 L
24.198 -9.484 24.729 -9.617 QT
25.26 -9.749 25.26 -10.249 QT
25.26 -16.796 L
25.26 -17.437 25.065 -17.726 QT
24.87 -18.015 24.51 -18.078 QT
24.151 -18.14 23.385 -18.14 QT
23.385 -18.984 L
26.87 -19.249 L
26.87 -16.906 L
27.339 -17.937 28.284 -18.593 QT
29.229 -19.249 30.339 -19.249 QT
32.01 -19.249 32.846 -18.453 QT
33.682 -17.656 33.682 -16.015 QT
33.682 -10.249 L
33.682 -9.749 34.214 -9.617 QT
34.745 -9.484 35.557 -9.484 QT
35.557 -8.64 L
30.057 -8.64 L
30.057 -9.484 L
30.885 -9.484 31.409 -9.617 QT
31.932 -9.749 31.932 -10.249 QT
31.932 -15.937 L
31.932 -17.109 31.596 -17.867 QT
31.26 -18.624 30.198 -18.624 QT
28.807 -18.624 27.909 -17.515 QT
27.01 -16.406 27.01 -14.984 QT
27.01 -10.249 L
27.01 -9.749 27.542 -9.617 QT
28.073 -9.484 28.885 -9.484 QT
28.885 -8.64 L
23.385 -8.64 L
cp}def
f1293354898
f
GR
GS
[1 0 0 1 496.75046 32] CT
N
/f1732600848{41.984 -8.374 M
40.531 -8.374 39.344 -9.132 QT
38.156 -9.89 37.477 -11.148 QT
36.797 -12.406 36.797 -13.828 QT
36.797 -15.234 37.469 -16.539 QT
38.141 -17.843 39.336 -18.624 QT
40.531 -19.406 41.984 -19.406 QT
43.391 -19.406 44.539 -18.851 QT
45.688 -18.296 45.688 -17.046 QT
45.688 -16.578 45.359 -16.234 QT
45.031 -15.89 44.547 -15.89 QT
44.063 -15.89 43.727 -16.234 QT
43.391 -16.578 43.391 -17.046 QT
43.391 -17.468 43.664 -17.781 QT
43.938 -18.093 44.328 -18.171 QT
43.5 -18.703 42 -18.703 QT
40.859 -18.703 40.156 -17.937 QT
39.453 -17.171 39.172 -16.046 QT
38.891 -14.921 38.891 -13.828 QT
38.891 -12.656 39.234 -11.578 QT
39.578 -10.499 40.344 -9.789 QT
41.109 -9.078 42.266 -9.078 QT
43.406 -9.078 44.203 -9.773 QT
45 -10.468 45.297 -11.593 QT
45.297 -11.734 45.484 -11.734 QT
45.781 -11.734 L
45.844 -11.734 45.906 -11.671 QT
45.969 -11.609 45.969 -11.531 QT
45.969 -11.453 L
45.594 -10.031 44.516 -9.203 QT
43.438 -8.374 41.984 -8.374 QT
cp}def
f1732600848
f
GR
GS
[1 0 0 1 496.75046 32] CT
N
/f1715489654{52.651 -8.374 M
51.182 -8.374 49.956 -9.14 QT
48.729 -9.906 48.034 -11.187 QT
47.339 -12.468 47.339 -13.906 QT
47.339 -15.312 47.979 -16.578 QT
48.62 -17.843 49.761 -18.624 QT
50.901 -19.406 52.307 -19.406 QT
53.401 -19.406 54.221 -19.031 QT
55.042 -18.656 55.565 -17.999 QT
56.089 -17.343 56.362 -16.453 QT
56.636 -15.562 56.636 -14.499 QT
56.636 -14.187 56.386 -14.187 QT
49.432 -14.187 L
49.432 -13.921 L
49.432 -11.937 50.237 -10.507 QT
51.042 -9.078 52.854 -9.078 QT
53.589 -9.078 54.221 -9.406 QT
54.854 -9.734 55.315 -10.32 QT
55.776 -10.906 55.932 -11.578 QT
55.964 -11.656 56.026 -11.718 QT
56.089 -11.781 56.167 -11.781 QT
56.386 -11.781 L
56.636 -11.781 56.636 -11.484 QT
56.292 -10.124 55.167 -9.249 QT
54.042 -8.374 52.651 -8.374 QT
cp
49.464 -14.781 M
54.932 -14.781 L
54.932 -15.687 54.682 -16.609 QT
54.432 -17.531 53.846 -18.148 QT
53.261 -18.765 52.307 -18.765 QT
50.948 -18.765 50.206 -17.492 QT
49.464 -16.218 49.464 -14.781 QT
cp}def
f1715489654
f
GR
GS
0 0.447 0.741 RC
1 LJ
1.5 LW
N
399.03 96.562 M
403.661 63.765 L
408.293 142.046 L
412.924 167.286 L
417.556 86.816 L
422.187 123.413 L
426.819 141.905 L
431.603 102.504 L
436.235 117.752 L
440.866 138.499 L
445.549 82.832 L
450.231 95.465 L
454.812 104.261 L
459.443 70.587 L
464.126 142.943 L
468.808 135.197 L
473.389 81.519 L
478.02 156.401 L
482.703 100.827 L
487.385 108.529 L
491.966 97.877 L
496.597 185.105 L
501.28 196.916 L
505.911 143.126 L
510.543 130.203 L
515.174 83.858 L
519.806 126.449 L
524.59 55.291 L
529.018 94.955 L
533.701 105.371 L
538.485 121.25 L
543.167 143.589 L
547.748 132.754 L
552.379 141.665 L
557.062 181.55 L
561.744 136.138 L
566.325 125.559 L
570.956 144.157 L
575.639 149.647 L
580.321 101.299 L
584.953 151.635 L
589.584 146.418 L
594.267 95.271 L
598.898 129.096 L
S
GR
GS
1 GC
N
664 220 M
869 220 L
869 35 L
664 35 L
cp
f
GR
GS
0.149 GC
2 setlinecap
1 LJ
0.5 LW
N
664 220 M
869 220 L
S
GR
GS
0.149 GC
2 setlinecap
1 LJ
0.5 LW
N
664 35 M
869 35 L
S
GR
GS
0.149 GC
2 setlinecap
1 LJ
0.5 LW
N
664 220 M
664 217.95 L
S
GR
GS
0.149 GC
2 setlinecap
1 LJ
0.5 LW
N
719.918 220 M
719.918 217.95 L
S
GR
GS
0.149 GC
2 setlinecap
1 LJ
0.5 LW
N
775.786 220 M
775.786 217.95 L
S
GR
GS
0.149 GC
2 setlinecap
1 LJ
0.5 LW
N
831.704 220 M
831.704 217.95 L
S
GR
GS
0.149 GC
2 setlinecap
1 LJ
0.5 LW
N
664 35 M
664 37.05 L
S
GR
GS
0.149 GC
2 setlinecap
1 LJ
0.5 LW
N
719.918 35 M
719.918 37.05 L
S
GR
GS
0.149 GC
2 setlinecap
1 LJ
0.5 LW
N
775.786 35 M
775.786 37.05 L
S
GR
GS
0.149 GC
2 setlinecap
1 LJ
0.5 LW
N
831.704 35 M
831.704 37.05 L
S
GR
GS
[1 0 0 1 664 226] CT
0.149 GC
N
f-1171549265
f
GR
GS
[1 0 0 1 664 226] CT
0.149 GC
N
f-2084610355
f
GR
GS
[1 0 0 1 664 226] CT
0.149 GC
N
f1017945436
f
GR
GS
[1 0 0 1 664 226] CT
0.149 GC
N
f-973792135
f
GR
GS
[1 0 0 1 719.9184 226] CT
0.149 GC
N
f-1171549265
f
GR
GS
[1 0 0 1 719.9184 226] CT
0.149 GC
N
f-2084610355
f
GR
GS
[1 0 0 1 719.9184 226] CT
0.149 GC
N
f1017945436
f
GR
GS
[1 0 0 1 719.9184 226] CT
0.149 GC
N
f1350078856
f
GR
GS
[1 0 0 1 775.78571 226] CT
0.149 GC
N
f-1171549265
f
GR
GS
[1 0 0 1 775.78571 226] CT
0.149 GC
N
f-2084610355
f
GR
GS
[1 0 0 1 775.78571 226] CT
0.149 GC
N
f-192727431
f
GR
GS
[1 0 0 1 775.78571 226] CT
0.149 GC
N
f110075864
f
GR
GS
[1 0 0 1 831.7041 226] CT
0.149 GC
N
f-1171549265
f
GR
GS
[1 0 0 1 831.7041 226] CT
0.149 GC
N
f-2084610355
f
GR
GS
[1 0 0 1 831.7041 226] CT
0.149 GC
N
f-192727431
f
GR
GS
[1 0 0 1 831.7041 226] CT
0.149 GC
N
f1622268850
f
GR
GS
0.149 GC
2 setlinecap
1 LJ
0.5 LW
N
664 220 M
664 35 L
S
GR
GS
0.149 GC
2 setlinecap
1 LJ
0.5 LW
N
869 220 M
869 35 L
S
GR
GS
0.149 GC
2 setlinecap
1 LJ
0.5 LW
N
664 220 M
666.05 220 L
S
GR
GS
0.149 GC
2 setlinecap
1 LJ
0.5 LW
N
664 180.23 M
666.05 180.23 L
S
GR
GS
0.149 GC
2 setlinecap
1 LJ
0.5 LW
N
664 140.459 M
666.05 140.459 L
S
GR
GS
0.149 GC
2 setlinecap
1 LJ
0.5 LW
N
664 100.689 M
666.05 100.689 L
S
GR
GS
0.149 GC
2 setlinecap
1 LJ
0.5 LW
N
664 60.919 M
666.05 60.919 L
S
GR
GS
0.149 GC
2 setlinecap
1 LJ
0.5 LW
N
869 220 M
866.95 220 L
S
GR
GS
0.149 GC
2 setlinecap
1 LJ
0.5 LW
N
869 180.23 M
866.95 180.23 L
S
GR
GS
0.149 GC
2 setlinecap
1 LJ
0.5 LW
N
869 140.459 M
866.95 140.459 L
S
GR
GS
0.149 GC
2 setlinecap
1 LJ
0.5 LW
N
869 100.689 M
866.95 100.689 L
S
GR
GS
0.149 GC
2 setlinecap
1 LJ
0.5 LW
N
869 60.919 M
866.95 60.919 L
S
GR
GS
[1 0 0 1 658 220] CT
0.149 GC
N
f1082904893
f
GR
GS
[1 0 0 1 658 220] CT
0.149 GC
N
f208961070
f
GR
GS
[1 0 0 1 658 220] CT
0.149 GC
N
f-943732550
f
GR
GS
[1 0 0 1 658 220] CT
0.149 GC
N
f-959722706
f
GR
GS
[1 0 0 1 658 180.22974] CT
0.149 GC
N
f1082904893
f
GR
GS
[1 0 0 1 658 180.22974] CT
0.149 GC
N
f208961070
f
GR
GS
[1 0 0 1 658 180.22974] CT
0.149 GC
N
f-943732550
f
GR
GS
[1 0 0 1 658 180.22974] CT
0.149 GC
N
f1667698322
f
GR
GS
[1 0 0 1 658 140.45947] CT
0.149 GC
N
f-259944110
f
GR
GS
[1 0 0 1 658 100.6892] CT
0.149 GC
N
f208961070
f
GR
GS
[1 0 0 1 658 100.6892] CT
0.149 GC
N
f-943732550
f
GR
GS
[1 0 0 1 658 100.6892] CT
0.149 GC
N
f1667698322
f
GR
GS
[1 0 0 1 658 60.91893] CT
0.149 GC
N
f208961070
f
GR
GS
[1 0 0 1 658 60.91893] CT
0.149 GC
N
f-943732550
f
GR
GS
[1 0 0 1 658 60.91893] CT
0.149 GC
N
f-959722706
f
GR
GS
[1 0 0 1 766.50073 31.99999] CT
N
/f1853185887{-50.023 -8.296 M
-50.023 -13.906 L
-50.023 -14.093 -49.804 -14.093 QT
-49.507 -14.093 L
-49.445 -14.093 -49.382 -14.031 QT
-49.32 -13.968 -49.32 -13.906 QT
-49.32 -11.546 -47.867 -10.249 QT
-46.414 -8.953 -44.039 -8.953 QT
-43.211 -8.953 -42.507 -9.437 QT
-41.804 -9.921 -41.414 -10.703 QT
-41.023 -11.484 -41.023 -12.312 QT
-41.023 -13.031 -41.312 -13.718 QT
-41.601 -14.406 -42.156 -14.914 QT
-42.711 -15.421 -43.398 -15.578 QT
-46.507 -16.343 L
-48.054 -16.749 -49.039 -18.023 QT
-50.023 -19.296 -50.023 -20.874 QT
-50.023 -22.124 -49.39 -23.21 QT
-48.757 -24.296 -47.679 -24.929 QT
-46.601 -25.562 -45.367 -25.562 QT
-42.961 -25.562 -41.539 -23.937 QT
-40.554 -25.499 L
-40.492 -25.562 -40.398 -25.562 QT
-40.226 -25.562 L
-40.164 -25.562 -40.101 -25.507 QT
-40.039 -25.453 -40.039 -25.359 QT
-40.039 -19.796 L
-40.039 -19.593 -40.226 -19.593 QT
-40.507 -19.593 L
-40.742 -19.593 -40.742 -19.796 QT
-40.742 -20.406 -40.945 -21.132 QT
-41.148 -21.859 -41.507 -22.531 QT
-41.867 -23.203 -42.289 -23.624 QT
-43.461 -24.796 -45.367 -24.796 QT
-46.179 -24.796 -46.875 -24.374 QT
-47.57 -23.953 -47.976 -23.242 QT
-48.382 -22.531 -48.382 -21.749 QT
-48.382 -20.718 -47.75 -19.874 QT
-47.117 -19.031 -46.086 -18.765 QT
-42.961 -17.999 L
-42.195 -17.812 -41.507 -17.328 QT
-40.82 -16.843 -40.359 -16.203 QT
-39.898 -15.562 -39.64 -14.765 QT
-39.382 -13.968 -39.382 -13.124 QT
-39.382 -11.828 -39.984 -10.671 QT
-40.586 -9.515 -41.671 -8.812 QT
-42.757 -8.109 -44.039 -8.109 QT
-44.836 -8.109 -45.671 -8.289 QT
-46.507 -8.468 -47.211 -8.828 QT
-47.914 -9.187 -48.476 -9.765 QT
-49.492 -8.187 L
-49.554 -8.109 -49.664 -8.109 QT
-49.804 -8.109 L
-50.023 -8.109 -50.023 -8.296 QT
cp}def
f1853185887
f
GR
GS
[1 0 0 1 766.50073 31.99999] CT
N
/f2086361310{-37.299 -8.64 M
-37.299 -9.484 L
-36.471 -9.484 -35.947 -9.617 QT
-35.424 -9.749 -35.424 -10.249 QT
-35.424 -16.796 L
-35.424 -17.718 -35.776 -17.929 QT
-36.127 -18.14 -37.19 -18.14 QT
-37.19 -18.984 L
-33.737 -19.249 L
-33.737 -10.249 L
-33.737 -9.749 -33.276 -9.617 QT
-32.815 -9.484 -32.049 -9.484 QT
-32.049 -8.64 L
-37.299 -8.64 L
cp
-36.268 -23.374 M
-36.268 -23.906 -35.869 -24.304 QT
-35.471 -24.703 -34.955 -24.703 QT
-34.627 -24.703 -34.307 -24.523 QT
-33.987 -24.343 -33.815 -24.031 QT
-33.643 -23.718 -33.643 -23.374 QT
-33.643 -22.859 -34.041 -22.46 QT
-34.44 -22.062 -34.955 -22.062 QT
-35.471 -22.062 -35.869 -22.46 QT
-36.268 -22.859 -36.268 -23.374 QT
cp}def
f2086361310
f
GR
GS
[1 0 0 1 766.50073 31.99999] CT
N
/f-756046916{-30.648 -8.64 M
-30.648 -9.484 L
-29.835 -9.484 -29.304 -9.617 QT
-28.773 -9.749 -28.773 -10.249 QT
-28.773 -16.796 L
-28.773 -17.437 -28.968 -17.726 QT
-29.164 -18.015 -29.523 -18.078 QT
-29.882 -18.14 -30.648 -18.14 QT
-30.648 -18.984 L
-27.164 -19.249 L
-27.164 -16.906 L
-26.695 -17.937 -25.75 -18.593 QT
-24.804 -19.249 -23.695 -19.249 QT
-20.929 -19.249 -20.445 -16.999 QT
-19.96 -17.999 -19.039 -18.624 QT
-18.117 -19.249 -17.007 -19.249 QT
-15.914 -19.249 -15.171 -18.898 QT
-14.429 -18.546 -14.054 -17.828 QT
-13.679 -17.109 -13.679 -16.015 QT
-13.679 -10.249 L
-13.679 -9.749 -13.148 -9.617 QT
-12.617 -9.484 -11.804 -9.484 QT
-11.804 -8.64 L
-17.304 -8.64 L
-17.304 -9.484 L
-16.476 -9.484 -15.953 -9.617 QT
-15.429 -9.749 -15.429 -10.249 QT
-15.429 -15.937 L
-15.429 -17.156 -15.765 -17.89 QT
-16.101 -18.624 -17.164 -18.624 QT
-18.539 -18.624 -19.445 -17.515 QT
-20.351 -16.406 -20.351 -14.984 QT
-20.351 -10.249 L
-20.351 -9.749 -19.82 -9.617 QT
-19.289 -9.484 -18.476 -9.484 QT
-18.476 -8.64 L
-23.976 -8.64 L
-23.976 -9.484 L
-23.148 -9.484 -22.625 -9.617 QT
-22.101 -9.749 -22.101 -10.249 QT
-22.101 -15.937 L
-22.101 -17.109 -22.437 -17.867 QT
-22.773 -18.624 -23.835 -18.624 QT
-25.226 -18.624 -26.125 -17.515 QT
-27.023 -16.406 -27.023 -14.984 QT
-27.023 -10.249 L
-27.023 -9.749 -26.492 -9.617 QT
-25.96 -9.484 -25.148 -9.484 QT
-25.148 -8.64 L
-30.648 -8.64 L
cp}def
f-756046916
f
GR
GS
[1 0 0 1 766.50073 31.99999] CT
N
/f859066785{-10.632 -8.64 M
-10.632 -9.484 L
-9.804 -9.484 -9.281 -9.617 QT
-8.757 -9.749 -8.757 -10.249 QT
-8.757 -16.796 L
-8.757 -17.718 -9.109 -17.929 QT
-9.46 -18.14 -10.523 -18.14 QT
-10.523 -18.984 L
-7.07 -19.249 L
-7.07 -10.249 L
-7.07 -9.749 -6.609 -9.617 QT
-6.148 -9.484 -5.382 -9.484 QT
-5.382 -8.64 L
-10.632 -8.64 L
cp
-9.601 -23.374 M
-9.601 -23.906 -9.203 -24.304 QT
-8.804 -24.703 -8.289 -24.703 QT
-7.96 -24.703 -7.64 -24.523 QT
-7.32 -24.343 -7.148 -24.031 QT
-6.976 -23.718 -6.976 -23.374 QT
-6.976 -22.859 -7.374 -22.46 QT
-7.773 -22.062 -8.289 -22.062 QT
-8.804 -22.062 -9.203 -22.46 QT
-9.601 -22.859 -9.601 -23.374 QT
cp}def
f859066785
f
GR
GS
[1 0 0 1 766.50073 31.99999] CT
N
/f-1074857502{-3.966 -8.64 M
-3.966 -9.484 L
-3.137 -9.484 -2.614 -9.617 QT
-2.091 -9.749 -2.091 -10.249 QT
-2.091 -22.843 L
-2.091 -23.484 -2.278 -23.773 QT
-2.466 -24.062 -2.833 -24.124 QT
-3.2 -24.187 -3.966 -24.187 QT
-3.966 -25.031 L
-0.403 -25.296 L
-0.403 -10.249 L
-0.403 -9.749 0.128 -9.617 QT
0.659 -9.484 1.472 -9.484 QT
1.472 -8.64 L
-3.966 -8.64 L
cp}def
f-1074857502
f
GR
GS
[1 0 0 1 766.50073 31.99999] CT
N
/f-2132264269{2.935 -10.999 M
2.935 -12.421 4.06 -13.32 QT
5.185 -14.218 6.756 -14.585 QT
8.326 -14.953 9.748 -14.953 QT
9.748 -15.937 L
9.748 -16.64 9.443 -17.289 QT
9.139 -17.937 8.568 -18.351 QT
7.998 -18.765 7.295 -18.765 QT
5.701 -18.765 4.873 -18.046 QT
5.326 -18.046 5.631 -17.703 QT
5.935 -17.359 5.935 -16.906 QT
5.935 -16.421 5.592 -16.085 QT
5.248 -15.749 4.779 -15.749 QT
4.295 -15.749 3.959 -16.085 QT
3.623 -16.421 3.623 -16.906 QT
3.623 -18.171 4.771 -18.789 QT
5.92 -19.406 7.295 -19.406 QT
8.279 -19.406 9.264 -18.984 QT
10.248 -18.562 10.873 -17.789 QT
11.498 -17.015 11.498 -15.984 QT
11.498 -10.593 L
11.498 -10.124 11.693 -9.726 QT
11.889 -9.328 12.31 -9.328 QT
12.717 -9.328 12.912 -9.726 QT
13.107 -10.124 13.107 -10.593 QT
13.107 -12.124 L
13.81 -12.124 L
13.81 -10.593 L
13.81 -10.046 13.529 -9.562 QT
13.248 -9.078 12.771 -8.789 QT
12.295 -8.499 11.748 -8.499 QT
11.045 -8.499 10.529 -9.046 QT
10.014 -9.593 9.967 -10.343 QT
9.514 -9.437 8.646 -8.906 QT
7.779 -8.374 6.795 -8.374 QT
5.889 -8.374 4.998 -8.64 QT
4.107 -8.906 3.521 -9.492 QT
2.935 -10.078 2.935 -10.999 QT
cp
4.873 -10.999 M
4.873 -10.156 5.498 -9.578 QT
6.123 -8.999 6.967 -8.999 QT
7.732 -8.999 8.365 -9.39 QT
8.998 -9.781 9.373 -10.445 QT
9.748 -11.109 9.748 -11.859 QT
9.748 -14.343 L
8.654 -14.343 7.514 -13.992 QT
6.373 -13.64 5.623 -12.874 QT
4.873 -12.109 4.873 -10.999 QT
cp}def
f-2132264269
f
GR
GS
[1 0 0 1 766.50073 31.99999] CT
N
/f-806799125{14.592 -8.64 M
14.592 -9.484 L
15.404 -9.484 15.935 -9.617 QT
16.467 -9.749 16.467 -10.249 QT
16.467 -16.796 L
16.467 -17.437 16.271 -17.726 QT
16.076 -18.015 15.717 -18.078 QT
15.357 -18.14 14.592 -18.14 QT
14.592 -18.984 L
18.029 -19.249 L
18.029 -16.906 L
18.404 -17.953 19.123 -18.601 QT
19.842 -19.249 20.857 -19.249 QT
21.576 -19.249 22.139 -18.828 QT
22.701 -18.406 22.701 -17.718 QT
22.701 -17.281 22.389 -16.96 QT
22.076 -16.64 21.623 -16.64 QT
21.17 -16.64 20.857 -16.953 QT
20.545 -17.265 20.545 -17.718 QT
20.545 -18.359 20.998 -18.624 QT
20.857 -18.624 L
19.889 -18.624 19.271 -17.921 QT
18.654 -17.218 18.396 -16.179 QT
18.139 -15.14 18.139 -14.187 QT
18.139 -10.249 L
18.139 -9.484 20.467 -9.484 QT
20.467 -8.64 L
14.592 -8.64 L
cp}def
f-806799125
f
GR
GS
[1 0 0 1 766.50073 31.99999] CT
N
/f-901905976{24.101 -8.64 M
24.101 -9.484 L
24.929 -9.484 25.453 -9.617 QT
25.976 -9.749 25.976 -10.249 QT
25.976 -16.796 L
25.976 -17.718 25.625 -17.929 QT
25.273 -18.14 24.21 -18.14 QT
24.21 -18.984 L
27.664 -19.249 L
27.664 -10.249 L
27.664 -9.749 28.125 -9.617 QT
28.585 -9.484 29.351 -9.484 QT
29.351 -8.64 L
24.101 -8.64 L
cp
25.132 -23.374 M
25.132 -23.906 25.531 -24.304 QT
25.929 -24.703 26.445 -24.703 QT
26.773 -24.703 27.093 -24.523 QT
27.414 -24.343 27.585 -24.031 QT
27.757 -23.718 27.757 -23.374 QT
27.757 -22.859 27.359 -22.46 QT
26.96 -22.062 26.445 -22.062 QT
25.929 -22.062 25.531 -22.46 QT
25.132 -22.859 25.132 -23.374 QT
cp}def
f-901905976
f
GR
GS
[1 0 0 1 766.50073 31.99999] CT
N
/f1953041732{32.487 -11.531 M
32.487 -18.14 L
30.487 -18.14 L
30.487 -18.765 L
32.065 -18.765 32.799 -20.234 QT
33.533 -21.703 33.533 -23.406 QT
34.237 -23.406 L
34.237 -18.984 L
37.612 -18.984 L
37.612 -18.14 L
34.237 -18.14 L
34.237 -11.578 L
34.237 -10.578 34.565 -9.828 QT
34.893 -9.078 35.768 -9.078 QT
36.58 -9.078 36.947 -9.867 QT
37.315 -10.656 37.315 -11.578 QT
37.315 -12.984 L
38.002 -12.984 L
38.002 -11.531 L
38.002 -10.781 37.729 -10.046 QT
37.455 -9.312 36.916 -8.843 QT
36.377 -8.374 35.596 -8.374 QT
34.158 -8.374 33.322 -9.234 QT
32.487 -10.093 32.487 -11.531 QT
cp}def
f1953041732
f
GR
GS
[1 0 0 1 766.50073 31.99999] CT
N
/f109042420{40.356 -4.703 M
40.809 -4.343 41.356 -4.343 QT
42.872 -4.343 43.841 -6.624 QT
44.653 -8.64 L
41.059 -17.453 L
40.841 -17.906 40.38 -18.023 QT
39.919 -18.14 39.153 -18.14 QT
39.153 -18.984 L
44.2 -18.984 L
44.2 -18.14 L
42.872 -18.14 42.872 -17.578 QT
42.872 -17.484 42.903 -17.437 QT
45.575 -10.874 L
47.966 -16.781 L
48.044 -16.968 48.044 -17.187 QT
48.044 -17.484 47.888 -17.695 QT
47.731 -17.906 47.474 -18.023 QT
47.216 -18.14 46.903 -18.14 QT
46.903 -18.984 L
50.888 -18.984 L
50.888 -18.14 L
50.153 -18.14 49.599 -17.804 QT
49.044 -17.468 48.731 -16.796 QT
44.591 -6.624 L
44.263 -5.843 43.817 -5.195 QT
43.372 -4.546 42.739 -4.132 QT
42.106 -3.718 41.356 -3.718 QT
40.481 -3.718 39.817 -4.296 QT
39.153 -4.874 39.153 -5.734 QT
39.153 -6.171 39.458 -6.476 QT
39.763 -6.781 40.216 -6.781 QT
40.513 -6.781 40.755 -6.648 QT
40.997 -6.515 41.13 -6.281 QT
41.263 -6.046 41.263 -5.734 QT
41.263 -5.343 41.005 -5.039 QT
40.747 -4.734 40.356 -4.703 QT
cp}def
f109042420
f
GR
GS
0 0.447 0.741 RC
1 LJ
1.5 LW
N
673.184 161.626 M
677.827 183.23 L
682.469 35 L
687.112 187.746 L
691.755 130.388 L
696.398 117.638 L
701.194 170.624 L
705.837 116.397 L
710.48 191.49 L
715.173 126.983 L
719.867 116.636 L
724.459 92.778 L
729.102 96.842 L
733.796 132.466 L
738.49 184.004 L
743.082 98.895 L
747.724 112.698 L
752.418 123.701 L
757.112 204.477 L
761.704 137.716 L
766.347 160.53 L
771.041 100.468 L
775.684 105.712 L
780.327 126.445 L
784.969 161.566 L
789.612 127.958 L
794.408 136.793 L
798.847 131.573 L
803.541 182.011 L
808.337 163.725 L
813.031 160.68 L
817.622 171.733 L
822.265 166.223 L
826.959 140.115 L
831.653 158.124 L
836.245 107.504 L
840.888 159.474 L
845.582 106.966 L
850.276 150.904 L
854.918 189.013 L
859.561 152.759 L
864.255 142.405 L
868.898 154.185 L
S
GR
%%Trailer
%%Pages: 1
%%EOF
