,Future Return,Future Fund Flow,Alpha,Volatility
Constant,86.55767324752053,183.12618431954152,124.82635123354902,-40.3954597381128
Constant,0.4416589910329524,0.47317754612087654,1.1141956450974424,-0.4429034199311947
Negativity Surprise,-42.9575977359188,-10.716693487053096,-6.741463776619069,22.300827417420013
Negativity Surprise,-1.1351607952628262,-0.1794877567778858,-0.3182707577999219,1.6106020815744384
Complexity Surprise,-10.300190363428621,-81.45340196811502,-14.192972762308914,-10.799996194485797
Complexity Surprise,-0.13878658602366575,-0.46031978291859166,-0.3180270204596278,-0.39497015707741967
Confidence Surprise,-13.249744633420221,-17.660617388660704,-8.44130774653374,4.3848159367784465
Confidence Surprise,-1.398976302305129,-1.0300051633692373,-1.6676803190570328,1.783756223723685
Personalness Surprise,79.54947364384658,54.901145948278796,145.13370468755866,4.425381955867941
Personalness Surprise,0.33483874161558347,0.11892401987151568,0.8241414080448629,0.037924846483486936
Similarity,-11.396946869145436,21.009607284789617,-15.429796676883473,-4.158520003184891
Similarity,-0.16811243303979034,0.35251658955636345,-0.5467517871174999,-0.14263925519139906
LN(Fund Size),-6.936678429399678,-10.312675458667266,-21.23469585532972,-4.108230465685427
LN(Fund Size),-0.49053536153311467,-0.2089381404805817,-1.3648035890501304,-0.684879391509412
LN(Fund Age),-12.116250918115588,-49.546473004321086,18.362412982076457,27.412203032741402
LN(Fund Age),-0.1641463513661372,-0.5203485793707012,0.45301201963636273,0.8149678623901871
Expense Ratio,-45.99330464514942,-9.125666961459277,-49.43147123530479,21.36252513448287
Expense Ratio,-0.4829703868741913,-0.0802957008020935,-0.91943879011856,0.9521394425853223
Management Fee,20.902637588803206,-68.20795496758053,-0.1331895206118108,-21.847768222674826
Management Fee,0.3462401105706228,-0.42155435145611214,-0.006124718574385643,-1.1340837630126872
Turnover Ratio,-0.176302151916083,-0.11398719700112481,-0.013511133939433326,0.08367297115908688
Turnover Ratio,-0.9441273036898509,-0.4842826613190132,-0.21071670140849902,1.399442231949519
Team Managed,6.549498393772891,6.343527364719988,2.8442680689654174,-1.5930002943024353
Team Managed,0.3273601094151404,0.38817525725861535,0.24441859236554975,-0.2289305210357192
LN(No. funds),6.327042148981453,9.153731203071438,7.533996784668711,-2.432967281609547
LN(No. funds),0.4453666881728597,1.0538757144910151,1.160253042131263,-0.5190845237369297
Lagged Return,-0.6757640705262183,-0.6192860236810269,-0.35342710908853925,0.10537566348061525
Lagged Return,-1.9740281359560965,-0.8761999240263352,-1.129372550975137,0.8756768920071436
Lagged Fund Flow,0.03627367458261771,-0.011934253101670735,0.022858300105608572,-0.009093394853471616
Lagged Fund Flow,0.3262196233030332,-0.02854804642644296,0.46558393163540024,-0.26168089710609577
Lagged Volatility,0.28646463768457975,-0.10869463648243663,-1.003485764938969,0.26303363904208443
Lagged Volatility,0.23291778890941148,-0.11131302165192364,-1.261277888014238,0.42720489114403953
Return Middle Quintiles,5.1159924075628025,6.43613156091401,1.6285273045911064,-3.1142943964560215
Return Middle Quintiles,0.7454036725214489,0.2385966533563458,0.19464628698256026,-0.7391190608211317
Return Upper Quintile,9.214693534860706,13.15173027725286,0.7701908705759509,-3.1776991674913933
Return Upper Quintile,0.5864589161052824,0.3360834544980868,0.09073994288139008,-0.40956697495914884
Flow Middle Quintiles,-5.580817696436041,0.9348546525580995,0.03306473219171217,1.8232816748904601
Flow Middle Quintiles,-0.8162858376732638,0.05024179394554448,0.00806839490847611,0.7511396647420768
Flow Upper Quintile,-6.6976965047163075,8.590042642697117,-0.9579521111084046,1.837164229917092
Flow Upper Quintile,-0.5033814312953016,0.26004174330833657,-0.1566115100233527,0.37140270220101257
R^2,0.16627976132290068,0.09908970305026776,0.1716381641029735,0.15978469696099618
Obs.,2895.0,2895.0,2895.0,2895.0
Kendalls Tau,0.17531722824843649,0.0818887720843582,0.009984998959944728,0.07876967111412644
LR Pooled,0.0,3.7031195621398936e-257,0.0,0.0
LR Constant,0.0,0.0,0.0,0.0
