,Future Return,Future Fund Flow,Alpha,Volatility
Constant,-26.793117307682394,129.68959629322097,21.33351614196245,0.7123771799823813
Constant,0.8217821782178217,0.6138613861386139,0.6039603960396039,0.9405940594059405
Negativity,-5.729955022641965,-33.438222999228394,-11.871773906482536,-4.6140594404315625
Negativity,0.5841584158415841,0.1188118811881188,0.09900990099009901,0.2376237623762376
Complexity,17.140194110320365,2.667890868590872,5.716305630876133,-3.6208003461040357
Complexity,0.3465346534653465,0.9306930693069307,0.40594059405940597,0.4752475247524752
Confidence,2.9656286118625332,-9.553059066235855,-0.3545481669775612,0.010507587973492973
Confidence,0.6831683168316832,0.3564356435643564,0.9306930693069307,1.0
Personalness,38.76777033088367,9.479654867091707,10.788745574465135,-1.3572984322688135
Personalness,0.39603960396039606,0.9108910891089109,0.6435643564356436,0.8217821782178217
Similarity,6.4890456590362575,-8.722671437489518,0.027985636741102722,-1.722689905093856
Similarity,0.48514851485148514,0.9306930693069307,1.0,0.3069306930693069
LN(Fund Size),-5.478886371939339,-16.465936745495114,-4.082708835916409,-0.06874746859736336
LN(Fund Size),0.04950495049504951,0.04950495049504951,0.0297029702970297,0.9306930693069307
LN(Fund Age),13.133635177318993,-4.123630518476467,3.113667679649535,3.913517224139182
LN(Fund Age),0.6336633663366337,0.9702970297029703,0.6237623762376238,0.5544554455445545
Expense Ratio,0.8924680273195204,-5.603284121445996,-5.984777765646167,2.1805049031928303
Expense Ratio,0.9405940594059405,0.7326732673267327,0.7425742574257426,0.801980198019802
Management Fee,3.186794117402905,-19.010508200087607,2.5896092497907057,-1.1920083938830828
Management Fee,0.46534653465346537,0.0594059405940594,0.09900990099009901,0.5148514851485149
Turnover Ratio,-0.005008740627537482,0.0037931096386234894,0.0014706497530528014,-0.005647304255288752
Turnover Ratio,0.7821782178217822,0.900990099009901,0.8712871287128713,0.39603960396039606
Team Managed,-0.12092437291929754,-4.917833716129572,-0.12046669976401937,-0.8441176641297398
Team Managed,0.9801980198019802,0.48514851485148514,0.9306930693069307,0.5346534653465347
Lagged Return,-0.1389375918671285,-0.4253407967611802,-0.004326753280876865,-0.02208126746283852
Lagged Return,0.8811881188118812,0.2871287128712871,0.9108910891089109,0.37623762376237624
Lagged Fund Flow,0.003726810367066398,0.13354466761707992,-0.02130109790178073,0.012885150980443905
Lagged Fund Flow,0.9504950495049505,0.5742574257425742,0.2079207920792079,0.6534653465346535
Lagged Volatility,1.2926801859519224,-0.4693365322540481,-0.06259546903628903,0.18110506403852036
Lagged Volatility,0.0891089108910891,0.19801980198019803,0.9504950495049505,1.0
Return Middle Quintiles,0.391332753898321,2.804574424320829,-0.9626693524800597,-0.06811119902560775
Return Middle Quintiles,0.8712871287128713,0.7227722772277227,0.32673267326732675,0.9603960396039604
Return Upper Quintile,3.986472253327155,11.759912770090615,-1.669068877351067,-1.2234679852572132
Return Upper Quintile,0.6336633663366337,0.3564356435643564,0.27722772277227725,0.27722772277227725
Flow Middle Quintiles,-1.8115378805622695,-3.1387278276591224,-1.3704468236613048,0.08575398115292554
Flow Middle Quintiles,0.3564356435643564,0.44554455445544555,0.15841584158415842,0.8514851485148515
Flow Upper Quintile,-0.9267708798676786,8.856885619737813,-0.4149123196188165,-0.8704197060074913
Flow Upper Quintile,0.7722772277227723,0.5445544554455446,0.7920792079207921,0.594059405940594
R^2,0.2265572738602033,0.16835589178975086,0.05726215865289441,0.18581551317294775
Obs.,676.0,676.0,676.0,676.0
Kendalls Tau,0.17360508437431516,0.09918036379574842,0.05330703484549638,0.3204207758053912
