%!PS-Adobe-3.0 EPSF-3.0
%%Creator: (MATLAB, The Mathworks, Inc. Version 9.7.0.1216025 \(R2019b\) Update 1. Operating System: Mac OS X)
%%Title: ../../results/trading/trading_simulation_returns_cumulative_reg.eps
%%CreationDate: 2020-03-13T09:32:52
%%Pages: (atend)
%%BoundingBox:    25    39   485   357
%%LanguageLevel: 3
%%EndComments
%%BeginProlog
%%BeginResource: procset (Apache XML Graphics Std ProcSet) 1.2 0
%%Version: 1.2 0
%%Copyright: (Copyright 2001-2003,2010 The Apache Software Foundation. License terms: http://www.apache.org/licenses/LICENSE-2.0)
/bd{bind def}bind def
/ld{load def}bd
/GR/grestore ld
/GS/gsave ld
/RM/rmoveto ld
/C/curveto ld
/t/show ld
/L/lineto ld
/ML/setmiterlimit ld
/CT/concat ld
/f/fill ld
/N/newpath ld
/S/stroke ld
/CC/setcmykcolor ld
/A/ashow ld
/cp/closepath ld
/RC/setrgbcolor ld
/LJ/setlinejoin ld
/GC/setgray ld
/LW/setlinewidth ld
/M/moveto ld
/re {4 2 roll M
1 index 0 rlineto
0 exch rlineto
neg 0 rlineto
cp } bd
/_ctm matrix def
/_tm matrix def
/BT { _ctm currentmatrix pop matrix _tm copy pop 0 0 moveto } bd
/ET { _ctm setmatrix } bd
/iTm { _ctm setmatrix _tm concat } bd
/Tm { _tm astore pop iTm 0 0 moveto } bd
/ux 0.0 def
/uy 0.0 def
/F {
  /Tp exch def
  /Tf exch def
  Tf findfont Tp scalefont setfont
  /cf Tf def  /cs Tp def
} bd
/ULS {currentpoint /uy exch def /ux exch def} bd
/ULE {
  /Tcx currentpoint pop def
  gsave
  newpath
  cf findfont cs scalefont dup
  /FontMatrix get 0 get /Ts exch def /FontInfo get dup
  /UnderlinePosition get Ts mul /To exch def
  /UnderlineThickness get Ts mul /Tt exch def
  ux uy To add moveto  Tcx uy To add lineto
  Tt setlinewidth stroke
  grestore
} bd
/OLE {
  /Tcx currentpoint pop def
  gsave
  newpath
  cf findfont cs scalefont dup
  /FontMatrix get 0 get /Ts exch def /FontInfo get dup
  /UnderlinePosition get Ts mul /To exch def
  /UnderlineThickness get Ts mul /Tt exch def
  ux uy To add cs add moveto Tcx uy To add cs add lineto
  Tt setlinewidth stroke
  grestore
} bd
/SOE {
  /Tcx currentpoint pop def
  gsave
  newpath
  cf findfont cs scalefont dup
  /FontMatrix get 0 get /Ts exch def /FontInfo get dup
  /UnderlinePosition get Ts mul /To exch def
  /UnderlineThickness get Ts mul /Tt exch def
  ux uy To add cs 10 mul 26 idiv add moveto Tcx uy To add cs 10 mul 26 idiv add lineto
  Tt setlinewidth stroke
  grestore
} bd
/QT {
/Y22 exch store
/X22 exch store
/Y21 exch store
/X21 exch store
currentpoint
/Y21 load 2 mul add 3 div exch
/X21 load 2 mul add 3 div exch
/X21 load 2 mul /X22 load add 3 div
/Y21 load 2 mul /Y22 load add 3 div
/X22 load /Y22 load curveto
} bd
/SSPD {
dup length /d exch dict def
{
/v exch def
/k exch def
currentpagedevice k known {
/cpdv currentpagedevice k get def
v cpdv ne {
/upd false def
/nullv v type /nulltype eq def
/nullcpdv cpdv type /nulltype eq def
nullv nullcpdv or
{
/upd true def
} {
/sametype v type cpdv type eq def
sametype {
v type /arraytype eq {
/vlen v length def
/cpdvlen cpdv length def
vlen cpdvlen eq {
0 1 vlen 1 sub {
/i exch def
/obj v i get def
/cpdobj cpdv i get def
obj cpdobj ne {
/upd true def
exit
} if
} for
} {
/upd true def
} ifelse
} {
v type /dicttype eq {
v {
/dv exch def
/dk exch def
/cpddv cpdv dk get def
dv cpddv ne {
/upd true def
exit
} if
} forall
} {
/upd true def
} ifelse
} ifelse
} if
} ifelse
upd true eq {
d k v put
} if
} if
} if
} forall
d length 0 gt {
d setpagedevice
} if
} bd
/RE { % /NewFontName [NewEncodingArray] /FontName RE -
  findfont dup length dict begin
  {
    1 index /FID ne
    {def} {pop pop} ifelse
  } forall
  /Encoding exch def
  /FontName 1 index def
  currentdict definefont pop
  end
} bind def
%%EndResource
%%BeginResource: procset (Apache XML Graphics EPS ProcSet) 1.0 0
%%Version: 1.0 0
%%Copyright: (Copyright 2002-2003 The Apache Software Foundation. License terms: http://www.apache.org/licenses/LICENSE-2.0)
/BeginEPSF { %def
/b4_Inc_state save def         % Save state for cleanup
/dict_count countdictstack def % Count objects on dict stack
/op_count count 1 sub def      % Count objects on operand stack
userdict begin                 % Push userdict on dict stack
/showpage { } def              % Redefine showpage, { } = null proc
0 setgray 0 setlinecap         % Prepare graphics state
1 setlinewidth 0 setlinejoin
10 setmiterlimit [ ] 0 setdash newpath
/languagelevel where           % If level not equal to 1 then
{pop languagelevel             % set strokeadjust and
1 ne                           % overprint to their defaults.
{false setstrokeadjust false setoverprint
} if
} if
} bd
/EndEPSF { %def
count op_count sub {pop} repeat            % Clean up stacks
countdictstack dict_count sub {end} repeat
b4_Inc_state restore
} bd
%%EndResource
%FOPBeginFontDict
%%IncludeResource: font Courier-Oblique
%%IncludeResource: font Courier-BoldOblique
%%IncludeResource: font Courier-Bold
%%IncludeResource: font ZapfDingbats
%%IncludeResource: font Symbol
%%IncludeResource: font Helvetica
%%IncludeResource: font Helvetica-Oblique
%%IncludeResource: font Helvetica-Bold
%%IncludeResource: font Helvetica-BoldOblique
%%IncludeResource: font Times-Roman
%%IncludeResource: font Times-Italic
%%IncludeResource: font Times-Bold
%%IncludeResource: font Times-BoldItalic
%%IncludeResource: font Courier
%FOPEndFontDict
%%BeginResource: encoding WinAnsiEncoding
/WinAnsiEncoding [
/.notdef /.notdef /.notdef /.notdef /.notdef
/.notdef /.notdef /.notdef /.notdef /.notdef
/.notdef /.notdef /.notdef /.notdef /.notdef
/.notdef /.notdef /.notdef /.notdef /.notdef
/.notdef /.notdef /.notdef /.notdef /.notdef
/.notdef /.notdef /.notdef /.notdef /.notdef
/.notdef /.notdef /space /exclam /quotedbl
/numbersign /dollar /percent /ampersand /quotesingle
/parenleft /parenright /asterisk /plus /comma
/hyphen /period /slash /zero /one
/two /three /four /five /six
/seven /eight /nine /colon /semicolon
/less /equal /greater /question /at
/A /B /C /D /E
/F /G /H /I /J
/K /L /M /N /O
/P /Q /R /S /T
/U /V /W /X /Y
/Z /bracketleft /backslash /bracketright /asciicircum
/underscore /quoteleft /a /b /c
/d /e /f /g /h
/i /j /k /l /m
/n /o /p /q /r
/s /t /u /v /w
/x /y /z /braceleft /bar
/braceright /asciitilde /bullet /Euro /bullet
/quotesinglbase /florin /quotedblbase /ellipsis /dagger
/daggerdbl /circumflex /perthousand /Scaron /guilsinglleft
/OE /bullet /Zcaron /bullet /bullet
/quoteleft /quoteright /quotedblleft /quotedblright /bullet
/endash /emdash /asciitilde /trademark /scaron
/guilsinglright /oe /bullet /zcaron /Ydieresis
/space /exclamdown /cent /sterling /currency
/yen /brokenbar /section /dieresis /copyright
/ordfeminine /guillemotleft /logicalnot /sfthyphen /registered
/macron /degree /plusminus /twosuperior /threesuperior
/acute /mu /paragraph /middot /cedilla
/onesuperior /ordmasculine /guillemotright /onequarter /onehalf
/threequarters /questiondown /Agrave /Aacute /Acircumflex
/Atilde /Adieresis /Aring /AE /Ccedilla
/Egrave /Eacute /Ecircumflex /Edieresis /Igrave
/Iacute /Icircumflex /Idieresis /Eth /Ntilde
/Ograve /Oacute /Ocircumflex /Otilde /Odieresis
/multiply /Oslash /Ugrave /Uacute /Ucircumflex
/Udieresis /Yacute /Thorn /germandbls /agrave
/aacute /acircumflex /atilde /adieresis /aring
/ae /ccedilla /egrave /eacute /ecircumflex
/edieresis /igrave /iacute /icircumflex /idieresis
/eth /ntilde /ograve /oacute /ocircumflex
/otilde /odieresis /divide /oslash /ugrave
/uacute /ucircumflex /udieresis /yacute /thorn
/ydieresis
] def
%%EndResource
%FOPBeginFontReencode
/Courier-Oblique findfont
dup length dict begin
  {1 index /FID ne {def} {pop pop} ifelse} forall
  /Encoding WinAnsiEncoding def
  currentdict
end
/Courier-Oblique exch definefont pop
/Courier-BoldOblique findfont
dup length dict begin
  {1 index /FID ne {def} {pop pop} ifelse} forall
  /Encoding WinAnsiEncoding def
  currentdict
end
/Courier-BoldOblique exch definefont pop
/Courier-Bold findfont
dup length dict begin
  {1 index /FID ne {def} {pop pop} ifelse} forall
  /Encoding WinAnsiEncoding def
  currentdict
end
/Courier-Bold exch definefont pop
/Helvetica findfont
dup length dict begin
  {1 index /FID ne {def} {pop pop} ifelse} forall
  /Encoding WinAnsiEncoding def
  currentdict
end
/Helvetica exch definefont pop
/Helvetica-Oblique findfont
dup length dict begin
  {1 index /FID ne {def} {pop pop} ifelse} forall
  /Encoding WinAnsiEncoding def
  currentdict
end
/Helvetica-Oblique exch definefont pop
/Helvetica-Bold findfont
dup length dict begin
  {1 index /FID ne {def} {pop pop} ifelse} forall
  /Encoding WinAnsiEncoding def
  currentdict
end
/Helvetica-Bold exch definefont pop
/Helvetica-BoldOblique findfont
dup length dict begin
  {1 index /FID ne {def} {pop pop} ifelse} forall
  /Encoding WinAnsiEncoding def
  currentdict
end
/Helvetica-BoldOblique exch definefont pop
/Times-Roman findfont
dup length dict begin
  {1 index /FID ne {def} {pop pop} ifelse} forall
  /Encoding WinAnsiEncoding def
  currentdict
end
/Times-Roman exch definefont pop
/Times-Italic findfont
dup length dict begin
  {1 index /FID ne {def} {pop pop} ifelse} forall
  /Encoding WinAnsiEncoding def
  currentdict
end
/Times-Italic exch definefont pop
/Times-Bold findfont
dup length dict begin
  {1 index /FID ne {def} {pop pop} ifelse} forall
  /Encoding WinAnsiEncoding def
  currentdict
end
/Times-Bold exch definefont pop
/Times-BoldItalic findfont
dup length dict begin
  {1 index /FID ne {def} {pop pop} ifelse} forall
  /Encoding WinAnsiEncoding def
  currentdict
end
/Times-BoldItalic exch definefont pop
/Courier findfont
dup length dict begin
  {1 index /FID ne {def} {pop pop} ifelse} forall
  /Encoding WinAnsiEncoding def
  currentdict
end
/Courier exch definefont pop
%FOPEndFontReencode
%%EndProlog
%%Page: 1 1
%%PageBoundingBox: 0 0 533 380
%%BeginPageSetup
[1 0 0 -1 0 380] CT
%%EndPageSetup
GS
[1.00063 0 0 1 0 0] CT
1 GC
N
0 0 533 380 re
f
GR
GS
[1.00063 0 0 1 0 0] CT
1 GC
N
0 0 533 380 re
f
GR
GS
[1.00063 0 0 1 0 0] CT
1 GC
N
69.5 283.5 M
482.5 283.5 L
482.5 24 L
69.5 24 L
cp
f
GR
GS
[1.00063 0 0 1 0 0] CT
0.149 GC
2 setlinecap
1 LJ
0.5 LW
N
69.5 283.5 M
482.5 283.5 L
S
GR
GS
[1.00063 0 0 1 0 0] CT
0.149 GC
2 setlinecap
1 LJ
0.5 LW
N
69.5 24 M
482.5 24 L
S
GR
GS
[1.00063 0 0 1 0 0] CT
0.149 GC
2 setlinecap
1 LJ
0.5 LW
N
94.963 283.5 M
94.963 279.37 L
S
GR
GS
[1.00063 0 0 1 0 0] CT
0.149 GC
2 setlinecap
1 LJ
0.5 LW
N
181.942 283.5 M
181.942 279.37 L
S
GR
GS
[1.00063 0 0 1 0 0] CT
0.149 GC
2 setlinecap
1 LJ
0.5 LW
N
268.801 283.5 M
268.801 279.37 L
S
GR
GS
[1.00063 0 0 1 0 0] CT
0.149 GC
2 setlinecap
1 LJ
0.5 LW
N
355.78 283.5 M
355.78 279.37 L
S
GR
GS
[1.00063 0 0 1 0 0] CT
0.149 GC
2 setlinecap
1 LJ
0.5 LW
N
442.64 283.5 M
442.64 279.37 L
S
GR
GS
[1.00063 0 0 1 0 0] CT
0.149 GC
2 setlinecap
1 LJ
0.5 LW
N
94.963 24 M
94.963 28.13 L
S
GR
GS
[1.00063 0 0 1 0 0] CT
0.149 GC
2 setlinecap
1 LJ
0.5 LW
N
181.942 24 M
181.942 28.13 L
S
GR
GS
[1.00063 0 0 1 0 0] CT
0.149 GC
2 setlinecap
1 LJ
0.5 LW
N
268.801 24 M
268.801 28.13 L
S
GR
GS
[1.00063 0 0 1 0 0] CT
0.149 GC
2 setlinecap
1 LJ
0.5 LW
N
355.78 24 M
355.78 28.13 L
S
GR
GS
[1.00063 0 0 1 0 0] CT
0.149 GC
2 setlinecap
1 LJ
0.5 LW
N
442.64 24 M
442.64 28.13 L
S
GR
GS
[1.00063 0 0 1 95.02237 289.5] CT
0.149 GC
N
-19 16.8 M
-19 16.269 L
-19 16.206 -18.969 16.159 QT
-15.859 12.722 L
-15.156 11.956 -14.719 11.441 QT
-14.281 10.925 -13.852 10.245 QT
-13.422 9.566 -13.172 8.87 QT
-12.922 8.175 -12.922 7.394 QT
-12.922 6.581 -13.227 5.831 QT
-13.531 5.081 -14.125 4.628 QT
-14.719 4.175 -15.578 4.175 QT
-16.438 4.175 -17.133 4.698 QT
-17.828 5.222 -18.109 6.05 QT
-18.031 6.034 -17.906 6.034 QT
-17.453 6.034 -17.133 6.339 QT
-16.813 6.644 -16.813 7.128 QT
-16.813 7.581 -17.133 7.901 QT
-17.453 8.222 -17.906 8.222 QT
-18.375 8.222 -18.688 7.894 QT
-19 7.566 -19 7.128 QT
-19 6.362 -18.719 5.706 QT
-18.438 5.05 -17.906 4.534 QT
-17.375 4.019 -16.703 3.745 QT
-16.031 3.472 -15.281 3.472 QT
-14.141 3.472 -13.156 3.956 QT
-12.172 4.441 -11.594 5.323 QT
-11.016 6.206 -11.016 7.394 QT
-11.016 8.269 -11.398 9.05 QT
-11.781 9.831 -12.375 10.472 QT
-12.969 11.112 -13.898 11.917 QT
-14.828 12.722 -15.109 13.003 QT
-17.375 15.175 L
-15.453 15.175 L
-14.047 15.175 -13.094 15.151 QT
-12.141 15.128 -12.078 15.081 QT
-11.844 14.831 -11.594 13.237 QT
-11.016 13.237 L
-11.578 16.8 L
-19 16.8 L
cp
f
GR
GS
[1.00063 0 0 1 95.02237 289.5] CT
0.149 GC
N
-5 17.237 M
-7.453 17.237 -8.336 15.222 QT
-9.219 13.206 -9.219 10.425 QT
-9.219 8.691 -8.898 7.151 QT
-8.578 5.612 -7.641 4.542 QT
-6.703 3.472 -5 3.472 QT
-3.688 3.472 -2.844 4.12 QT
-2 4.769 -1.563 5.792 QT
-1.125 6.816 -0.961 7.98 QT
-0.797 9.144 -0.797 10.425 QT
-0.797 12.144 -1.117 13.644 QT
-1.438 15.144 -2.367 16.191 QT
-3.297 17.237 -5 17.237 QT
cp
-5 16.722 M
-3.891 16.722 -3.344 15.581 QT
-2.797 14.441 -2.664 13.05 QT
-2.531 11.659 -2.531 10.097 QT
-2.531 8.597 -2.664 7.323 QT
-2.797 6.05 -3.336 5.026 QT
-3.875 4.003 -5 4.003 QT
-6.125 4.003 -6.672 5.034 QT
-7.219 6.066 -7.352 7.331 QT
-7.484 8.597 -7.484 10.097 QT
-7.484 11.206 -7.43 12.198 QT
-7.375 13.191 -7.141 14.237 QT
-6.906 15.284 -6.383 16.003 QT
-5.859 16.722 -5 16.722 QT
cp
f
GR
GS
[1.00063 0 0 1 95.02237 289.5] CT
0.149 GC
N
5 17.237 M
2.547 17.237 1.664 15.222 QT
0.781 13.206 0.781 10.425 QT
0.781 8.691 1.102 7.151 QT
1.422 5.612 2.359 4.542 QT
3.297 3.472 5 3.472 QT
6.313 3.472 7.156 4.12 QT
8 4.769 8.438 5.792 QT
8.875 6.816 9.039 7.98 QT
9.203 9.144 9.203 10.425 QT
9.203 12.144 8.883 13.644 QT
8.563 15.144 7.633 16.191 QT
6.703 17.237 5 17.237 QT
cp
5 16.722 M
6.109 16.722 6.656 15.581 QT
7.203 14.441 7.336 13.05 QT
7.469 11.659 7.469 10.097 QT
7.469 8.597 7.336 7.323 QT
7.203 6.05 6.664 5.026 QT
6.125 4.003 5 4.003 QT
3.875 4.003 3.328 5.034 QT
2.781 6.066 2.648 7.331 QT
2.516 8.597 2.516 10.097 QT
2.516 11.206 2.57 12.198 QT
2.625 13.191 2.859 14.237 QT
3.094 15.284 3.617 16.003 QT
4.141 16.722 5 16.722 QT
cp
f
GR
GS
[1.00063 0 0 1 95.02237 289.5] CT
0.149 GC
N
10.844 13.769 M
10.844 12.566 11.633 11.644 QT
12.422 10.722 13.656 10.097 QT
12.922 9.628 L
12.234 9.175 11.805 8.425 QT
11.375 7.675 11.375 6.862 QT
11.375 5.894 11.883 5.128 QT
12.391 4.362 13.219 3.917 QT
14.047 3.472 15 3.472 QT
15.891 3.472 16.719 3.839 QT
17.547 4.206 18.078 4.878 QT
18.609 5.55 18.609 6.472 QT
18.609 7.144 18.289 7.722 QT
17.969 8.3 17.414 8.761 QT
16.859 9.222 16.234 9.55 QT
17.391 10.269 L
18.172 10.8 18.656 11.636 QT
19.141 12.472 19.141 13.394 QT
19.141 14.487 18.563 15.378 QT
17.984 16.269 17.023 16.753 QT
16.063 17.237 15 17.237 QT
13.969 17.237 13.008 16.816 QT
12.047 16.394 11.445 15.597 QT
10.844 14.8 10.844 13.769 QT
cp
11.922 13.769 M
11.922 14.55 12.359 15.206 QT
12.797 15.862 13.508 16.23 QT
14.219 16.597 15 16.597 QT
16.156 16.597 17.109 15.925 QT
18.063 15.253 18.063 14.128 QT
18.063 13.737 17.906 13.362 QT
17.75 12.987 17.484 12.683 QT
17.219 12.378 16.891 12.175 QT
14.203 10.441 L
13.578 10.769 13.055 11.276 QT
12.531 11.784 12.227 12.425 QT
11.922 13.066 11.922 13.769 QT
cp
13.297 7.659 M
15.719 9.222 L
16.563 8.737 17.102 8.042 QT
17.641 7.347 17.641 6.472 QT
17.641 5.8 17.266 5.237 QT
16.891 4.675 16.281 4.362 QT
15.672 4.05 14.984 4.05 QT
14.375 4.05 13.758 4.284 QT
13.141 4.519 12.742 4.987 QT
12.344 5.456 12.344 6.081 QT
12.344 7.019 13.297 7.659 QT
cp
f
GR
GS
[1.00063 0 0 1 182.05544 289.5] CT
0.149 GC
N
/f-1171549265{-19 16.8 M
-19 16.269 L
-19 16.206 -18.969 16.159 QT
-15.859 12.722 L
-15.156 11.956 -14.719 11.441 QT
-14.281 10.925 -13.852 10.245 QT
-13.422 9.566 -13.172 8.87 QT
-12.922 8.175 -12.922 7.394 QT
-12.922 6.581 -13.227 5.831 QT
-13.531 5.081 -14.125 4.628 QT
-14.719 4.175 -15.578 4.175 QT
-16.438 4.175 -17.133 4.698 QT
-17.828 5.222 -18.109 6.05 QT
-18.031 6.034 -17.906 6.034 QT
-17.453 6.034 -17.133 6.339 QT
-16.813 6.644 -16.813 7.128 QT
-16.813 7.581 -17.133 7.901 QT
-17.453 8.222 -17.906 8.222 QT
-18.375 8.222 -18.688 7.894 QT
-19 7.566 -19 7.128 QT
-19 6.362 -18.719 5.706 QT
-18.438 5.05 -17.906 4.534 QT
-17.375 4.019 -16.703 3.745 QT
-16.031 3.472 -15.281 3.472 QT
-14.141 3.472 -13.156 3.956 QT
-12.172 4.441 -11.594 5.323 QT
-11.016 6.206 -11.016 7.394 QT
-11.016 8.269 -11.398 9.05 QT
-11.781 9.831 -12.375 10.472 QT
-12.969 11.112 -13.898 11.917 QT
-14.828 12.722 -15.109 13.003 QT
-17.375 15.175 L
-15.453 15.175 L
-14.047 15.175 -13.094 15.151 QT
-12.141 15.128 -12.078 15.081 QT
-11.844 14.831 -11.594 13.237 QT
-11.016 13.237 L
-11.578 16.8 L
-19 16.8 L
cp}def
f-1171549265
f
GR
GS
[1.00063 0 0 1 182.05544 289.5] CT
0.149 GC
N
/f-2084610355{-5 17.237 M
-7.453 17.237 -8.336 15.222 QT
-9.219 13.206 -9.219 10.425 QT
-9.219 8.691 -8.898 7.151 QT
-8.578 5.612 -7.641 4.542 QT
-6.703 3.472 -5 3.472 QT
-3.688 3.472 -2.844 4.12 QT
-2 4.769 -1.563 5.792 QT
-1.125 6.816 -0.961 7.98 QT
-0.797 9.144 -0.797 10.425 QT
-0.797 12.144 -1.117 13.644 QT
-1.438 15.144 -2.367 16.191 QT
-3.297 17.237 -5 17.237 QT
cp
-5 16.722 M
-3.891 16.722 -3.344 15.581 QT
-2.797 14.441 -2.664 13.05 QT
-2.531 11.659 -2.531 10.097 QT
-2.531 8.597 -2.664 7.323 QT
-2.797 6.05 -3.336 5.026 QT
-3.875 4.003 -5 4.003 QT
-6.125 4.003 -6.672 5.034 QT
-7.219 6.066 -7.352 7.331 QT
-7.484 8.597 -7.484 10.097 QT
-7.484 11.206 -7.43 12.198 QT
-7.375 13.191 -7.141 14.237 QT
-6.906 15.284 -6.383 16.003 QT
-5.859 16.722 -5 16.722 QT
cp}def
f-2084610355
f
GR
GS
[1.00063 0 0 1 182.05544 289.5] CT
0.149 GC
N
/f-192727431{1.859 16.8 M
1.859 16.097 L
4.359 16.097 4.359 15.456 QT
4.359 4.956 L
3.328 5.456 1.734 5.456 QT
1.734 4.753 L
4.188 4.753 5.438 3.472 QT
5.719 3.472 L
5.797 3.472 5.859 3.526 QT
5.922 3.581 5.922 3.659 QT
5.922 15.456 L
5.922 16.097 8.422 16.097 QT
8.422 16.8 L
1.859 16.8 L
cp}def
f-192727431
f
GR
GS
[1.00063 0 0 1 182.05544 289.5] CT
0.149 GC
N
/f-1674586926{15 17.237 M
12.547 17.237 11.664 15.222 QT
10.781 13.206 10.781 10.425 QT
10.781 8.691 11.102 7.151 QT
11.422 5.612 12.359 4.542 QT
13.297 3.472 15 3.472 QT
16.313 3.472 17.156 4.12 QT
18 4.769 18.438 5.792 QT
18.875 6.816 19.039 7.98 QT
19.203 9.144 19.203 10.425 QT
19.203 12.144 18.883 13.644 QT
18.563 15.144 17.633 16.191 QT
16.703 17.237 15 17.237 QT
cp
15 16.722 M
16.109 16.722 16.656 15.581 QT
17.203 14.441 17.336 13.05 QT
17.469 11.659 17.469 10.097 QT
17.469 8.597 17.336 7.323 QT
17.203 6.05 16.664 5.026 QT
16.125 4.003 15 4.003 QT
13.875 4.003 13.328 5.034 QT
12.781 6.066 12.648 7.331 QT
12.516 8.597 12.516 10.097 QT
12.516 11.206 12.57 12.198 QT
12.625 13.191 12.859 14.237 QT
13.094 15.284 13.617 16.003 QT
14.141 16.722 15 16.722 QT
cp}def
f-1674586926
f
GR
GS
[1.00063 0 0 1 268.96946 289.5] CT
0.149 GC
N
f-1171549265
f
GR
GS
[1.00063 0 0 1 268.96946 289.5] CT
0.149 GC
N
f-2084610355
f
GR
GS
[1.00063 0 0 1 268.96946 289.5] CT
0.149 GC
N
f-192727431
f
GR
GS
[1.00063 0 0 1 268.96946 289.5] CT
0.149 GC
N
/f110075864{11 16.8 M
11 16.269 L
11 16.206 11.031 16.159 QT
14.141 12.722 L
14.844 11.956 15.281 11.441 QT
15.719 10.925 16.148 10.245 QT
16.578 9.566 16.828 8.87 QT
17.078 8.175 17.078 7.394 QT
17.078 6.581 16.773 5.831 QT
16.469 5.081 15.875 4.628 QT
15.281 4.175 14.422 4.175 QT
13.563 4.175 12.867 4.698 QT
12.172 5.222 11.891 6.05 QT
11.969 6.034 12.094 6.034 QT
12.547 6.034 12.867 6.339 QT
13.188 6.644 13.188 7.128 QT
13.188 7.581 12.867 7.901 QT
12.547 8.222 12.094 8.222 QT
11.625 8.222 11.313 7.894 QT
11 7.566 11 7.128 QT
11 6.362 11.281 5.706 QT
11.563 5.05 12.094 4.534 QT
12.625 4.019 13.297 3.745 QT
13.969 3.472 14.719 3.472 QT
15.859 3.472 16.844 3.956 QT
17.828 4.441 18.406 5.323 QT
18.984 6.206 18.984 7.394 QT
18.984 8.269 18.602 9.05 QT
18.219 9.831 17.625 10.472 QT
17.031 11.112 16.102 11.917 QT
15.172 12.722 14.891 13.003 QT
12.625 15.175 L
14.547 15.175 L
15.953 15.175 16.906 15.151 QT
17.859 15.128 17.922 15.081 QT
18.156 14.831 18.406 13.237 QT
18.984 13.237 L
18.422 16.8 L
11 16.8 L
cp}def
f110075864
f
GR
GS
[1.00063 0 0 1 356.00252 289.5] CT
0.149 GC
N
f-1171549265
f
GR
GS
[1.00063 0 0 1 356.00252 289.5] CT
0.149 GC
N
f-2084610355
f
GR
GS
[1.00063 0 0 1 356.00252 289.5] CT
0.149 GC
N
f-192727431
f
GR
GS
[1.00063 0 0 1 356.00252 289.5] CT
0.149 GC
N
/f194291650{10.563 13.503 M
10.563 12.8 L
16.734 3.581 L
16.813 3.472 16.938 3.472 QT
17.234 3.472 L
17.469 3.472 17.469 3.706 QT
17.469 12.8 L
19.422 12.8 L
19.422 13.503 L
17.469 13.503 L
17.469 15.456 L
17.469 15.878 18.055 15.987 QT
18.641 16.097 19.406 16.097 QT
19.406 16.8 L
13.891 16.8 L
13.891 16.097 L
14.672 16.097 15.258 15.987 QT
15.844 15.878 15.844 15.456 QT
15.844 13.503 L
10.563 13.503 L
cp
11.219 12.8 M
15.953 12.8 L
15.953 5.722 L
11.219 12.8 L
cp}def
f194291650
f
GR
GS
[1.00063 0 0 1 442.91655 289.5] CT
0.149 GC
N
f-1171549265
f
GR
GS
[1.00063 0 0 1 442.91655 289.5] CT
0.149 GC
N
f-2084610355
f
GR
GS
[1.00063 0 0 1 442.91655 289.5] CT
0.149 GC
N
f-192727431
f
GR
GS
[1.00063 0 0 1 442.91655 289.5] CT
0.149 GC
N
/f-973792135{15 17.237 M
13.766 17.237 12.93 16.581 QT
12.094 15.925 11.641 14.87 QT
11.188 13.816 11.016 12.667 QT
10.844 11.519 10.844 10.331 QT
10.844 8.753 11.461 7.159 QT
12.078 5.566 13.273 4.519 QT
14.469 3.472 16.109 3.472 QT
16.781 3.472 17.375 3.737 QT
17.969 4.003 18.305 4.503 QT
18.641 5.003 18.641 5.722 QT
18.641 6.128 18.367 6.401 QT
18.094 6.675 17.672 6.675 QT
17.281 6.675 17 6.394 QT
16.719 6.112 16.719 5.722 QT
16.719 5.331 17 5.042 QT
17.281 4.753 17.672 4.753 QT
17.781 4.753 L
17.531 4.394 17.07 4.222 QT
16.609 4.05 16.109 4.05 QT
15.5 4.05 14.984 4.316 QT
14.469 4.581 14.063 5.034 QT
13.656 5.487 13.383 6.026 QT
13.109 6.566 12.953 7.261 QT
12.797 7.956 12.758 8.558 QT
12.719 9.159 12.719 10.081 QT
13.078 9.253 13.719 8.737 QT
14.359 8.222 15.172 8.222 QT
16.063 8.222 16.797 8.581 QT
17.531 8.941 18.055 9.581 QT
18.578 10.222 18.859 11.042 QT
19.141 11.862 19.141 12.691 QT
19.141 13.862 18.617 14.925 QT
18.094 15.987 17.148 16.612 QT
16.203 17.237 15 17.237 QT
cp
15 16.597 M
15.766 16.597 16.234 16.245 QT
16.703 15.894 16.93 15.316 QT
17.156 14.737 17.203 14.144 QT
17.25 13.55 17.25 12.691 QT
17.25 11.566 17.148 10.761 QT
17.047 9.956 16.563 9.347 QT
16.078 8.737 15.094 8.737 QT
14.281 8.737 13.766 9.284 QT
13.25 9.831 13.008 10.667 QT
12.766 11.503 12.766 12.284 QT
12.766 12.534 12.781 12.675 QT
12.781 12.706 12.781 12.73 QT
12.781 12.753 12.766 12.769 QT
12.766 13.628 12.938 14.511 QT
13.109 15.394 13.609 15.995 QT
14.109 16.597 15 16.597 QT
cp}def
f-973792135
f
GR
GS
[1.00063 0 0 1 0 0] CT
0.149 GC
2 setlinecap
1 LJ
0.5 LW
N
69.5 283.5 M
69.5 24 L
S
GR
GS
[1.00063 0 0 1 0 0] CT
0.149 GC
2 setlinecap
1 LJ
0.5 LW
N
482.5 283.5 M
482.5 24 L
S
GR
GS
[1.00063 0 0 1 0 0] CT
0.149 GC
2 setlinecap
1 LJ
0.5 LW
N
69.5 283.5 M
73.63 283.5 L
S
GR
GS
[1.00063 0 0 1 0 0] CT
0.149 GC
2 setlinecap
1 LJ
0.5 LW
N
69.5 233.596 M
73.63 233.596 L
S
GR
GS
[1.00063 0 0 1 0 0] CT
0.149 GC
2 setlinecap
1 LJ
0.5 LW
N
69.5 183.692 M
73.63 183.692 L
S
GR
GS
[1.00063 0 0 1 0 0] CT
0.149 GC
2 setlinecap
1 LJ
0.5 LW
N
69.5 133.788 M
73.63 133.788 L
S
GR
GS
[1.00063 0 0 1 0 0] CT
0.149 GC
2 setlinecap
1 LJ
0.5 LW
N
69.5 83.885 M
73.63 83.885 L
S
GR
GS
[1.00063 0 0 1 0 0] CT
0.149 GC
2 setlinecap
1 LJ
0.5 LW
N
69.5 33.981 M
73.63 33.981 L
S
GR
GS
[1.00063 0 0 1 0 0] CT
0.149 GC
2 setlinecap
1 LJ
0.5 LW
N
482.5 283.5 M
478.37 283.5 L
S
GR
GS
[1.00063 0 0 1 0 0] CT
0.149 GC
2 setlinecap
1 LJ
0.5 LW
N
482.5 233.596 M
478.37 233.596 L
S
GR
GS
[1.00063 0 0 1 0 0] CT
0.149 GC
2 setlinecap
1 LJ
0.5 LW
N
482.5 183.692 M
478.37 183.692 L
S
GR
GS
[1.00063 0 0 1 0 0] CT
0.149 GC
2 setlinecap
1 LJ
0.5 LW
N
482.5 133.788 M
478.37 133.788 L
S
GR
GS
[1.00063 0 0 1 0 0] CT
0.149 GC
2 setlinecap
1 LJ
0.5 LW
N
482.5 83.885 M
478.37 83.885 L
S
GR
GS
[1.00063 0 0 1 0 0] CT
0.149 GC
2 setlinecap
1 LJ
0.5 LW
N
482.5 33.981 M
478.37 33.981 L
S
GR
GS
[1.00063 0 0 1 63.53971 283.5] CT
0.149 GC
N
/f-2053354270{-26.448 1.097 M
-26.448 -0.138 L
-21.151 -0.138 L
-21.151 1.097 L
-26.448 1.097 L
cp}def
f-2053354270
f
GR
GS
[1.00063 0 0 1 63.53971 283.5] CT
0.149 GC
N
/f-1648412593{-18.266 2.519 M
-18.063 3.112 -17.633 3.589 QT
-17.203 4.066 -16.625 4.331 QT
-16.047 4.597 -15.422 4.597 QT
-13.969 4.597 -13.422 3.48 QT
-12.875 2.362 -12.875 0.753 QT
-12.875 0.066 -12.898 -0.411 QT
-12.922 -0.888 -13.031 -1.325 QT
-13.219 -2.028 -13.688 -2.552 QT
-14.156 -3.075 -14.828 -3.075 QT
-15.5 -3.075 -15.984 -2.872 QT
-16.469 -2.669 -16.766 -2.395 QT
-17.063 -2.122 -17.297 -1.817 QT
-17.531 -1.513 -17.594 -1.497 QT
-17.828 -1.497 L
-17.875 -1.497 -17.945 -1.559 QT
-18.016 -1.622 -18.016 -1.684 QT
-18.016 -8.372 L
-18.016 -8.419 -17.953 -8.474 QT
-17.891 -8.528 -17.828 -8.528 QT
-17.766 -8.528 L
-16.422 -7.872 -14.906 -7.872 QT
-13.422 -7.872 -12.047 -8.528 QT
-11.984 -8.528 L
-11.906 -8.528 -11.852 -8.474 QT
-11.797 -8.419 -11.797 -8.372 QT
-11.797 -8.184 L
-11.797 -8.075 -11.828 -8.075 QT
-12.516 -7.169 -13.547 -6.661 QT
-14.578 -6.153 -15.688 -6.153 QT
-16.484 -6.153 -17.328 -6.388 QT
-17.328 -2.606 L
-16.656 -3.138 -16.133 -3.372 QT
-15.609 -3.606 -14.797 -3.606 QT
-13.703 -3.606 -12.828 -2.966 QT
-11.953 -2.325 -11.484 -1.309 QT
-11.016 -0.294 -11.016 0.769 QT
-11.016 1.972 -11.609 3.003 QT
-12.203 4.034 -13.219 4.636 QT
-14.234 5.237 -15.422 5.237 QT
-16.406 5.237 -17.234 4.73 QT
-18.063 4.222 -18.531 3.362 QT
-19 2.503 -19 1.534 QT
-19 1.081 -18.711 0.8 QT
-18.422 0.519 -17.984 0.519 QT
-17.531 0.519 -17.234 0.808 QT
-16.938 1.097 -16.938 1.534 QT
-16.938 1.972 -17.234 2.269 QT
-17.531 2.566 -17.984 2.566 QT
-18.047 2.566 -18.133 2.55 QT
-18.219 2.534 -18.266 2.519 QT
cp}def
f-1648412593
f
GR
GS
[1.00063 0 0 1 63.53971 283.5] CT
0.149 GC
N
/f-259944110{-5 5.237 M
-7.453 5.237 -8.336 3.222 QT
-9.219 1.206 -9.219 -1.575 QT
-9.219 -3.309 -8.898 -4.849 QT
-8.578 -6.388 -7.641 -7.458 QT
-6.703 -8.528 -5 -8.528 QT
-3.688 -8.528 -2.844 -7.88 QT
-2 -7.231 -1.563 -6.208 QT
-1.125 -5.184 -0.961 -4.02 QT
-0.797 -2.856 -0.797 -1.575 QT
-0.797 0.144 -1.117 1.644 QT
-1.438 3.144 -2.367 4.191 QT
-3.297 5.237 -5 5.237 QT
cp
-5 4.722 M
-3.891 4.722 -3.344 3.581 QT
-2.797 2.441 -2.664 1.05 QT
-2.531 -0.341 -2.531 -1.903 QT
-2.531 -3.403 -2.664 -4.677 QT
-2.797 -5.95 -3.336 -6.974 QT
-3.875 -7.997 -5 -7.997 QT
-6.125 -7.997 -6.672 -6.966 QT
-7.219 -5.934 -7.352 -4.669 QT
-7.484 -3.403 -7.484 -1.903 QT
-7.484 -0.794 -7.43 0.198 QT
-7.375 1.191 -7.141 2.237 QT
-6.906 3.284 -6.383 4.003 QT
-5.859 4.722 -5 4.722 QT
cp}def
f-259944110
f
GR
GS
[1.00063 0 0 1 63.53971 233.59616] CT
0.149 GC
N
f-2053354270
f
GR
GS
[1.00063 0 0 1 63.53971 233.59616] CT
0.149 GC
N
/f-1760610010{-19 4.8 M
-19 4.269 L
-19 4.206 -18.969 4.159 QT
-15.859 0.722 L
-15.156 -0.044 -14.719 -0.559 QT
-14.281 -1.075 -13.852 -1.755 QT
-13.422 -2.434 -13.172 -3.13 QT
-12.922 -3.825 -12.922 -4.606 QT
-12.922 -5.419 -13.227 -6.169 QT
-13.531 -6.919 -14.125 -7.372 QT
-14.719 -7.825 -15.578 -7.825 QT
-16.438 -7.825 -17.133 -7.302 QT
-17.828 -6.778 -18.109 -5.95 QT
-18.031 -5.966 -17.906 -5.966 QT
-17.453 -5.966 -17.133 -5.661 QT
-16.813 -5.356 -16.813 -4.872 QT
-16.813 -4.419 -17.133 -4.099 QT
-17.453 -3.778 -17.906 -3.778 QT
-18.375 -3.778 -18.688 -4.106 QT
-19 -4.434 -19 -4.872 QT
-19 -5.638 -18.719 -6.294 QT
-18.438 -6.95 -17.906 -7.466 QT
-17.375 -7.981 -16.703 -8.255 QT
-16.031 -8.528 -15.281 -8.528 QT
-14.141 -8.528 -13.156 -8.044 QT
-12.172 -7.559 -11.594 -6.677 QT
-11.016 -5.794 -11.016 -4.606 QT
-11.016 -3.731 -11.398 -2.95 QT
-11.781 -2.169 -12.375 -1.528 QT
-12.969 -0.888 -13.898 -0.083 QT
-14.828 0.722 -15.109 1.003 QT
-17.375 3.175 L
-15.453 3.175 L
-14.047 3.175 -13.094 3.151 QT
-12.141 3.128 -12.078 3.081 QT
-11.844 2.831 -11.594 1.237 QT
-11.016 1.237 L
-11.578 4.8 L
-19 4.8 L
cp}def
f-1760610010
f
GR
GS
[1.00063 0 0 1 63.53971 233.59616] CT
0.149 GC
N
/f2128899210{-8.266 2.519 M
-8.063 3.112 -7.633 3.589 QT
-7.203 4.066 -6.625 4.331 QT
-6.047 4.597 -5.422 4.597 QT
-3.969 4.597 -3.422 3.48 QT
-2.875 2.362 -2.875 0.753 QT
-2.875 0.066 -2.898 -0.411 QT
-2.922 -0.888 -3.031 -1.325 QT
-3.219 -2.028 -3.688 -2.552 QT
-4.156 -3.075 -4.828 -3.075 QT
-5.5 -3.075 -5.984 -2.872 QT
-6.469 -2.669 -6.766 -2.395 QT
-7.063 -2.122 -7.297 -1.817 QT
-7.531 -1.513 -7.594 -1.497 QT
-7.828 -1.497 L
-7.875 -1.497 -7.945 -1.559 QT
-8.016 -1.622 -8.016 -1.684 QT
-8.016 -8.372 L
-8.016 -8.419 -7.953 -8.474 QT
-7.891 -8.528 -7.828 -8.528 QT
-7.766 -8.528 L
-6.422 -7.872 -4.906 -7.872 QT
-3.422 -7.872 -2.047 -8.528 QT
-1.984 -8.528 L
-1.906 -8.528 -1.852 -8.474 QT
-1.797 -8.419 -1.797 -8.372 QT
-1.797 -8.184 L
-1.797 -8.075 -1.828 -8.075 QT
-2.516 -7.169 -3.547 -6.661 QT
-4.578 -6.153 -5.688 -6.153 QT
-6.484 -6.153 -7.328 -6.388 QT
-7.328 -2.606 L
-6.656 -3.138 -6.133 -3.372 QT
-5.609 -3.606 -4.797 -3.606 QT
-3.703 -3.606 -2.828 -2.966 QT
-1.953 -2.325 -1.484 -1.309 QT
-1.016 -0.294 -1.016 0.769 QT
-1.016 1.972 -1.609 3.003 QT
-2.203 4.034 -3.219 4.636 QT
-4.234 5.237 -5.422 5.237 QT
-6.406 5.237 -7.234 4.73 QT
-8.063 4.222 -8.531 3.362 QT
-9 2.503 -9 1.534 QT
-9 1.081 -8.711 0.8 QT
-8.422 0.519 -7.984 0.519 QT
-7.531 0.519 -7.234 0.808 QT
-6.938 1.097 -6.938 1.534 QT
-6.938 1.972 -7.234 2.269 QT
-7.531 2.566 -7.984 2.566 QT
-8.047 2.566 -8.133 2.55 QT
-8.219 2.534 -8.266 2.519 QT
cp}def
f2128899210
f
GR
GS
[1.00063 0 0 1 63.53971 183.69231] CT
0.149 GC
N
f-259944110
f
GR
GS
[1.00063 0 0 1 63.53971 133.78847] CT
0.149 GC
N
f-1760610010
f
GR
GS
[1.00063 0 0 1 63.53971 133.78847] CT
0.149 GC
N
f2128899210
f
GR
GS
[1.00063 0 0 1 63.53971 83.88461] CT
0.149 GC
N
f-1648412593
f
GR
GS
[1.00063 0 0 1 63.53971 83.88461] CT
0.149 GC
N
f-259944110
f
GR
GS
[1.00063 0 0 1 63.53971 33.98077] CT
0.149 GC
N
/f-384568400{-16.516 4.284 M
-16.516 3.175 -16.32 2.105 QT
-16.125 1.034 -15.75 -0.005 QT
-15.375 -1.044 -14.844 -2.044 QT
-14.313 -3.044 -13.688 -3.919 QT
-11.859 -6.466 L
-14.141 -6.466 L
-17.688 -6.466 -17.797 -6.356 QT
-18.063 -6.044 -18.297 -4.513 QT
-18.875 -4.513 L
-18.219 -8.716 L
-17.641 -8.716 L
-17.641 -8.653 L
-17.641 -8.294 -16.414 -8.184 QT
-15.188 -8.075 -14.016 -8.075 QT
-10.297 -8.075 L
-10.297 -7.559 L
-10.297 -7.544 -10.305 -7.536 QT
-10.313 -7.528 -10.328 -7.513 QT
-13.078 -3.638 L
-14.094 -2.138 -14.344 -0.302 QT
-14.594 1.534 -14.594 4.284 QT
-14.594 4.675 -14.883 4.956 QT
-15.172 5.237 -15.563 5.237 QT
-15.953 5.237 -16.234 4.956 QT
-16.516 4.675 -16.516 4.284 QT
cp}def
f-384568400
f
GR
GS
[1.00063 0 0 1 63.53971 33.98077] CT
0.149 GC
N
f2128899210
f
GR
GS
[1.00063 0 0 1 0 0] CT
0 0.447 0.741 RC
1 LJ
2.5 LW
N
69.5 182.896 M
80.368 179.627 L
91.237 180.333 L
102.105 185.217 L
112.974 186.176 L
123.842 197.126 L
134.711 218.033 L
145.579 222.673 L
156.447 204.958 L
167.316 182.355 L
178.184 178.37 L
189.053 171.912 L
199.921 180.009 L
210.789 166.402 L
221.658 160.967 L
232.526 155.804 L
243.395 152.176 L
254.263 161.442 L
265.132 152.084 L
276 139.685 L
286.868 141.038 L
297.737 132.789 L
308.605 129.949 L
319.474 120.369 L
330.342 122.583 L
341.211 115.936 L
352.079 107.135 L
362.947 101.48 L
373.816 93.601 L
384.684 96.045 L
395.553 91.421 L
406.421 86.905 L
417.289 88.691 L
428.158 97.952 L
439.026 92.288 L
449.895 88.052 L
460.763 81.65 L
471.632 73.78 L
482.5 75 L
S
GR
GS
[1.00063 0 0 1 0 0] CT
0.467 0.706 0.792 RC
1 LJ
2.5 LW
N
69.5 182.896 M
80.368 179.626 L
91.237 180.329 L
102.105 185.191 L
112.974 186.107 L
123.842 196.786 L
134.711 217.021 L
145.579 220.974 L
156.447 203.53 L
167.316 181.267 L
178.184 177.388 L
189.053 170.861 L
199.921 179.069 L
210.789 165.355 L
221.658 159.846 L
232.526 154.636 L
243.395 150.999 L
254.263 160.335 L
265.132 150.865 L
276 138.399 L
286.868 139.726 L
297.737 131.503 L
308.605 128.686 L
319.474 119.036 L
330.342 121.248 L
341.211 114.586 L
352.079 105.838 L
362.947 100.133 L
373.816 92.239 L
384.684 94.629 L
395.553 89.967 L
406.421 85.436 L
417.289 87.231 L
428.158 96.344 L
439.026 90.653 L
449.895 86.398 L
460.763 79.984 L
471.632 72.432 L
482.5 73.568 L
S
GR
GS
[1.00063 0 0 1 0 0] CT
0.769 0.306 0.322 RC
[8 2 4 2] 0 setdash
2 LJ
2.5 LW
N
69.5 182.474 M
80.368 178.675 L
91.237 180.803 L
102.105 191.751 L
112.974 191.465 L
123.842 199.417 L
134.711 203.308 L
145.579 199.706 L
156.447 195.785 L
167.316 177.033 L
178.184 169.797 L
189.053 162.07 L
199.921 164.882 L
210.789 151.546 L
221.658 148.18 L
232.526 145.932 L
243.395 139.487 L
254.263 135.309 L
265.132 120.967 L
276 99.275 L
286.868 96.683 L
297.737 90.548 L
308.605 88.252 L
319.474 71.571 L
330.342 74.713 L
341.211 71.968 L
352.079 66.261 L
362.947 59.995 L
373.816 53.963 L
384.684 54.253 L
395.553 51.142 L
406.421 42.556 L
417.289 45.427 L
428.158 49.012 L
439.026 45.435 L
449.895 41.572 L
460.763 33.76 L
471.632 31.392 L
482.5 33.109 L
S
GR
GS
[1.00063 0 0 1 0 0] CT
0.792 0.725 0.49 RC
[8 2 4 2] 0 setdash
2 LJ
2.5 LW
N
69.5 182.639 M
80.368 179.409 L
91.237 181.483 L
102.105 191.825 L
112.974 191.318 L
123.842 199.817 L
134.711 203.981 L
145.579 200.075 L
156.447 196.185 L
167.316 178.092 L
178.184 170.88 L
189.053 162.159 L
199.921 164.215 L
210.789 150.515 L
221.658 148.478 L
232.526 146.017 L
243.395 139.318 L
254.263 135.583 L
265.132 121.736 L
276 98.815 L
286.868 96.079 L
297.737 89.466 L
308.605 87.093 L
319.474 69.818 L
330.342 73.936 L
341.211 70.635 L
352.079 64.808 L
362.947 58.478 L
373.816 52.579 L
384.684 53.253 L
395.553 49.748 L
406.421 41.944 L
417.289 44.842 L
428.158 47.777 L
439.026 43.875 L
449.895 40.736 L
460.763 32.788 L
471.632 30.148 L
482.5 33.873 L
S
GR
GS
[1.00063 0 0 1 0 0] CT
0.333 0.659 0.408 RC
[8 8] 0 setdash
2 LJ
2.5 LW
N
69.5 175.625 M
80.368 171.634 L
91.237 174.706 L
102.105 187.956 L
112.974 188.095 L
123.842 206.417 L
134.711 235.691 L
145.579 243.42 L
156.447 222.842 L
167.316 200.98 L
178.184 194.415 L
189.053 186.786 L
199.921 199.588 L
210.789 182.18 L
221.658 168.618 L
232.526 159.855 L
243.395 158.179 L
254.263 183.849 L
265.132 169.644 L
276 150.431 L
286.868 156.972 L
297.737 146.328 L
308.605 143.054 L
319.474 128.831 L
330.342 129.253 L
341.211 116.098 L
352.079 101.948 L
362.947 96.511 L
373.816 86.693 L
384.684 91.712 L
395.553 85.433 L
406.421 78.577 L
417.289 79.3 L
428.158 97.393 L
439.026 89.594 L
449.895 87.944 L
460.763 81.484 L
471.632 70.336 L
482.5 69.198 L
S
GR
GS
[1.00063 0 0 1 0 0] CT
0.486 0.447 0.671 RC
[2 2] 0 setdash
2 LJ
2.5 LW
N
69.5 170.702 M
80.368 165.689 L
91.237 170.958 L
102.105 190.189 L
112.974 193.399 L
123.842 222.368 L
134.711 257.411 L
145.579 272.422 L
156.447 249.416 L
167.316 226.057 L
178.184 219.657 L
189.053 214.356 L
199.921 235.756 L
210.789 215.431 L
221.658 200.406 L
232.526 191.634 L
243.395 190.732 L
254.263 222.727 L
265.132 210.539 L
276 190.559 L
286.868 200.326 L
297.737 188.055 L
308.605 183.197 L
319.474 167.722 L
330.342 166.33 L
341.211 148.589 L
352.079 129.814 L
362.947 126.612 L
373.816 114.149 L
384.684 119.955 L
395.553 117.3 L
406.421 111.145 L
417.289 110.302 L
428.158 133.364 L
439.026 119.617 L
449.895 120.539 L
460.763 117.89 L
471.632 104.976 L
482.5 99.813 L
S
GR
GS
[1.00063 0 0 1 59.53896 333] CT
N
/f556341438{0.531 3.84 M
0.531 3.277 L
2.188 3.277 2.188 2.762 QT
2.188 -6.019 L
2.188 -6.535 0.531 -6.535 QT
0.531 -7.098 L
6.234 -7.098 L
7.109 -7.098 7.984 -6.738 QT
8.859 -6.379 9.422 -5.691 QT
9.984 -5.004 9.984 -4.082 QT
9.984 -3.191 9.414 -2.519 QT
8.844 -1.848 7.977 -1.504 QT
7.109 -1.16 6.234 -1.16 QT
3.672 -1.16 L
3.672 2.762 L
3.672 3.277 5.313 3.277 QT
5.313 3.84 L
0.531 3.84 L
cp
3.625 -1.629 M
5.797 -1.629 L
6.672 -1.629 7.219 -1.887 QT
7.766 -2.144 8.023 -2.676 QT
8.281 -3.207 8.281 -4.082 QT
8.281 -5.394 7.703 -5.965 QT
7.125 -6.535 5.797 -6.535 QT
4.438 -6.535 L
4.141 -6.535 3.984 -6.512 QT
3.828 -6.488 3.727 -6.371 QT
3.625 -6.254 3.625 -6.019 QT
3.625 -1.629 L
cp}def
f556341438
f
GR
GS
[1.00063 0 0 1 59.53896 333] CT
N
/f576446765{14.444 4.027 M
13.491 4.027 12.671 3.535 QT
11.851 3.043 11.374 2.223 QT
10.898 1.402 10.898 0.434 QT
10.898 -0.301 11.155 -0.98 QT
11.413 -1.66 11.905 -2.199 QT
12.398 -2.738 13.046 -3.035 QT
13.694 -3.332 14.444 -3.332 QT
15.429 -3.332 16.241 -2.816 QT
17.054 -2.301 17.523 -1.426 QT
17.991 -0.551 17.991 0.434 QT
17.991 1.387 17.515 2.215 QT
17.038 3.043 16.218 3.535 QT
15.398 4.027 14.444 4.027 QT
cp
14.444 3.543 M
15.726 3.543 16.155 2.613 QT
16.585 1.684 16.585 0.246 QT
16.585 -0.551 16.499 -1.082 QT
16.413 -1.613 16.132 -2.035 QT
15.944 -2.301 15.671 -2.504 QT
15.398 -2.707 15.085 -2.808 QT
14.773 -2.91 14.444 -2.91 QT
13.944 -2.91 13.499 -2.683 QT
13.054 -2.457 12.757 -2.035 QT
12.46 -1.582 12.374 -1.043 QT
12.288 -0.504 12.288 0.246 QT
12.288 1.152 12.444 1.863 QT
12.601 2.574 13.077 3.059 QT
13.554 3.543 14.444 3.543 QT
cp}def
f576446765
f
GR
GS
[1.00063 0 0 1 59.53896 333] CT
N
/f-1607668188{18.976 3.887 M
18.976 1.277 L
18.976 1.152 19.116 1.152 QT
19.319 1.152 L
19.413 1.152 19.444 1.277 QT
19.882 3.59 21.601 3.59 QT
22.351 3.59 22.866 3.246 QT
23.382 2.902 23.382 2.184 QT
23.382 1.668 22.984 1.309 QT
22.585 0.949 22.038 0.809 QT
20.96 0.606 L
20.429 0.481 19.984 0.238 QT
19.538 -0.004 19.257 -0.402 QT
18.976 -0.801 18.976 -1.332 QT
18.976 -2.035 19.351 -2.488 QT
19.726 -2.941 20.319 -3.137 QT
20.913 -3.332 21.601 -3.332 QT
22.413 -3.332 23.023 -2.894 QT
23.491 -3.301 L
23.491 -3.332 23.569 -3.332 QT
23.679 -3.332 L
23.726 -3.332 23.765 -3.293 QT
23.804 -3.254 23.804 -3.207 QT
23.804 -1.113 L
23.804 -0.957 23.679 -0.957 QT
23.491 -0.957 L
23.351 -0.957 23.351 -1.113 QT
23.351 -1.941 22.882 -2.449 QT
22.413 -2.957 21.585 -2.957 QT
20.866 -2.957 20.335 -2.691 QT
19.804 -2.426 19.804 -1.785 QT
19.804 -1.332 20.187 -1.051 QT
20.569 -0.769 21.069 -0.644 QT
22.163 -0.441 L
22.71 -0.316 23.179 -0.019 QT
23.648 0.277 23.929 0.731 QT
24.21 1.184 24.21 1.762 QT
24.21 2.34 24.007 2.762 QT
23.804 3.184 23.452 3.465 QT
23.101 3.746 22.616 3.887 QT
22.132 4.027 21.601 4.027 QT
20.601 4.027 19.882 3.34 QT
19.304 3.981 L
19.304 4.027 19.21 4.027 QT
19.116 4.027 L
18.976 4.027 18.976 3.887 QT
cp}def
f-1607668188
f
GR
GS
[1.00063 0 0 1 59.53896 333] CT
N
/f-181436524{30.62 3.84 M
30.62 3.277 L
32.276 3.277 32.276 2.762 QT
32.276 -6.019 L
32.276 -6.535 30.62 -6.535 QT
30.62 -7.098 L
35.651 -7.098 L
36.542 -7.098 37.534 -6.769 QT
38.526 -6.441 39.19 -5.777 QT
39.855 -5.113 39.855 -4.191 QT
39.855 -3.519 39.448 -2.996 QT
39.042 -2.473 38.417 -2.113 QT
37.792 -1.754 37.136 -1.598 QT
37.855 -1.348 38.394 -0.801 QT
38.933 -0.254 39.042 0.449 QT
39.261 1.871 L
39.417 2.824 39.589 3.301 QT
39.761 3.777 40.355 3.777 QT
40.855 3.777 41.097 3.309 QT
41.339 2.84 41.339 2.293 QT
41.339 2.246 41.394 2.199 QT
41.448 2.152 41.495 2.152 QT
41.651 2.152 L
41.808 2.152 41.808 2.371 QT
41.808 2.809 41.636 3.223 QT
41.464 3.637 41.136 3.918 QT
40.808 4.199 40.37 4.199 QT
39.214 4.199 38.378 3.621 QT
37.542 3.043 37.542 1.934 QT
37.542 0.512 L
37.542 -0.285 36.987 -0.855 QT
36.433 -1.426 35.636 -1.426 QT
33.714 -1.426 L
33.714 2.762 L
33.714 3.277 35.355 3.277 QT
35.355 3.84 L
30.62 3.84 L
cp
33.714 -1.848 M
35.417 -1.848 L
36.745 -1.848 37.44 -2.379 QT
38.136 -2.91 38.136 -4.191 QT
38.136 -5.473 37.448 -6.004 QT
36.761 -6.535 35.417 -6.535 QT
34.526 -6.535 L
34.23 -6.535 34.073 -6.512 QT
33.917 -6.488 33.815 -6.371 QT
33.714 -6.254 33.714 -6.019 QT
33.714 -1.848 L
cp}def
f-181436524
f
GR
GS
[1.00063 0 0 1 59.53896 333] CT
N
/f-650541262{45.851 4.027 M
44.882 4.027 44.062 3.512 QT
43.242 2.996 42.781 2.137 QT
42.32 1.277 42.32 0.324 QT
42.32 -0.613 42.742 -1.457 QT
43.164 -2.301 43.929 -2.816 QT
44.695 -3.332 45.632 -3.332 QT
46.367 -3.332 46.906 -3.09 QT
47.445 -2.848 47.796 -2.41 QT
48.148 -1.973 48.328 -1.379 QT
48.507 -0.785 48.507 -0.066 QT
48.507 0.137 48.351 0.137 QT
43.71 0.137 L
43.71 0.309 L
43.71 1.637 44.25 2.59 QT
44.789 3.543 45.992 3.543 QT
46.492 3.543 46.906 3.324 QT
47.32 3.106 47.632 2.715 QT
47.945 2.324 48.054 1.887 QT
48.07 1.824 48.109 1.785 QT
48.148 1.746 48.21 1.746 QT
48.351 1.746 L
48.507 1.746 48.507 1.949 QT
48.289 2.856 47.539 3.442 QT
46.789 4.027 45.851 4.027 QT
cp
43.726 -0.254 M
47.382 -0.254 L
47.382 -0.863 47.21 -1.48 QT
47.039 -2.098 46.648 -2.504 QT
46.257 -2.91 45.632 -2.91 QT
44.726 -2.91 44.226 -2.066 QT
43.726 -1.223 43.726 -0.254 QT
cp}def
f-650541262
f
GR
GS
[1.00063 0 0 1 59.53896 333] CT
N
/f-1262224425{50.618 1.918 M
50.618 -2.504 L
49.29 -2.504 L
49.29 -2.91 L
50.337 -2.91 50.829 -3.887 QT
51.322 -4.863 51.322 -6.004 QT
51.775 -6.004 L
51.775 -3.066 L
54.04 -3.066 L
54.04 -2.504 L
51.775 -2.504 L
51.775 1.887 L
51.775 2.543 52.001 3.043 QT
52.228 3.543 52.806 3.543 QT
53.353 3.543 53.595 3.02 QT
53.837 2.496 53.837 1.887 QT
53.837 0.934 L
54.29 0.934 L
54.29 1.918 L
54.29 2.418 54.111 2.902 QT
53.931 3.387 53.572 3.707 QT
53.212 4.027 52.697 4.027 QT
51.728 4.027 51.173 3.449 QT
50.618 2.871 50.618 1.918 QT
cp}def
f-1262224425
f
GR
GS
[1.00063 0 0 1 59.53896 333] CT
N
/f-370176302{61.033 3.84 M
61.033 3.277 L
62.674 3.277 62.674 2.762 QT
62.674 -6.019 L
62.674 -6.535 61.033 -6.535 QT
61.033 -7.098 L
66.221 -7.098 L
66.221 -6.535 L
64.174 -6.535 64.174 -6.019 QT
64.174 2.762 L
64.174 3.106 64.369 3.192 QT
64.565 3.277 64.986 3.277 QT
66.221 3.277 L
67.408 3.277 68.057 2.84 QT
68.705 2.402 68.979 1.645 QT
69.252 0.887 69.393 -0.363 QT
69.846 -0.363 L
69.408 3.84 L
61.033 3.84 L
cp}def
f-370176302
f
GR
GS
[1.00063 0 0 1 59.53896 333] CT
N
/f1446054920{74.518 4.027 M
73.549 4.027 72.729 3.512 QT
71.908 2.996 71.447 2.137 QT
70.987 1.277 70.987 0.324 QT
70.987 -0.613 71.408 -1.457 QT
71.83 -2.301 72.596 -2.816 QT
73.362 -3.332 74.299 -3.332 QT
75.033 -3.332 75.572 -3.09 QT
76.112 -2.848 76.463 -2.41 QT
76.815 -1.973 76.994 -1.379 QT
77.174 -0.785 77.174 -0.066 QT
77.174 0.137 77.018 0.137 QT
72.377 0.137 L
72.377 0.309 L
72.377 1.637 72.916 2.59 QT
73.455 3.543 74.658 3.543 QT
75.158 3.543 75.572 3.324 QT
75.987 3.106 76.299 2.715 QT
76.612 2.324 76.721 1.887 QT
76.737 1.824 76.776 1.785 QT
76.815 1.746 76.877 1.746 QT
77.018 1.746 L
77.174 1.746 77.174 1.949 QT
76.955 2.856 76.205 3.442 QT
75.455 4.027 74.518 4.027 QT
cp
72.393 -0.254 M
76.049 -0.254 L
76.049 -0.863 75.877 -1.48 QT
75.705 -2.098 75.315 -2.504 QT
74.924 -2.91 74.299 -2.91 QT
73.393 -2.91 72.893 -2.066 QT
72.393 -1.223 72.393 -0.254 QT
cp}def
f1446054920
f
GR
GS
[1.00063 0 0 1 59.53896 333] CT
N
/f-1402035403{79.285 1.918 M
79.285 -2.504 L
77.957 -2.504 L
77.957 -2.91 L
79.004 -2.91 79.496 -3.887 QT
79.988 -4.863 79.988 -6.004 QT
80.441 -6.004 L
80.441 -3.066 L
82.707 -3.066 L
82.707 -2.504 L
80.441 -2.504 L
80.441 1.887 L
80.441 2.543 80.668 3.043 QT
80.895 3.543 81.473 3.543 QT
82.02 3.543 82.262 3.02 QT
82.504 2.496 82.504 1.887 QT
82.504 0.934 L
82.957 0.934 L
82.957 1.918 L
82.957 2.418 82.777 2.902 QT
82.598 3.387 82.238 3.707 QT
81.879 4.027 81.363 4.027 QT
80.395 4.027 79.84 3.449 QT
79.285 2.871 79.285 1.918 QT
cp}def
f-1402035403
f
GR
GS
[1.00063 0 0 1 59.53896 333] CT
N
/f1828415020{85.507 1.918 M
85.507 -2.504 L
84.179 -2.504 L
84.179 -2.91 L
85.226 -2.91 85.718 -3.887 QT
86.211 -4.863 86.211 -6.004 QT
86.664 -6.004 L
86.664 -3.066 L
88.929 -3.066 L
88.929 -2.504 L
86.664 -2.504 L
86.664 1.887 L
86.664 2.543 86.89 3.043 QT
87.117 3.543 87.695 3.543 QT
88.242 3.543 88.484 3.02 QT
88.726 2.496 88.726 1.887 QT
88.726 0.934 L
89.179 0.934 L
89.179 1.918 L
89.179 2.418 89 2.902 QT
88.82 3.387 88.461 3.707 QT
88.101 4.027 87.586 4.027 QT
86.617 4.027 86.062 3.449 QT
85.507 2.871 85.507 1.918 QT
cp}def
f1828415020
f
GR
GS
[1.00063 0 0 1 59.53896 333] CT
N
/f507119794{94.073 4.027 M
93.105 4.027 92.284 3.512 QT
91.464 2.996 91.003 2.137 QT
90.542 1.277 90.542 0.324 QT
90.542 -0.613 90.964 -1.457 QT
91.386 -2.301 92.151 -2.816 QT
92.917 -3.332 93.855 -3.332 QT
94.589 -3.332 95.128 -3.09 QT
95.667 -2.848 96.019 -2.41 QT
96.37 -1.973 96.55 -1.379 QT
96.73 -0.785 96.73 -0.066 QT
96.73 0.137 96.573 0.137 QT
91.933 0.137 L
91.933 0.309 L
91.933 1.637 92.472 2.59 QT
93.011 3.543 94.214 3.543 QT
94.714 3.543 95.128 3.324 QT
95.542 3.106 95.855 2.715 QT
96.167 2.324 96.276 1.887 QT
96.292 1.824 96.331 1.785 QT
96.37 1.746 96.433 1.746 QT
96.573 1.746 L
96.73 1.746 96.73 1.949 QT
96.511 2.856 95.761 3.442 QT
95.011 4.027 94.073 4.027 QT
cp
91.948 -0.254 M
95.605 -0.254 L
95.605 -0.863 95.433 -1.48 QT
95.261 -2.098 94.87 -2.504 QT
94.48 -2.91 93.855 -2.91 QT
92.948 -2.91 92.448 -2.066 QT
91.948 -1.223 91.948 -0.254 QT
cp}def
f507119794
f
GR
GS
[1.00063 0 0 1 59.53896 333] CT
N
/f1409389132{97.622 3.84 M
97.622 3.277 L
98.169 3.277 98.52 3.192 QT
98.872 3.106 98.872 2.762 QT
98.872 -1.598 L
98.872 -2.035 98.739 -2.223 QT
98.606 -2.41 98.364 -2.457 QT
98.122 -2.504 97.622 -2.504 QT
97.622 -3.066 L
99.903 -3.238 L
99.903 -1.676 L
100.169 -2.363 100.645 -2.801 QT
101.122 -3.238 101.794 -3.238 QT
102.278 -3.238 102.653 -2.957 QT
103.028 -2.676 103.028 -2.207 QT
103.028 -1.926 102.817 -1.707 QT
102.606 -1.488 102.309 -1.488 QT
102.013 -1.488 101.802 -1.699 QT
101.591 -1.91 101.591 -2.207 QT
101.591 -2.644 101.888 -2.816 QT
101.794 -2.816 L
101.153 -2.816 100.739 -2.348 QT
100.325 -1.879 100.153 -1.183 QT
99.981 -0.488 99.981 0.137 QT
99.981 2.762 L
99.981 3.277 101.544 3.277 QT
101.544 3.84 L
97.622 3.84 L
cp}def
f1409389132
f
GR
GS
[1.00063 0 0 1 0 0] CT
0 0.447 0.741 RC
1 LJ
2.5 LW
N
26.5 333 M
56.502 333 L
S
GR
GS
[1.00063 0 0 1 204.1029 333] CT
N
f556341438
f
GR
GS
[1.00063 0 0 1 204.1029 333] CT
N
f576446765
f
GR
GS
[1.00063 0 0 1 204.1029 333] CT
N
f-1607668188
f
GR
GS
[1.00063 0 0 1 204.1029 333] CT
N
f-181436524
f
GR
GS
[1.00063 0 0 1 204.1029 333] CT
N
f-650541262
f
GR
GS
[1.00063 0 0 1 204.1029 333] CT
N
f-1262224425
f
GR
GS
[1.00063 0 0 1 204.1029 333] CT
N
/f387372321{61.44 4.074 M
61.44 0.324 L
61.44 0.199 61.58 0.199 QT
61.768 0.199 L
61.815 0.199 61.854 0.238 QT
61.893 0.277 61.893 0.324 QT
61.893 1.902 62.869 2.762 QT
63.846 3.621 65.424 3.621 QT
65.971 3.621 66.44 3.301 QT
66.908 2.981 67.174 2.465 QT
67.44 1.949 67.44 1.387 QT
67.44 0.902 67.244 0.449 QT
67.049 -0.004 66.682 -0.34 QT
66.315 -0.676 65.846 -0.785 QT
63.768 -1.301 L
62.736 -1.566 62.088 -2.418 QT
61.44 -3.269 61.44 -4.316 QT
61.44 -5.144 61.861 -5.871 QT
62.283 -6.598 62.994 -7.019 QT
63.705 -7.441 64.533 -7.441 QT
66.143 -7.441 67.08 -6.363 QT
67.736 -7.394 L
67.783 -7.441 67.846 -7.441 QT
67.955 -7.441 L
68.002 -7.441 68.049 -7.41 QT
68.096 -7.379 68.096 -7.316 QT
68.096 -3.598 L
68.096 -3.457 67.955 -3.457 QT
67.768 -3.457 L
67.627 -3.457 67.627 -3.598 QT
67.627 -4.004 67.486 -4.488 QT
67.346 -4.973 67.104 -5.418 QT
66.861 -5.863 66.58 -6.144 QT
65.815 -6.926 64.533 -6.926 QT
63.986 -6.926 63.526 -6.652 QT
63.065 -6.379 62.791 -5.902 QT
62.518 -5.426 62.518 -4.894 QT
62.518 -4.207 62.947 -3.652 QT
63.377 -3.098 64.065 -2.91 QT
66.143 -2.41 L
66.658 -2.285 67.111 -1.957 QT
67.565 -1.629 67.869 -1.199 QT
68.174 -0.769 68.346 -0.246 QT
68.518 0.277 68.518 0.84 QT
68.518 1.715 68.119 2.481 QT
67.721 3.246 67.002 3.723 QT
66.283 4.199 65.424 4.199 QT
64.893 4.199 64.338 4.082 QT
63.783 3.965 63.315 3.715 QT
62.846 3.465 62.455 3.09 QT
61.783 4.152 L
61.736 4.199 61.674 4.199 QT
61.58 4.199 L
61.44 4.199 61.44 4.074 QT
cp}def
f387372321
f
GR
GS
[1.00063 0 0 1 204.1029 333] CT
N
/f-1914859626{71.157 1.934 M
71.157 -1.598 L
71.157 -2.035 71.024 -2.223 QT
70.891 -2.41 70.649 -2.457 QT
70.407 -2.504 69.907 -2.504 QT
69.907 -3.066 L
72.329 -3.238 L
72.329 1.934 L
72.329 2.559 72.414 2.902 QT
72.5 3.246 72.797 3.418 QT
73.094 3.59 73.735 3.59 QT
74.594 3.59 75.102 2.871 QT
75.61 2.152 75.61 1.246 QT
75.61 -1.598 L
75.61 -2.035 75.477 -2.223 QT
75.344 -2.41 75.102 -2.457 QT
74.86 -2.504 74.36 -2.504 QT
74.36 -3.066 L
76.766 -3.238 L
76.766 2.387 L
76.766 2.809 76.899 2.996 QT
77.032 3.184 77.274 3.231 QT
77.516 3.277 78.016 3.277 QT
78.016 3.84 L
75.657 4.027 L
75.657 2.668 L
75.36 3.262 74.829 3.645 QT
74.297 4.027 73.657 4.027 QT
72.5 4.027 71.829 3.535 QT
71.157 3.043 71.157 1.934 QT
cp}def
f-1914859626
f
GR
GS
[1.00063 0 0 1 204.1029 333] CT
N
/f1972433641{78.796 3.84 M
78.796 3.277 L
79.342 3.277 79.694 3.192 QT
80.046 3.106 80.046 2.762 QT
80.046 -1.598 L
80.046 -2.035 79.913 -2.223 QT
79.78 -2.41 79.538 -2.457 QT
79.296 -2.504 78.796 -2.504 QT
78.796 -3.066 L
81.108 -3.238 L
81.108 -1.676 L
81.436 -2.363 82.061 -2.801 QT
82.686 -3.238 83.436 -3.238 QT
85.28 -3.238 85.592 -1.738 QT
85.921 -2.41 86.538 -2.824 QT
87.155 -3.238 87.889 -3.238 QT
88.608 -3.238 89.108 -3.004 QT
89.608 -2.769 89.858 -2.285 QT
90.108 -1.801 90.108 -1.082 QT
90.108 2.762 L
90.108 3.106 90.46 3.192 QT
90.811 3.277 91.358 3.277 QT
91.358 3.84 L
87.686 3.84 L
87.686 3.277 L
88.233 3.277 88.585 3.192 QT
88.936 3.106 88.936 2.762 QT
88.936 -1.035 L
88.936 -1.832 88.71 -2.324 QT
88.483 -2.816 87.78 -2.816 QT
86.858 -2.816 86.257 -2.074 QT
85.655 -1.332 85.655 -0.394 QT
85.655 2.762 L
85.655 3.106 86.007 3.192 QT
86.358 3.277 86.905 3.277 QT
86.905 3.84 L
83.249 3.84 L
83.249 3.277 L
83.796 3.277 84.147 3.192 QT
84.499 3.106 84.499 2.762 QT
84.499 -1.035 L
84.499 -1.816 84.272 -2.316 QT
84.046 -2.816 83.342 -2.816 QT
82.405 -2.816 81.811 -2.074 QT
81.217 -1.332 81.217 -0.394 QT
81.217 2.762 L
81.217 3.106 81.569 3.192 QT
81.921 3.277 82.452 3.277 QT
82.452 3.84 L
78.796 3.84 L
cp}def
f1972433641
f
GR
GS
[1.00063 0 0 1 204.1029 333] CT
N
/f260497704{92.129 3.84 M
92.129 3.277 L
92.676 3.277 93.027 3.192 QT
93.379 3.106 93.379 2.762 QT
93.379 -1.598 L
93.379 -2.035 93.246 -2.223 QT
93.113 -2.41 92.871 -2.457 QT
92.629 -2.504 92.129 -2.504 QT
92.129 -3.066 L
94.441 -3.238 L
94.441 -1.676 L
94.77 -2.363 95.395 -2.801 QT
96.02 -3.238 96.77 -3.238 QT
98.613 -3.238 98.926 -1.738 QT
99.254 -2.41 99.871 -2.824 QT
100.488 -3.238 101.223 -3.238 QT
101.941 -3.238 102.441 -3.004 QT
102.941 -2.769 103.191 -2.285 QT
103.441 -1.801 103.441 -1.082 QT
103.441 2.762 L
103.441 3.106 103.793 3.192 QT
104.145 3.277 104.691 3.277 QT
104.691 3.84 L
101.02 3.84 L
101.02 3.277 L
101.566 3.277 101.918 3.192 QT
102.27 3.106 102.27 2.762 QT
102.27 -1.035 L
102.27 -1.832 102.043 -2.324 QT
101.816 -2.816 101.113 -2.816 QT
100.191 -2.816 99.59 -2.074 QT
98.988 -1.332 98.988 -0.394 QT
98.988 2.762 L
98.988 3.106 99.34 3.192 QT
99.691 3.277 100.238 3.277 QT
100.238 3.84 L
96.582 3.84 L
96.582 3.277 L
97.129 3.277 97.481 3.192 QT
97.832 3.106 97.832 2.762 QT
97.832 -1.035 L
97.832 -1.816 97.606 -2.316 QT
97.379 -2.816 96.676 -2.816 QT
95.738 -2.816 95.145 -2.074 QT
94.551 -1.332 94.551 -0.394 QT
94.551 2.762 L
94.551 3.106 94.902 3.192 QT
95.254 3.277 95.785 3.277 QT
95.785 3.84 L
92.129 3.84 L
cp}def
f260497704
f
GR
GS
[1.00063 0 0 1 204.1029 333] CT
N
/f-1969088963{105.619 2.262 M
105.619 1.309 106.369 0.715 QT
107.119 0.121 108.173 -0.129 QT
109.228 -0.379 110.165 -0.379 QT
110.165 -1.035 L
110.165 -1.488 109.962 -1.926 QT
109.759 -2.363 109.376 -2.637 QT
108.994 -2.91 108.54 -2.91 QT
107.478 -2.91 106.915 -2.441 QT
107.228 -2.441 107.423 -2.207 QT
107.619 -1.973 107.619 -1.676 QT
107.619 -1.348 107.392 -1.121 QT
107.165 -0.894 106.853 -0.894 QT
106.54 -0.894 106.314 -1.121 QT
106.087 -1.348 106.087 -1.676 QT
106.087 -2.519 106.853 -2.926 QT
107.619 -3.332 108.54 -3.332 QT
109.181 -3.332 109.837 -3.058 QT
110.494 -2.785 110.915 -2.269 QT
111.337 -1.754 111.337 -1.066 QT
111.337 2.543 L
111.337 2.856 111.47 3.113 QT
111.603 3.371 111.884 3.371 QT
112.15 3.371 112.275 3.106 QT
112.4 2.84 112.4 2.543 QT
112.4 1.512 L
112.869 1.512 L
112.869 2.543 L
112.869 2.902 112.681 3.223 QT
112.494 3.543 112.181 3.738 QT
111.869 3.934 111.494 3.934 QT
111.025 3.934 110.689 3.567 QT
110.353 3.199 110.306 2.699 QT
110.009 3.309 109.431 3.668 QT
108.853 4.027 108.197 4.027 QT
107.587 4.027 107.001 3.84 QT
106.415 3.652 106.017 3.27 QT
105.619 2.887 105.619 2.262 QT
cp
106.915 2.262 M
106.915 2.824 107.33 3.207 QT
107.744 3.59 108.306 3.59 QT
108.822 3.59 109.244 3.332 QT
109.665 3.074 109.915 2.629 QT
110.165 2.184 110.165 1.699 QT
110.165 0.027 L
109.447 0.027 108.681 0.27 QT
107.915 0.512 107.415 1.02 QT
106.915 1.527 106.915 2.262 QT
cp}def
f-1969088963
f
GR
GS
[1.00063 0 0 1 204.1029 333] CT
N
/f-1815166703{113.4 3.84 M
113.4 3.277 L
113.947 3.277 114.298 3.192 QT
114.65 3.106 114.65 2.762 QT
114.65 -1.598 L
114.65 -2.035 114.517 -2.223 QT
114.384 -2.41 114.142 -2.457 QT
113.9 -2.504 113.4 -2.504 QT
113.4 -3.066 L
115.681 -3.238 L
115.681 -1.676 L
115.947 -2.363 116.423 -2.801 QT
116.9 -3.238 117.572 -3.238 QT
118.056 -3.238 118.431 -2.957 QT
118.806 -2.676 118.806 -2.207 QT
118.806 -1.926 118.595 -1.707 QT
118.384 -1.488 118.087 -1.488 QT
117.79 -1.488 117.58 -1.699 QT
117.369 -1.91 117.369 -2.207 QT
117.369 -2.644 117.665 -2.816 QT
117.572 -2.816 L
116.931 -2.816 116.517 -2.348 QT
116.103 -1.879 115.931 -1.183 QT
115.759 -0.488 115.759 0.137 QT
115.759 2.762 L
115.759 3.277 117.322 3.277 QT
117.322 3.84 L
113.4 3.84 L
cp}def
f-1815166703
f
GR
GS
[1.00063 0 0 1 204.1029 333] CT
N
/f-1336186059{120.354 6.465 M
120.651 6.715 121.026 6.715 QT
122.026 6.715 122.667 5.184 QT
123.213 3.84 L
120.823 -2.035 L
120.667 -2.332 120.362 -2.418 QT
120.057 -2.504 119.557 -2.504 QT
119.557 -3.066 L
122.917 -3.066 L
122.917 -2.504 L
122.026 -2.504 122.026 -2.113 QT
122.026 -2.051 122.042 -2.019 QT
123.823 2.356 L
125.432 -1.582 L
125.479 -1.707 125.479 -1.863 QT
125.479 -2.051 125.37 -2.199 QT
125.26 -2.348 125.096 -2.426 QT
124.932 -2.504 124.713 -2.504 QT
124.713 -3.066 L
127.37 -3.066 L
127.37 -2.504 L
126.885 -2.504 126.51 -2.277 QT
126.135 -2.051 125.932 -1.598 QT
123.167 5.184 L
122.948 5.699 122.659 6.137 QT
122.37 6.574 121.948 6.848 QT
121.526 7.121 121.026 7.121 QT
120.432 7.121 119.995 6.738 QT
119.557 6.356 119.557 5.777 QT
119.557 5.481 119.76 5.277 QT
119.963 5.074 120.26 5.074 QT
120.463 5.074 120.62 5.168 QT
120.776 5.262 120.87 5.418 QT
120.963 5.574 120.963 5.777 QT
120.963 6.043 120.792 6.246 QT
120.62 6.449 120.354 6.465 QT
cp}def
f-1336186059
f
GR
GS
[1.00063 0 0 1 0 0] CT
0.467 0.706 0.792 RC
1 LJ
2.5 LW
N
170.974 333 M
200.975 333 L
S
GR
GS
[1.00063 0 0 1 372.90551 333] CT
N
/f-353901190{0.5 3.84 M
0.5 3.277 L
2.141 3.277 2.141 2.762 QT
2.141 -6.019 L
2.141 -6.535 0.5 -6.535 QT
0.5 -7.098 L
5.688 -7.098 L
5.688 -6.535 L
3.641 -6.535 3.641 -6.019 QT
3.641 2.762 L
3.641 3.106 3.836 3.192 QT
4.031 3.277 4.453 3.277 QT
5.688 3.277 L
6.875 3.277 7.523 2.84 QT
8.172 2.402 8.445 1.645 QT
8.719 0.887 8.859 -0.363 QT
9.313 -0.363 L
8.875 3.84 L
0.5 3.84 L
cp}def
f-353901190
f
GR
GS
[1.00063 0 0 1 372.90551 333] CT
N
/f-522340096{14 4.027 M
13.047 4.027 12.227 3.535 QT
11.406 3.043 10.93 2.223 QT
10.453 1.402 10.453 0.434 QT
10.453 -0.301 10.711 -0.98 QT
10.969 -1.66 11.461 -2.199 QT
11.953 -2.738 12.602 -3.035 QT
13.25 -3.332 14 -3.332 QT
14.984 -3.332 15.797 -2.816 QT
16.609 -2.301 17.078 -1.426 QT
17.547 -0.551 17.547 0.434 QT
17.547 1.387 17.07 2.215 QT
16.594 3.043 15.773 3.535 QT
14.953 4.027 14 4.027 QT
cp
14 3.543 M
15.281 3.543 15.711 2.613 QT
16.141 1.684 16.141 0.246 QT
16.141 -0.551 16.055 -1.082 QT
15.969 -1.613 15.688 -2.035 QT
15.5 -2.301 15.227 -2.504 QT
14.953 -2.707 14.641 -2.808 QT
14.328 -2.91 14 -2.91 QT
13.5 -2.91 13.055 -2.683 QT
12.609 -2.457 12.313 -2.035 QT
12.016 -1.582 11.93 -1.043 QT
11.844 -0.504 11.844 0.246 QT
11.844 1.152 12 1.863 QT
12.156 2.574 12.633 3.059 QT
13.109 3.543 14 3.543 QT
cp}def
f-522340096
f
GR
GS
[1.00063 0 0 1 372.90551 333] CT
N
/f1193902487{21.102 3.84 M
19.024 -1.988 L
18.884 -2.332 18.618 -2.418 QT
18.352 -2.504 17.852 -2.504 QT
17.852 -3.066 L
21.149 -3.066 L
21.149 -2.504 L
20.196 -2.504 20.196 -2.098 QT
20.212 -2.082 20.212 -2.058 QT
20.212 -2.035 20.212 -1.988 QT
21.759 2.324 L
23.087 -1.426 L
22.868 -1.988 L
22.743 -2.332 22.47 -2.418 QT
22.196 -2.504 21.696 -2.504 QT
21.696 -3.066 L
24.852 -3.066 L
24.852 -2.504 L
23.915 -2.504 23.915 -2.098 QT
23.915 -2.035 23.931 -1.988 QT
25.524 2.527 L
26.977 -1.551 L
27.009 -1.676 27.009 -1.785 QT
27.009 -2.113 26.727 -2.308 QT
26.446 -2.504 26.087 -2.504 QT
26.087 -3.066 L
28.806 -3.066 L
28.806 -2.504 L
28.321 -2.504 27.977 -2.246 QT
27.634 -1.988 27.462 -1.551 QT
25.556 3.84 L
25.509 4.027 25.321 4.027 QT
25.196 4.027 L
25.009 4.027 24.946 3.84 QT
23.337 -0.723 L
21.712 3.84 L
21.634 4.027 21.462 4.027 QT
21.352 4.027 L
21.149 4.027 21.102 3.84 QT
cp}def
f1193902487
f
GR
GS
[1.00063 0 0 1 372.90551 333] CT
N
/f-1531767732{40.085 4.027 M
36.304 -6.019 L
36.163 -6.363 35.765 -6.449 QT
35.366 -6.535 34.757 -6.535 QT
34.757 -7.098 L
39.148 -7.098 L
39.148 -6.535 L
37.819 -6.535 37.819 -6.113 QT
37.835 -6.098 37.835 -6.074 QT
37.835 -6.051 37.835 -6.019 QT
40.913 2.137 L
43.804 -5.582 L
43.835 -5.644 43.835 -5.785 QT
43.835 -6.176 43.476 -6.355 QT
43.116 -6.535 42.679 -6.535 QT
42.679 -7.098 L
46.132 -7.098 L
46.132 -6.535 L
45.523 -6.535 45.069 -6.308 QT
44.616 -6.082 44.413 -5.582 QT
40.804 4.027 L
40.757 4.199 40.538 4.199 QT
40.335 4.199 L
40.132 4.199 40.085 4.027 QT
cp}def
f-1531767732
f
GR
GS
[1.00063 0 0 1 372.90551 333] CT
N
/f-1282191658{49.111 4.027 M
48.158 4.027 47.338 3.535 QT
46.517 3.043 46.041 2.223 QT
45.564 1.402 45.564 0.434 QT
45.564 -0.301 45.822 -0.98 QT
46.08 -1.66 46.572 -2.199 QT
47.064 -2.738 47.713 -3.035 QT
48.361 -3.332 49.111 -3.332 QT
50.096 -3.332 50.908 -2.816 QT
51.721 -2.301 52.189 -1.426 QT
52.658 -0.551 52.658 0.434 QT
52.658 1.387 52.181 2.215 QT
51.705 3.043 50.885 3.535 QT
50.064 4.027 49.111 4.027 QT
cp
49.111 3.543 M
50.392 3.543 50.822 2.613 QT
51.252 1.684 51.252 0.246 QT
51.252 -0.551 51.166 -1.082 QT
51.08 -1.613 50.799 -2.035 QT
50.611 -2.301 50.338 -2.504 QT
50.064 -2.707 49.752 -2.808 QT
49.439 -2.91 49.111 -2.91 QT
48.611 -2.91 48.166 -2.683 QT
47.721 -2.457 47.424 -2.035 QT
47.127 -1.582 47.041 -1.043 QT
46.955 -0.504 46.955 0.246 QT
46.955 1.152 47.111 1.863 QT
47.267 2.574 47.744 3.059 QT
48.221 3.543 49.111 3.543 QT
cp}def
f-1282191658
f
GR
GS
[1.00063 0 0 1 372.90551 333] CT
N
/f1405646084{53.611 3.84 M
53.611 3.277 L
54.158 3.277 54.51 3.192 QT
54.861 3.106 54.861 2.762 QT
54.861 -5.629 L
54.861 -6.066 54.728 -6.254 QT
54.596 -6.441 54.353 -6.488 QT
54.111 -6.535 53.611 -6.535 QT
53.611 -7.098 L
55.986 -7.269 L
55.986 2.762 L
55.986 3.106 56.338 3.192 QT
56.689 3.277 57.221 3.277 QT
57.221 3.84 L
53.611 3.84 L
cp}def
f1405646084
f
GR
GS
[1.00063 0 0 1 372.90551 333] CT
N
/f-1067764040{63.389 3.84 M
63.389 3.277 L
65.03 3.277 65.03 2.762 QT
65.03 -6.019 L
65.03 -6.535 63.389 -6.535 QT
63.389 -7.098 L
68.576 -7.098 L
68.576 -6.535 L
66.53 -6.535 66.53 -6.019 QT
66.53 2.762 L
66.53 3.106 66.725 3.192 QT
66.92 3.277 67.342 3.277 QT
68.576 3.277 L
69.764 3.277 70.412 2.84 QT
71.061 2.402 71.334 1.645 QT
71.608 0.887 71.748 -0.363 QT
72.201 -0.363 L
71.764 3.84 L
63.389 3.84 L
cp}def
f-1067764040
f
GR
GS
[1.00063 0 0 1 372.90551 333] CT
N
/f-1343888383{76.873 4.027 M
75.905 4.027 75.084 3.512 QT
74.264 2.996 73.803 2.137 QT
73.342 1.277 73.342 0.324 QT
73.342 -0.613 73.764 -1.457 QT
74.186 -2.301 74.951 -2.816 QT
75.717 -3.332 76.655 -3.332 QT
77.389 -3.332 77.928 -3.09 QT
78.467 -2.848 78.819 -2.41 QT
79.17 -1.973 79.35 -1.379 QT
79.53 -0.785 79.53 -0.066 QT
79.53 0.137 79.373 0.137 QT
74.733 0.137 L
74.733 0.309 L
74.733 1.637 75.272 2.59 QT
75.811 3.543 77.014 3.543 QT
77.514 3.543 77.928 3.324 QT
78.342 3.106 78.655 2.715 QT
78.967 2.324 79.076 1.887 QT
79.092 1.824 79.131 1.785 QT
79.17 1.746 79.233 1.746 QT
79.373 1.746 L
79.53 1.746 79.53 1.949 QT
79.311 2.856 78.561 3.442 QT
77.811 4.027 76.873 4.027 QT
cp
74.748 -0.254 M
78.405 -0.254 L
78.405 -0.863 78.233 -1.48 QT
78.061 -2.098 77.67 -2.504 QT
77.28 -2.91 76.655 -2.91 QT
75.748 -2.91 75.248 -2.066 QT
74.748 -1.223 74.748 -0.254 QT
cp}def
f-1343888383
f
GR
GS
[1.00063 0 0 1 372.90551 333] CT
N
/f383977518{81.641 1.918 M
81.641 -2.504 L
80.313 -2.504 L
80.313 -2.91 L
81.359 -2.91 81.852 -3.887 QT
82.344 -4.863 82.344 -6.004 QT
82.797 -6.004 L
82.797 -3.066 L
85.063 -3.066 L
85.063 -2.504 L
82.797 -2.504 L
82.797 1.887 L
82.797 2.543 83.024 3.043 QT
83.25 3.543 83.828 3.543 QT
84.375 3.543 84.617 3.02 QT
84.859 2.496 84.859 1.887 QT
84.859 0.934 L
85.313 0.934 L
85.313 1.918 L
85.313 2.418 85.133 2.902 QT
84.953 3.387 84.594 3.707 QT
84.234 4.027 83.719 4.027 QT
82.75 4.027 82.195 3.449 QT
81.641 2.871 81.641 1.918 QT
cp}def
f383977518
f
GR
GS
[1.00063 0 0 1 372.90551 333] CT
N
/f-1911890055{87.863 1.918 M
87.863 -2.504 L
86.535 -2.504 L
86.535 -2.91 L
87.582 -2.91 88.074 -3.887 QT
88.566 -4.863 88.566 -6.004 QT
89.019 -6.004 L
89.019 -3.066 L
91.285 -3.066 L
91.285 -2.504 L
89.019 -2.504 L
89.019 1.887 L
89.019 2.543 89.246 3.043 QT
89.472 3.543 90.05 3.543 QT
90.597 3.543 90.84 3.02 QT
91.082 2.496 91.082 1.887 QT
91.082 0.934 L
91.535 0.934 L
91.535 1.918 L
91.535 2.418 91.355 2.902 QT
91.175 3.387 90.816 3.707 QT
90.457 4.027 89.941 4.027 QT
88.972 4.027 88.418 3.449 QT
87.863 2.871 87.863 1.918 QT
cp}def
f-1911890055
f
GR
GS
[1.00063 0 0 1 372.90551 333] CT
N
/f1120247323{96.429 4.027 M
95.46 4.027 94.64 3.512 QT
93.82 2.996 93.359 2.137 QT
92.898 1.277 92.898 0.324 QT
92.898 -0.613 93.32 -1.457 QT
93.741 -2.301 94.507 -2.816 QT
95.273 -3.332 96.21 -3.332 QT
96.945 -3.332 97.484 -3.09 QT
98.023 -2.848 98.374 -2.41 QT
98.726 -1.973 98.906 -1.379 QT
99.085 -0.785 99.085 -0.066 QT
99.085 0.137 98.929 0.137 QT
94.288 0.137 L
94.288 0.309 L
94.288 1.637 94.827 2.59 QT
95.366 3.543 96.57 3.543 QT
97.07 3.543 97.484 3.324 QT
97.898 3.106 98.21 2.715 QT
98.523 2.324 98.632 1.887 QT
98.648 1.824 98.687 1.785 QT
98.726 1.746 98.788 1.746 QT
98.929 1.746 L
99.085 1.746 99.085 1.949 QT
98.866 2.856 98.116 3.442 QT
97.366 4.027 96.429 4.027 QT
cp
94.304 -0.254 M
97.96 -0.254 L
97.96 -0.863 97.788 -1.48 QT
97.616 -2.098 97.226 -2.504 QT
96.835 -2.91 96.21 -2.91 QT
95.304 -2.91 94.804 -2.066 QT
94.304 -1.223 94.304 -0.254 QT
cp}def
f1120247323
f
GR
GS
[1.00063 0 0 1 372.90551 333] CT
N
/f-1886304169{99.978 3.84 M
99.978 3.277 L
100.524 3.277 100.876 3.192 QT
101.228 3.106 101.228 2.762 QT
101.228 -1.598 L
101.228 -2.035 101.095 -2.223 QT
100.962 -2.41 100.72 -2.457 QT
100.478 -2.504 99.978 -2.504 QT
99.978 -3.066 L
102.259 -3.238 L
102.259 -1.676 L
102.524 -2.363 103.001 -2.801 QT
103.478 -3.238 104.149 -3.238 QT
104.634 -3.238 105.009 -2.957 QT
105.384 -2.676 105.384 -2.207 QT
105.384 -1.926 105.173 -1.707 QT
104.962 -1.488 104.665 -1.488 QT
104.368 -1.488 104.157 -1.699 QT
103.946 -1.91 103.946 -2.207 QT
103.946 -2.644 104.243 -2.816 QT
104.149 -2.816 L
103.509 -2.816 103.095 -2.348 QT
102.681 -1.879 102.509 -1.183 QT
102.337 -0.488 102.337 0.137 QT
102.337 2.762 L
102.337 3.277 103.899 3.277 QT
103.899 3.84 L
99.978 3.84 L
cp}def
f-1886304169
f
GR
GS
[1.00063 0 0 1 0 0] CT
0.769 0.306 0.322 RC
[8 2 4 2] 0 setdash
2 LJ
2.5 LW
N
339.671 333 M
369.672 333 L
S
GR
%%Trailer
%%Pages: 1
%%EOF
