%!PS-Adobe-3.0 EPSF-3.0
%%Creator: (MATLAB, The Mathworks, Inc. Version 9.10.0.1649659 \(R2021a\) Update 1. Operating System: Mac OS X)
%%Title: ../../results/trading/trading_simulation_returns_notext_cumulative_notext.eps
%%CreationDate: 2022-07-08T22:13:12
%%Pages: (atend)
%%BoundingBox:    37    39   485   357
%%LanguageLevel: 3
%%EndComments
%%BeginProlog
%%BeginResource: procset (Apache XML Graphics Std ProcSet) 1.2 0
%%Version: 1.2 0
%%Copyright: (Copyright 2001-2003,2010 The Apache Software Foundation. License terms: http://www.apache.org/licenses/LICENSE-2.0)
/bd{bind def}bind def
/ld{load def}bd
/GR/grestore ld
/GS/gsave ld
/RM/rmoveto ld
/C/curveto ld
/t/show ld
/L/lineto ld
/ML/setmiterlimit ld
/CT/concat ld
/f/fill ld
/N/newpath ld
/S/stroke ld
/CC/setcmykcolor ld
/A/ashow ld
/cp/closepath ld
/RC/setrgbcolor ld
/LJ/setlinejoin ld
/GC/setgray ld
/LW/setlinewidth ld
/M/moveto ld
/re {4 2 roll M
1 index 0 rlineto
0 exch rlineto
neg 0 rlineto
cp } bd
/_ctm matrix def
/_tm matrix def
/BT { _ctm currentmatrix pop matrix _tm copy pop 0 0 moveto } bd
/ET { _ctm setmatrix } bd
/iTm { _ctm setmatrix _tm concat } bd
/Tm { _tm astore pop iTm 0 0 moveto } bd
/ux 0.0 def
/uy 0.0 def
/F {
  /Tp exch def
  /Tf exch def
  Tf findfont Tp scalefont setfont
  /cf Tf def  /cs Tp def
} bd
/ULS {currentpoint /uy exch def /ux exch def} bd
/ULE {
  /Tcx currentpoint pop def
  gsave
  newpath
  cf findfont cs scalefont dup
  /FontMatrix get 0 get /Ts exch def /FontInfo get dup
  /UnderlinePosition get Ts mul /To exch def
  /UnderlineThickness get Ts mul /Tt exch def
  ux uy To add moveto  Tcx uy To add lineto
  Tt setlinewidth stroke
  grestore
} bd
/OLE {
  /Tcx currentpoint pop def
  gsave
  newpath
  cf findfont cs scalefont dup
  /FontMatrix get 0 get /Ts exch def /FontInfo get dup
  /UnderlinePosition get Ts mul /To exch def
  /UnderlineThickness get Ts mul /Tt exch def
  ux uy To add cs add moveto Tcx uy To add cs add lineto
  Tt setlinewidth stroke
  grestore
} bd
/SOE {
  /Tcx currentpoint pop def
  gsave
  newpath
  cf findfont cs scalefont dup
  /FontMatrix get 0 get /Ts exch def /FontInfo get dup
  /UnderlinePosition get Ts mul /To exch def
  /UnderlineThickness get Ts mul /Tt exch def
  ux uy To add cs 10 mul 26 idiv add moveto Tcx uy To add cs 10 mul 26 idiv add lineto
  Tt setlinewidth stroke
  grestore
} bd
/QT {
/Y22 exch store
/X22 exch store
/Y21 exch store
/X21 exch store
currentpoint
/Y21 load 2 mul add 3 div exch
/X21 load 2 mul add 3 div exch
/X21 load 2 mul /X22 load add 3 div
/Y21 load 2 mul /Y22 load add 3 div
/X22 load /Y22 load curveto
} bd
/SSPD {
dup length /d exch dict def
{
/v exch def
/k exch def
currentpagedevice k known {
/cpdv currentpagedevice k get def
v cpdv ne {
/upd false def
/nullv v type /nulltype eq def
/nullcpdv cpdv type /nulltype eq def
nullv nullcpdv or
{
/upd true def
} {
/sametype v type cpdv type eq def
sametype {
v type /arraytype eq {
/vlen v length def
/cpdvlen cpdv length def
vlen cpdvlen eq {
0 1 vlen 1 sub {
/i exch def
/obj v i get def
/cpdobj cpdv i get def
obj cpdobj ne {
/upd true def
exit
} if
} for
} {
/upd true def
} ifelse
} {
v type /dicttype eq {
v {
/dv exch def
/dk exch def
/cpddv cpdv dk get def
dv cpddv ne {
/upd true def
exit
} if
} forall
} {
/upd true def
} ifelse
} ifelse
} if
} ifelse
upd true eq {
d k v put
} if
} if
} if
} forall
d length 0 gt {
d setpagedevice
} if
} bd
/RE { % /NewFontName [NewEncodingArray] /FontName RE -
  findfont dup length dict begin
  {
    1 index /FID ne
    {def} {pop pop} ifelse
  } forall
  /Encoding exch def
  /FontName 1 index def
  currentdict definefont pop
  end
} bind def
%%EndResource
%%BeginResource: procset (Apache XML Graphics EPS ProcSet) 1.0 0
%%Version: 1.0 0
%%Copyright: (Copyright 2002-2003 The Apache Software Foundation. License terms: http://www.apache.org/licenses/LICENSE-2.0)
/BeginEPSF { %def
/b4_Inc_state save def         % Save state for cleanup
/dict_count countdictstack def % Count objects on dict stack
/op_count count 1 sub def      % Count objects on operand stack
userdict begin                 % Push userdict on dict stack
/showpage { } def              % Redefine showpage, { } = null proc
0 setgray 0 setlinecap         % Prepare graphics state
1 setlinewidth 0 setlinejoin
10 setmiterlimit [ ] 0 setdash newpath
/languagelevel where           % If level not equal to 1 then
{pop languagelevel             % set strokeadjust and
1 ne                           % overprint to their defaults.
{false setstrokeadjust false setoverprint
} if
} if
} bd
/EndEPSF { %def
count op_count sub {pop} repeat            % Clean up stacks
countdictstack dict_count sub {end} repeat
b4_Inc_state restore
} bd
%%EndResource
%FOPBeginFontDict
%%IncludeResource: font Courier-Oblique
%%IncludeResource: font Courier-BoldOblique
%%IncludeResource: font Courier-Bold
%%IncludeResource: font ZapfDingbats
%%IncludeResource: font Symbol
%%IncludeResource: font Helvetica
%%IncludeResource: font Helvetica-Oblique
%%IncludeResource: font Helvetica-Bold
%%IncludeResource: font Helvetica-BoldOblique
%%IncludeResource: font Times-Roman
%%IncludeResource: font Times-Italic
%%IncludeResource: font Times-Bold
%%IncludeResource: font Times-BoldItalic
%%IncludeResource: font Courier
%FOPEndFontDict
%%BeginResource: encoding WinAnsiEncoding
/WinAnsiEncoding [
/.notdef /.notdef /.notdef /.notdef /.notdef
/.notdef /.notdef /.notdef /.notdef /.notdef
/.notdef /.notdef /.notdef /.notdef /.notdef
/.notdef /.notdef /.notdef /.notdef /.notdef
/.notdef /.notdef /.notdef /.notdef /.notdef
/.notdef /.notdef /.notdef /.notdef /.notdef
/.notdef /.notdef /space /exclam /quotedbl
/numbersign /dollar /percent /ampersand /quotesingle
/parenleft /parenright /asterisk /plus /comma
/hyphen /period /slash /zero /one
/two /three /four /five /six
/seven /eight /nine /colon /semicolon
/less /equal /greater /question /at
/A /B /C /D /E
/F /G /H /I /J
/K /L /M /N /O
/P /Q /R /S /T
/U /V /W /X /Y
/Z /bracketleft /backslash /bracketright /asciicircum
/underscore /quoteleft /a /b /c
/d /e /f /g /h
/i /j /k /l /m
/n /o /p /q /r
/s /t /u /v /w
/x /y /z /braceleft /bar
/braceright /asciitilde /bullet /Euro /bullet
/quotesinglbase /florin /quotedblbase /ellipsis /dagger
/daggerdbl /circumflex /perthousand /Scaron /guilsinglleft
/OE /bullet /Zcaron /bullet /bullet
/quoteleft /quoteright /quotedblleft /quotedblright /bullet
/endash /emdash /asciitilde /trademark /scaron
/guilsinglright /oe /bullet /zcaron /Ydieresis
/space /exclamdown /cent /sterling /currency
/yen /brokenbar /section /dieresis /copyright
/ordfeminine /guillemotleft /logicalnot /sfthyphen /registered
/macron /degree /plusminus /twosuperior /threesuperior
/acute /mu /paragraph /middot /cedilla
/onesuperior /ordmasculine /guillemotright /onequarter /onehalf
/threequarters /questiondown /Agrave /Aacute /Acircumflex
/Atilde /Adieresis /Aring /AE /Ccedilla
/Egrave /Eacute /Ecircumflex /Edieresis /Igrave
/Iacute /Icircumflex /Idieresis /Eth /Ntilde
/Ograve /Oacute /Ocircumflex /Otilde /Odieresis
/multiply /Oslash /Ugrave /Uacute /Ucircumflex
/Udieresis /Yacute /Thorn /germandbls /agrave
/aacute /acircumflex /atilde /adieresis /aring
/ae /ccedilla /egrave /eacute /ecircumflex
/edieresis /igrave /iacute /icircumflex /idieresis
/eth /ntilde /ograve /oacute /ocircumflex
/otilde /odieresis /divide /oslash /ugrave
/uacute /ucircumflex /udieresis /yacute /thorn
/ydieresis
] def
%%EndResource
%FOPBeginFontReencode
/Courier-Oblique findfont
dup length dict begin
  {1 index /FID ne {def} {pop pop} ifelse} forall
  /Encoding WinAnsiEncoding def
  currentdict
end
/Courier-Oblique exch definefont pop
/Courier-BoldOblique findfont
dup length dict begin
  {1 index /FID ne {def} {pop pop} ifelse} forall
  /Encoding WinAnsiEncoding def
  currentdict
end
/Courier-BoldOblique exch definefont pop
/Courier-Bold findfont
dup length dict begin
  {1 index /FID ne {def} {pop pop} ifelse} forall
  /Encoding WinAnsiEncoding def
  currentdict
end
/Courier-Bold exch definefont pop
/Helvetica findfont
dup length dict begin
  {1 index /FID ne {def} {pop pop} ifelse} forall
  /Encoding WinAnsiEncoding def
  currentdict
end
/Helvetica exch definefont pop
/Helvetica-Oblique findfont
dup length dict begin
  {1 index /FID ne {def} {pop pop} ifelse} forall
  /Encoding WinAnsiEncoding def
  currentdict
end
/Helvetica-Oblique exch definefont pop
/Helvetica-Bold findfont
dup length dict begin
  {1 index /FID ne {def} {pop pop} ifelse} forall
  /Encoding WinAnsiEncoding def
  currentdict
end
/Helvetica-Bold exch definefont pop
/Helvetica-BoldOblique findfont
dup length dict begin
  {1 index /FID ne {def} {pop pop} ifelse} forall
  /Encoding WinAnsiEncoding def
  currentdict
end
/Helvetica-BoldOblique exch definefont pop
/Times-Roman findfont
dup length dict begin
  {1 index /FID ne {def} {pop pop} ifelse} forall
  /Encoding WinAnsiEncoding def
  currentdict
end
/Times-Roman exch definefont pop
/Times-Italic findfont
dup length dict begin
  {1 index /FID ne {def} {pop pop} ifelse} forall
  /Encoding WinAnsiEncoding def
  currentdict
end
/Times-Italic exch definefont pop
/Times-Bold findfont
dup length dict begin
  {1 index /FID ne {def} {pop pop} ifelse} forall
  /Encoding WinAnsiEncoding def
  currentdict
end
/Times-Bold exch definefont pop
/Times-BoldItalic findfont
dup length dict begin
  {1 index /FID ne {def} {pop pop} ifelse} forall
  /Encoding WinAnsiEncoding def
  currentdict
end
/Times-BoldItalic exch definefont pop
/Courier findfont
dup length dict begin
  {1 index /FID ne {def} {pop pop} ifelse} forall
  /Encoding WinAnsiEncoding def
  currentdict
end
/Courier exch definefont pop
%FOPEndFontReencode
%%EndProlog
%%Page: 1 1
%%PageBoundingBox: 0 0 533 380
%%BeginPageSetup
[1 0 0 -1 0 380] CT
%%EndPageSetup
GS
[1.00063 0 0 1 0 0] CT
1 GC
N
0 0 533 380 re
f
GR
GS
[1.00063 0 0 1 0 0] CT
1 GC
N
0 0 533 380 re
f
GR
GS
[1.00063 0 0 1 0 0] CT
1 GC
N
69.5 283.5 M
482.5 283.5 L
482.5 24 L
69.5 24 L
cp
f
GR
GS
[1.00063 0 0 1 0 0] CT
0.149 GC
2 setlinecap
1 LJ
0.5 LW
N
69.5 283.5 M
482.5 283.5 L
S
GR
GS
[1.00063 0 0 1 0 0] CT
0.149 GC
2 setlinecap
1 LJ
0.5 LW
N
69.5 24 M
482.5 24 L
S
GR
GS
[1.00063 0 0 1 0 0] CT
0.149 GC
2 setlinecap
1 LJ
0.5 LW
N
94.963 283.5 M
94.963 279.37 L
S
GR
GS
[1.00063 0 0 1 0 0] CT
0.149 GC
2 setlinecap
1 LJ
0.5 LW
N
181.942 283.5 M
181.942 279.37 L
S
GR
GS
[1.00063 0 0 1 0 0] CT
0.149 GC
2 setlinecap
1 LJ
0.5 LW
N
268.801 283.5 M
268.801 279.37 L
S
GR
GS
[1.00063 0 0 1 0 0] CT
0.149 GC
2 setlinecap
1 LJ
0.5 LW
N
355.78 283.5 M
355.78 279.37 L
S
GR
GS
[1.00063 0 0 1 0 0] CT
0.149 GC
2 setlinecap
1 LJ
0.5 LW
N
442.64 283.5 M
442.64 279.37 L
S
GR
GS
[1.00063 0 0 1 0 0] CT
0.149 GC
2 setlinecap
1 LJ
0.5 LW
N
94.963 24 M
94.963 28.13 L
S
GR
GS
[1.00063 0 0 1 0 0] CT
0.149 GC
2 setlinecap
1 LJ
0.5 LW
N
181.942 24 M
181.942 28.13 L
S
GR
GS
[1.00063 0 0 1 0 0] CT
0.149 GC
2 setlinecap
1 LJ
0.5 LW
N
268.801 24 M
268.801 28.13 L
S
GR
GS
[1.00063 0 0 1 0 0] CT
0.149 GC
2 setlinecap
1 LJ
0.5 LW
N
355.78 24 M
355.78 28.13 L
S
GR
GS
[1.00063 0 0 1 0 0] CT
0.149 GC
2 setlinecap
1 LJ
0.5 LW
N
442.64 24 M
442.64 28.13 L
S
GR
GS
[1.00063 0 0 1 95.02237 289.5] CT
0.149 GC
N
-19 16.8 M
-19 16.269 L
-19 16.206 -18.969 16.159 QT
-15.859 12.722 L
-15.156 11.956 -14.719 11.441 QT
-14.281 10.925 -13.852 10.245 QT
-13.422 9.566 -13.172 8.87 QT
-12.922 8.175 -12.922 7.394 QT
-12.922 6.581 -13.227 5.831 QT
-13.531 5.081 -14.125 4.628 QT
-14.719 4.175 -15.578 4.175 QT
-16.438 4.175 -17.133 4.698 QT
-17.828 5.222 -18.109 6.05 QT
-18.031 6.034 -17.906 6.034 QT
-17.453 6.034 -17.133 6.339 QT
-16.813 6.644 -16.813 7.128 QT
-16.813 7.581 -17.133 7.901 QT
-17.453 8.222 -17.906 8.222 QT
-18.375 8.222 -18.688 7.894 QT
-19 7.566 -19 7.128 QT
-19 6.362 -18.719 5.706 QT
-18.438 5.05 -17.906 4.534 QT
-17.375 4.019 -16.703 3.745 QT
-16.031 3.472 -15.281 3.472 QT
-14.141 3.472 -13.156 3.956 QT
-12.172 4.441 -11.594 5.323 QT
-11.016 6.206 -11.016 7.394 QT
-11.016 8.269 -11.398 9.05 QT
-11.781 9.831 -12.375 10.472 QT
-12.969 11.112 -13.898 11.917 QT
-14.828 12.722 -15.109 13.003 QT
-17.375 15.175 L
-15.453 15.175 L
-14.047 15.175 -13.094 15.151 QT
-12.141 15.128 -12.078 15.081 QT
-11.844 14.831 -11.594 13.237 QT
-11.016 13.237 L
-11.578 16.8 L
-19 16.8 L
cp
f
GR
GS
[1.00063 0 0 1 95.02237 289.5] CT
0.149 GC
N
-5 17.237 M
-7.453 17.237 -8.336 15.222 QT
-9.219 13.206 -9.219 10.425 QT
-9.219 8.691 -8.898 7.151 QT
-8.578 5.612 -7.641 4.542 QT
-6.703 3.472 -5 3.472 QT
-3.688 3.472 -2.844 4.12 QT
-2 4.769 -1.563 5.792 QT
-1.125 6.816 -0.961 7.98 QT
-0.797 9.144 -0.797 10.425 QT
-0.797 12.144 -1.117 13.644 QT
-1.438 15.144 -2.367 16.191 QT
-3.297 17.237 -5 17.237 QT
cp
-5 16.722 M
-3.891 16.722 -3.344 15.581 QT
-2.797 14.441 -2.664 13.05 QT
-2.531 11.659 -2.531 10.097 QT
-2.531 8.597 -2.664 7.323 QT
-2.797 6.05 -3.336 5.026 QT
-3.875 4.003 -5 4.003 QT
-6.125 4.003 -6.672 5.034 QT
-7.219 6.066 -7.352 7.331 QT
-7.484 8.597 -7.484 10.097 QT
-7.484 11.206 -7.43 12.198 QT
-7.375 13.191 -7.141 14.237 QT
-6.906 15.284 -6.383 16.003 QT
-5.859 16.722 -5 16.722 QT
cp
f
GR
GS
[1.00063 0 0 1 95.02237 289.5] CT
0.149 GC
N
5 17.237 M
2.547 17.237 1.664 15.222 QT
0.781 13.206 0.781 10.425 QT
0.781 8.691 1.102 7.151 QT
1.422 5.612 2.359 4.542 QT
3.297 3.472 5 3.472 QT
6.313 3.472 7.156 4.12 QT
8 4.769 8.438 5.792 QT
8.875 6.816 9.039 7.98 QT
9.203 9.144 9.203 10.425 QT
9.203 12.144 8.883 13.644 QT
8.563 15.144 7.633 16.191 QT
6.703 17.237 5 17.237 QT
cp
5 16.722 M
6.109 16.722 6.656 15.581 QT
7.203 14.441 7.336 13.05 QT
7.469 11.659 7.469 10.097 QT
7.469 8.597 7.336 7.323 QT
7.203 6.05 6.664 5.026 QT
6.125 4.003 5 4.003 QT
3.875 4.003 3.328 5.034 QT
2.781 6.066 2.648 7.331 QT
2.516 8.597 2.516 10.097 QT
2.516 11.206 2.57 12.198 QT
2.625 13.191 2.859 14.237 QT
3.094 15.284 3.617 16.003 QT
4.141 16.722 5 16.722 QT
cp
f
GR
GS
[1.00063 0 0 1 95.02237 289.5] CT
0.149 GC
N
10.844 13.769 M
10.844 12.566 11.633 11.644 QT
12.422 10.722 13.656 10.097 QT
12.922 9.628 L
12.234 9.175 11.805 8.425 QT
11.375 7.675 11.375 6.862 QT
11.375 5.894 11.883 5.128 QT
12.391 4.362 13.219 3.917 QT
14.047 3.472 15 3.472 QT
15.891 3.472 16.719 3.839 QT
17.547 4.206 18.078 4.878 QT
18.609 5.55 18.609 6.472 QT
18.609 7.144 18.289 7.722 QT
17.969 8.3 17.414 8.761 QT
16.859 9.222 16.234 9.55 QT
17.391 10.269 L
18.172 10.8 18.656 11.636 QT
19.141 12.472 19.141 13.394 QT
19.141 14.487 18.563 15.378 QT
17.984 16.269 17.023 16.753 QT
16.063 17.237 15 17.237 QT
13.969 17.237 13.008 16.816 QT
12.047 16.394 11.445 15.597 QT
10.844 14.8 10.844 13.769 QT
cp
11.922 13.769 M
11.922 14.55 12.359 15.206 QT
12.797 15.862 13.508 16.23 QT
14.219 16.597 15 16.597 QT
16.156 16.597 17.109 15.925 QT
18.063 15.253 18.063 14.128 QT
18.063 13.737 17.906 13.362 QT
17.75 12.987 17.484 12.683 QT
17.219 12.378 16.891 12.175 QT
14.203 10.441 L
13.578 10.769 13.055 11.276 QT
12.531 11.784 12.227 12.425 QT
11.922 13.066 11.922 13.769 QT
cp
13.297 7.659 M
15.719 9.222 L
16.563 8.737 17.102 8.042 QT
17.641 7.347 17.641 6.472 QT
17.641 5.8 17.266 5.237 QT
16.891 4.675 16.281 4.362 QT
15.672 4.05 14.984 4.05 QT
14.375 4.05 13.758 4.284 QT
13.141 4.519 12.742 4.987 QT
12.344 5.456 12.344 6.081 QT
12.344 7.019 13.297 7.659 QT
cp
f
GR
GS
[1.00063 0 0 1 182.05544 289.5] CT
0.149 GC
N
/f-1171549265{-19 16.8 M
-19 16.269 L
-19 16.206 -18.969 16.159 QT
-15.859 12.722 L
-15.156 11.956 -14.719 11.441 QT
-14.281 10.925 -13.852 10.245 QT
-13.422 9.566 -13.172 8.87 QT
-12.922 8.175 -12.922 7.394 QT
-12.922 6.581 -13.227 5.831 QT
-13.531 5.081 -14.125 4.628 QT
-14.719 4.175 -15.578 4.175 QT
-16.438 4.175 -17.133 4.698 QT
-17.828 5.222 -18.109 6.05 QT
-18.031 6.034 -17.906 6.034 QT
-17.453 6.034 -17.133 6.339 QT
-16.813 6.644 -16.813 7.128 QT
-16.813 7.581 -17.133 7.901 QT
-17.453 8.222 -17.906 8.222 QT
-18.375 8.222 -18.688 7.894 QT
-19 7.566 -19 7.128 QT
-19 6.362 -18.719 5.706 QT
-18.438 5.05 -17.906 4.534 QT
-17.375 4.019 -16.703 3.745 QT
-16.031 3.472 -15.281 3.472 QT
-14.141 3.472 -13.156 3.956 QT
-12.172 4.441 -11.594 5.323 QT
-11.016 6.206 -11.016 7.394 QT
-11.016 8.269 -11.398 9.05 QT
-11.781 9.831 -12.375 10.472 QT
-12.969 11.112 -13.898 11.917 QT
-14.828 12.722 -15.109 13.003 QT
-17.375 15.175 L
-15.453 15.175 L
-14.047 15.175 -13.094 15.151 QT
-12.141 15.128 -12.078 15.081 QT
-11.844 14.831 -11.594 13.237 QT
-11.016 13.237 L
-11.578 16.8 L
-19 16.8 L
cp}def
f-1171549265
f
GR
GS
[1.00063 0 0 1 182.05544 289.5] CT
0.149 GC
N
/f-2084610355{-5 17.237 M
-7.453 17.237 -8.336 15.222 QT
-9.219 13.206 -9.219 10.425 QT
-9.219 8.691 -8.898 7.151 QT
-8.578 5.612 -7.641 4.542 QT
-6.703 3.472 -5 3.472 QT
-3.688 3.472 -2.844 4.12 QT
-2 4.769 -1.563 5.792 QT
-1.125 6.816 -0.961 7.98 QT
-0.797 9.144 -0.797 10.425 QT
-0.797 12.144 -1.117 13.644 QT
-1.438 15.144 -2.367 16.191 QT
-3.297 17.237 -5 17.237 QT
cp
-5 16.722 M
-3.891 16.722 -3.344 15.581 QT
-2.797 14.441 -2.664 13.05 QT
-2.531 11.659 -2.531 10.097 QT
-2.531 8.597 -2.664 7.323 QT
-2.797 6.05 -3.336 5.026 QT
-3.875 4.003 -5 4.003 QT
-6.125 4.003 -6.672 5.034 QT
-7.219 6.066 -7.352 7.331 QT
-7.484 8.597 -7.484 10.097 QT
-7.484 11.206 -7.43 12.198 QT
-7.375 13.191 -7.141 14.237 QT
-6.906 15.284 -6.383 16.003 QT
-5.859 16.722 -5 16.722 QT
cp}def
f-2084610355
f
GR
GS
[1.00063 0 0 1 182.05544 289.5] CT
0.149 GC
N
/f-192727431{1.859 16.8 M
1.859 16.097 L
4.359 16.097 4.359 15.456 QT
4.359 4.956 L
3.328 5.456 1.734 5.456 QT
1.734 4.753 L
4.188 4.753 5.438 3.472 QT
5.719 3.472 L
5.797 3.472 5.859 3.526 QT
5.922 3.581 5.922 3.659 QT
5.922 15.456 L
5.922 16.097 8.422 16.097 QT
8.422 16.8 L
1.859 16.8 L
cp}def
f-192727431
f
GR
GS
[1.00063 0 0 1 182.05544 289.5] CT
0.149 GC
N
/f-1674586926{15 17.237 M
12.547 17.237 11.664 15.222 QT
10.781 13.206 10.781 10.425 QT
10.781 8.691 11.102 7.151 QT
11.422 5.612 12.359 4.542 QT
13.297 3.472 15 3.472 QT
16.313 3.472 17.156 4.12 QT
18 4.769 18.438 5.792 QT
18.875 6.816 19.039 7.98 QT
19.203 9.144 19.203 10.425 QT
19.203 12.144 18.883 13.644 QT
18.563 15.144 17.633 16.191 QT
16.703 17.237 15 17.237 QT
cp
15 16.722 M
16.109 16.722 16.656 15.581 QT
17.203 14.441 17.336 13.05 QT
17.469 11.659 17.469 10.097 QT
17.469 8.597 17.336 7.323 QT
17.203 6.05 16.664 5.026 QT
16.125 4.003 15 4.003 QT
13.875 4.003 13.328 5.034 QT
12.781 6.066 12.648 7.331 QT
12.516 8.597 12.516 10.097 QT
12.516 11.206 12.57 12.198 QT
12.625 13.191 12.859 14.237 QT
13.094 15.284 13.617 16.003 QT
14.141 16.722 15 16.722 QT
cp}def
f-1674586926
f
GR
GS
[1.00063 0 0 1 268.96946 289.5] CT
0.149 GC
N
f-1171549265
f
GR
GS
[1.00063 0 0 1 268.96946 289.5] CT
0.149 GC
N
f-2084610355
f
GR
GS
[1.00063 0 0 1 268.96946 289.5] CT
0.149 GC
N
f-192727431
f
GR
GS
[1.00063 0 0 1 268.96946 289.5] CT
0.149 GC
N
/f110075864{11 16.8 M
11 16.269 L
11 16.206 11.031 16.159 QT
14.141 12.722 L
14.844 11.956 15.281 11.441 QT
15.719 10.925 16.148 10.245 QT
16.578 9.566 16.828 8.87 QT
17.078 8.175 17.078 7.394 QT
17.078 6.581 16.773 5.831 QT
16.469 5.081 15.875 4.628 QT
15.281 4.175 14.422 4.175 QT
13.563 4.175 12.867 4.698 QT
12.172 5.222 11.891 6.05 QT
11.969 6.034 12.094 6.034 QT
12.547 6.034 12.867 6.339 QT
13.188 6.644 13.188 7.128 QT
13.188 7.581 12.867 7.901 QT
12.547 8.222 12.094 8.222 QT
11.625 8.222 11.313 7.894 QT
11 7.566 11 7.128 QT
11 6.362 11.281 5.706 QT
11.563 5.05 12.094 4.534 QT
12.625 4.019 13.297 3.745 QT
13.969 3.472 14.719 3.472 QT
15.859 3.472 16.844 3.956 QT
17.828 4.441 18.406 5.323 QT
18.984 6.206 18.984 7.394 QT
18.984 8.269 18.602 9.05 QT
18.219 9.831 17.625 10.472 QT
17.031 11.112 16.102 11.917 QT
15.172 12.722 14.891 13.003 QT
12.625 15.175 L
14.547 15.175 L
15.953 15.175 16.906 15.151 QT
17.859 15.128 17.922 15.081 QT
18.156 14.831 18.406 13.237 QT
18.984 13.237 L
18.422 16.8 L
11 16.8 L
cp}def
f110075864
f
GR
GS
[1.00063 0 0 1 356.00252 289.5] CT
0.149 GC
N
f-1171549265
f
GR
GS
[1.00063 0 0 1 356.00252 289.5] CT
0.149 GC
N
f-2084610355
f
GR
GS
[1.00063 0 0 1 356.00252 289.5] CT
0.149 GC
N
f-192727431
f
GR
GS
[1.00063 0 0 1 356.00252 289.5] CT
0.149 GC
N
/f194291650{10.563 13.503 M
10.563 12.8 L
16.734 3.581 L
16.813 3.472 16.938 3.472 QT
17.234 3.472 L
17.469 3.472 17.469 3.706 QT
17.469 12.8 L
19.422 12.8 L
19.422 13.503 L
17.469 13.503 L
17.469 15.456 L
17.469 15.878 18.055 15.987 QT
18.641 16.097 19.406 16.097 QT
19.406 16.8 L
13.891 16.8 L
13.891 16.097 L
14.672 16.097 15.258 15.987 QT
15.844 15.878 15.844 15.456 QT
15.844 13.503 L
10.563 13.503 L
cp
11.219 12.8 M
15.953 12.8 L
15.953 5.722 L
11.219 12.8 L
cp}def
f194291650
f
GR
GS
[1.00063 0 0 1 442.91655 289.5] CT
0.149 GC
N
f-1171549265
f
GR
GS
[1.00063 0 0 1 442.91655 289.5] CT
0.149 GC
N
f-2084610355
f
GR
GS
[1.00063 0 0 1 442.91655 289.5] CT
0.149 GC
N
f-192727431
f
GR
GS
[1.00063 0 0 1 442.91655 289.5] CT
0.149 GC
N
/f-973792135{15 17.237 M
13.766 17.237 12.93 16.581 QT
12.094 15.925 11.641 14.87 QT
11.188 13.816 11.016 12.667 QT
10.844 11.519 10.844 10.331 QT
10.844 8.753 11.461 7.159 QT
12.078 5.566 13.273 4.519 QT
14.469 3.472 16.109 3.472 QT
16.781 3.472 17.375 3.737 QT
17.969 4.003 18.305 4.503 QT
18.641 5.003 18.641 5.722 QT
18.641 6.128 18.367 6.401 QT
18.094 6.675 17.672 6.675 QT
17.281 6.675 17 6.394 QT
16.719 6.112 16.719 5.722 QT
16.719 5.331 17 5.042 QT
17.281 4.753 17.672 4.753 QT
17.781 4.753 L
17.531 4.394 17.07 4.222 QT
16.609 4.05 16.109 4.05 QT
15.5 4.05 14.984 4.316 QT
14.469 4.581 14.063 5.034 QT
13.656 5.487 13.383 6.026 QT
13.109 6.566 12.953 7.261 QT
12.797 7.956 12.758 8.558 QT
12.719 9.159 12.719 10.081 QT
13.078 9.253 13.719 8.737 QT
14.359 8.222 15.172 8.222 QT
16.063 8.222 16.797 8.581 QT
17.531 8.941 18.055 9.581 QT
18.578 10.222 18.859 11.042 QT
19.141 11.862 19.141 12.691 QT
19.141 13.862 18.617 14.925 QT
18.094 15.987 17.148 16.612 QT
16.203 17.237 15 17.237 QT
cp
15 16.597 M
15.766 16.597 16.234 16.245 QT
16.703 15.894 16.93 15.316 QT
17.156 14.737 17.203 14.144 QT
17.25 13.55 17.25 12.691 QT
17.25 11.566 17.148 10.761 QT
17.047 9.956 16.563 9.347 QT
16.078 8.737 15.094 8.737 QT
14.281 8.737 13.766 9.284 QT
13.25 9.831 13.008 10.667 QT
12.766 11.503 12.766 12.284 QT
12.766 12.534 12.781 12.675 QT
12.781 12.706 12.781 12.73 QT
12.781 12.753 12.766 12.769 QT
12.766 13.628 12.938 14.511 QT
13.109 15.394 13.609 15.995 QT
14.109 16.597 15 16.597 QT
cp}def
f-973792135
f
GR
GS
[1.00063 0 0 1 0 0] CT
0.149 GC
2 setlinecap
1 LJ
0.5 LW
N
69.5 283.5 M
69.5 24 L
S
GR
GS
[1.00063 0 0 1 0 0] CT
0.149 GC
2 setlinecap
1 LJ
0.5 LW
N
482.5 283.5 M
482.5 24 L
S
GR
GS
[1.00063 0 0 1 0 0] CT
0.149 GC
2 setlinecap
1 LJ
0.5 LW
N
69.5 283.5 M
73.63 283.5 L
S
GR
GS
[1.00063 0 0 1 0 0] CT
0.149 GC
2 setlinecap
1 LJ
0.5 LW
N
69.5 233.596 M
73.63 233.596 L
S
GR
GS
[1.00063 0 0 1 0 0] CT
0.149 GC
2 setlinecap
1 LJ
0.5 LW
N
69.5 183.692 M
73.63 183.692 L
S
GR
GS
[1.00063 0 0 1 0 0] CT
0.149 GC
2 setlinecap
1 LJ
0.5 LW
N
69.5 133.788 M
73.63 133.788 L
S
GR
GS
[1.00063 0 0 1 0 0] CT
0.149 GC
2 setlinecap
1 LJ
0.5 LW
N
69.5 83.885 M
73.63 83.885 L
S
GR
GS
[1.00063 0 0 1 0 0] CT
0.149 GC
2 setlinecap
1 LJ
0.5 LW
N
69.5 33.981 M
73.63 33.981 L
S
GR
GS
[1.00063 0 0 1 0 0] CT
0.149 GC
2 setlinecap
1 LJ
0.5 LW
N
482.5 283.5 M
478.37 283.5 L
S
GR
GS
[1.00063 0 0 1 0 0] CT
0.149 GC
2 setlinecap
1 LJ
0.5 LW
N
482.5 233.596 M
478.37 233.596 L
S
GR
GS
[1.00063 0 0 1 0 0] CT
0.149 GC
2 setlinecap
1 LJ
0.5 LW
N
482.5 183.692 M
478.37 183.692 L
S
GR
GS
[1.00063 0 0 1 0 0] CT
0.149 GC
2 setlinecap
1 LJ
0.5 LW
N
482.5 133.788 M
478.37 133.788 L
S
GR
GS
[1.00063 0 0 1 0 0] CT
0.149 GC
2 setlinecap
1 LJ
0.5 LW
N
482.5 83.885 M
478.37 83.885 L
S
GR
GS
[1.00063 0 0 1 0 0] CT
0.149 GC
2 setlinecap
1 LJ
0.5 LW
N
482.5 33.981 M
478.37 33.981 L
S
GR
GS
[1.00063 0 0 1 63.53971 283.5] CT
0.149 GC
N
/f-2053354270{-26.448 1.097 M
-26.448 -0.138 L
-21.151 -0.138 L
-21.151 1.097 L
-26.448 1.097 L
cp}def
f-2053354270
f
GR
GS
[1.00063 0 0 1 63.53971 283.5] CT
0.149 GC
N
/f-1648412593{-18.266 2.519 M
-18.063 3.112 -17.633 3.589 QT
-17.203 4.066 -16.625 4.331 QT
-16.047 4.597 -15.422 4.597 QT
-13.969 4.597 -13.422 3.48 QT
-12.875 2.362 -12.875 0.753 QT
-12.875 0.066 -12.898 -0.411 QT
-12.922 -0.888 -13.031 -1.325 QT
-13.219 -2.028 -13.688 -2.552 QT
-14.156 -3.075 -14.828 -3.075 QT
-15.5 -3.075 -15.984 -2.872 QT
-16.469 -2.669 -16.766 -2.395 QT
-17.063 -2.122 -17.297 -1.817 QT
-17.531 -1.513 -17.594 -1.497 QT
-17.828 -1.497 L
-17.875 -1.497 -17.945 -1.559 QT
-18.016 -1.622 -18.016 -1.684 QT
-18.016 -8.372 L
-18.016 -8.419 -17.953 -8.474 QT
-17.891 -8.528 -17.828 -8.528 QT
-17.766 -8.528 L
-16.422 -7.872 -14.906 -7.872 QT
-13.422 -7.872 -12.047 -8.528 QT
-11.984 -8.528 L
-11.906 -8.528 -11.852 -8.474 QT
-11.797 -8.419 -11.797 -8.372 QT
-11.797 -8.184 L
-11.797 -8.075 -11.828 -8.075 QT
-12.516 -7.169 -13.547 -6.661 QT
-14.578 -6.153 -15.688 -6.153 QT
-16.484 -6.153 -17.328 -6.388 QT
-17.328 -2.606 L
-16.656 -3.138 -16.133 -3.372 QT
-15.609 -3.606 -14.797 -3.606 QT
-13.703 -3.606 -12.828 -2.966 QT
-11.953 -2.325 -11.484 -1.309 QT
-11.016 -0.294 -11.016 0.769 QT
-11.016 1.972 -11.609 3.003 QT
-12.203 4.034 -13.219 4.636 QT
-14.234 5.237 -15.422 5.237 QT
-16.406 5.237 -17.234 4.73 QT
-18.063 4.222 -18.531 3.362 QT
-19 2.503 -19 1.534 QT
-19 1.081 -18.711 0.8 QT
-18.422 0.519 -17.984 0.519 QT
-17.531 0.519 -17.234 0.808 QT
-16.938 1.097 -16.938 1.534 QT
-16.938 1.972 -17.234 2.269 QT
-17.531 2.566 -17.984 2.566 QT
-18.047 2.566 -18.133 2.55 QT
-18.219 2.534 -18.266 2.519 QT
cp}def
f-1648412593
f
GR
GS
[1.00063 0 0 1 63.53971 283.5] CT
0.149 GC
N
/f-259944110{-5 5.237 M
-7.453 5.237 -8.336 3.222 QT
-9.219 1.206 -9.219 -1.575 QT
-9.219 -3.309 -8.898 -4.849 QT
-8.578 -6.388 -7.641 -7.458 QT
-6.703 -8.528 -5 -8.528 QT
-3.688 -8.528 -2.844 -7.88 QT
-2 -7.231 -1.563 -6.208 QT
-1.125 -5.184 -0.961 -4.02 QT
-0.797 -2.856 -0.797 -1.575 QT
-0.797 0.144 -1.117 1.644 QT
-1.438 3.144 -2.367 4.191 QT
-3.297 5.237 -5 5.237 QT
cp
-5 4.722 M
-3.891 4.722 -3.344 3.581 QT
-2.797 2.441 -2.664 1.05 QT
-2.531 -0.341 -2.531 -1.903 QT
-2.531 -3.403 -2.664 -4.677 QT
-2.797 -5.95 -3.336 -6.974 QT
-3.875 -7.997 -5 -7.997 QT
-6.125 -7.997 -6.672 -6.966 QT
-7.219 -5.934 -7.352 -4.669 QT
-7.484 -3.403 -7.484 -1.903 QT
-7.484 -0.794 -7.43 0.198 QT
-7.375 1.191 -7.141 2.237 QT
-6.906 3.284 -6.383 4.003 QT
-5.859 4.722 -5 4.722 QT
cp}def
f-259944110
f
GR
GS
[1.00063 0 0 1 63.53971 233.59616] CT
0.149 GC
N
f-2053354270
f
GR
GS
[1.00063 0 0 1 63.53971 233.59616] CT
0.149 GC
N
/f-1760610010{-19 4.8 M
-19 4.269 L
-19 4.206 -18.969 4.159 QT
-15.859 0.722 L
-15.156 -0.044 -14.719 -0.559 QT
-14.281 -1.075 -13.852 -1.755 QT
-13.422 -2.434 -13.172 -3.13 QT
-12.922 -3.825 -12.922 -4.606 QT
-12.922 -5.419 -13.227 -6.169 QT
-13.531 -6.919 -14.125 -7.372 QT
-14.719 -7.825 -15.578 -7.825 QT
-16.438 -7.825 -17.133 -7.302 QT
-17.828 -6.778 -18.109 -5.95 QT
-18.031 -5.966 -17.906 -5.966 QT
-17.453 -5.966 -17.133 -5.661 QT
-16.813 -5.356 -16.813 -4.872 QT
-16.813 -4.419 -17.133 -4.099 QT
-17.453 -3.778 -17.906 -3.778 QT
-18.375 -3.778 -18.688 -4.106 QT
-19 -4.434 -19 -4.872 QT
-19 -5.638 -18.719 -6.294 QT
-18.438 -6.95 -17.906 -7.466 QT
-17.375 -7.981 -16.703 -8.255 QT
-16.031 -8.528 -15.281 -8.528 QT
-14.141 -8.528 -13.156 -8.044 QT
-12.172 -7.559 -11.594 -6.677 QT
-11.016 -5.794 -11.016 -4.606 QT
-11.016 -3.731 -11.398 -2.95 QT
-11.781 -2.169 -12.375 -1.528 QT
-12.969 -0.888 -13.898 -0.083 QT
-14.828 0.722 -15.109 1.003 QT
-17.375 3.175 L
-15.453 3.175 L
-14.047 3.175 -13.094 3.151 QT
-12.141 3.128 -12.078 3.081 QT
-11.844 2.831 -11.594 1.237 QT
-11.016 1.237 L
-11.578 4.8 L
-19 4.8 L
cp}def
f-1760610010
f
GR
GS
[1.00063 0 0 1 63.53971 233.59616] CT
0.149 GC
N
/f2128899210{-8.266 2.519 M
-8.063 3.112 -7.633 3.589 QT
-7.203 4.066 -6.625 4.331 QT
-6.047 4.597 -5.422 4.597 QT
-3.969 4.597 -3.422 3.48 QT
-2.875 2.362 -2.875 0.753 QT
-2.875 0.066 -2.898 -0.411 QT
-2.922 -0.888 -3.031 -1.325 QT
-3.219 -2.028 -3.688 -2.552 QT
-4.156 -3.075 -4.828 -3.075 QT
-5.5 -3.075 -5.984 -2.872 QT
-6.469 -2.669 -6.766 -2.395 QT
-7.063 -2.122 -7.297 -1.817 QT
-7.531 -1.513 -7.594 -1.497 QT
-7.828 -1.497 L
-7.875 -1.497 -7.945 -1.559 QT
-8.016 -1.622 -8.016 -1.684 QT
-8.016 -8.372 L
-8.016 -8.419 -7.953 -8.474 QT
-7.891 -8.528 -7.828 -8.528 QT
-7.766 -8.528 L
-6.422 -7.872 -4.906 -7.872 QT
-3.422 -7.872 -2.047 -8.528 QT
-1.984 -8.528 L
-1.906 -8.528 -1.852 -8.474 QT
-1.797 -8.419 -1.797 -8.372 QT
-1.797 -8.184 L
-1.797 -8.075 -1.828 -8.075 QT
-2.516 -7.169 -3.547 -6.661 QT
-4.578 -6.153 -5.688 -6.153 QT
-6.484 -6.153 -7.328 -6.388 QT
-7.328 -2.606 L
-6.656 -3.138 -6.133 -3.372 QT
-5.609 -3.606 -4.797 -3.606 QT
-3.703 -3.606 -2.828 -2.966 QT
-1.953 -2.325 -1.484 -1.309 QT
-1.016 -0.294 -1.016 0.769 QT
-1.016 1.972 -1.609 3.003 QT
-2.203 4.034 -3.219 4.636 QT
-4.234 5.237 -5.422 5.237 QT
-6.406 5.237 -7.234 4.73 QT
-8.063 4.222 -8.531 3.362 QT
-9 2.503 -9 1.534 QT
-9 1.081 -8.711 0.8 QT
-8.422 0.519 -7.984 0.519 QT
-7.531 0.519 -7.234 0.808 QT
-6.938 1.097 -6.938 1.534 QT
-6.938 1.972 -7.234 2.269 QT
-7.531 2.566 -7.984 2.566 QT
-8.047 2.566 -8.133 2.55 QT
-8.219 2.534 -8.266 2.519 QT
cp}def
f2128899210
f
GR
GS
[1.00063 0 0 1 63.53971 183.69231] CT
0.149 GC
N
f-259944110
f
GR
GS
[1.00063 0 0 1 63.53971 133.78847] CT
0.149 GC
N
f-1760610010
f
GR
GS
[1.00063 0 0 1 63.53971 133.78847] CT
0.149 GC
N
f2128899210
f
GR
GS
[1.00063 0 0 1 63.53971 83.88461] CT
0.149 GC
N
f-1648412593
f
GR
GS
[1.00063 0 0 1 63.53971 83.88461] CT
0.149 GC
N
f-259944110
f
GR
GS
[1.00063 0 0 1 63.53971 33.98077] CT
0.149 GC
N
/f-384568400{-16.516 4.284 M
-16.516 3.175 -16.32 2.105 QT
-16.125 1.034 -15.75 -0.005 QT
-15.375 -1.044 -14.844 -2.044 QT
-14.313 -3.044 -13.688 -3.919 QT
-11.859 -6.466 L
-14.141 -6.466 L
-17.688 -6.466 -17.797 -6.356 QT
-18.063 -6.044 -18.297 -4.513 QT
-18.875 -4.513 L
-18.219 -8.716 L
-17.641 -8.716 L
-17.641 -8.653 L
-17.641 -8.294 -16.414 -8.184 QT
-15.188 -8.075 -14.016 -8.075 QT
-10.297 -8.075 L
-10.297 -7.559 L
-10.297 -7.544 -10.305 -7.536 QT
-10.313 -7.528 -10.328 -7.513 QT
-13.078 -3.638 L
-14.094 -2.138 -14.344 -0.302 QT
-14.594 1.534 -14.594 4.284 QT
-14.594 4.675 -14.883 4.956 QT
-15.172 5.237 -15.563 5.237 QT
-15.953 5.237 -16.234 4.956 QT
-16.516 4.675 -16.516 4.284 QT
cp}def
f-384568400
f
GR
GS
[1.00063 0 0 1 63.53971 33.98077] CT
0.149 GC
N
f2128899210
f
GR
GS
[1.00063 0 0 1 0 0] CT
0.769 0.306 0.322 RC
1 LJ
2.5 LW
N
69.5 182.896 M
80.368 179.627 L
91.237 180.333 L
102.105 185.217 L
112.974 186.176 L
123.842 197.126 L
134.711 218.033 L
145.579 222.673 L
156.447 204.958 L
167.316 182.355 L
178.184 178.37 L
189.053 171.912 L
199.921 180.009 L
210.789 166.402 L
221.658 160.967 L
232.526 155.804 L
243.395 152.176 L
254.263 161.442 L
265.132 152.084 L
276 139.685 L
286.868 141.038 L
297.737 132.789 L
308.605 129.949 L
319.474 120.369 L
330.342 122.583 L
341.211 115.936 L
352.079 107.135 L
362.947 101.48 L
373.816 93.601 L
384.684 96.045 L
395.553 91.421 L
406.421 86.905 L
417.289 88.691 L
428.158 97.952 L
439.026 92.288 L
449.895 88.052 L
460.763 81.65 L
471.632 73.78 L
482.5 75 L
S
GR
GS
[1.00063 0 0 1 0 0] CT
0 0.447 0.741 RC
[2 2] 0 setdash
2 LJ
2.5 LW
N
69.5 182.896 M
80.368 179.626 L
91.237 180.329 L
102.105 185.191 L
112.974 186.107 L
123.842 196.786 L
134.711 217.021 L
145.579 220.974 L
156.447 203.53 L
167.316 181.267 L
178.184 177.388 L
189.053 170.861 L
199.921 179.069 L
210.789 165.355 L
221.658 159.846 L
232.526 154.636 L
243.395 150.999 L
254.263 160.335 L
265.132 150.865 L
276 138.399 L
286.868 139.726 L
297.737 131.503 L
308.605 128.686 L
319.474 119.036 L
330.342 121.248 L
341.211 114.586 L
352.079 105.838 L
362.947 100.133 L
373.816 92.239 L
384.684 94.629 L
395.553 89.967 L
406.421 85.436 L
417.289 87.231 L
428.158 96.344 L
439.026 90.653 L
449.895 86.398 L
460.763 79.984 L
471.632 72.432 L
482.5 73.568 L
S
GR
GS
[1.00063 0 0 1 0 0] CT
0.333 0.659 0.408 RC
[8 2 4 2] 0 setdash
2 LJ
2.5 LW
N
69.5 182.896 M
80.368 179.627 L
91.237 180.333 L
102.105 185.276 L
112.974 186.34 L
123.842 197.924 L
134.711 220.161 L
145.579 224.896 L
156.447 206.787 L
167.316 184.242 L
178.184 180.678 L
189.053 174.314 L
199.921 182.294 L
210.789 168.837 L
221.658 163.486 L
232.526 158.412 L
243.395 154.812 L
254.263 163.87 L
265.132 154.638 L
276 142.418 L
286.868 143.709 L
297.737 135.606 L
308.605 132.826 L
319.474 123.455 L
330.342 125.634 L
341.211 119.105 L
352.079 110.494 L
362.947 104.918 L
373.816 97.218 L
384.684 99.577 L
395.553 95.037 L
406.421 90.602 L
417.289 92.357 L
428.158 101.281 L
439.026 95.745 L
449.895 91.599 L
460.763 85.272 L
471.632 78.102 L
482.5 79.458 L
S
GR
GS
[1.00063 0 0 1 0 0] CT
0.486 0.447 0.671 RC
[8 8] 0 setdash
2 LJ
2.5 LW
N
69.5 175.625 M
80.368 171.634 L
91.237 174.706 L
102.105 187.956 L
112.974 188.095 L
123.842 206.417 L
134.711 235.691 L
145.579 243.42 L
156.447 222.842 L
167.316 200.98 L
178.184 194.415 L
189.053 186.786 L
199.921 199.588 L
210.789 182.18 L
221.658 168.618 L
232.526 159.855 L
243.395 158.179 L
254.263 183.849 L
265.132 169.644 L
276 150.431 L
286.868 156.972 L
297.737 146.328 L
308.605 143.054 L
319.474 128.831 L
330.342 129.253 L
341.211 116.098 L
352.079 101.948 L
362.947 96.511 L
373.816 86.693 L
384.684 91.712 L
395.553 85.433 L
406.421 78.577 L
417.289 79.3 L
428.158 97.393 L
439.026 89.594 L
449.895 87.944 L
460.763 81.484 L
471.632 70.336 L
482.5 69.198 L
S
GR
GS
[1.00063 0 0 1 134.61175 333] CT
N
/f-353901190{0.5 3.84 M
0.5 3.277 L
2.141 3.277 2.141 2.762 QT
2.141 -6.019 L
2.141 -6.535 0.5 -6.535 QT
0.5 -7.098 L
5.688 -7.098 L
5.688 -6.535 L
3.641 -6.535 3.641 -6.019 QT
3.641 2.762 L
3.641 3.106 3.836 3.192 QT
4.031 3.277 4.453 3.277 QT
5.688 3.277 L
6.875 3.277 7.523 2.84 QT
8.172 2.402 8.445 1.645 QT
8.719 0.887 8.859 -0.363 QT
9.313 -0.363 L
8.875 3.84 L
0.5 3.84 L
cp}def
f-353901190
f
GR
GS
[1.00063 0 0 1 134.61175 333] CT
N
/f434260714{13.984 4.027 M
13.016 4.027 12.195 3.512 QT
11.375 2.996 10.914 2.137 QT
10.453 1.277 10.453 0.324 QT
10.453 -0.613 10.875 -1.457 QT
11.297 -2.301 12.063 -2.816 QT
12.828 -3.332 13.766 -3.332 QT
14.5 -3.332 15.039 -3.09 QT
15.578 -2.848 15.93 -2.41 QT
16.281 -1.973 16.461 -1.379 QT
16.641 -0.785 16.641 -0.066 QT
16.641 0.137 16.484 0.137 QT
11.844 0.137 L
11.844 0.309 L
11.844 1.637 12.383 2.59 QT
12.922 3.543 14.125 3.543 QT
14.625 3.543 15.039 3.324 QT
15.453 3.106 15.766 2.715 QT
16.078 2.324 16.188 1.887 QT
16.203 1.824 16.242 1.785 QT
16.281 1.746 16.344 1.746 QT
16.484 1.746 L
16.641 1.746 16.641 1.949 QT
16.422 2.856 15.672 3.442 QT
14.922 4.027 13.984 4.027 QT
cp
11.859 -0.254 M
15.516 -0.254 L
15.516 -0.863 15.344 -1.48 QT
15.172 -2.098 14.781 -2.504 QT
14.391 -2.91 13.766 -2.91 QT
12.859 -2.91 12.359 -2.066 QT
11.859 -1.223 11.859 -0.254 QT
cp}def
f434260714
f
GR
GS
[1.00063 0 0 1 134.61175 333] CT
N
/f624450937{18.752 1.918 M
18.752 -2.504 L
17.424 -2.504 L
17.424 -2.91 L
18.471 -2.91 18.963 -3.887 QT
19.455 -4.863 19.455 -6.004 QT
19.908 -6.004 L
19.908 -3.066 L
22.174 -3.066 L
22.174 -2.504 L
19.908 -2.504 L
19.908 1.887 L
19.908 2.543 20.135 3.043 QT
20.361 3.543 20.939 3.543 QT
21.486 3.543 21.728 3.02 QT
21.971 2.496 21.971 1.887 QT
21.971 0.934 L
22.424 0.934 L
22.424 1.918 L
22.424 2.418 22.244 2.902 QT
22.064 3.387 21.705 3.707 QT
21.346 4.027 20.83 4.027 QT
19.861 4.027 19.306 3.449 QT
18.752 2.871 18.752 1.918 QT
cp}def
f624450937
f
GR
GS
[1.00063 0 0 1 134.61175 333] CT
N
/f-1688996700{24.974 1.918 M
24.974 -2.504 L
23.646 -2.504 L
23.646 -2.91 L
24.693 -2.91 25.185 -3.887 QT
25.677 -4.863 25.677 -6.004 QT
26.13 -6.004 L
26.13 -3.066 L
28.396 -3.066 L
28.396 -2.504 L
26.13 -2.504 L
26.13 1.887 L
26.13 2.543 26.357 3.043 QT
26.583 3.543 27.161 3.543 QT
27.708 3.543 27.951 3.02 QT
28.193 2.496 28.193 1.887 QT
28.193 0.934 L
28.646 0.934 L
28.646 1.918 L
28.646 2.418 28.466 2.902 QT
28.286 3.387 27.927 3.707 QT
27.568 4.027 27.052 4.027 QT
26.083 4.027 25.529 3.449 QT
24.974 2.871 24.974 1.918 QT
cp}def
f-1688996700
f
GR
GS
[1.00063 0 0 1 134.61175 333] CT
N
/f-605583728{33.54 4.027 M
32.571 4.027 31.751 3.512 QT
30.931 2.996 30.47 2.137 QT
30.009 1.277 30.009 0.324 QT
30.009 -0.613 30.431 -1.457 QT
30.852 -2.301 31.618 -2.816 QT
32.384 -3.332 33.321 -3.332 QT
34.056 -3.332 34.595 -3.09 QT
35.134 -2.848 35.485 -2.41 QT
35.837 -1.973 36.017 -1.379 QT
36.196 -0.785 36.196 -0.066 QT
36.196 0.137 36.04 0.137 QT
31.399 0.137 L
31.399 0.309 L
31.399 1.637 31.938 2.59 QT
32.477 3.543 33.681 3.543 QT
34.181 3.543 34.595 3.324 QT
35.009 3.106 35.321 2.715 QT
35.634 2.324 35.743 1.887 QT
35.759 1.824 35.798 1.785 QT
35.837 1.746 35.899 1.746 QT
36.04 1.746 L
36.196 1.746 36.196 1.949 QT
35.977 2.856 35.227 3.442 QT
34.477 4.027 33.54 4.027 QT
cp
31.415 -0.254 M
35.071 -0.254 L
35.071 -0.863 34.899 -1.48 QT
34.727 -2.098 34.337 -2.504 QT
33.946 -2.91 33.321 -2.91 QT
32.415 -2.91 31.915 -2.066 QT
31.415 -1.223 31.415 -0.254 QT
cp}def
f-605583728
f
GR
GS
[1.00063 0 0 1 134.61175 333] CT
N
/f-761095064{37.089 3.84 M
37.089 3.277 L
37.635 3.277 37.987 3.192 QT
38.339 3.106 38.339 2.762 QT
38.339 -1.598 L
38.339 -2.035 38.206 -2.223 QT
38.073 -2.41 37.831 -2.457 QT
37.589 -2.504 37.089 -2.504 QT
37.089 -3.066 L
39.37 -3.238 L
39.37 -1.676 L
39.635 -2.363 40.112 -2.801 QT
40.589 -3.238 41.26 -3.238 QT
41.745 -3.238 42.12 -2.957 QT
42.495 -2.676 42.495 -2.207 QT
42.495 -1.926 42.284 -1.707 QT
42.073 -1.488 41.776 -1.488 QT
41.479 -1.488 41.268 -1.699 QT
41.057 -1.91 41.057 -2.207 QT
41.057 -2.644 41.354 -2.816 QT
41.26 -2.816 L
40.62 -2.816 40.206 -2.348 QT
39.792 -1.879 39.62 -1.183 QT
39.448 -0.488 39.448 0.137 QT
39.448 2.762 L
39.448 3.277 41.01 3.277 QT
41.01 3.84 L
37.089 3.84 L
cp}def
f-761095064
f
GR
GS
[1.00063 0 0 1 0 0] CT
0.769 0.306 0.322 RC
1 LJ
2.5 LW
N
101.503 333 M
131.525 333 L
S
GR
GS
[1.00063 0 0 1 218.66032 333] CT
N
/f-564079682{0.906 4.074 M
0.906 0.324 L
0.906 0.199 1.047 0.199 QT
1.234 0.199 L
1.281 0.199 1.32 0.238 QT
1.359 0.277 1.359 0.324 QT
1.359 1.902 2.336 2.762 QT
3.313 3.621 4.891 3.621 QT
5.438 3.621 5.906 3.301 QT
6.375 2.981 6.641 2.465 QT
6.906 1.949 6.906 1.387 QT
6.906 0.902 6.711 0.449 QT
6.516 -0.004 6.148 -0.34 QT
5.781 -0.676 5.313 -0.785 QT
3.234 -1.301 L
2.203 -1.566 1.555 -2.418 QT
0.906 -3.269 0.906 -4.316 QT
0.906 -5.144 1.328 -5.871 QT
1.75 -6.598 2.461 -7.019 QT
3.172 -7.441 4 -7.441 QT
5.609 -7.441 6.547 -6.363 QT
7.203 -7.394 L
7.25 -7.441 7.313 -7.441 QT
7.422 -7.441 L
7.469 -7.441 7.516 -7.41 QT
7.563 -7.379 7.563 -7.316 QT
7.563 -3.598 L
7.563 -3.457 7.422 -3.457 QT
7.234 -3.457 L
7.094 -3.457 7.094 -3.598 QT
7.094 -4.004 6.953 -4.488 QT
6.813 -4.973 6.57 -5.418 QT
6.328 -5.863 6.047 -6.144 QT
5.281 -6.926 4 -6.926 QT
3.453 -6.926 2.992 -6.652 QT
2.531 -6.379 2.258 -5.902 QT
1.984 -5.426 1.984 -4.894 QT
1.984 -4.207 2.414 -3.652 QT
2.844 -3.098 3.531 -2.91 QT
5.609 -2.41 L
6.125 -2.285 6.578 -1.957 QT
7.031 -1.629 7.336 -1.199 QT
7.641 -0.769 7.813 -0.246 QT
7.984 0.277 7.984 0.84 QT
7.984 1.715 7.586 2.481 QT
7.188 3.246 6.469 3.723 QT
5.75 4.199 4.891 4.199 QT
4.359 4.199 3.805 4.082 QT
3.25 3.965 2.781 3.715 QT
2.313 3.465 1.922 3.09 QT
1.25 4.152 L
1.203 4.199 1.141 4.199 QT
1.047 4.199 L
0.906 4.199 0.906 4.074 QT
cp}def
f-564079682
f
GR
GS
[1.00063 0 0 1 218.66032 333] CT
N
/f934511514{10.623 1.934 M
10.623 -1.598 L
10.623 -2.035 10.49 -2.223 QT
10.358 -2.41 10.115 -2.457 QT
9.873 -2.504 9.373 -2.504 QT
9.373 -3.066 L
11.795 -3.238 L
11.795 1.934 L
11.795 2.559 11.881 2.902 QT
11.967 3.246 12.264 3.418 QT
12.561 3.59 13.201 3.59 QT
14.061 3.59 14.569 2.871 QT
15.076 2.152 15.076 1.246 QT
15.076 -1.598 L
15.076 -2.035 14.944 -2.223 QT
14.811 -2.41 14.569 -2.457 QT
14.326 -2.504 13.826 -2.504 QT
13.826 -3.066 L
16.233 -3.238 L
16.233 2.387 L
16.233 2.809 16.365 2.996 QT
16.498 3.184 16.74 3.231 QT
16.983 3.277 17.483 3.277 QT
17.483 3.84 L
15.123 4.027 L
15.123 2.668 L
14.826 3.262 14.295 3.645 QT
13.764 4.027 13.123 4.027 QT
11.967 4.027 11.295 3.535 QT
10.623 3.043 10.623 1.934 QT
cp}def
f934511514
f
GR
GS
[1.00063 0 0 1 218.66032 333] CT
N
/f-1871239216{18.262 3.84 M
18.262 3.277 L
18.809 3.277 19.161 3.192 QT
19.512 3.106 19.512 2.762 QT
19.512 -1.598 L
19.512 -2.035 19.379 -2.223 QT
19.247 -2.41 19.004 -2.457 QT
18.762 -2.504 18.262 -2.504 QT
18.262 -3.066 L
20.575 -3.238 L
20.575 -1.676 L
20.903 -2.363 21.528 -2.801 QT
22.153 -3.238 22.903 -3.238 QT
24.747 -3.238 25.059 -1.738 QT
25.387 -2.41 26.004 -2.824 QT
26.622 -3.238 27.356 -3.238 QT
28.075 -3.238 28.575 -3.004 QT
29.075 -2.769 29.325 -2.285 QT
29.575 -1.801 29.575 -1.082 QT
29.575 2.762 L
29.575 3.106 29.926 3.192 QT
30.278 3.277 30.825 3.277 QT
30.825 3.84 L
27.153 3.84 L
27.153 3.277 L
27.7 3.277 28.051 3.192 QT
28.403 3.106 28.403 2.762 QT
28.403 -1.035 L
28.403 -1.832 28.176 -2.324 QT
27.95 -2.816 27.247 -2.816 QT
26.325 -2.816 25.723 -2.074 QT
25.122 -1.332 25.122 -0.394 QT
25.122 2.762 L
25.122 3.106 25.473 3.192 QT
25.825 3.277 26.372 3.277 QT
26.372 3.84 L
22.715 3.84 L
22.715 3.277 L
23.262 3.277 23.614 3.192 QT
23.965 3.106 23.965 2.762 QT
23.965 -1.035 L
23.965 -1.816 23.739 -2.316 QT
23.512 -2.816 22.809 -2.816 QT
21.872 -2.816 21.278 -2.074 QT
20.684 -1.332 20.684 -0.394 QT
20.684 2.762 L
20.684 3.106 21.036 3.192 QT
21.387 3.277 21.918 3.277 QT
21.918 3.84 L
18.262 3.84 L
cp}def
f-1871239216
f
GR
GS
[1.00063 0 0 1 218.66032 333] CT
N
/f-112539376{31.596 3.84 M
31.596 3.277 L
32.142 3.277 32.494 3.192 QT
32.846 3.106 32.846 2.762 QT
32.846 -1.598 L
32.846 -2.035 32.713 -2.223 QT
32.58 -2.41 32.338 -2.457 QT
32.096 -2.504 31.596 -2.504 QT
31.596 -3.066 L
33.908 -3.238 L
33.908 -1.676 L
34.236 -2.363 34.861 -2.801 QT
35.486 -3.238 36.236 -3.238 QT
38.08 -3.238 38.392 -1.738 QT
38.721 -2.41 39.338 -2.824 QT
39.955 -3.238 40.689 -3.238 QT
41.408 -3.238 41.908 -3.004 QT
42.408 -2.769 42.658 -2.285 QT
42.908 -1.801 42.908 -1.082 QT
42.908 2.762 L
42.908 3.106 43.26 3.192 QT
43.611 3.277 44.158 3.277 QT
44.158 3.84 L
40.486 3.84 L
40.486 3.277 L
41.033 3.277 41.385 3.192 QT
41.736 3.106 41.736 2.762 QT
41.736 -1.035 L
41.736 -1.832 41.51 -2.324 QT
41.283 -2.816 40.58 -2.816 QT
39.658 -2.816 39.057 -2.074 QT
38.455 -1.332 38.455 -0.394 QT
38.455 2.762 L
38.455 3.106 38.807 3.192 QT
39.158 3.277 39.705 3.277 QT
39.705 3.84 L
36.049 3.84 L
36.049 3.277 L
36.596 3.277 36.947 3.192 QT
37.299 3.106 37.299 2.762 QT
37.299 -1.035 L
37.299 -1.816 37.072 -2.316 QT
36.846 -2.816 36.142 -2.816 QT
35.205 -2.816 34.611 -2.074 QT
34.017 -1.332 34.017 -0.394 QT
34.017 2.762 L
34.017 3.106 34.369 3.192 QT
34.721 3.277 35.252 3.277 QT
35.252 3.84 L
31.596 3.84 L
cp}def
f-112539376
f
GR
GS
[1.00063 0 0 1 218.66032 333] CT
N
/f1173793416{45.085 2.262 M
45.085 1.309 45.835 0.715 QT
46.585 0.121 47.64 -0.129 QT
48.695 -0.379 49.632 -0.379 QT
49.632 -1.035 L
49.632 -1.488 49.429 -1.926 QT
49.226 -2.363 48.843 -2.637 QT
48.46 -2.91 48.007 -2.91 QT
46.945 -2.91 46.382 -2.441 QT
46.695 -2.441 46.89 -2.207 QT
47.085 -1.973 47.085 -1.676 QT
47.085 -1.348 46.859 -1.121 QT
46.632 -0.894 46.32 -0.894 QT
46.007 -0.894 45.781 -1.121 QT
45.554 -1.348 45.554 -1.676 QT
45.554 -2.519 46.32 -2.926 QT
47.085 -3.332 48.007 -3.332 QT
48.648 -3.332 49.304 -3.058 QT
49.96 -2.785 50.382 -2.269 QT
50.804 -1.754 50.804 -1.066 QT
50.804 2.543 L
50.804 2.856 50.937 3.113 QT
51.07 3.371 51.351 3.371 QT
51.616 3.371 51.741 3.106 QT
51.866 2.84 51.866 2.543 QT
51.866 1.512 L
52.335 1.512 L
52.335 2.543 L
52.335 2.902 52.148 3.223 QT
51.96 3.543 51.648 3.738 QT
51.335 3.934 50.96 3.934 QT
50.491 3.934 50.156 3.567 QT
49.82 3.199 49.773 2.699 QT
49.476 3.309 48.898 3.668 QT
48.32 4.027 47.663 4.027 QT
47.054 4.027 46.468 3.84 QT
45.882 3.652 45.484 3.27 QT
45.085 2.887 45.085 2.262 QT
cp
46.382 2.262 M
46.382 2.824 46.796 3.207 QT
47.21 3.59 47.773 3.59 QT
48.288 3.59 48.71 3.332 QT
49.132 3.074 49.382 2.629 QT
49.632 2.184 49.632 1.699 QT
49.632 0.027 L
48.913 0.027 48.148 0.27 QT
47.382 0.512 46.882 1.02 QT
46.382 1.527 46.382 2.262 QT
cp}def
f1173793416
f
GR
GS
[1.00063 0 0 1 218.66032 333] CT
N
/f295337889{52.866 3.84 M
52.866 3.277 L
53.413 3.277 53.765 3.192 QT
54.116 3.106 54.116 2.762 QT
54.116 -1.598 L
54.116 -2.035 53.984 -2.223 QT
53.851 -2.41 53.609 -2.457 QT
53.366 -2.504 52.866 -2.504 QT
52.866 -3.066 L
55.148 -3.238 L
55.148 -1.676 L
55.413 -2.363 55.89 -2.801 QT
56.366 -3.238 57.038 -3.238 QT
57.523 -3.238 57.898 -2.957 QT
58.273 -2.676 58.273 -2.207 QT
58.273 -1.926 58.062 -1.707 QT
57.851 -1.488 57.554 -1.488 QT
57.257 -1.488 57.046 -1.699 QT
56.835 -1.91 56.835 -2.207 QT
56.835 -2.644 57.132 -2.816 QT
57.038 -2.816 L
56.398 -2.816 55.984 -2.348 QT
55.57 -1.879 55.398 -1.183 QT
55.226 -0.488 55.226 0.137 QT
55.226 2.762 L
55.226 3.277 56.788 3.277 QT
56.788 3.84 L
52.866 3.84 L
cp}def
f295337889
f
GR
GS
[1.00063 0 0 1 218.66032 333] CT
N
/f-1432236718{59.821 6.465 M
60.118 6.715 60.493 6.715 QT
61.493 6.715 62.133 5.184 QT
62.68 3.84 L
60.289 -2.035 L
60.133 -2.332 59.828 -2.418 QT
59.524 -2.504 59.024 -2.504 QT
59.024 -3.066 L
62.383 -3.066 L
62.383 -2.504 L
61.493 -2.504 61.493 -2.113 QT
61.493 -2.051 61.508 -2.019 QT
63.289 2.356 L
64.899 -1.582 L
64.946 -1.707 64.946 -1.863 QT
64.946 -2.051 64.836 -2.199 QT
64.727 -2.348 64.563 -2.426 QT
64.399 -2.504 64.18 -2.504 QT
64.18 -3.066 L
66.836 -3.066 L
66.836 -2.504 L
66.352 -2.504 65.977 -2.277 QT
65.602 -2.051 65.399 -1.598 QT
62.633 5.184 L
62.414 5.699 62.125 6.137 QT
61.836 6.574 61.414 6.848 QT
60.993 7.121 60.493 7.121 QT
59.899 7.121 59.461 6.738 QT
59.024 6.356 59.024 5.777 QT
59.024 5.481 59.227 5.277 QT
59.43 5.074 59.727 5.074 QT
59.93 5.074 60.086 5.168 QT
60.243 5.262 60.336 5.418 QT
60.43 5.574 60.43 5.777 QT
60.43 6.043 60.258 6.246 QT
60.086 6.449 59.821 6.465 QT
cp}def
f-1432236718
f
GR
GS
[1.00063 0 0 1 0 0] CT
0 0.447 0.741 RC
[2 2] 0 setdash
2 LJ
2.5 LW
N
185.499 333 M
215.521 333 L
S
GR
GS
[1.00063 0 0 1 326.9645 333] CT
N
/f-1034812031{3.656 2.121 M
4.203 2.824 5.023 3.223 QT
5.844 3.621 6.719 3.621 QT
7.469 3.621 8.102 3.332 QT
8.734 3.043 9.203 2.52 QT
9.672 1.996 9.93 1.332 QT
10.188 0.668 10.188 -0.066 QT
10.188 -0.191 10.328 -0.191 QT
10.516 -0.191 L
10.641 -0.191 10.641 -0.035 QT
10.641 0.793 10.32 1.574 QT
10 2.356 9.414 2.942 QT
8.828 3.527 8.07 3.863 QT
7.313 4.199 6.484 4.199 QT
5.328 4.199 4.305 3.731 QT
3.281 3.262 2.516 2.449 QT
1.75 1.637 1.328 0.574 QT
0.906 -0.488 0.906 -1.629 QT
0.906 -2.785 1.328 -3.848 QT
1.75 -4.91 2.516 -5.723 QT
3.281 -6.535 4.305 -6.988 QT
5.328 -7.441 6.484 -7.441 QT
7.297 -7.441 8.047 -7.09 QT
8.797 -6.738 9.359 -6.082 QT
10.297 -7.394 L
10.391 -7.441 10.406 -7.441 QT
10.516 -7.441 L
10.563 -7.441 10.602 -7.402 QT
10.641 -7.363 10.641 -7.316 QT
10.641 -2.988 L
10.641 -2.848 10.516 -2.848 QT
10.234 -2.848 L
10.078 -2.848 10.078 -2.988 QT
10.078 -3.457 9.898 -4.027 QT
9.719 -4.598 9.43 -5.105 QT
9.141 -5.613 8.766 -6.004 QT
7.875 -6.879 6.703 -6.879 QT
5.828 -6.879 5.016 -6.48 QT
4.203 -6.082 3.656 -5.379 QT
3.063 -4.629 2.836 -3.676 QT
2.609 -2.723 2.609 -1.629 QT
2.609 -0.551 2.836 0.41 QT
3.063 1.371 3.656 2.121 QT
cp}def
f-1034812031
f
GR
GS
[1.00063 0 0 1 326.9645 333] CT
N
/f-1851376461{15.556 4.027 M
14.602 4.027 13.782 3.535 QT
12.962 3.043 12.485 2.223 QT
12.009 1.402 12.009 0.434 QT
12.009 -0.301 12.267 -0.98 QT
12.524 -1.66 13.017 -2.199 QT
13.509 -2.738 14.157 -3.035 QT
14.806 -3.332 15.556 -3.332 QT
16.54 -3.332 17.352 -2.816 QT
18.165 -2.301 18.634 -1.426 QT
19.102 -0.551 19.102 0.434 QT
19.102 1.387 18.626 2.215 QT
18.149 3.043 17.329 3.535 QT
16.509 4.027 15.556 4.027 QT
cp
15.556 3.543 M
16.837 3.543 17.267 2.613 QT
17.696 1.684 17.696 0.246 QT
17.696 -0.551 17.61 -1.082 QT
17.524 -1.613 17.243 -2.035 QT
17.056 -2.301 16.782 -2.504 QT
16.509 -2.707 16.196 -2.808 QT
15.884 -2.91 15.556 -2.91 QT
15.056 -2.91 14.61 -2.683 QT
14.165 -2.457 13.868 -2.035 QT
13.571 -1.582 13.485 -1.043 QT
13.399 -0.504 13.399 0.246 QT
13.399 1.152 13.556 1.863 QT
13.712 2.574 14.188 3.059 QT
14.665 3.543 15.556 3.543 QT
cp}def
f-1851376461
f
GR
GS
[1.00063 0 0 1 326.9645 333] CT
N
/f1486518312{20.04 3.84 M
20.04 3.277 L
20.587 3.277 20.938 3.192 QT
21.29 3.106 21.29 2.762 QT
21.29 -1.598 L
21.29 -2.035 21.157 -2.223 QT
21.024 -2.41 20.782 -2.457 QT
20.54 -2.504 20.04 -2.504 QT
20.04 -3.066 L
22.352 -3.238 L
22.352 -1.676 L
22.681 -2.363 23.306 -2.801 QT
23.931 -3.238 24.681 -3.238 QT
25.79 -3.238 26.345 -2.707 QT
26.899 -2.176 26.899 -1.082 QT
26.899 2.762 L
26.899 3.106 27.251 3.192 QT
27.602 3.277 28.149 3.277 QT
28.149 3.84 L
24.493 3.84 L
24.493 3.277 L
25.04 3.277 25.392 3.192 QT
25.743 3.106 25.743 2.762 QT
25.743 -1.035 L
25.743 -1.816 25.517 -2.316 QT
25.29 -2.816 24.587 -2.816 QT
23.649 -2.816 23.056 -2.074 QT
22.462 -1.332 22.462 -0.394 QT
22.462 2.762 L
22.462 3.106 22.813 3.192 QT
23.165 3.277 23.696 3.277 QT
23.696 3.84 L
20.04 3.84 L
cp}def
f1486518312
f
GR
GS
[1.00063 0 0 1 326.9645 333] CT
N
/f-700746446{29.641 1.918 M
29.641 -2.504 L
28.313 -2.504 L
28.313 -2.91 L
29.359 -2.91 29.852 -3.887 QT
30.344 -4.863 30.344 -6.004 QT
30.797 -6.004 L
30.797 -3.066 L
33.063 -3.066 L
33.063 -2.504 L
30.797 -2.504 L
30.797 1.887 L
30.797 2.543 31.023 3.043 QT
31.25 3.543 31.828 3.543 QT
32.375 3.543 32.617 3.02 QT
32.859 2.496 32.859 1.887 QT
32.859 0.934 L
33.313 0.934 L
33.313 1.918 L
33.313 2.418 33.133 2.902 QT
32.953 3.387 32.594 3.707 QT
32.234 4.027 31.719 4.027 QT
30.75 4.027 30.195 3.449 QT
29.641 2.871 29.641 1.918 QT
cp}def
f-700746446
f
GR
GS
[1.00063 0 0 1 326.9645 333] CT
N
/f-62848183{34.644 3.84 M
34.644 3.277 L
35.191 3.277 35.543 3.192 QT
35.894 3.106 35.894 2.762 QT
35.894 -1.598 L
35.894 -2.035 35.761 -2.223 QT
35.629 -2.41 35.386 -2.457 QT
35.144 -2.504 34.644 -2.504 QT
34.644 -3.066 L
36.925 -3.238 L
36.925 -1.676 L
37.191 -2.363 37.668 -2.801 QT
38.144 -3.238 38.816 -3.238 QT
39.3 -3.238 39.675 -2.957 QT
40.05 -2.676 40.05 -2.207 QT
40.05 -1.926 39.839 -1.707 QT
39.629 -1.488 39.332 -1.488 QT
39.035 -1.488 38.824 -1.699 QT
38.613 -1.91 38.613 -2.207 QT
38.613 -2.644 38.91 -2.816 QT
38.816 -2.816 L
38.175 -2.816 37.761 -2.348 QT
37.347 -1.879 37.175 -1.183 QT
37.004 -0.488 37.004 0.137 QT
37.004 2.762 L
37.004 3.277 38.566 3.277 QT
38.566 3.84 L
34.644 3.84 L
cp}def
f-62848183
f
GR
GS
[1.00063 0 0 1 326.9645 333] CT
N
/f-1818043178{44.489 4.027 M
43.536 4.027 42.716 3.535 QT
41.895 3.043 41.419 2.223 QT
40.942 1.402 40.942 0.434 QT
40.942 -0.301 41.2 -0.98 QT
41.458 -1.66 41.95 -2.199 QT
42.442 -2.738 43.091 -3.035 QT
43.739 -3.332 44.489 -3.332 QT
45.473 -3.332 46.286 -2.816 QT
47.098 -2.301 47.567 -1.426 QT
48.036 -0.551 48.036 0.434 QT
48.036 1.387 47.559 2.215 QT
47.083 3.043 46.262 3.535 QT
45.442 4.027 44.489 4.027 QT
cp
44.489 3.543 M
45.77 3.543 46.2 2.613 QT
46.63 1.684 46.63 0.246 QT
46.63 -0.551 46.544 -1.082 QT
46.458 -1.613 46.176 -2.035 QT
45.989 -2.301 45.716 -2.504 QT
45.442 -2.707 45.13 -2.808 QT
44.817 -2.91 44.489 -2.91 QT
43.989 -2.91 43.544 -2.683 QT
43.098 -2.457 42.801 -2.035 QT
42.505 -1.582 42.419 -1.043 QT
42.333 -0.504 42.333 0.246 QT
42.333 1.152 42.489 1.863 QT
42.645 2.574 43.122 3.059 QT
43.598 3.543 44.489 3.543 QT
cp}def
f-1818043178
f
GR
GS
[1.00063 0 0 1 326.9645 333] CT
N
/f1012791075{48.989 3.84 M
48.989 3.277 L
49.536 3.277 49.887 3.192 QT
50.239 3.106 50.239 2.762 QT
50.239 -5.629 L
50.239 -6.066 50.106 -6.254 QT
49.973 -6.441 49.731 -6.488 QT
49.489 -6.535 48.989 -6.535 QT
48.989 -7.098 L
51.364 -7.269 L
51.364 2.762 L
51.364 3.106 51.716 3.192 QT
52.067 3.277 52.598 3.277 QT
52.598 3.84 L
48.989 3.84 L
cp}def
f1012791075
f
GR
GS
[1.00063 0 0 1 0 0] CT
0.333 0.659 0.408 RC
[8 2 4 2] 0 setdash
2 LJ
2.5 LW
N
293.736 333 M
323.758 333 L
S
GR
GS
[1.00063 0 0 1 421.02686 333] CT
N
/f785137026{1.484 3.84 M
1.484 3.277 L
3.484 3.277 3.484 2.762 QT
3.484 -5.629 L
2.656 -5.238 1.391 -5.238 QT
1.391 -5.801 L
3.359 -5.801 4.359 -6.816 QT
4.578 -6.816 L
4.641 -6.816 4.688 -6.777 QT
4.734 -6.738 4.734 -6.676 QT
4.734 2.762 L
4.734 3.277 6.734 3.277 QT
6.734 3.84 L
1.484 3.84 L
cp}def
f785137026
f
GR
GS
[1.00063 0 0 1 421.02686 333] CT
N
/f-968345255{8.906 7.527 M
8.906 7.481 8.922 7.465 QT
14.484 -7.973 L
14.516 -8.066 14.594 -8.113 QT
14.672 -8.16 14.766 -8.16 QT
14.906 -8.16 15 -8.074 QT
15.094 -7.988 15.094 -7.848 QT
15.094 -7.785 L
9.531 7.652 L
9.438 7.84 9.219 7.84 QT
9.094 7.84 9 7.746 QT
8.906 7.652 8.906 7.527 QT
cp}def
f-968345255
f
GR
GS
[1.00063 0 0 1 421.02686 333] CT
N
/f1951543314{15.861 3.84 M
15.705 3.84 15.705 3.621 QT
15.721 3.59 15.744 3.488 QT
15.767 3.387 15.806 3.332 QT
15.846 3.277 15.908 3.277 QT
17.439 3.277 17.689 2.293 QT
19.861 -6.457 L
19.424 -6.535 18.455 -6.535 QT
18.299 -6.535 18.299 -6.738 QT
18.314 -6.785 18.338 -6.879 QT
18.361 -6.973 18.4 -7.035 QT
18.439 -7.098 18.502 -7.098 QT
21.267 -7.098 L
21.392 -7.098 21.424 -6.988 QT
24.971 1.465 L
26.752 -5.613 L
26.783 -5.785 26.783 -5.863 QT
26.783 -6.535 25.549 -6.535 QT
25.392 -6.535 25.392 -6.738 QT
25.439 -6.941 25.471 -7.019 QT
25.502 -7.098 25.658 -7.098 QT
29.08 -7.098 L
29.236 -7.098 29.236 -6.879 QT
29.236 -6.848 29.213 -6.746 QT
29.189 -6.644 29.142 -6.59 QT
29.096 -6.535 29.033 -6.535 QT
27.502 -6.535 27.252 -5.551 QT
24.955 3.699 L
24.908 3.84 24.799 3.84 QT
24.596 3.84 L
24.486 3.84 24.455 3.731 QT
20.377 -5.957 L
20.346 -6.051 L
20.314 -6.082 20.314 -6.098 QT
18.205 2.371 L
18.189 2.402 18.181 2.465 QT
18.174 2.527 18.158 2.606 QT
18.158 3.012 18.517 3.145 QT
18.877 3.277 19.408 3.277 QT
19.564 3.277 19.564 3.481 QT
19.502 3.699 19.463 3.77 QT
19.424 3.84 19.299 3.84 QT
15.861 3.84 L
cp}def
f1951543314
f
GR
GS
[1.00063 0 0 1 0 0] CT
0.486 0.447 0.671 RC
[8 8] 0 setdash
2 LJ
2.5 LW
N
387.739 333 M
417.761 333 L
S
GR
%%Trailer
%%Pages: 1
%%EOF
