%!PS-Adobe-3.0 EPSF-3.0
%%Creator: (MATLAB, The Mathworks, Inc. Version 9.7.0.1216025 \(R2019b\) Update 1. Operating System: Mac OS X)
%%Title: ../../results/trading/trading_simulation_returns_cop.eps
%%CreationDate: 2020-03-13T09:32:53
%%Pages: (atend)
%%BoundingBox:    37    39   485   357
%%LanguageLevel: 3
%%EndComments
%%BeginProlog
%%BeginResource: procset (Apache XML Graphics Std ProcSet) 1.2 0
%%Version: 1.2 0
%%Copyright: (Copyright 2001-2003,2010 The Apache Software Foundation. License terms: http://www.apache.org/licenses/LICENSE-2.0)
/bd{bind def}bind def
/ld{load def}bd
/GR/grestore ld
/GS/gsave ld
/RM/rmoveto ld
/C/curveto ld
/t/show ld
/L/lineto ld
/ML/setmiterlimit ld
/CT/concat ld
/f/fill ld
/N/newpath ld
/S/stroke ld
/CC/setcmykcolor ld
/A/ashow ld
/cp/closepath ld
/RC/setrgbcolor ld
/LJ/setlinejoin ld
/GC/setgray ld
/LW/setlinewidth ld
/M/moveto ld
/re {4 2 roll M
1 index 0 rlineto
0 exch rlineto
neg 0 rlineto
cp } bd
/_ctm matrix def
/_tm matrix def
/BT { _ctm currentmatrix pop matrix _tm copy pop 0 0 moveto } bd
/ET { _ctm setmatrix } bd
/iTm { _ctm setmatrix _tm concat } bd
/Tm { _tm astore pop iTm 0 0 moveto } bd
/ux 0.0 def
/uy 0.0 def
/F {
  /Tp exch def
  /Tf exch def
  Tf findfont Tp scalefont setfont
  /cf Tf def  /cs Tp def
} bd
/ULS {currentpoint /uy exch def /ux exch def} bd
/ULE {
  /Tcx currentpoint pop def
  gsave
  newpath
  cf findfont cs scalefont dup
  /FontMatrix get 0 get /Ts exch def /FontInfo get dup
  /UnderlinePosition get Ts mul /To exch def
  /UnderlineThickness get Ts mul /Tt exch def
  ux uy To add moveto  Tcx uy To add lineto
  Tt setlinewidth stroke
  grestore
} bd
/OLE {
  /Tcx currentpoint pop def
  gsave
  newpath
  cf findfont cs scalefont dup
  /FontMatrix get 0 get /Ts exch def /FontInfo get dup
  /UnderlinePosition get Ts mul /To exch def
  /UnderlineThickness get Ts mul /Tt exch def
  ux uy To add cs add moveto Tcx uy To add cs add lineto
  Tt setlinewidth stroke
  grestore
} bd
/SOE {
  /Tcx currentpoint pop def
  gsave
  newpath
  cf findfont cs scalefont dup
  /FontMatrix get 0 get /Ts exch def /FontInfo get dup
  /UnderlinePosition get Ts mul /To exch def
  /UnderlineThickness get Ts mul /Tt exch def
  ux uy To add cs 10 mul 26 idiv add moveto Tcx uy To add cs 10 mul 26 idiv add lineto
  Tt setlinewidth stroke
  grestore
} bd
/QT {
/Y22 exch store
/X22 exch store
/Y21 exch store
/X21 exch store
currentpoint
/Y21 load 2 mul add 3 div exch
/X21 load 2 mul add 3 div exch
/X21 load 2 mul /X22 load add 3 div
/Y21 load 2 mul /Y22 load add 3 div
/X22 load /Y22 load curveto
} bd
/SSPD {
dup length /d exch dict def
{
/v exch def
/k exch def
currentpagedevice k known {
/cpdv currentpagedevice k get def
v cpdv ne {
/upd false def
/nullv v type /nulltype eq def
/nullcpdv cpdv type /nulltype eq def
nullv nullcpdv or
{
/upd true def
} {
/sametype v type cpdv type eq def
sametype {
v type /arraytype eq {
/vlen v length def
/cpdvlen cpdv length def
vlen cpdvlen eq {
0 1 vlen 1 sub {
/i exch def
/obj v i get def
/cpdobj cpdv i get def
obj cpdobj ne {
/upd true def
exit
} if
} for
} {
/upd true def
} ifelse
} {
v type /dicttype eq {
v {
/dv exch def
/dk exch def
/cpddv cpdv dk get def
dv cpddv ne {
/upd true def
exit
} if
} forall
} {
/upd true def
} ifelse
} ifelse
} if
} ifelse
upd true eq {
d k v put
} if
} if
} if
} forall
d length 0 gt {
d setpagedevice
} if
} bd
/RE { % /NewFontName [NewEncodingArray] /FontName RE -
  findfont dup length dict begin
  {
    1 index /FID ne
    {def} {pop pop} ifelse
  } forall
  /Encoding exch def
  /FontName 1 index def
  currentdict definefont pop
  end
} bind def
%%EndResource
%%BeginResource: procset (Apache XML Graphics EPS ProcSet) 1.0 0
%%Version: 1.0 0
%%Copyright: (Copyright 2002-2003 The Apache Software Foundation. License terms: http://www.apache.org/licenses/LICENSE-2.0)
/BeginEPSF { %def
/b4_Inc_state save def         % Save state for cleanup
/dict_count countdictstack def % Count objects on dict stack
/op_count count 1 sub def      % Count objects on operand stack
userdict begin                 % Push userdict on dict stack
/showpage { } def              % Redefine showpage, { } = null proc
0 setgray 0 setlinecap         % Prepare graphics state
1 setlinewidth 0 setlinejoin
10 setmiterlimit [ ] 0 setdash newpath
/languagelevel where           % If level not equal to 1 then
{pop languagelevel             % set strokeadjust and
1 ne                           % overprint to their defaults.
{false setstrokeadjust false setoverprint
} if
} if
} bd
/EndEPSF { %def
count op_count sub {pop} repeat            % Clean up stacks
countdictstack dict_count sub {end} repeat
b4_Inc_state restore
} bd
%%EndResource
%FOPBeginFontDict
%%IncludeResource: font Courier-Oblique
%%IncludeResource: font Courier-BoldOblique
%%IncludeResource: font Courier-Bold
%%IncludeResource: font ZapfDingbats
%%IncludeResource: font Symbol
%%IncludeResource: font Helvetica
%%IncludeResource: font Helvetica-Oblique
%%IncludeResource: font Helvetica-Bold
%%IncludeResource: font Helvetica-BoldOblique
%%IncludeResource: font Times-Roman
%%IncludeResource: font Times-Italic
%%IncludeResource: font Times-Bold
%%IncludeResource: font Times-BoldItalic
%%IncludeResource: font Courier
%FOPEndFontDict
%%BeginResource: encoding WinAnsiEncoding
/WinAnsiEncoding [
/.notdef /.notdef /.notdef /.notdef /.notdef
/.notdef /.notdef /.notdef /.notdef /.notdef
/.notdef /.notdef /.notdef /.notdef /.notdef
/.notdef /.notdef /.notdef /.notdef /.notdef
/.notdef /.notdef /.notdef /.notdef /.notdef
/.notdef /.notdef /.notdef /.notdef /.notdef
/.notdef /.notdef /space /exclam /quotedbl
/numbersign /dollar /percent /ampersand /quotesingle
/parenleft /parenright /asterisk /plus /comma
/hyphen /period /slash /zero /one
/two /three /four /five /six
/seven /eight /nine /colon /semicolon
/less /equal /greater /question /at
/A /B /C /D /E
/F /G /H /I /J
/K /L /M /N /O
/P /Q /R /S /T
/U /V /W /X /Y
/Z /bracketleft /backslash /bracketright /asciicircum
/underscore /quoteleft /a /b /c
/d /e /f /g /h
/i /j /k /l /m
/n /o /p /q /r
/s /t /u /v /w
/x /y /z /braceleft /bar
/braceright /asciitilde /bullet /Euro /bullet
/quotesinglbase /florin /quotedblbase /ellipsis /dagger
/daggerdbl /circumflex /perthousand /Scaron /guilsinglleft
/OE /bullet /Zcaron /bullet /bullet
/quoteleft /quoteright /quotedblleft /quotedblright /bullet
/endash /emdash /asciitilde /trademark /scaron
/guilsinglright /oe /bullet /zcaron /Ydieresis
/space /exclamdown /cent /sterling /currency
/yen /brokenbar /section /dieresis /copyright
/ordfeminine /guillemotleft /logicalnot /sfthyphen /registered
/macron /degree /plusminus /twosuperior /threesuperior
/acute /mu /paragraph /middot /cedilla
/onesuperior /ordmasculine /guillemotright /onequarter /onehalf
/threequarters /questiondown /Agrave /Aacute /Acircumflex
/Atilde /Adieresis /Aring /AE /Ccedilla
/Egrave /Eacute /Ecircumflex /Edieresis /Igrave
/Iacute /Icircumflex /Idieresis /Eth /Ntilde
/Ograve /Oacute /Ocircumflex /Otilde /Odieresis
/multiply /Oslash /Ugrave /Uacute /Ucircumflex
/Udieresis /Yacute /Thorn /germandbls /agrave
/aacute /acircumflex /atilde /adieresis /aring
/ae /ccedilla /egrave /eacute /ecircumflex
/edieresis /igrave /iacute /icircumflex /idieresis
/eth /ntilde /ograve /oacute /ocircumflex
/otilde /odieresis /divide /oslash /ugrave
/uacute /ucircumflex /udieresis /yacute /thorn
/ydieresis
] def
%%EndResource
%FOPBeginFontReencode
/Courier-Oblique findfont
dup length dict begin
  {1 index /FID ne {def} {pop pop} ifelse} forall
  /Encoding WinAnsiEncoding def
  currentdict
end
/Courier-Oblique exch definefont pop
/Courier-BoldOblique findfont
dup length dict begin
  {1 index /FID ne {def} {pop pop} ifelse} forall
  /Encoding WinAnsiEncoding def
  currentdict
end
/Courier-BoldOblique exch definefont pop
/Courier-Bold findfont
dup length dict begin
  {1 index /FID ne {def} {pop pop} ifelse} forall
  /Encoding WinAnsiEncoding def
  currentdict
end
/Courier-Bold exch definefont pop
/Helvetica findfont
dup length dict begin
  {1 index /FID ne {def} {pop pop} ifelse} forall
  /Encoding WinAnsiEncoding def
  currentdict
end
/Helvetica exch definefont pop
/Helvetica-Oblique findfont
dup length dict begin
  {1 index /FID ne {def} {pop pop} ifelse} forall
  /Encoding WinAnsiEncoding def
  currentdict
end
/Helvetica-Oblique exch definefont pop
/Helvetica-Bold findfont
dup length dict begin
  {1 index /FID ne {def} {pop pop} ifelse} forall
  /Encoding WinAnsiEncoding def
  currentdict
end
/Helvetica-Bold exch definefont pop
/Helvetica-BoldOblique findfont
dup length dict begin
  {1 index /FID ne {def} {pop pop} ifelse} forall
  /Encoding WinAnsiEncoding def
  currentdict
end
/Helvetica-BoldOblique exch definefont pop
/Times-Roman findfont
dup length dict begin
  {1 index /FID ne {def} {pop pop} ifelse} forall
  /Encoding WinAnsiEncoding def
  currentdict
end
/Times-Roman exch definefont pop
/Times-Italic findfont
dup length dict begin
  {1 index /FID ne {def} {pop pop} ifelse} forall
  /Encoding WinAnsiEncoding def
  currentdict
end
/Times-Italic exch definefont pop
/Times-Bold findfont
dup length dict begin
  {1 index /FID ne {def} {pop pop} ifelse} forall
  /Encoding WinAnsiEncoding def
  currentdict
end
/Times-Bold exch definefont pop
/Times-BoldItalic findfont
dup length dict begin
  {1 index /FID ne {def} {pop pop} ifelse} forall
  /Encoding WinAnsiEncoding def
  currentdict
end
/Times-BoldItalic exch definefont pop
/Courier findfont
dup length dict begin
  {1 index /FID ne {def} {pop pop} ifelse} forall
  /Encoding WinAnsiEncoding def
  currentdict
end
/Courier exch definefont pop
%FOPEndFontReencode
%%EndProlog
%%Page: 1 1
%%PageBoundingBox: 0 0 533 380
%%BeginPageSetup
[1 0 0 -1 0 380] CT
%%EndPageSetup
GS
[1.00063 0 0 1 0 0] CT
1 GC
N
0 0 533 380 re
f
GR
GS
[1.00063 0 0 1 0 0] CT
1 GC
N
0 0 533 380 re
f
GR
GS
[1.00063 0 0 1 0 0] CT
1 GC
N
69.5 283.5 M
482.5 283.5 L
482.5 24 L
69.5 24 L
cp
f
GR
GS
[1.00063 0 0 1 0 0] CT
0.149 GC
2 setlinecap
1 LJ
0.5 LW
N
69.5 283.5 M
482.5 283.5 L
S
GR
GS
[1.00063 0 0 1 0 0] CT
0.149 GC
2 setlinecap
1 LJ
0.5 LW
N
69.5 24 M
482.5 24 L
S
GR
GS
[1.00063 0 0 1 0 0] CT
0.149 GC
2 setlinecap
1 LJ
0.5 LW
N
94.963 283.5 M
94.963 279.37 L
S
GR
GS
[1.00063 0 0 1 0 0] CT
0.149 GC
2 setlinecap
1 LJ
0.5 LW
N
181.942 283.5 M
181.942 279.37 L
S
GR
GS
[1.00063 0 0 1 0 0] CT
0.149 GC
2 setlinecap
1 LJ
0.5 LW
N
268.801 283.5 M
268.801 279.37 L
S
GR
GS
[1.00063 0 0 1 0 0] CT
0.149 GC
2 setlinecap
1 LJ
0.5 LW
N
355.78 283.5 M
355.78 279.37 L
S
GR
GS
[1.00063 0 0 1 0 0] CT
0.149 GC
2 setlinecap
1 LJ
0.5 LW
N
442.64 283.5 M
442.64 279.37 L
S
GR
GS
[1.00063 0 0 1 0 0] CT
0.149 GC
2 setlinecap
1 LJ
0.5 LW
N
94.963 24 M
94.963 28.13 L
S
GR
GS
[1.00063 0 0 1 0 0] CT
0.149 GC
2 setlinecap
1 LJ
0.5 LW
N
181.942 24 M
181.942 28.13 L
S
GR
GS
[1.00063 0 0 1 0 0] CT
0.149 GC
2 setlinecap
1 LJ
0.5 LW
N
268.801 24 M
268.801 28.13 L
S
GR
GS
[1.00063 0 0 1 0 0] CT
0.149 GC
2 setlinecap
1 LJ
0.5 LW
N
355.78 24 M
355.78 28.13 L
S
GR
GS
[1.00063 0 0 1 0 0] CT
0.149 GC
2 setlinecap
1 LJ
0.5 LW
N
442.64 24 M
442.64 28.13 L
S
GR
GS
[1.00063 0 0 1 95.02237 289.5] CT
0.149 GC
N
-19 16.8 M
-19 16.269 L
-19 16.206 -18.969 16.159 QT
-15.859 12.722 L
-15.156 11.956 -14.719 11.441 QT
-14.281 10.925 -13.852 10.245 QT
-13.422 9.566 -13.172 8.87 QT
-12.922 8.175 -12.922 7.394 QT
-12.922 6.581 -13.227 5.831 QT
-13.531 5.081 -14.125 4.628 QT
-14.719 4.175 -15.578 4.175 QT
-16.438 4.175 -17.133 4.698 QT
-17.828 5.222 -18.109 6.05 QT
-18.031 6.034 -17.906 6.034 QT
-17.453 6.034 -17.133 6.339 QT
-16.813 6.644 -16.813 7.128 QT
-16.813 7.581 -17.133 7.901 QT
-17.453 8.222 -17.906 8.222 QT
-18.375 8.222 -18.688 7.894 QT
-19 7.566 -19 7.128 QT
-19 6.362 -18.719 5.706 QT
-18.438 5.05 -17.906 4.534 QT
-17.375 4.019 -16.703 3.745 QT
-16.031 3.472 -15.281 3.472 QT
-14.141 3.472 -13.156 3.956 QT
-12.172 4.441 -11.594 5.323 QT
-11.016 6.206 -11.016 7.394 QT
-11.016 8.269 -11.398 9.05 QT
-11.781 9.831 -12.375 10.472 QT
-12.969 11.112 -13.898 11.917 QT
-14.828 12.722 -15.109 13.003 QT
-17.375 15.175 L
-15.453 15.175 L
-14.047 15.175 -13.094 15.151 QT
-12.141 15.128 -12.078 15.081 QT
-11.844 14.831 -11.594 13.237 QT
-11.016 13.237 L
-11.578 16.8 L
-19 16.8 L
cp
f
GR
GS
[1.00063 0 0 1 95.02237 289.5] CT
0.149 GC
N
-5 17.237 M
-7.453 17.237 -8.336 15.222 QT
-9.219 13.206 -9.219 10.425 QT
-9.219 8.691 -8.898 7.151 QT
-8.578 5.612 -7.641 4.542 QT
-6.703 3.472 -5 3.472 QT
-3.688 3.472 -2.844 4.12 QT
-2 4.769 -1.563 5.792 QT
-1.125 6.816 -0.961 7.98 QT
-0.797 9.144 -0.797 10.425 QT
-0.797 12.144 -1.117 13.644 QT
-1.438 15.144 -2.367 16.191 QT
-3.297 17.237 -5 17.237 QT
cp
-5 16.722 M
-3.891 16.722 -3.344 15.581 QT
-2.797 14.441 -2.664 13.05 QT
-2.531 11.659 -2.531 10.097 QT
-2.531 8.597 -2.664 7.323 QT
-2.797 6.05 -3.336 5.026 QT
-3.875 4.003 -5 4.003 QT
-6.125 4.003 -6.672 5.034 QT
-7.219 6.066 -7.352 7.331 QT
-7.484 8.597 -7.484 10.097 QT
-7.484 11.206 -7.43 12.198 QT
-7.375 13.191 -7.141 14.237 QT
-6.906 15.284 -6.383 16.003 QT
-5.859 16.722 -5 16.722 QT
cp
f
GR
GS
[1.00063 0 0 1 95.02237 289.5] CT
0.149 GC
N
5 17.237 M
2.547 17.237 1.664 15.222 QT
0.781 13.206 0.781 10.425 QT
0.781 8.691 1.102 7.151 QT
1.422 5.612 2.359 4.542 QT
3.297 3.472 5 3.472 QT
6.313 3.472 7.156 4.12 QT
8 4.769 8.438 5.792 QT
8.875 6.816 9.039 7.98 QT
9.203 9.144 9.203 10.425 QT
9.203 12.144 8.883 13.644 QT
8.563 15.144 7.633 16.191 QT
6.703 17.237 5 17.237 QT
cp
5 16.722 M
6.109 16.722 6.656 15.581 QT
7.203 14.441 7.336 13.05 QT
7.469 11.659 7.469 10.097 QT
7.469 8.597 7.336 7.323 QT
7.203 6.05 6.664 5.026 QT
6.125 4.003 5 4.003 QT
3.875 4.003 3.328 5.034 QT
2.781 6.066 2.648 7.331 QT
2.516 8.597 2.516 10.097 QT
2.516 11.206 2.57 12.198 QT
2.625 13.191 2.859 14.237 QT
3.094 15.284 3.617 16.003 QT
4.141 16.722 5 16.722 QT
cp
f
GR
GS
[1.00063 0 0 1 95.02237 289.5] CT
0.149 GC
N
10.844 13.769 M
10.844 12.566 11.633 11.644 QT
12.422 10.722 13.656 10.097 QT
12.922 9.628 L
12.234 9.175 11.805 8.425 QT
11.375 7.675 11.375 6.862 QT
11.375 5.894 11.883 5.128 QT
12.391 4.362 13.219 3.917 QT
14.047 3.472 15 3.472 QT
15.891 3.472 16.719 3.839 QT
17.547 4.206 18.078 4.878 QT
18.609 5.55 18.609 6.472 QT
18.609 7.144 18.289 7.722 QT
17.969 8.3 17.414 8.761 QT
16.859 9.222 16.234 9.55 QT
17.391 10.269 L
18.172 10.8 18.656 11.636 QT
19.141 12.472 19.141 13.394 QT
19.141 14.487 18.563 15.378 QT
17.984 16.269 17.023 16.753 QT
16.063 17.237 15 17.237 QT
13.969 17.237 13.008 16.816 QT
12.047 16.394 11.445 15.597 QT
10.844 14.8 10.844 13.769 QT
cp
11.922 13.769 M
11.922 14.55 12.359 15.206 QT
12.797 15.862 13.508 16.23 QT
14.219 16.597 15 16.597 QT
16.156 16.597 17.109 15.925 QT
18.063 15.253 18.063 14.128 QT
18.063 13.737 17.906 13.362 QT
17.75 12.987 17.484 12.683 QT
17.219 12.378 16.891 12.175 QT
14.203 10.441 L
13.578 10.769 13.055 11.276 QT
12.531 11.784 12.227 12.425 QT
11.922 13.066 11.922 13.769 QT
cp
13.297 7.659 M
15.719 9.222 L
16.563 8.737 17.102 8.042 QT
17.641 7.347 17.641 6.472 QT
17.641 5.8 17.266 5.237 QT
16.891 4.675 16.281 4.362 QT
15.672 4.05 14.984 4.05 QT
14.375 4.05 13.758 4.284 QT
13.141 4.519 12.742 4.987 QT
12.344 5.456 12.344 6.081 QT
12.344 7.019 13.297 7.659 QT
cp
f
GR
GS
[1.00063 0 0 1 182.05544 289.5] CT
0.149 GC
N
/f-1171549265{-19 16.8 M
-19 16.269 L
-19 16.206 -18.969 16.159 QT
-15.859 12.722 L
-15.156 11.956 -14.719 11.441 QT
-14.281 10.925 -13.852 10.245 QT
-13.422 9.566 -13.172 8.87 QT
-12.922 8.175 -12.922 7.394 QT
-12.922 6.581 -13.227 5.831 QT
-13.531 5.081 -14.125 4.628 QT
-14.719 4.175 -15.578 4.175 QT
-16.438 4.175 -17.133 4.698 QT
-17.828 5.222 -18.109 6.05 QT
-18.031 6.034 -17.906 6.034 QT
-17.453 6.034 -17.133 6.339 QT
-16.813 6.644 -16.813 7.128 QT
-16.813 7.581 -17.133 7.901 QT
-17.453 8.222 -17.906 8.222 QT
-18.375 8.222 -18.688 7.894 QT
-19 7.566 -19 7.128 QT
-19 6.362 -18.719 5.706 QT
-18.438 5.05 -17.906 4.534 QT
-17.375 4.019 -16.703 3.745 QT
-16.031 3.472 -15.281 3.472 QT
-14.141 3.472 -13.156 3.956 QT
-12.172 4.441 -11.594 5.323 QT
-11.016 6.206 -11.016 7.394 QT
-11.016 8.269 -11.398 9.05 QT
-11.781 9.831 -12.375 10.472 QT
-12.969 11.112 -13.898 11.917 QT
-14.828 12.722 -15.109 13.003 QT
-17.375 15.175 L
-15.453 15.175 L
-14.047 15.175 -13.094 15.151 QT
-12.141 15.128 -12.078 15.081 QT
-11.844 14.831 -11.594 13.237 QT
-11.016 13.237 L
-11.578 16.8 L
-19 16.8 L
cp}def
f-1171549265
f
GR
GS
[1.00063 0 0 1 182.05544 289.5] CT
0.149 GC
N
/f-2084610355{-5 17.237 M
-7.453 17.237 -8.336 15.222 QT
-9.219 13.206 -9.219 10.425 QT
-9.219 8.691 -8.898 7.151 QT
-8.578 5.612 -7.641 4.542 QT
-6.703 3.472 -5 3.472 QT
-3.688 3.472 -2.844 4.12 QT
-2 4.769 -1.563 5.792 QT
-1.125 6.816 -0.961 7.98 QT
-0.797 9.144 -0.797 10.425 QT
-0.797 12.144 -1.117 13.644 QT
-1.438 15.144 -2.367 16.191 QT
-3.297 17.237 -5 17.237 QT
cp
-5 16.722 M
-3.891 16.722 -3.344 15.581 QT
-2.797 14.441 -2.664 13.05 QT
-2.531 11.659 -2.531 10.097 QT
-2.531 8.597 -2.664 7.323 QT
-2.797 6.05 -3.336 5.026 QT
-3.875 4.003 -5 4.003 QT
-6.125 4.003 -6.672 5.034 QT
-7.219 6.066 -7.352 7.331 QT
-7.484 8.597 -7.484 10.097 QT
-7.484 11.206 -7.43 12.198 QT
-7.375 13.191 -7.141 14.237 QT
-6.906 15.284 -6.383 16.003 QT
-5.859 16.722 -5 16.722 QT
cp}def
f-2084610355
f
GR
GS
[1.00063 0 0 1 182.05544 289.5] CT
0.149 GC
N
/f-192727431{1.859 16.8 M
1.859 16.097 L
4.359 16.097 4.359 15.456 QT
4.359 4.956 L
3.328 5.456 1.734 5.456 QT
1.734 4.753 L
4.188 4.753 5.438 3.472 QT
5.719 3.472 L
5.797 3.472 5.859 3.526 QT
5.922 3.581 5.922 3.659 QT
5.922 15.456 L
5.922 16.097 8.422 16.097 QT
8.422 16.8 L
1.859 16.8 L
cp}def
f-192727431
f
GR
GS
[1.00063 0 0 1 182.05544 289.5] CT
0.149 GC
N
/f-1674586926{15 17.237 M
12.547 17.237 11.664 15.222 QT
10.781 13.206 10.781 10.425 QT
10.781 8.691 11.102 7.151 QT
11.422 5.612 12.359 4.542 QT
13.297 3.472 15 3.472 QT
16.313 3.472 17.156 4.12 QT
18 4.769 18.438 5.792 QT
18.875 6.816 19.039 7.98 QT
19.203 9.144 19.203 10.425 QT
19.203 12.144 18.883 13.644 QT
18.563 15.144 17.633 16.191 QT
16.703 17.237 15 17.237 QT
cp
15 16.722 M
16.109 16.722 16.656 15.581 QT
17.203 14.441 17.336 13.05 QT
17.469 11.659 17.469 10.097 QT
17.469 8.597 17.336 7.323 QT
17.203 6.05 16.664 5.026 QT
16.125 4.003 15 4.003 QT
13.875 4.003 13.328 5.034 QT
12.781 6.066 12.648 7.331 QT
12.516 8.597 12.516 10.097 QT
12.516 11.206 12.57 12.198 QT
12.625 13.191 12.859 14.237 QT
13.094 15.284 13.617 16.003 QT
14.141 16.722 15 16.722 QT
cp}def
f-1674586926
f
GR
GS
[1.00063 0 0 1 268.96946 289.5] CT
0.149 GC
N
f-1171549265
f
GR
GS
[1.00063 0 0 1 268.96946 289.5] CT
0.149 GC
N
f-2084610355
f
GR
GS
[1.00063 0 0 1 268.96946 289.5] CT
0.149 GC
N
f-192727431
f
GR
GS
[1.00063 0 0 1 268.96946 289.5] CT
0.149 GC
N
/f110075864{11 16.8 M
11 16.269 L
11 16.206 11.031 16.159 QT
14.141 12.722 L
14.844 11.956 15.281 11.441 QT
15.719 10.925 16.148 10.245 QT
16.578 9.566 16.828 8.87 QT
17.078 8.175 17.078 7.394 QT
17.078 6.581 16.773 5.831 QT
16.469 5.081 15.875 4.628 QT
15.281 4.175 14.422 4.175 QT
13.563 4.175 12.867 4.698 QT
12.172 5.222 11.891 6.05 QT
11.969 6.034 12.094 6.034 QT
12.547 6.034 12.867 6.339 QT
13.188 6.644 13.188 7.128 QT
13.188 7.581 12.867 7.901 QT
12.547 8.222 12.094 8.222 QT
11.625 8.222 11.313 7.894 QT
11 7.566 11 7.128 QT
11 6.362 11.281 5.706 QT
11.563 5.05 12.094 4.534 QT
12.625 4.019 13.297 3.745 QT
13.969 3.472 14.719 3.472 QT
15.859 3.472 16.844 3.956 QT
17.828 4.441 18.406 5.323 QT
18.984 6.206 18.984 7.394 QT
18.984 8.269 18.602 9.05 QT
18.219 9.831 17.625 10.472 QT
17.031 11.112 16.102 11.917 QT
15.172 12.722 14.891 13.003 QT
12.625 15.175 L
14.547 15.175 L
15.953 15.175 16.906 15.151 QT
17.859 15.128 17.922 15.081 QT
18.156 14.831 18.406 13.237 QT
18.984 13.237 L
18.422 16.8 L
11 16.8 L
cp}def
f110075864
f
GR
GS
[1.00063 0 0 1 356.00252 289.5] CT
0.149 GC
N
f-1171549265
f
GR
GS
[1.00063 0 0 1 356.00252 289.5] CT
0.149 GC
N
f-2084610355
f
GR
GS
[1.00063 0 0 1 356.00252 289.5] CT
0.149 GC
N
f-192727431
f
GR
GS
[1.00063 0 0 1 356.00252 289.5] CT
0.149 GC
N
/f194291650{10.563 13.503 M
10.563 12.8 L
16.734 3.581 L
16.813 3.472 16.938 3.472 QT
17.234 3.472 L
17.469 3.472 17.469 3.706 QT
17.469 12.8 L
19.422 12.8 L
19.422 13.503 L
17.469 13.503 L
17.469 15.456 L
17.469 15.878 18.055 15.987 QT
18.641 16.097 19.406 16.097 QT
19.406 16.8 L
13.891 16.8 L
13.891 16.097 L
14.672 16.097 15.258 15.987 QT
15.844 15.878 15.844 15.456 QT
15.844 13.503 L
10.563 13.503 L
cp
11.219 12.8 M
15.953 12.8 L
15.953 5.722 L
11.219 12.8 L
cp}def
f194291650
f
GR
GS
[1.00063 0 0 1 442.91655 289.5] CT
0.149 GC
N
f-1171549265
f
GR
GS
[1.00063 0 0 1 442.91655 289.5] CT
0.149 GC
N
f-2084610355
f
GR
GS
[1.00063 0 0 1 442.91655 289.5] CT
0.149 GC
N
f-192727431
f
GR
GS
[1.00063 0 0 1 442.91655 289.5] CT
0.149 GC
N
/f-973792135{15 17.237 M
13.766 17.237 12.93 16.581 QT
12.094 15.925 11.641 14.87 QT
11.188 13.816 11.016 12.667 QT
10.844 11.519 10.844 10.331 QT
10.844 8.753 11.461 7.159 QT
12.078 5.566 13.273 4.519 QT
14.469 3.472 16.109 3.472 QT
16.781 3.472 17.375 3.737 QT
17.969 4.003 18.305 4.503 QT
18.641 5.003 18.641 5.722 QT
18.641 6.128 18.367 6.401 QT
18.094 6.675 17.672 6.675 QT
17.281 6.675 17 6.394 QT
16.719 6.112 16.719 5.722 QT
16.719 5.331 17 5.042 QT
17.281 4.753 17.672 4.753 QT
17.781 4.753 L
17.531 4.394 17.07 4.222 QT
16.609 4.05 16.109 4.05 QT
15.5 4.05 14.984 4.316 QT
14.469 4.581 14.063 5.034 QT
13.656 5.487 13.383 6.026 QT
13.109 6.566 12.953 7.261 QT
12.797 7.956 12.758 8.558 QT
12.719 9.159 12.719 10.081 QT
13.078 9.253 13.719 8.737 QT
14.359 8.222 15.172 8.222 QT
16.063 8.222 16.797 8.581 QT
17.531 8.941 18.055 9.581 QT
18.578 10.222 18.859 11.042 QT
19.141 11.862 19.141 12.691 QT
19.141 13.862 18.617 14.925 QT
18.094 15.987 17.148 16.612 QT
16.203 17.237 15 17.237 QT
cp
15 16.597 M
15.766 16.597 16.234 16.245 QT
16.703 15.894 16.93 15.316 QT
17.156 14.737 17.203 14.144 QT
17.25 13.55 17.25 12.691 QT
17.25 11.566 17.148 10.761 QT
17.047 9.956 16.563 9.347 QT
16.078 8.737 15.094 8.737 QT
14.281 8.737 13.766 9.284 QT
13.25 9.831 13.008 10.667 QT
12.766 11.503 12.766 12.284 QT
12.766 12.534 12.781 12.675 QT
12.781 12.706 12.781 12.73 QT
12.781 12.753 12.766 12.769 QT
12.766 13.628 12.938 14.511 QT
13.109 15.394 13.609 15.995 QT
14.109 16.597 15 16.597 QT
cp}def
f-973792135
f
GR
GS
[1.00063 0 0 1 0 0] CT
0.149 GC
2 setlinecap
1 LJ
0.5 LW
N
69.5 283.5 M
69.5 24 L
S
GR
GS
[1.00063 0 0 1 0 0] CT
0.149 GC
2 setlinecap
1 LJ
0.5 LW
N
482.5 283.5 M
482.5 24 L
S
GR
GS
[1.00063 0 0 1 0 0] CT
0.149 GC
2 setlinecap
1 LJ
0.5 LW
N
69.5 257.55 M
73.63 257.55 L
S
GR
GS
[1.00063 0 0 1 0 0] CT
0.149 GC
2 setlinecap
1 LJ
0.5 LW
N
69.5 205.65 M
73.63 205.65 L
S
GR
GS
[1.00063 0 0 1 0 0] CT
0.149 GC
2 setlinecap
1 LJ
0.5 LW
N
69.5 153.75 M
73.63 153.75 L
S
GR
GS
[1.00063 0 0 1 0 0] CT
0.149 GC
2 setlinecap
1 LJ
0.5 LW
N
69.5 101.85 M
73.63 101.85 L
S
GR
GS
[1.00063 0 0 1 0 0] CT
0.149 GC
2 setlinecap
1 LJ
0.5 LW
N
69.5 49.95 M
73.63 49.95 L
S
GR
GS
[1.00063 0 0 1 0 0] CT
0.149 GC
2 setlinecap
1 LJ
0.5 LW
N
482.5 257.55 M
478.37 257.55 L
S
GR
GS
[1.00063 0 0 1 0 0] CT
0.149 GC
2 setlinecap
1 LJ
0.5 LW
N
482.5 205.65 M
478.37 205.65 L
S
GR
GS
[1.00063 0 0 1 0 0] CT
0.149 GC
2 setlinecap
1 LJ
0.5 LW
N
482.5 153.75 M
478.37 153.75 L
S
GR
GS
[1.00063 0 0 1 0 0] CT
0.149 GC
2 setlinecap
1 LJ
0.5 LW
N
482.5 101.85 M
478.37 101.85 L
S
GR
GS
[1.00063 0 0 1 0 0] CT
0.149 GC
2 setlinecap
1 LJ
0.5 LW
N
482.5 49.95 M
478.37 49.95 L
S
GR
GS
[1.00063 0 0 1 63.53971 257.54999] CT
0.149 GC
N
/f-2053354270{-26.448 1.097 M
-26.448 -0.138 L
-21.151 -0.138 L
-21.151 1.097 L
-26.448 1.097 L
cp}def
f-2053354270
f
GR
GS
[1.00063 0 0 1 63.53971 257.54999] CT
0.149 GC
N
/f-1760610010{-19 4.8 M
-19 4.269 L
-19 4.206 -18.969 4.159 QT
-15.859 0.722 L
-15.156 -0.044 -14.719 -0.559 QT
-14.281 -1.075 -13.852 -1.755 QT
-13.422 -2.434 -13.172 -3.13 QT
-12.922 -3.825 -12.922 -4.606 QT
-12.922 -5.419 -13.227 -6.169 QT
-13.531 -6.919 -14.125 -7.372 QT
-14.719 -7.825 -15.578 -7.825 QT
-16.438 -7.825 -17.133 -7.302 QT
-17.828 -6.778 -18.109 -5.95 QT
-18.031 -5.966 -17.906 -5.966 QT
-17.453 -5.966 -17.133 -5.661 QT
-16.813 -5.356 -16.813 -4.872 QT
-16.813 -4.419 -17.133 -4.099 QT
-17.453 -3.778 -17.906 -3.778 QT
-18.375 -3.778 -18.688 -4.106 QT
-19 -4.434 -19 -4.872 QT
-19 -5.638 -18.719 -6.294 QT
-18.438 -6.95 -17.906 -7.466 QT
-17.375 -7.981 -16.703 -8.255 QT
-16.031 -8.528 -15.281 -8.528 QT
-14.141 -8.528 -13.156 -8.044 QT
-12.172 -7.559 -11.594 -6.677 QT
-11.016 -5.794 -11.016 -4.606 QT
-11.016 -3.731 -11.398 -2.95 QT
-11.781 -2.169 -12.375 -1.528 QT
-12.969 -0.888 -13.898 -0.083 QT
-14.828 0.722 -15.109 1.003 QT
-17.375 3.175 L
-15.453 3.175 L
-14.047 3.175 -13.094 3.151 QT
-12.141 3.128 -12.078 3.081 QT
-11.844 2.831 -11.594 1.237 QT
-11.016 1.237 L
-11.578 4.8 L
-19 4.8 L
cp}def
f-1760610010
f
GR
GS
[1.00063 0 0 1 63.53971 257.54999] CT
0.149 GC
N
/f-259944110{-5 5.237 M
-7.453 5.237 -8.336 3.222 QT
-9.219 1.206 -9.219 -1.575 QT
-9.219 -3.309 -8.898 -4.849 QT
-8.578 -6.388 -7.641 -7.458 QT
-6.703 -8.528 -5 -8.528 QT
-3.688 -8.528 -2.844 -7.88 QT
-2 -7.231 -1.563 -6.208 QT
-1.125 -5.184 -0.961 -4.02 QT
-0.797 -2.856 -0.797 -1.575 QT
-0.797 0.144 -1.117 1.644 QT
-1.438 3.144 -2.367 4.191 QT
-3.297 5.237 -5 5.237 QT
cp
-5 4.722 M
-3.891 4.722 -3.344 3.581 QT
-2.797 2.441 -2.664 1.05 QT
-2.531 -0.341 -2.531 -1.903 QT
-2.531 -3.403 -2.664 -4.677 QT
-2.797 -5.95 -3.336 -6.974 QT
-3.875 -7.997 -5 -7.997 QT
-6.125 -7.997 -6.672 -6.966 QT
-7.219 -5.934 -7.352 -4.669 QT
-7.484 -3.403 -7.484 -1.903 QT
-7.484 -0.794 -7.43 0.198 QT
-7.375 1.191 -7.141 2.237 QT
-6.906 3.284 -6.383 4.003 QT
-5.859 4.722 -5 4.722 QT
cp}def
f-259944110
f
GR
GS
[1.00063 0 0 1 63.53971 205.64999] CT
0.149 GC
N
f-2053354270
f
GR
GS
[1.00063 0 0 1 63.53971 205.64999] CT
0.149 GC
N
/f902764462{-18.141 4.8 M
-18.141 4.097 L
-15.641 4.097 -15.641 3.456 QT
-15.641 -7.044 L
-16.672 -6.544 -18.266 -6.544 QT
-18.266 -7.247 L
-15.813 -7.247 -14.563 -8.528 QT
-14.281 -8.528 L
-14.203 -8.528 -14.141 -8.474 QT
-14.078 -8.419 -14.078 -8.341 QT
-14.078 3.456 L
-14.078 4.097 -11.578 4.097 QT
-11.578 4.8 L
-18.141 4.8 L
cp}def
f902764462
f
GR
GS
[1.00063 0 0 1 63.53971 205.64999] CT
0.149 GC
N
f-259944110
f
GR
GS
[1.00063 0 0 1 63.53971 153.75] CT
0.149 GC
N
f-259944110
f
GR
GS
[1.00063 0 0 1 63.53971 101.85] CT
0.149 GC
N
f902764462
f
GR
GS
[1.00063 0 0 1 63.53971 101.85] CT
0.149 GC
N
f-259944110
f
GR
GS
[1.00063 0 0 1 63.53971 49.95] CT
0.149 GC
N
f-1760610010
f
GR
GS
[1.00063 0 0 1 63.53971 49.95] CT
0.149 GC
N
f-259944110
f
GR
GS
[1.00063 0 0 1 0 0] CT
0 0.447 0.741 RC
1 LJ
2.5 LW
N
69.5 151.68 M
80.368 145.284 L
91.237 155.548 L
102.105 169.396 L
112.974 157.38 L
123.842 189.169 L
134.711 234.794 L
145.579 172.772 L
156.447 80.321 L
167.316 103.19 L
178.184 143.22 L
189.053 137.46 L
199.921 171.848 L
210.789 123.61 L
221.658 139.734 L
232.526 140.902 L
243.395 146.57 L
254.263 180.67 L
265.132 129.732 L
276 125.464 L
286.868 157.173 L
297.737 136.682 L
308.605 147.79 L
319.474 134.072 L
330.342 158.282 L
341.211 140.892 L
352.079 136.871 L
362.947 143.033 L
373.816 139.328 L
384.684 157.858 L
395.553 145.402 L
406.421 145.69 L
417.289 156.831 L
428.158 169.912 L
439.026 144.399 L
449.895 146.419 L
460.763 141.818 L
471.632 143.6 L
482.5 156.175 L
S
GR
GS
[1.00063 0 0 1 0 0] CT
0.467 0.706 0.792 RC
1 LJ
2.5 LW
N
69.5 151.68 M
80.368 145.284 L
91.237 155.548 L
102.105 169.36 L
112.974 157.241 L
123.842 189.481 L
134.711 234.116 L
145.579 171.579 L
156.447 81.745 L
167.316 103.621 L
178.184 143.332 L
189.053 137.561 L
199.921 171.714 L
210.789 123.877 L
221.658 139.796 L
232.526 140.953 L
243.395 146.544 L
254.263 180.588 L
265.132 129.765 L
276 125.498 L
286.868 157.187 L
297.737 136.681 L
308.605 147.791 L
319.474 134.061 L
330.342 158.273 L
341.211 140.905 L
352.079 136.877 L
362.947 143.037 L
373.816 139.333 L
384.684 157.856 L
395.553 145.405 L
406.421 145.693 L
417.289 156.83 L
428.158 169.908 L
439.026 144.402 L
449.895 146.451 L
460.763 141.861 L
471.632 143.651 L
482.5 156.122 L
S
GR
GS
[1.00063 0 0 1 0 0] CT
0.769 0.306 0.322 RC
[8 2 4 2] 0 setdash
2 LJ
2.5 LW
N
69.5 152.834 M
80.368 146.068 L
91.237 154.182 L
102.105 187.893 L
112.974 156.114 L
123.842 180.651 L
134.711 192.168 L
145.579 191.566 L
156.447 110.831 L
167.316 108.952 L
178.184 143.958 L
189.053 138.911 L
199.921 175.272 L
210.789 123.594 L
221.658 142.177 L
232.526 141.196 L
243.395 144.167 L
254.263 173.798 L
265.132 135.402 L
276 105.688 L
286.868 151.725 L
297.737 138.188 L
308.605 149.545 L
319.474 119.416 L
330.342 159.744 L
341.211 148.255 L
352.079 141.2 L
362.947 143.891 L
373.816 137.52 L
384.684 156.759 L
395.553 143.047 L
406.421 140.907 L
417.289 158.873 L
428.158 162.755 L
439.026 146.442 L
449.895 149.723 L
460.763 141.223 L
471.632 145.933 L
482.5 160.696 L
S
GR
GS
[1.00063 0 0 1 0 0] CT
0.792 0.725 0.49 RC
[8 2 4 2] 0 setdash
2 LJ
2.5 LW
N
69.5 156.561 M
80.368 143.935 L
91.237 158.554 L
102.105 190.69 L
112.974 153.706 L
123.842 179.684 L
134.711 193.376 L
145.579 173.587 L
156.447 105.217 L
167.316 104.888 L
178.184 141.981 L
189.053 133.154 L
199.921 169.649 L
210.789 126.124 L
221.658 150.51 L
232.526 138.442 L
243.395 144.858 L
254.263 175.931 L
265.132 138.031 L
276 104.996 L
286.868 151.594 L
297.737 138.853 L
308.605 147.656 L
319.474 128.847 L
330.342 160.361 L
341.211 145.793 L
352.079 139.811 L
362.947 145.412 L
373.816 137.022 L
384.684 154.873 L
395.553 145.2 L
406.421 141.928 L
417.289 158.746 L
428.158 164.76 L
439.026 145.722 L
449.895 147.834 L
460.763 141.275 L
471.632 145.655 L
482.5 156.774 L
S
GR
GS
[1.00063 0 0 1 0 0] CT
0.333 0.659 0.408 RC
[8 8] 0 setdash
2 LJ
2.5 LW
N
69.5 132.774 M
80.368 143.777 L
91.237 161.283 L
102.105 186.715 L
112.974 154.119 L
123.842 202.461 L
134.711 239.64 L
145.579 180.926 L
156.447 77.403 L
167.316 83.041 L
178.184 135.062 L
189.053 132.789 L
199.921 187.559 L
210.789 104.573 L
221.658 118.755 L
232.526 132.565 L
243.395 149.857 L
254.263 212.928 L
265.132 116.789 L
276 107.081 L
286.868 168.326 L
297.737 129.344 L
308.605 146.579 L
319.474 123.024 L
330.342 154.612 L
341.211 126.875 L
352.079 126.267 L
362.947 143.721 L
373.816 135.983 L
384.684 162.532 L
395.553 142.575 L
406.421 141.804 L
417.289 154.982 L
428.158 184.639 L
439.026 139.592 L
449.895 150.834 L
460.763 142.399 L
471.632 134.581 L
482.5 151.863 L
S
GR
GS
[1.00063 0 0 1 0 0] CT
0.486 0.447 0.671 RC
[2 2] 0 setdash
2 LJ
2.5 LW
N
69.5 119.975 M
80.368 141.513 L
91.237 166.316 L
102.105 200.754 L
112.974 162.376 L
123.842 232.918 L
134.711 266.757 L
145.579 215.634 L
156.447 46.069 L
167.316 63.203 L
178.184 132.625 L
189.053 136.939 L
199.921 219.491 L
210.789 82.256 L
221.658 107.299 L
232.526 128.86 L
243.395 151.307 L
254.263 239.977 L
265.132 114.359 L
276 93.731 L
286.868 180.049 L
297.737 118.943 L
308.605 140.838 L
319.474 113.615 L
330.342 150.4 L
341.211 111.314 L
352.079 112.236 L
362.947 147.194 L
373.816 128.552 L
384.684 164.946 L
395.553 148.516 L
406.421 141.742 L
417.289 152.142 L
428.158 197.592 L
439.026 125.206 L
449.895 155.565 L
460.763 148.517 L
471.632 128.498 L
482.5 144.122 L
S
GR
GS
[1.00063 0 0 1 103.55281 333] CT
N
/f-353901190{0.5 3.84 M
0.5 3.277 L
2.141 3.277 2.141 2.762 QT
2.141 -6.019 L
2.141 -6.535 0.5 -6.535 QT
0.5 -7.098 L
5.688 -7.098 L
5.688 -6.535 L
3.641 -6.535 3.641 -6.019 QT
3.641 2.762 L
3.641 3.106 3.836 3.192 QT
4.031 3.277 4.453 3.277 QT
5.688 3.277 L
6.875 3.277 7.523 2.84 QT
8.172 2.402 8.445 1.645 QT
8.719 0.887 8.859 -0.363 QT
9.313 -0.363 L
8.875 3.84 L
0.5 3.84 L
cp}def
f-353901190
f
GR
GS
[1.00063 0 0 1 103.55281 333] CT
N
/f-522340096{14 4.027 M
13.047 4.027 12.227 3.535 QT
11.406 3.043 10.93 2.223 QT
10.453 1.402 10.453 0.434 QT
10.453 -0.301 10.711 -0.98 QT
10.969 -1.66 11.461 -2.199 QT
11.953 -2.738 12.602 -3.035 QT
13.25 -3.332 14 -3.332 QT
14.984 -3.332 15.797 -2.816 QT
16.609 -2.301 17.078 -1.426 QT
17.547 -0.551 17.547 0.434 QT
17.547 1.387 17.07 2.215 QT
16.594 3.043 15.773 3.535 QT
14.953 4.027 14 4.027 QT
cp
14 3.543 M
15.281 3.543 15.711 2.613 QT
16.141 1.684 16.141 0.246 QT
16.141 -0.551 16.055 -1.082 QT
15.969 -1.613 15.688 -2.035 QT
15.5 -2.301 15.227 -2.504 QT
14.953 -2.707 14.641 -2.808 QT
14.328 -2.91 14 -2.91 QT
13.5 -2.91 13.055 -2.683 QT
12.609 -2.457 12.313 -2.035 QT
12.016 -1.582 11.93 -1.043 QT
11.844 -0.504 11.844 0.246 QT
11.844 1.152 12 1.863 QT
12.156 2.574 12.633 3.059 QT
13.109 3.543 14 3.543 QT
cp}def
f-522340096
f
GR
GS
[1.00063 0 0 1 103.55281 333] CT
N
/f1193902487{21.102 3.84 M
19.024 -1.988 L
18.884 -2.332 18.618 -2.418 QT
18.352 -2.504 17.852 -2.504 QT
17.852 -3.066 L
21.149 -3.066 L
21.149 -2.504 L
20.196 -2.504 20.196 -2.098 QT
20.212 -2.082 20.212 -2.058 QT
20.212 -2.035 20.212 -1.988 QT
21.759 2.324 L
23.087 -1.426 L
22.868 -1.988 L
22.743 -2.332 22.47 -2.418 QT
22.196 -2.504 21.696 -2.504 QT
21.696 -3.066 L
24.852 -3.066 L
24.852 -2.504 L
23.915 -2.504 23.915 -2.098 QT
23.915 -2.035 23.931 -1.988 QT
25.524 2.527 L
26.977 -1.551 L
27.009 -1.676 27.009 -1.785 QT
27.009 -2.113 26.727 -2.308 QT
26.446 -2.504 26.087 -2.504 QT
26.087 -3.066 L
28.806 -3.066 L
28.806 -2.504 L
28.321 -2.504 27.977 -2.246 QT
27.634 -1.988 27.462 -1.551 QT
25.556 3.84 L
25.509 4.027 25.321 4.027 QT
25.196 4.027 L
25.009 4.027 24.946 3.84 QT
23.337 -0.723 L
21.712 3.84 L
21.634 4.027 21.462 4.027 QT
21.352 4.027 L
21.149 4.027 21.102 3.84 QT
cp}def
f1193902487
f
GR
GS
[1.00063 0 0 1 103.55281 333] CT
N
/f-1531767732{40.085 4.027 M
36.304 -6.019 L
36.163 -6.363 35.765 -6.449 QT
35.366 -6.535 34.757 -6.535 QT
34.757 -7.098 L
39.148 -7.098 L
39.148 -6.535 L
37.819 -6.535 37.819 -6.113 QT
37.835 -6.098 37.835 -6.074 QT
37.835 -6.051 37.835 -6.019 QT
40.913 2.137 L
43.804 -5.582 L
43.835 -5.644 43.835 -5.785 QT
43.835 -6.176 43.476 -6.355 QT
43.116 -6.535 42.679 -6.535 QT
42.679 -7.098 L
46.132 -7.098 L
46.132 -6.535 L
45.523 -6.535 45.069 -6.308 QT
44.616 -6.082 44.413 -5.582 QT
40.804 4.027 L
40.757 4.199 40.538 4.199 QT
40.335 4.199 L
40.132 4.199 40.085 4.027 QT
cp}def
f-1531767732
f
GR
GS
[1.00063 0 0 1 103.55281 333] CT
N
/f-1282191658{49.111 4.027 M
48.158 4.027 47.338 3.535 QT
46.517 3.043 46.041 2.223 QT
45.564 1.402 45.564 0.434 QT
45.564 -0.301 45.822 -0.98 QT
46.08 -1.66 46.572 -2.199 QT
47.064 -2.738 47.713 -3.035 QT
48.361 -3.332 49.111 -3.332 QT
50.096 -3.332 50.908 -2.816 QT
51.721 -2.301 52.189 -1.426 QT
52.658 -0.551 52.658 0.434 QT
52.658 1.387 52.181 2.215 QT
51.705 3.043 50.885 3.535 QT
50.064 4.027 49.111 4.027 QT
cp
49.111 3.543 M
50.392 3.543 50.822 2.613 QT
51.252 1.684 51.252 0.246 QT
51.252 -0.551 51.166 -1.082 QT
51.08 -1.613 50.799 -2.035 QT
50.611 -2.301 50.338 -2.504 QT
50.064 -2.707 49.752 -2.808 QT
49.439 -2.91 49.111 -2.91 QT
48.611 -2.91 48.166 -2.683 QT
47.721 -2.457 47.424 -2.035 QT
47.127 -1.582 47.041 -1.043 QT
46.955 -0.504 46.955 0.246 QT
46.955 1.152 47.111 1.863 QT
47.267 2.574 47.744 3.059 QT
48.221 3.543 49.111 3.543 QT
cp}def
f-1282191658
f
GR
GS
[1.00063 0 0 1 103.55281 333] CT
N
/f1405646084{53.611 3.84 M
53.611 3.277 L
54.158 3.277 54.51 3.192 QT
54.861 3.106 54.861 2.762 QT
54.861 -5.629 L
54.861 -6.066 54.728 -6.254 QT
54.596 -6.441 54.353 -6.488 QT
54.111 -6.535 53.611 -6.535 QT
53.611 -7.098 L
55.986 -7.269 L
55.986 2.762 L
55.986 3.106 56.338 3.192 QT
56.689 3.277 57.221 3.277 QT
57.221 3.84 L
53.611 3.84 L
cp}def
f1405646084
f
GR
GS
[1.00063 0 0 1 103.55281 333] CT
N
/f180915758{63.795 4.074 M
63.795 0.324 L
63.795 0.199 63.936 0.199 QT
64.123 0.199 L
64.17 0.199 64.209 0.238 QT
64.248 0.277 64.248 0.324 QT
64.248 1.902 65.225 2.762 QT
66.201 3.621 67.78 3.621 QT
68.326 3.621 68.795 3.301 QT
69.264 2.981 69.53 2.465 QT
69.795 1.949 69.795 1.387 QT
69.795 0.902 69.6 0.449 QT
69.405 -0.004 69.037 -0.34 QT
68.67 -0.676 68.201 -0.785 QT
66.123 -1.301 L
65.092 -1.566 64.444 -2.418 QT
63.795 -3.269 63.795 -4.316 QT
63.795 -5.144 64.217 -5.871 QT
64.639 -6.598 65.35 -7.019 QT
66.061 -7.441 66.889 -7.441 QT
68.498 -7.441 69.436 -6.363 QT
70.092 -7.394 L
70.139 -7.441 70.201 -7.441 QT
70.311 -7.441 L
70.358 -7.441 70.405 -7.41 QT
70.451 -7.379 70.451 -7.316 QT
70.451 -3.598 L
70.451 -3.457 70.311 -3.457 QT
70.123 -3.457 L
69.983 -3.457 69.983 -3.598 QT
69.983 -4.004 69.842 -4.488 QT
69.701 -4.973 69.459 -5.418 QT
69.217 -5.863 68.936 -6.144 QT
68.17 -6.926 66.889 -6.926 QT
66.342 -6.926 65.881 -6.652 QT
65.42 -6.379 65.147 -5.902 QT
64.873 -5.426 64.873 -4.894 QT
64.873 -4.207 65.303 -3.652 QT
65.733 -3.098 66.42 -2.91 QT
68.498 -2.41 L
69.014 -2.285 69.467 -1.957 QT
69.92 -1.629 70.225 -1.199 QT
70.53 -0.769 70.701 -0.246 QT
70.873 0.277 70.873 0.84 QT
70.873 1.715 70.475 2.481 QT
70.076 3.246 69.358 3.723 QT
68.639 4.199 67.78 4.199 QT
67.248 4.199 66.694 4.082 QT
66.139 3.965 65.67 3.715 QT
65.201 3.465 64.811 3.09 QT
64.139 4.152 L
64.092 4.199 64.03 4.199 QT
63.936 4.199 L
63.795 4.199 63.795 4.074 QT
cp}def
f180915758
f
GR
GS
[1.00063 0 0 1 103.55281 333] CT
N
/f-1660695909{73.512 1.934 M
73.512 -1.598 L
73.512 -2.035 73.379 -2.223 QT
73.247 -2.41 73.004 -2.457 QT
72.762 -2.504 72.262 -2.504 QT
72.262 -3.066 L
74.684 -3.238 L
74.684 1.934 L
74.684 2.559 74.77 2.902 QT
74.856 3.246 75.153 3.418 QT
75.45 3.59 76.09 3.59 QT
76.95 3.59 77.458 2.871 QT
77.965 2.152 77.965 1.246 QT
77.965 -1.598 L
77.965 -2.035 77.833 -2.223 QT
77.7 -2.41 77.458 -2.457 QT
77.215 -2.504 76.715 -2.504 QT
76.715 -3.066 L
79.122 -3.238 L
79.122 2.387 L
79.122 2.809 79.254 2.996 QT
79.387 3.184 79.629 3.231 QT
79.872 3.277 80.372 3.277 QT
80.372 3.84 L
78.012 4.027 L
78.012 2.668 L
77.715 3.262 77.184 3.645 QT
76.653 4.027 76.012 4.027 QT
74.856 4.027 74.184 3.535 QT
73.512 3.043 73.512 1.934 QT
cp}def
f-1660695909
f
GR
GS
[1.00063 0 0 1 103.55281 333] CT
N
/f-69332740{81.151 3.84 M
81.151 3.277 L
81.698 3.277 82.05 3.192 QT
82.401 3.106 82.401 2.762 QT
82.401 -1.598 L
82.401 -2.035 82.268 -2.223 QT
82.136 -2.41 81.893 -2.457 QT
81.651 -2.504 81.151 -2.504 QT
81.151 -3.066 L
83.464 -3.238 L
83.464 -1.676 L
83.792 -2.363 84.417 -2.801 QT
85.042 -3.238 85.792 -3.238 QT
87.636 -3.238 87.948 -1.738 QT
88.276 -2.41 88.893 -2.824 QT
89.511 -3.238 90.245 -3.238 QT
90.964 -3.238 91.464 -3.004 QT
91.964 -2.769 92.214 -2.285 QT
92.464 -1.801 92.464 -1.082 QT
92.464 2.762 L
92.464 3.106 92.815 3.192 QT
93.167 3.277 93.714 3.277 QT
93.714 3.84 L
90.042 3.84 L
90.042 3.277 L
90.589 3.277 90.94 3.192 QT
91.292 3.106 91.292 2.762 QT
91.292 -1.035 L
91.292 -1.832 91.065 -2.324 QT
90.839 -2.816 90.136 -2.816 QT
89.214 -2.816 88.612 -2.074 QT
88.011 -1.332 88.011 -0.394 QT
88.011 2.762 L
88.011 3.106 88.362 3.192 QT
88.714 3.277 89.261 3.277 QT
89.261 3.84 L
85.604 3.84 L
85.604 3.277 L
86.151 3.277 86.503 3.192 QT
86.854 3.106 86.854 2.762 QT
86.854 -1.035 L
86.854 -1.816 86.628 -2.316 QT
86.401 -2.816 85.698 -2.816 QT
84.761 -2.816 84.167 -2.074 QT
83.573 -1.332 83.573 -0.394 QT
83.573 2.762 L
83.573 3.106 83.925 3.192 QT
84.276 3.277 84.807 3.277 QT
84.807 3.84 L
81.151 3.84 L
cp}def
f-69332740
f
GR
GS
[1.00063 0 0 1 103.55281 333] CT
N
/f1742318126{94.485 3.84 M
94.485 3.277 L
95.031 3.277 95.383 3.192 QT
95.735 3.106 95.735 2.762 QT
95.735 -1.598 L
95.735 -2.035 95.602 -2.223 QT
95.469 -2.41 95.227 -2.457 QT
94.985 -2.504 94.485 -2.504 QT
94.485 -3.066 L
96.797 -3.238 L
96.797 -1.676 L
97.125 -2.363 97.75 -2.801 QT
98.375 -3.238 99.125 -3.238 QT
100.969 -3.238 101.281 -1.738 QT
101.61 -2.41 102.227 -2.824 QT
102.844 -3.238 103.578 -3.238 QT
104.297 -3.238 104.797 -3.004 QT
105.297 -2.769 105.547 -2.285 QT
105.797 -1.801 105.797 -1.082 QT
105.797 2.762 L
105.797 3.106 106.149 3.192 QT
106.5 3.277 107.047 3.277 QT
107.047 3.84 L
103.375 3.84 L
103.375 3.277 L
103.922 3.277 104.274 3.192 QT
104.625 3.106 104.625 2.762 QT
104.625 -1.035 L
104.625 -1.832 104.399 -2.324 QT
104.172 -2.816 103.469 -2.816 QT
102.547 -2.816 101.945 -2.074 QT
101.344 -1.332 101.344 -0.394 QT
101.344 2.762 L
101.344 3.106 101.695 3.192 QT
102.047 3.277 102.594 3.277 QT
102.594 3.84 L
98.938 3.84 L
98.938 3.277 L
99.485 3.277 99.836 3.192 QT
100.188 3.106 100.188 2.762 QT
100.188 -1.035 L
100.188 -1.816 99.961 -2.316 QT
99.735 -2.816 99.031 -2.816 QT
98.094 -2.816 97.5 -2.074 QT
96.906 -1.332 96.906 -0.394 QT
96.906 2.762 L
96.906 3.106 97.258 3.192 QT
97.61 3.277 98.141 3.277 QT
98.141 3.84 L
94.485 3.84 L
cp}def
f1742318126
f
GR
GS
[1.00063 0 0 1 103.55281 333] CT
N
/f1689524487{107.974 2.262 M
107.974 1.309 108.724 0.715 QT
109.474 0.121 110.529 -0.129 QT
111.584 -0.379 112.521 -0.379 QT
112.521 -1.035 L
112.521 -1.488 112.318 -1.926 QT
112.115 -2.363 111.732 -2.637 QT
111.349 -2.91 110.896 -2.91 QT
109.834 -2.91 109.271 -2.441 QT
109.584 -2.441 109.779 -2.207 QT
109.974 -1.973 109.974 -1.676 QT
109.974 -1.348 109.748 -1.121 QT
109.521 -0.894 109.209 -0.894 QT
108.896 -0.894 108.669 -1.121 QT
108.443 -1.348 108.443 -1.676 QT
108.443 -2.519 109.209 -2.926 QT
109.974 -3.332 110.896 -3.332 QT
111.537 -3.332 112.193 -3.058 QT
112.849 -2.785 113.271 -2.269 QT
113.693 -1.754 113.693 -1.066 QT
113.693 2.543 L
113.693 2.856 113.826 3.113 QT
113.959 3.371 114.24 3.371 QT
114.505 3.371 114.63 3.106 QT
114.755 2.84 114.755 2.543 QT
114.755 1.512 L
115.224 1.512 L
115.224 2.543 L
115.224 2.902 115.037 3.223 QT
114.849 3.543 114.537 3.738 QT
114.224 3.934 113.849 3.934 QT
113.38 3.934 113.044 3.567 QT
112.709 3.199 112.662 2.699 QT
112.365 3.309 111.787 3.668 QT
111.209 4.027 110.552 4.027 QT
109.943 4.027 109.357 3.84 QT
108.771 3.652 108.373 3.27 QT
107.974 2.887 107.974 2.262 QT
cp
109.271 2.262 M
109.271 2.824 109.685 3.207 QT
110.099 3.59 110.662 3.59 QT
111.177 3.59 111.599 3.332 QT
112.021 3.074 112.271 2.629 QT
112.521 2.184 112.521 1.699 QT
112.521 0.027 L
111.802 0.027 111.037 0.27 QT
110.271 0.512 109.771 1.02 QT
109.271 1.527 109.271 2.262 QT
cp}def
f1689524487
f
GR
GS
[1.00063 0 0 1 103.55281 333] CT
N
/f-260192774{115.755 3.84 M
115.755 3.277 L
116.302 3.277 116.654 3.192 QT
117.005 3.106 117.005 2.762 QT
117.005 -1.598 L
117.005 -2.035 116.873 -2.223 QT
116.74 -2.41 116.498 -2.457 QT
116.255 -2.504 115.755 -2.504 QT
115.755 -3.066 L
118.037 -3.238 L
118.037 -1.676 L
118.302 -2.363 118.779 -2.801 QT
119.255 -3.238 119.927 -3.238 QT
120.412 -3.238 120.787 -2.957 QT
121.162 -2.676 121.162 -2.207 QT
121.162 -1.926 120.951 -1.707 QT
120.74 -1.488 120.443 -1.488 QT
120.146 -1.488 119.935 -1.699 QT
119.724 -1.91 119.724 -2.207 QT
119.724 -2.644 120.021 -2.816 QT
119.927 -2.816 L
119.287 -2.816 118.873 -2.348 QT
118.459 -1.879 118.287 -1.183 QT
118.115 -0.488 118.115 0.137 QT
118.115 2.762 L
118.115 3.277 119.677 3.277 QT
119.677 3.84 L
115.755 3.84 L
cp}def
f-260192774
f
GR
GS
[1.00063 0 0 1 103.55281 333] CT
N
/f498139901{122.71 6.465 M
123.006 6.715 123.381 6.715 QT
124.381 6.715 125.022 5.184 QT
125.569 3.84 L
123.178 -2.035 L
123.022 -2.332 122.717 -2.418 QT
122.413 -2.504 121.913 -2.504 QT
121.913 -3.066 L
125.272 -3.066 L
125.272 -2.504 L
124.381 -2.504 124.381 -2.113 QT
124.381 -2.051 124.397 -2.019 QT
126.178 2.356 L
127.788 -1.582 L
127.835 -1.707 127.835 -1.863 QT
127.835 -2.051 127.725 -2.199 QT
127.616 -2.348 127.452 -2.426 QT
127.288 -2.504 127.069 -2.504 QT
127.069 -3.066 L
129.725 -3.066 L
129.725 -2.504 L
129.241 -2.504 128.866 -2.277 QT
128.491 -2.051 128.288 -1.598 QT
125.522 5.184 L
125.303 5.699 125.014 6.137 QT
124.725 6.574 124.303 6.848 QT
123.881 7.121 123.381 7.121 QT
122.788 7.121 122.35 6.738 QT
121.913 6.356 121.913 5.777 QT
121.913 5.481 122.116 5.277 QT
122.319 5.074 122.616 5.074 QT
122.819 5.074 122.975 5.168 QT
123.131 5.262 123.225 5.418 QT
123.319 5.574 123.319 5.777 QT
123.319 6.043 123.147 6.246 QT
122.975 6.449 122.71 6.465 QT
cp}def
f498139901
f
GR
GS
[1.00063 0 0 1 0 0] CT
0.792 0.725 0.49 RC
[8 2 4 2] 0 setdash
2 LJ
2.5 LW
N
70.499 333 M
100.489 333 L
S
GR
GS
[1.00063 0 0 1 274.64943 333] CT
N
/f785137026{1.484 3.84 M
1.484 3.277 L
3.484 3.277 3.484 2.762 QT
3.484 -5.629 L
2.656 -5.238 1.391 -5.238 QT
1.391 -5.801 L
3.359 -5.801 4.359 -6.816 QT
4.578 -6.816 L
4.641 -6.816 4.688 -6.777 QT
4.734 -6.738 4.734 -6.676 QT
4.734 2.762 L
4.734 3.277 6.734 3.277 QT
6.734 3.84 L
1.484 3.84 L
cp}def
f785137026
f
GR
GS
[1.00063 0 0 1 274.64943 333] CT
N
/f-968345255{8.906 7.527 M
8.906 7.481 8.922 7.465 QT
14.484 -7.973 L
14.516 -8.066 14.594 -8.113 QT
14.672 -8.16 14.766 -8.16 QT
14.906 -8.16 15 -8.074 QT
15.094 -7.988 15.094 -7.848 QT
15.094 -7.785 L
9.531 7.652 L
9.438 7.84 9.219 7.84 QT
9.094 7.84 9 7.746 QT
8.906 7.652 8.906 7.527 QT
cp}def
f-968345255
f
GR
GS
[1.00063 0 0 1 274.64943 333] CT
N
/f1951543314{15.861 3.84 M
15.705 3.84 15.705 3.621 QT
15.721 3.59 15.744 3.488 QT
15.767 3.387 15.806 3.332 QT
15.846 3.277 15.908 3.277 QT
17.439 3.277 17.689 2.293 QT
19.861 -6.457 L
19.424 -6.535 18.455 -6.535 QT
18.299 -6.535 18.299 -6.738 QT
18.314 -6.785 18.338 -6.879 QT
18.361 -6.973 18.4 -7.035 QT
18.439 -7.098 18.502 -7.098 QT
21.267 -7.098 L
21.392 -7.098 21.424 -6.988 QT
24.971 1.465 L
26.752 -5.613 L
26.783 -5.785 26.783 -5.863 QT
26.783 -6.535 25.549 -6.535 QT
25.392 -6.535 25.392 -6.738 QT
25.439 -6.941 25.471 -7.019 QT
25.502 -7.098 25.658 -7.098 QT
29.08 -7.098 L
29.236 -7.098 29.236 -6.879 QT
29.236 -6.848 29.213 -6.746 QT
29.189 -6.644 29.142 -6.59 QT
29.096 -6.535 29.033 -6.535 QT
27.502 -6.535 27.252 -5.551 QT
24.955 3.699 L
24.908 3.84 24.799 3.84 QT
24.596 3.84 L
24.486 3.84 24.455 3.731 QT
20.377 -5.957 L
20.346 -6.051 L
20.314 -6.082 20.314 -6.098 QT
18.205 2.371 L
18.189 2.402 18.181 2.465 QT
18.174 2.527 18.158 2.606 QT
18.158 3.012 18.517 3.145 QT
18.877 3.277 19.408 3.277 QT
19.564 3.277 19.564 3.481 QT
19.502 3.699 19.463 3.77 QT
19.424 3.84 19.299 3.84 QT
15.861 3.84 L
cp}def
f1951543314
f
GR
GS
[1.00063 0 0 1 0 0] CT
0.333 0.659 0.408 RC
[8 8] 0 setdash
2 LJ
2.5 LW
N
241.488 333 M
271.479 333 L
S
GR
GS
[1.00063 0 0 1 345.38199 333] CT
N
/f1619914458{0.563 3.84 M
0.563 3.277 L
2.219 3.277 2.219 2.324 QT
2.219 -6.019 L
2.219 -6.535 0.563 -6.535 QT
0.563 -7.098 L
3.594 -7.098 L
3.781 -7.098 3.844 -6.91 QT
7.328 2.137 L
10.813 -6.91 L
10.875 -7.098 11.078 -7.098 QT
14.094 -7.098 L
14.094 -6.535 L
12.453 -6.535 12.453 -6.019 QT
12.453 2.762 L
12.453 3.277 14.094 3.277 QT
14.094 3.84 L
9.438 3.84 L
9.438 3.277 L
11.094 3.277 11.094 2.762 QT
11.094 -6.551 L
7.156 3.652 L
7.078 3.84 6.891 3.84 QT
6.688 3.84 6.609 3.652 QT
2.719 -6.426 L
2.719 2.324 L
2.719 3.277 4.375 3.277 QT
4.375 3.84 L
0.563 3.84 L
cp}def
f1619914458
f
GR
GS
[1.00063 0 0 1 345.38199 333] CT
N
/f-372492978{15.573 4.074 M
15.573 0.324 L
15.573 0.199 15.714 0.199 QT
15.901 0.199 L
15.948 0.199 15.987 0.238 QT
16.026 0.277 16.026 0.324 QT
16.026 1.902 17.003 2.762 QT
17.979 3.621 19.557 3.621 QT
20.104 3.621 20.573 3.301 QT
21.042 2.981 21.307 2.465 QT
21.573 1.949 21.573 1.387 QT
21.573 0.902 21.378 0.449 QT
21.182 -0.004 20.815 -0.34 QT
20.448 -0.676 19.979 -0.785 QT
17.901 -1.301 L
16.87 -1.566 16.221 -2.418 QT
15.573 -3.269 15.573 -4.316 QT
15.573 -5.144 15.995 -5.871 QT
16.417 -6.598 17.128 -7.019 QT
17.839 -7.441 18.667 -7.441 QT
20.276 -7.441 21.214 -6.363 QT
21.87 -7.394 L
21.917 -7.441 21.979 -7.441 QT
22.089 -7.441 L
22.135 -7.441 22.182 -7.41 QT
22.229 -7.379 22.229 -7.316 QT
22.229 -3.598 L
22.229 -3.457 22.089 -3.457 QT
21.901 -3.457 L
21.76 -3.457 21.76 -3.598 QT
21.76 -4.004 21.62 -4.488 QT
21.479 -4.973 21.237 -5.418 QT
20.995 -5.863 20.714 -6.144 QT
19.948 -6.926 18.667 -6.926 QT
18.12 -6.926 17.659 -6.652 QT
17.198 -6.379 16.925 -5.902 QT
16.651 -5.426 16.651 -4.894 QT
16.651 -4.207 17.081 -3.652 QT
17.51 -3.098 18.198 -2.91 QT
20.276 -2.41 L
20.792 -2.285 21.245 -1.957 QT
21.698 -1.629 22.003 -1.199 QT
22.307 -0.769 22.479 -0.246 QT
22.651 0.277 22.651 0.84 QT
22.651 1.715 22.253 2.481 QT
21.854 3.246 21.135 3.723 QT
20.417 4.199 19.557 4.199 QT
19.026 4.199 18.471 4.082 QT
17.917 3.965 17.448 3.715 QT
16.979 3.465 16.589 3.09 QT
15.917 4.152 L
15.87 4.199 15.807 4.199 QT
15.714 4.199 L
15.573 4.199 15.573 4.074 QT
cp}def
f-372492978
f
GR
GS
[1.00063 0 0 1 345.38199 333] CT
N
/f-1095851499{27.212 2.121 M
27.759 2.824 28.579 3.223 QT
29.399 3.621 30.274 3.621 QT
31.024 3.621 31.657 3.332 QT
32.29 3.043 32.759 2.52 QT
33.227 1.996 33.485 1.332 QT
33.743 0.668 33.743 -0.066 QT
33.743 -0.191 33.884 -0.191 QT
34.071 -0.191 L
34.196 -0.191 34.196 -0.035 QT
34.196 0.793 33.876 1.574 QT
33.556 2.356 32.97 2.942 QT
32.384 3.527 31.626 3.863 QT
30.868 4.199 30.04 4.199 QT
28.884 4.199 27.86 3.731 QT
26.837 3.262 26.071 2.449 QT
25.306 1.637 24.884 0.574 QT
24.462 -0.488 24.462 -1.629 QT
24.462 -2.785 24.884 -3.848 QT
25.306 -4.91 26.071 -5.723 QT
26.837 -6.535 27.86 -6.988 QT
28.884 -7.441 30.04 -7.441 QT
30.852 -7.441 31.602 -7.09 QT
32.352 -6.738 32.915 -6.082 QT
33.852 -7.394 L
33.946 -7.441 33.962 -7.441 QT
34.071 -7.441 L
34.118 -7.441 34.157 -7.402 QT
34.196 -7.363 34.196 -7.316 QT
34.196 -2.988 L
34.196 -2.848 34.071 -2.848 QT
33.79 -2.848 L
33.634 -2.848 33.634 -2.988 QT
33.634 -3.457 33.454 -4.027 QT
33.274 -4.598 32.985 -5.105 QT
32.696 -5.613 32.321 -6.004 QT
31.431 -6.879 30.259 -6.879 QT
29.384 -6.879 28.571 -6.48 QT
27.759 -6.082 27.212 -5.379 QT
26.618 -4.629 26.392 -3.676 QT
26.165 -2.723 26.165 -1.629 QT
26.165 -0.551 26.392 0.41 QT
26.618 1.371 27.212 2.121 QT
cp}def
f-1095851499
f
GR
GS
[1.00063 0 0 1 345.38199 333] CT
N
/f1665407594{35.533 3.84 M
35.533 3.277 L
37.252 3.277 37.252 2.762 QT
37.252 -6.019 L
37.252 -6.535 35.533 -6.535 QT
35.533 -7.098 L
40.471 -7.098 L
40.471 -6.535 L
38.752 -6.535 38.752 -6.019 QT
38.752 2.762 L
38.752 3.277 40.471 3.277 QT
40.471 3.84 L
35.533 3.84 L
cp}def
f1665407594
f
GR
GS
[1.00063 0 0 1 345.38199 333] CT
N
/f1229734402{51.207 4.027 M
47.941 -6.019 L
47.816 -6.363 47.457 -6.449 QT
47.097 -6.535 46.519 -6.535 QT
46.519 -7.098 L
50.8 -7.098 L
50.8 -6.535 L
49.457 -6.535 49.457 -6.098 QT
49.457 -6.019 L
52.019 1.856 L
54.191 -4.879 L
53.832 -6.019 L
53.707 -6.363 53.347 -6.449 QT
52.988 -6.535 52.41 -6.535 QT
52.41 -7.098 L
56.691 -7.098 L
56.691 -6.535 L
55.332 -6.535 55.332 -6.098 QT
55.332 -6.082 55.347 -6.035 QT
55.363 -5.988 55.363 -5.973 QT
57.91 1.856 L
60.3 -5.582 L
60.316 -5.629 60.316 -5.738 QT
60.316 -6.16 59.871 -6.348 QT
59.425 -6.535 58.941 -6.535 QT
58.941 -7.098 L
62.363 -7.098 L
62.363 -6.535 L
61.097 -6.535 60.8 -5.582 QT
57.675 4.027 L
57.629 4.199 57.441 4.199 QT
57.332 4.199 L
57.144 4.199 57.097 4.027 QT
54.457 -4.129 L
51.8 4.027 L
51.738 4.199 51.55 4.199 QT
51.441 4.199 L
51.254 4.199 51.207 4.027 QT
cp}def
f1229734402
f
GR
GS
[1.00063 0 0 1 345.38199 333] CT
N
/f-248029520{65.333 4.027 M
64.38 4.027 63.56 3.535 QT
62.74 3.043 62.263 2.223 QT
61.787 1.402 61.787 0.434 QT
61.787 -0.301 62.044 -0.98 QT
62.302 -1.66 62.794 -2.199 QT
63.287 -2.738 63.935 -3.035 QT
64.583 -3.332 65.333 -3.332 QT
66.318 -3.332 67.13 -2.816 QT
67.943 -2.301 68.412 -1.426 QT
68.88 -0.551 68.88 0.434 QT
68.88 1.387 68.404 2.215 QT
67.927 3.043 67.107 3.535 QT
66.287 4.027 65.333 4.027 QT
cp
65.333 3.543 M
66.615 3.543 67.044 2.613 QT
67.474 1.684 67.474 0.246 QT
67.474 -0.551 67.388 -1.082 QT
67.302 -1.613 67.021 -2.035 QT
66.833 -2.301 66.56 -2.504 QT
66.287 -2.707 65.974 -2.808 QT
65.662 -2.91 65.333 -2.91 QT
64.833 -2.91 64.388 -2.683 QT
63.943 -2.457 63.646 -2.035 QT
63.349 -1.582 63.263 -1.043 QT
63.177 -0.504 63.177 0.246 QT
63.177 1.152 63.333 1.863 QT
63.49 2.574 63.966 3.059 QT
64.443 3.543 65.333 3.543 QT
cp}def
f-248029520
f
GR
GS
[1.00063 0 0 1 345.38199 333] CT
N
/f-1185497120{69.755 3.84 M
69.755 3.277 L
70.302 3.277 70.654 3.192 QT
71.005 3.106 71.005 2.762 QT
71.005 -1.598 L
71.005 -2.035 70.873 -2.223 QT
70.74 -2.41 70.498 -2.457 QT
70.255 -2.504 69.755 -2.504 QT
69.755 -3.066 L
72.037 -3.238 L
72.037 -1.676 L
72.302 -2.363 72.779 -2.801 QT
73.255 -3.238 73.927 -3.238 QT
74.412 -3.238 74.787 -2.957 QT
75.162 -2.676 75.162 -2.207 QT
75.162 -1.926 74.951 -1.707 QT
74.74 -1.488 74.443 -1.488 QT
74.146 -1.488 73.935 -1.699 QT
73.724 -1.91 73.724 -2.207 QT
73.724 -2.644 74.021 -2.816 QT
73.927 -2.816 L
73.287 -2.816 72.873 -2.348 QT
72.458 -1.879 72.287 -1.183 QT
72.115 -0.488 72.115 0.137 QT
72.115 2.762 L
72.115 3.277 73.677 3.277 QT
73.677 3.84 L
69.755 3.84 L
cp}def
f-1185497120
f
GR
GS
[1.00063 0 0 1 345.38199 333] CT
N
/f-147469004{76.1 3.84 M
76.1 3.277 L
76.647 3.277 76.999 3.192 QT
77.35 3.106 77.35 2.762 QT
77.35 -5.629 L
77.35 -6.066 77.217 -6.254 QT
77.084 -6.441 76.842 -6.488 QT
76.6 -6.535 76.1 -6.535 QT
76.1 -7.098 L
78.475 -7.269 L
78.475 2.762 L
78.475 3.106 78.827 3.192 QT
79.178 3.277 79.709 3.277 QT
79.709 3.84 L
76.1 3.84 L
cp}def
f-147469004
f
GR
GS
[1.00063 0 0 1 345.38199 333] CT
N
/f-2088769244{83.951 4.027 M
83.013 4.027 82.232 3.512 QT
81.451 2.996 81.013 2.16 QT
80.576 1.324 80.576 0.387 QT
80.576 -0.582 81.052 -1.418 QT
81.529 -2.254 82.341 -2.746 QT
83.154 -3.238 84.123 -3.238 QT
84.716 -3.238 85.24 -2.988 QT
85.763 -2.738 86.138 -2.301 QT
86.138 -5.629 L
86.138 -6.066 86.013 -6.254 QT
85.888 -6.441 85.646 -6.488 QT
85.404 -6.535 84.904 -6.535 QT
84.904 -7.098 L
87.263 -7.269 L
87.263 2.387 L
87.263 2.809 87.396 2.996 QT
87.529 3.184 87.763 3.231 QT
87.998 3.277 88.513 3.277 QT
88.513 3.84 L
86.091 4.027 L
86.091 3.012 L
85.685 3.481 85.115 3.754 QT
84.545 4.027 83.951 4.027 QT
cp
82.326 2.449 M
82.591 2.965 83.052 3.277 QT
83.513 3.59 84.045 3.59 QT
84.716 3.59 85.271 3.207 QT
85.826 2.824 86.091 2.215 QT
86.091 -1.613 L
85.904 -1.973 85.623 -2.246 QT
85.341 -2.519 84.982 -2.668 QT
84.623 -2.816 84.232 -2.816 QT
83.388 -2.816 82.881 -2.348 QT
82.373 -1.879 82.17 -1.144 QT
81.966 -0.41 81.966 0.402 QT
81.966 1.043 82.037 1.52 QT
82.107 1.996 82.326 2.449 QT
cp}def
f-2088769244
f
GR
GS
[1.00063 0 0 1 345.38199 333] CT
N
/f-449206117{94.689 3.84 M
94.689 3.277 L
96.407 3.277 96.407 2.762 QT
96.407 -6.019 L
96.407 -6.535 94.689 -6.535 QT
94.689 -7.098 L
99.626 -7.098 L
99.626 -6.535 L
97.907 -6.535 97.907 -6.019 QT
97.907 2.762 L
97.907 3.277 99.626 3.277 QT
99.626 3.84 L
94.689 3.84 L
cp}def
f-449206117
f
GR
GS
[1.00063 0 0 1 345.38199 333] CT
N
/f-190382094{100.529 3.84 M
100.529 3.277 L
101.076 3.277 101.427 3.192 QT
101.779 3.106 101.779 2.762 QT
101.779 -1.598 L
101.779 -2.035 101.646 -2.223 QT
101.513 -2.41 101.271 -2.457 QT
101.029 -2.504 100.529 -2.504 QT
100.529 -3.066 L
102.841 -3.238 L
102.841 -1.676 L
103.17 -2.363 103.795 -2.801 QT
104.42 -3.238 105.17 -3.238 QT
106.279 -3.238 106.834 -2.707 QT
107.388 -2.176 107.388 -1.082 QT
107.388 2.762 L
107.388 3.106 107.74 3.192 QT
108.091 3.277 108.638 3.277 QT
108.638 3.84 L
104.982 3.84 L
104.982 3.277 L
105.529 3.277 105.881 3.192 QT
106.232 3.106 106.232 2.762 QT
106.232 -1.035 L
106.232 -1.816 106.006 -2.316 QT
105.779 -2.816 105.076 -2.816 QT
104.138 -2.816 103.545 -2.074 QT
102.951 -1.332 102.951 -0.394 QT
102.951 2.762 L
102.951 3.106 103.302 3.192 QT
103.654 3.277 104.185 3.277 QT
104.185 3.84 L
100.529 3.84 L
cp}def
f-190382094
f
GR
GS
[1.00063 0 0 1 345.38199 333] CT
N
/f1682350788{112.84 4.027 M
111.902 4.027 111.121 3.512 QT
110.34 2.996 109.902 2.16 QT
109.465 1.324 109.465 0.387 QT
109.465 -0.582 109.941 -1.418 QT
110.418 -2.254 111.23 -2.746 QT
112.043 -3.238 113.012 -3.238 QT
113.605 -3.238 114.129 -2.988 QT
114.652 -2.738 115.027 -2.301 QT
115.027 -5.629 L
115.027 -6.066 114.902 -6.254 QT
114.777 -6.441 114.535 -6.488 QT
114.293 -6.535 113.793 -6.535 QT
113.793 -7.098 L
116.152 -7.269 L
116.152 2.387 L
116.152 2.809 116.285 2.996 QT
116.418 3.184 116.652 3.231 QT
116.887 3.277 117.402 3.277 QT
117.402 3.84 L
114.98 4.027 L
114.98 3.012 L
114.574 3.481 114.004 3.754 QT
113.434 4.027 112.84 4.027 QT
cp
111.215 2.449 M
111.48 2.965 111.941 3.277 QT
112.402 3.59 112.934 3.59 QT
113.605 3.59 114.16 3.207 QT
114.715 2.824 114.98 2.215 QT
114.98 -1.613 L
114.793 -1.973 114.512 -2.246 QT
114.23 -2.519 113.871 -2.668 QT
113.512 -2.816 113.121 -2.816 QT
112.277 -2.816 111.769 -2.348 QT
111.262 -1.879 111.059 -1.144 QT
110.855 -0.41 110.855 0.402 QT
110.855 1.043 110.926 1.52 QT
110.996 1.996 111.215 2.449 QT
cp}def
f1682350788
f
GR
GS
[1.00063 0 0 1 345.38199 333] CT
N
/f2031368983{121.807 4.027 M
120.838 4.027 120.018 3.512 QT
119.197 2.996 118.737 2.137 QT
118.276 1.277 118.276 0.324 QT
118.276 -0.613 118.697 -1.457 QT
119.119 -2.301 119.885 -2.816 QT
120.651 -3.332 121.588 -3.332 QT
122.322 -3.332 122.862 -3.09 QT
123.401 -2.848 123.752 -2.41 QT
124.104 -1.973 124.283 -1.379 QT
124.463 -0.785 124.463 -0.066 QT
124.463 0.137 124.307 0.137 QT
119.666 0.137 L
119.666 0.309 L
119.666 1.637 120.205 2.59 QT
120.744 3.543 121.947 3.543 QT
122.447 3.543 122.862 3.324 QT
123.276 3.106 123.588 2.715 QT
123.901 2.324 124.01 1.887 QT
124.026 1.824 124.065 1.785 QT
124.104 1.746 124.166 1.746 QT
124.307 1.746 L
124.463 1.746 124.463 1.949 QT
124.244 2.856 123.494 3.442 QT
122.744 4.027 121.807 4.027 QT
cp
119.682 -0.254 M
123.338 -0.254 L
123.338 -0.863 123.166 -1.48 QT
122.994 -2.098 122.604 -2.504 QT
122.213 -2.91 121.588 -2.91 QT
120.682 -2.91 120.182 -2.066 QT
119.682 -1.223 119.682 -0.254 QT
cp}def
f2031368983
f
GR
GS
[1.00063 0 0 1 345.38199 333] CT
N
/f315837575{125.137 3.84 M
125.137 3.277 L
125.746 3.277 126.285 3.035 QT
126.824 2.793 127.199 2.324 QT
128.652 0.481 L
126.762 -1.988 L
126.48 -2.332 126.144 -2.418 QT
125.809 -2.504 125.215 -2.504 QT
125.215 -3.066 L
128.543 -3.066 L
128.543 -2.504 L
128.324 -2.504 128.144 -2.41 QT
127.965 -2.316 127.965 -2.129 QT
127.965 -2.066 128.012 -1.988 QT
129.293 -0.316 L
130.246 -1.551 L
130.449 -1.785 130.449 -2.019 QT
130.449 -2.223 130.316 -2.363 QT
130.184 -2.504 129.98 -2.504 QT
129.98 -3.066 L
132.918 -3.066 L
132.918 -2.504 L
132.309 -2.504 131.762 -2.262 QT
131.215 -2.019 130.84 -1.551 QT
129.574 0.059 L
131.621 2.762 L
131.934 3.121 132.262 3.199 QT
132.59 3.277 133.199 3.277 QT
133.199 3.84 L
129.871 3.84 L
129.871 3.277 L
130.059 3.277 130.238 3.184 QT
130.418 3.09 130.418 2.902 QT
130.418 2.84 130.371 2.762 QT
128.934 0.856 L
127.793 2.324 L
127.605 2.527 127.605 2.793 QT
127.605 2.996 127.738 3.137 QT
127.871 3.277 128.059 3.277 QT
128.059 3.84 L
125.137 3.84 L
cp}def
f315837575
f
GR
GS
[1.00063 0 0 1 0 0] CT
0.486 0.447 0.671 RC
[2 2] 0 setdash
2 LJ
2.5 LW
N
312.177 333 M
342.167 333 L
S
GR
%%Trailer
%%Pages: 1
%%EOF
