,LetterLSVol,LetterVol_Q1,LetterVol_Q2,LetterVol_Q3,LetterVol_Q4,LetterVol_Q5,1/N,SummaryLSVol,SummaryVol_Q1,SummaryVol_Q2,SummaryVol_Q3,SummaryVol_Q4,SummaryVol_Q5,ControlLSVol,ControlVol_Q1,ControlVol_Q2,ControlVol_Q3,ControlVol_Q4,ControlVol_Q5
Return,-1.568585,4.235268,4.655515,4.655419,4.478025,4.247983,4.451271,-1.463899,4.248609,4.833882,4.479000,4.374618,4.358376,-1.826503,4.383155,4.854250,4.498162,4.482705,4.074933
P-value,0.800171,0.299678,0.234816,0.131292,0.057021,0.022901,0.285090,0.820109,0.302614,0.208533,0.138000,0.093184,0.017954,0.764909,0.300763,0.196822,0.140401,0.077336,0.026815
Return difference,-6.126037,0.083507,-0.119964,-0.378999,-0.641049,-0.877834,0.000000,-6.028066,0.091848,0.013234,-0.541766,-0.726342,-0.771521,-6.411826,0.205142,0.047661,-0.525155,-0.620021,-1.041987
P-value difference,0.388068,0.889728,0.922401,0.861468,0.833769,0.736736,1.000000,0.406334,0.886192,0.992576,0.781036,0.871655,0.767943,0.404726,0.726309,0.971381,0.793295,0.932389,0.706742
Volatility,11.361634,14.715746,9.842373,6.581521,4.956825,4.653112,12.614242,11.289878,14.687831,9.429512,6.696408,5.252163,4.640511,11.112736,14.591808,9.592243,6.662166,5.282478,4.733329
Volatility difference,-1.252608,2.101503,-2.771869,-6.032721,-7.657417,-7.961130,0.000000,-1.324364,2.073589,-3.184730,-5.917834,-7.362079,-7.973731,-1.501506,1.977566,-3.021999,-5.952076,-7.331764,-7.880913
P-value difference,0.186729,0.000001,0.000029,0.000000,0.000000,0.000000,1.000000,0.168910,0.000004,0.000000,0.000000,0.000000,0.000000,0.132814,0.000022,0.000003,0.000000,0.000000,0.000000
Sharpe ratio,-0.124241,0.324175,0.462466,0.649523,0.803955,0.804834,0.371247,-0.116319,0.325328,0.496667,0.613645,0.744650,0.829745,-0.153129,0.335076,0.491737,0.619675,0.760509,0.759701
Sharpe ratio difference,-0.495487,-0.047072,0.091219,0.278276,0.432708,0.433587,0.000000,-0.487566,-0.045919,0.125420,0.242398,0.373403,0.458498,-0.524376,-0.036171,0.120490,0.248428,0.389262,0.388454
P-value difference,0.304765,0.048807,0.027207,0.071322,0.116844,0.101214,1.000000,0.312996,0.036567,0.027759,0.063769,0.129311,0.102407,0.332460,0.029365,0.028282,0.070461,0.133725,0.098250
Management fee,-1.516187,2.745667,2.128665,1.830972,1.616808,1.229480,2.272739,-1.521992,2.752114,2.120562,1.834828,1.613950,1.230122,-1.575856,2.763921,2.142228,1.845774,1.611588,1.188065
Turnover,567.466488,250.886083,414.475721,450.608927,436.702077,284.843867,18.743145,569.093041,251.264075,419.129379,453.447276,435.976147,286.190385,558.359521,251.456278,400.718947,434.822022,424.707263,275.127294
