Dear Shareholder:



Returns (Retail Class) as of













Since







Year*


Year*


Year*


Year*


Inception*





Hodges Fund





















S&amp;P































Hodges Small Cap Fund












n/a








Russell












n/a


















Hodges Small Intrinsic Value Fund






n/a


n/a


n/a








Russell Value






n/a


n/a


n/a


















Hodges Small-Mid Fund






n/a


n/a


n/a








Russell






n/a


n/a


n/a


















Hodges Pure Contrarian Fund












n/a








S&amp;P












n/a


















Hodges Blue Chip Equity Income Fund












n/a








Russell












n/a
















*



Average Annualized
























HDPMX^


HDPSX^


HDSVX^


HDSMX^


HDPCX^


HDPBX#







Gross Expense Ratio

























Net Expense Ratio


N/A


N/A



































^



Ratios are from the Prospectus dated July







#



Ratios are from the Prospectus dated March







**



The Advisor has contractually agreed to reduce its fees and/or pay Fund expenses until at least July This figure includes Acquired Fund Fees and Expenses, and excludes interest, taxes and extraordinary expenses.
